{"data":[{"url":"https:\/\/www.okx.com\/pool","hashrate":0,"miners":-1,"minpay":-1,"id":23,"pool_id":"okx.com","i":1709,"workers":0,"lastblock":630904,"feetype":"PPLNS","fee":2,"country":"HK|Hong Kong","hashrate_average_100_count":78,"hashrate_average_100":0,"hashrate_average_1h":0,"history_start":1672105423,"history_interval":3600,"history_addlast":true,"history":[0,0,0,0,0,0,0,0,0,0,0,0,0,0,0,0,0,0,0,0,0,0,0,0,0,0,0,0,0,0,0,0,0,0,0,0,0,0,0,0,0,0,0,0,0,0,0,0,0,0,0,0,0,0,0,0,0,0,0,0,0,0,0,0,0,0,0,0,0,0,0,0,0,0,0,0,0,0,0,0,0,0,0,0,0,0,0,0,0,0,0,0,0,0,0,0,0,0,0,0,0,0,0,0,0,0,0,0,0,0,0,0,0,0,0,0,0,0,0,0,0,0,0,0,0,0,0,0,0,0,0,0,0,0,0,0,0,0,0,0,0,0,0,0,0,0,0,0,0,0,0,0,0,0,0,0,0,0,0,0,0,0,0,0,0,0,0,0],"hashrate_average_7d":0,"hashrate_average_7d_count":168,"expected_blocks":0,"multipool":5},{"url":"https:\/\/www2.coinmine.pl\/dcr","hashrate":247909881196052,"miners":-1,"minpay":0.05,"id":5,"pool_id":"coinmine.pl","i":12621,"workers":26,"blocks_nr":5,"lastblock":725853,"lastblocktime":"1672706703","fee":1,"feetype":"PPLNS","height":725870,"country":"WL|EU , US , Asia","blocks_1000":5,"blocks_count":1,"hashrate_average_100_count":78,"hashrate_average_100":269004307388455.94,"hashrate_average_1h":307985779051724.6,"history_start":1672105423,"history_interval":3600,"history_addlast":true,"history":[240744622200000,-25868575700000,30477371000000,274827000000,-54426414400000,17014743000000,11472000500000,-40299771900000,31684073500000,-25550760200000,8975242900000,-1093087900000,4842064900000,33280071400000,-4320678100000,1236927500000,20478091600000,-8100916000000,-1519831900000,632712600000,-6608857900000,16103049300000,-3542973100000,-67780442100000,-13406950500000,45532630900000,31474569400000,-7591836400000,-11796020000000,21700064300000,-9907344100000,-36445320600000,-37552337600000,21473638300000,26918383700000,29243611700000,109323407700000,-2957596100000,-78067868700000,-7207563100000,40876418000000,25689501700000,18300591600000,-100272162700000,50909812100000,8420727200000,-47301213000000,-30030539700000,5208688400000,76722742100000,2477927300000,-87318881000000,76689365400000,-19687376300000,-29734010300000,-41148654600000,26433649400000,88793132200000,-41021298600000,-32756436000000,22315239800000,55857870200000,-55261751400000,-25160304700000,36058400500000,-72023055800000,71412860200000,-8865887900000,73329573300000,-47786407400000,-52752545000000,54614812800000,7805537000000,-39251991300000,10781201600000,-18195334800000,30210307700000,34494989300000,62087507900000,-127215807100000,-45005939400000,51441477300000,90046795000000,-118123706700000,106015395100000,-127392760700000,136294542200000,-90337840400000,-20511806000000,13463169100000,-71612932800000,-5856541100000,99006717400000,34379188900000,28676629500000,-89632459600000,-43127094800000,104429320100000,5781341900000,-18703541900000,-39010813400000,-14094922800000,20253404200000,-100811118900000,120669182400000,-59405903900000,45219681100000,28266536900000,4699789400000,-68872839700000,-23831718100000,40597098700000,-28566869900000,-9986569700000,51710055900000,17923518400000,-14400233100000,-67643437500000,12047649900000,28286308800000,30930492300000,-41185483700000,69543369200000,-25140268800000,21224147100000,16390379600000,-54859379600000,-8252342000000,74316034200000,-46141072500000,7153148200000,-27748516300000,-9739283300000,29132826200000,-82412075200000,4787247900000,29457880000000,52785774100000,-61267950200000,3983143100000,-1414609300000,43573606200000,454426200000,-91600954600000,47485130500000,47917926300000,-33576334100000,10014683800000,-12566685200000,-34456311800000,-37005540300000,20643413200000,60440051800000,768605100000,-5875633000000,4278074400000,-31398611400000,78744355100000,-62814328200000,14305090500000,28480165900000,-43390805200000,36409867000000,30540757500000,-51587300000,12256058500000,-44362423500000,42406413700000],"hashrate_average_7d":256104537761904.84,"hashrate_average_7d_count":168,"expected_blocks":0.4,"luck":0.6030000395180135,"multipool":5},{"url":"https:\/\/lab.antpool.com","hashrate":1670000000000000,"miners":-1,"minpay":0.1,"id":11,"pool_id":"antpool.com","i":2185,"nethash":68430000000000010,"netdiff":5101416977,"feetype":"PPS","fee":3,"income":3.6464822e-15,"lastblock":724226,"lastblocktime":"1672218694","country":"WL|Global","hashrate_average_100_count":78,"hashrate_average_100":1771597556089743.5,"hashrate_average_1h":1756250000000000,"history_start":1672105423,"history_interval":3600,"history_addlast":true,"history":[11201500000000000,-14000000000000,-60500000000000,114000000000000,31500000000000,-33552630000000,-44947370000000,44500000000000,-175500000000000,-62000000000000,-15500000000000,-86500000000000,226500000000000,-160000000000000,60000000000000,8000000000000,-24000000000000,66500000000000,-55000000000000,18500000000000,46000000000000,-50000000000000,48000000000000,-500000000000,-25000000000000,-53000000000000,-243000000000000,375000000000000,139500000000000,-11500000000000,-32000000000000,21500000000000,-81500000000000,-102000000000000,92000000000000,-159500000000000,92000000000000,40500000000000,500000000000,-201500000000000,11000000000000,20000000000000,114500000000000,-135000000000000,112000000000000,-92000000000000,115000000000000,261500000000000,-116500000000000,84000000000000,-113500000000000,11000000000000,21500000000000,-56394740000000,-51605260000000,45500000000000,47000000000000,-106500000000000,59500000000000,-110500000000000,-77500000000000,119000000000000,73000000000000,-100000000000000,21000000000000,222000000000000,-173000000000000,23000000000000,38000000000000,-92000000000000,-66000000000000,53500000000000,-87500000000000,122500000000000,-4639500000000000,-4526000000000000,45000000000000,-24684211000000,64184211000000,-89500000000000,-26500000000000,81500000000000,-23500000000000,16000000000000,-35500000000000,-2500000000000,25500000000000,-110000000000000,41000000000000,-5500000000000,-7500000000000,15000000000000,-6500000000000,24000000000000,16500000000000,35000000000000,64500000000000,-31000000000000,-64000000000000,-21500000000000,32500000000000,36000000000000,-23000000000000,-18500000000000,-54000000000000,198000000000000,375000000000000,-479500000000000,-128500000000000,-9500000000000,10500000000000,-97000000000000,47000000000000,40000000000000,-3000000000000,-15500000000000,30500000000000,11500000000000,99500000000000,-14000000000000,25000000000000,-27500000000000,11500000000000,-54000000000000,-21500000000000,3500000000000,-22500000000000,-83000000000000,30500000000000,55500000000000,-44500000000000,-19500000000000,-13500000000000,-49000000000000,68000000000000,-108000000000000,56000000000000,7500000000000,14500000000000,-46000000000000,46000000000000,-11500000000000,-44000000000000,65500000000000,34500000000000,15000000000000,-1000000000000,7500000000000,-26500000000000,-4500000000000,9500000000000,-25500000000000,10500000000000,26000000000000,7500000000000,-21500000000000,-15500000000000,-51000000000000,59500000000000,-80000000000000,51500000000000,21000000000000,-14500000000000,-83500000000000,16000000000000,-21000000000000,25000000000000,-5750000000000],"hashrate_average_7d":5983688204874999,"hashrate_average_7d_count":168,"expected_blocks":2.61,"multipool":17},{"url":"https:\/\/pool.btc.com","hashrate":3509000000000000,"miners":-1,"minpay":0.1,"id":4,"pool_id":"pool.btc.com","feetype":"PPS","i":14683,"workers":86,"income":3.8022216673609e-15,"i_blocks":14725,"json_blocks":{"err_no":0,"data":{"blocks":{"current_page":1,"data":[{"height":719623,"is_orphaned":0,"hash":"00000000000000007fd3b458ae2c5cfc371ff62e349e132b0f07803dd3fab4f9","rewards":"0.97385825","size":4640,"prev_hash":"000000000000000082df9febe46b4d8e66d2f7b871a6914b45f391346c5d7bff","bits":419479943,"version":9,"created_at":1670823994,"region_id":34,"region_name":"America"},{"height":719621,"is_orphaned":0,"hash":"000000000000000007a4cd1f5233b2955f372235388c901810d3f449e3b7909f","rewards":"0.97385825","size":2158,"prev_hash":"00000000000000004c28ed39afd6e4007a2398343c6c3c013f1954bc222400f2","bits":419479943,"version":9,"created_at":1670823337,"region_id":36,"region_name":"BitDeer"},{"height":719607,"is_orphaned":0,"hash":"00000000000000002565bcb135c25c236dcf254eef04dab72a41c254a551e7df","rewards":"0.97385825","size":21883,"prev_hash":"00000000000000001289b8ecf5abff4d5052c9ac2d02b44144b10900e521114d","bits":419479943,"version":9,"created_at":1670819532,"region_id":36,"region_name":"BitDeer"},{"height":719606,"is_orphaned":0,"hash":"00000000000000001289b8ecf5abff4d5052c9ac2d02b44144b10900e521114d","rewards":"0.97385825","size":6719,"prev_hash":"000000000000000062685b25dd5754441b0ba60802e281af5b2291254aff2268","bits":419479943,"version":9,"created_at":1670819131,"region_id":34,"region_name":"America"},{"height":719595,"is_orphaned":0,"hash":"00000000000000005ee466d61279b95cdc8b87bd204194fc3f247dd3d0631b87","rewards":"0.97385825","size":29683,"prev_hash":"00000000000000000d94430259f8b7142020636d1acc90d36103fd3ca432b815","bits":419479943,"version":9,"created_at":1670814468,"region_id":36,"region_name":"BitDeer"},{"height":719593,"is_orphaned":0,"hash":"0000000000000000af8a682caa01e997dd6bc51e1acdc978555fddbdf574d954","rewards":"0.97385825","size":39296,"prev_hash":"000000000000000068ee61fd358cf1c30e03004c47e7d71b49fe96d75bfc9a1d","bits":419479943,"version":9,"created_at":1670813944,"region_id":34,"region_name":"America"},{"height":719562,"is_orphaned":0,"hash":"00000000000000004d846bfb8a03cbb4e358c6c6fb560b8c62103ad950a78385","rewards":"0.97385825","size":36506,"prev_hash":"000000000000000049ca075c4565265a2e01076ded37304ef3eec84e3d915cdf","bits":419480081,"version":9,"created_at":1670806809,"region_id":36,"region_name":"BitDeer"},{"height":719552,"is_orphaned":0,"hash":"000000000000000074239eccccd432a24906807149bcac49b57e3397ae1f8d0b","rewards":"0.97385825","size":82425,"prev_hash":"00000000000000003e087a9a1bcddc2be634087767d5aeaf380a824ff762ce50","bits":419480081,"version":9,"created_at":1670802767,"region_id":36,"region_name":"BitDeer"},{"height":719547,"is_orphaned":0,"hash":"000000000000000000749338689d9149ce67e50065639fe6acc5d5dec0b37553","rewards":"0.97385825","size":18550,"prev_hash":"0000000000000000b817b1c810e396d6c236e2c1a6bc27459e947c3fc5a1a597","bits":419480081,"version":9,"created_at":1670800767,"region_id":36,"region_name":"BitDeer"},{"height":719503,"is_orphaned":0,"hash":"000000000000000054d50fc3159d7e7374bd9cc632b1d660e2844cc18fb02a49","rewards":"0.97385825","size":34781,"prev_hash":"00000000000000001090d6bcdc5785389e3df0e403f799864f4cd4e00cfb8f24","bits":419480081,"version":9,"created_at":1670786243,"region_id":34,"region_name":"America"}],"first_page_url":"https:\/\/eu-api.connectbtc.com\/\/public\/v1\/pool\/blocks\/merge?order_by=desc&page_size=10&page=1","from":1,"last_page":2281,"last_page_url":"https:\/\/eu-api.connectbtc.com\/\/public\/v1\/pool\/blocks\/merge?order_by=desc&page_size=10&page=2281","next_page_url":"https:\/\/eu-api.connectbtc.com\/\/public\/v1\/pool\/blocks\/merge?order_by=desc&page_size=10&page=2","path":"https:\/\/eu-api.connectbtc.com\/\/public\/v1\/pool\/blocks\/merge","per_page":10,"prev_page_url":null,"to":10,"total":22808},"blocks_count":22808,"rewards_count":"191174.31377628"},"trace_id":"059f825b-37d9-4970-a6e7-ded9d1631575"},"blocks_nr":10,"lastblock":719623,"lastblocktime":"1670823992","country":"WL|CN , EU , US","hashrate_average_100_count":78,"hashrate_average_100":3525365685096154,"hashrate_average_1h":3497500000000000,"history_start":1672105423,"history_interval":3600,"history_addlast":true,"history":[3628400000000000,-5500000000000,-24200000000000,-19850000000000,37700000000000,8600000000000,31650000000000,58150000000000,-37650000000000,-31450000000000,19950000000000,19800000000000,40250000000000,600000000000,17600000000000,9300000000000,-39300000000000,-14800000000000,-31800000000000,27000000000000,20700000000000,-59600000000000,-15200000000000,-2800000000000,11000000000000,-40150000000000,58700000000000,-27600000000000,-28050000000000,51950000000000,21450000000000,14700000000000,17650000000000,-31750000000000,2250000000000,-21850000000000,-57100000000000,34250000000000,31050000000000,-8050000000000,-5450000000000,-143100000000000,-805150000000000,-137950000000000,14450000000000,-36700000000000,-32400000000000,12450000000000,-12900000000000,-33400000000000,-15600000000000,-27350000000000,33050000000000,32997368000000,35352632000000,-4450000000000,-29050000000000,43200000000000,-6250000000000,28750000000000,3150000000000,-24700000000000,9150000000000,8650000000000,-16800000000000,332600000000000,794300000000000,-47500000000000,14650000000000,-51700000000000,105750000000000,-16550000000000,21200000000000,-46250000000000,-24050000000000,-37500000000000,2300000000000,-57050000000000,-23200000000000,9800000000000,50550000000000,-13750000000000,18650000000000,32650000000000,38200000000000,-21450000000000,40050000000000,-4800000000000,-13050000000000,51300000000000,-30050000000000,-1600000000000,5950000000000,-58500000000000,18300000000000,11650000000000,20700000000000,-40400000000000,-2100000000000,-10750000000000,-22050000000000,-5300000000000,-44250000000000,5450000000000,-46250000000000,19800000000000,-6750000000000,54800000000000,51500000000000,-30700000000000,-19550000000000,-76400000000000,-16600000000000,-38100000000000,-9800000000000,-700000000000,-16800000000000,-47300000000000,14700000000000,67600000000000,-8450000000000,-19100000000000,53350000000000,-28900000000000,-57600000000000,-17800000000000,80900000000000,17200000000000,-6000000000000,-17100000000000,10000000000000,-450000000000,-24750000000000,56350000000000,30950000000000,-11150000000000,-46400000000000,7200000000000,-11850000000000,-43250000000000,-23650000000000,39450000000000,850000000000,-9500000000000,-58300000000000,51000000000000,35800000000000,-12950000000000,-6600000000000,15044737000000,47055263000000,44400000000000,-22550000000000,-51950000000000,27750000000000,18800000000000,12800000000000,-16050000000000,-1050000000000,43750000000000,7200000000000,2350000000000,-25000000000000,-28600000000000,35200000000000,-39100000000000,-41000000000000,31600000000000],"hashrate_average_7d":3428338345863097,"hashrate_average_7d_count":168,"expected_blocks":5.2,"multipool":7},{"url":"https:\/\/www.poolin.com","hashrate":40754000000000000,"miners":-1,"minpay":0.01,"id":3,"pool_id":"poolin.com","fee":3,"feetype":"PPS","i":13744,"json":{"err_no":0,"data":{"shares":{"shares_1m":40.346,"shares_5m":40.754,"shares_15m":40.225,"shares_1h":38.904,"shares_unit":"P"},"reject":{"1m":0,"5m":0,"15m":0.0009,"1h":0.0031},"workers":1676,"users":370,"total_blocks":151624,"total_rewards":105324416093394}},"workers":1676,"netdiff":5101416977.677571,"nethash":"73034730264913947","income":4.284429999999999e-15,"blocks_nr":23,"lastblock":725867,"lastblocktime":1672710419,"country":"US|United States","blocks_1000":543,"blocks_count":56,"hashrate_average_100_count":78,"hashrate_average_100":38240277944711540,"hashrate_average_1h":39595125000000000,"history_start":1672105423,"history_interval":3600,"history_addlast":true,"history":[31818250000000000,-117300000000000,254950000000000,325950000000000,-270950000000000,-807163160000000,343813160000000,1020450000000000,143500000000000,122100000000000,187400000000000,180400000000000,-4500000000000,97450000000000,-42250000000000,113400000000000,-114450000000000,-159800000000000,160450000000000,-212350000000000,372300000000000,-545600000000000,-570300000000000,31150000000000,346250000000000,12300000000000,453400000000000,1444500000000000,-261300000000000,58500000000000,74450000000000,-47150000000000,-215050000000000,433600000000000,703400000000000,-214700000000000,144850000000000,131300000000000,59400000000000,28450000000000,-7050000000000,-36200000000000,84900000000000,20900000000000,-236450000000000,155200000000000,924100000000000,-57750000000000,213600000000000,-1231800000000000,-657350000000000,-350900000000000,952550000000000,1096150000000000,88750000000000,-305100000000000,485000000000000,475150000000000,-77000000000000,241700000000000,-376150000000000,47900000000000,79800000000000,247700000000000,-127550000000000,-70350000000000,169600000000000,130450000000000,-79250000000000,-841300000000000,-232800000000000,168050000000000,20350000000000,-64050000000000,-1250000000000,2300000000000,-595550000000000,57950000000000,735300000000000,88750000000000,54250000000000,-284750000000000,580500000000000,-101300000000000,501400000000000,-16500000000000,-172900000000000,-261100000000000,208550000000000,-117900000000000,263550000000000,-68250000000000,210500000000000,-514500000000000,-846000000000000,-4607000000000000,1809300000000000,2977300000000000,-341700000000000,81950000000000,776250000000000,-93576320000000,834926320000000,1921300000000000,233950000000000,722000000000000,905800000000000,114550000000000,574150000000000,-145850000000000,33250000000000,253500000000000,-64000000000000,-71400000000000,-272050000000000,154300000000000,-1200000000000,-685800000000000,-16900000000000,-525050000000000,-1181800000000000,1753100000000000,84650000000000,-184200000000000,-409950000000000,-714300000000000,539350000000000,191700000000000,-162200000000000,699950000000000,383450000000000,-25400000000000,136800000000000,-219300000000000,85850000000000,-50100000000000,45050000000000,-169250000000000,-833700000000000,-56550000000000,-472000000000000,-622100000000000,2300000000000,-67200000000000,-38550000000000,-910850000000000,-199050000000000,1077550000000000,2651750000000000,-144318420000000,-1032931580000000,-3104050000000000,701050000000000,-1492550000000000,-425200000000000,651900000000000,-180750000000000,268800000000000,494300000000000,793700000000000,24900000000000,-110550000000000,-111700000000000,-91700000000000,-26500000000000,-423000000000000,-114750000000000,1962525000000000],"hashrate_average_7d":37077441470833310,"hashrate_average_7d_count":168,"hashrate_block":682862106155563.1,"expected_blocks":56.44,"luck":-0.43548603460821766,"multipool":15},{"url":"https:\/\/www.f2pool.com","hashrate":24629575551153196,"miners":-1,"minpay":0.1,"id":14,"pool_id":"f2pool.com","fee":3,"feetype":"PPS%3","i":2554,"income":3.7033291158859385e-15,"blocks_nr":9,"lastblock":725870,"lastblocktime":1672711123,"country":"WL|Global","blocks_1000":372,"blocks_count":37,"hashrate_average_100_count":78,"hashrate_average_100":24775850713723280,"hashrate_average_1h":24638371528807476,"history_start":1672105423,"history_interval":3600,"history_addlast":true,"history":[35339652240000000,446556740000000,-1122223130000000,-13128050590000000,-234386560000000,174510560000000,-29972710000000,2083195120000000,4189281430000000,96809840000000,-125496480000000,78414310000000,-94373540000000,257943710000000,-65106240000000,99723020000000,-183407930000000,150854790000000,150296500000000,-14089810000000,-35538610000000,195928880000000,81186940000000,-206785140000000,132734820000000,-14838210000000,-64468560000000,-26331220000000,-18934680000000,-2515950000000,102441320000000,-91744730000000,-79335510000000,-77759980000000,60793820000000,-109535300000000,232423110000000,-129891400000000,-98161220000000,24690370000000,21696800000000,74349860000000,-45888450000000,-35202930000000,36906670000000,-162216820000000,274266380000000,-59019780000000,-32379850000000,145678730000000,-66757500000000,75822580000000,446742960000000,146513680000000,-75883980000000,29074700000000,19804650000000,-27622500000000,-118329490000000,108959720000000,-41097300000000,-32249480000000,-24294760000000,7097320000000,-89864580000000,98668420000000,-37096890000000,181629250000000,-61973580000000,64099200000000,103518280000000,-203075710000000,-203987710000000,332821440000000,3629480000000,39452460000000,-127444050000000,-71291550000000,194502200000000,57375790000000,60714030000000,-391642730000000,49408990000000,-215966600000000,-42374380000000,24242150000000,-174773200000000,146637490000000,127458040000000,-106767670000000,-115797700000000,223803770000000,15730020000000,13223690000000,60827190000000,-80113660000000,38605900000000,-69584860000000,62569780000000,-26102000000000,-29170520000000,-31059700000000,16467990000000,-196931380000000,-203880350000000,41044110000000,-210120300000000,10603300000000,-182842160000000,-81452300000000,-36675270000000,-18714200000000,268261260000000,-59608820000000,41725330000000,-8990290000000,77771100000000,123477160000000,92828580000000,-97263470000000,-127271330000000,-113268810000000,221322930000000,509621410000000,-234919090000000,58547020000000,-227271590000000,103122610000000,-284446950000000,241483130000000,-6981300000000,-40363300000000,68202260000000,-21671400000000,-131289580000000,-64634480000000,92478430000000,62957200000000,-47791560000000,-254642830000000,-143999160000000,210004280000000,30124440000000,-44712080000000,-31765890000000,441860700000000,32348810000000,-40148130000000,-2497929270000000,-400232630000000,-95698670000000,-887250000000,-48244750000000,1977833110000000,-2256232050000000,-119599630000000,102231200000000,3232440000000,-101453580000000,55796260000000,-102633070000000,-153442450000000,192785650000000,40520470000000,99530470000000,-294092270000000,1741870000000,-28742060000000],"hashrate_average_7d":27779525256964276,"hashrate_average_7d_count":168,"hashrate_block":669617586857386,"expected_blocks":36.56,"luck":0.43548603460821766,"multipool":33}],"hashblock":{"hashrate_average_100":63016128658434820,"blocks_count":93,"pools":[[682862106155563.1,56,12193966181349.342,"https:\/\/www.poolin.com"],[669617586857386,37,18097772617767.188,"https:\/\/www.f2pool.com"]],"hashrate_block_all":677592781273492.6,"hashrate_block_min":12193966181349.342,"hashrate_block_max":18097772617767.188,"pool_hashblock_average":15145869399558.266,"hashrate_block":677592781273492.6},"time":1672711483,"hashrate":68430000000000010,"difficulty":5101416977.677571,"height":725870,"symbol":"DCR","maxhash":40754000000000000,"poolshash":70810485432349250,"nethash_estimat":67759278127349260,"poolsminers":1788,"supply":{"circulating":14629303.18589843,"total":21000000,"emission24":2369},"block_time_target":300,"block_height_ok":true,"algo":"Blake256R14","hashrate_from_diff":false,"hashrate_src":"https:\/\/lab.antpool.com","unit":"H\/s","block_time_average":315,"minerstat":[1.6140922210125e-16,19.000707961885,0.98237325,3077],"link":{"coingecko":"decred","cmc":"decred","whattomine":"152-dcr-blake (14r)","coin360":"decred-dcr","coinpaprika":"dcr-decred"},"latest_release":{"tag":"release-v1.7.5","name":"dcrd v1.7.5","t":1665429869},"price":18.96}