{"data":[{"url":"https:\/\/www.okx.com\/pool","hashrate":0,"miners":-1,"minpay":-1,"id":23,"pool_id":"okx.com","i":1709,"workers":0,"lastblock":630904,"feetype":"PPLNS","fee":2,"country":"HK|Hong Kong","hashrate_average_100_count":76,"hashrate_average_100":0,"hashrate_average_1h":0,"history_start":1672278223,"history_interval":3600,"history_addlast":true,"history":[0,0,0,0,0,0,0,0,0,0,0,0,0,0,0,0,0,0,0,0,0,0,0,0,0,0,0,0,0,0,0,0,0,0,0,0,0,0,0,0,0,0,0,0,0,0,0,0,0,0,0,0,0,0,0,0,0,0,0,0,0,0,0,0,0,0,0,0,0,0,0,0,0,0,0,0,0,0,0,0,0,0,0,0,0,0,0,0,0,0,0,0,0,0,0,0,0,0,0,0,0,0,0,0,0,0,0,0,0,0,0,0,0,0,0,0,0,0,0,0,0,0,0,0,0,0,0,0,0,0,0,0,0,0,0,0,0,0,0,0,0,0,0,0,0,0,0,0,0,0,0,0,0,0,0,0,0,0,0,0,0,0,0,0,0,0,0,0],"hashrate_average_7d":0,"hashrate_average_7d_count":168,"expected_blocks":0,"multipool":5},{"url":"https:\/\/www2.coinmine.pl\/dcr","hashrate":301225992485301,"miners":-1,"minpay":0.05,"id":5,"pool_id":"coinmine.pl","i":12630,"workers":29,"blocks_nr":5,"lastblock":726090,"lastblocktime":"1672773451","fee":1,"feetype":"PPLNS","height":726468,"country":"WL|EU , US , Asia","blocks_1000":2,"hashrate_average_100_count":76,"hashrate_average_100":298698396175593.1,"hashrate_average_1h":274559686922200.5,"history_start":1672278223,"history_interval":3600,"history_addlast":true,"history":[230638780700000,76722742100000,2477927300000,-87318881000000,76689365400000,-19687376300000,-29734010300000,-41148654600000,26433649400000,88793132200000,-41021298600000,-32756436000000,22315239800000,55857870200000,-55261751400000,-25160304700000,36058400500000,-72023055800000,71412860200000,-8865887900000,73329573300000,-47786407400000,-52752545000000,54614812800000,7805537000000,-39251991300000,10781201600000,-18195334800000,30210307700000,34494989300000,62087507900000,-127215807100000,-45005939400000,51441477300000,90046795000000,-118123706700000,106015395100000,-127392760700000,136294542200000,-90337840400000,-20511806000000,13463169100000,-71612932800000,-5856541100000,99006717400000,34379188900000,28676629500000,-89632459600000,-43127094800000,104429320100000,5781341900000,-18703541900000,-39010813400000,-14094922800000,20253404200000,-100811118900000,120669182400000,-59405903900000,45219681100000,28266536900000,4699789400000,-68872839700000,-23831718100000,40597098700000,-28566869900000,-9986569700000,51710055900000,17923518400000,-14400233100000,-67643437500000,12047649900000,28286308800000,30930492300000,-41185483700000,69543369200000,-25140268800000,21224147100000,16390379600000,-54859379600000,-8252342000000,74316034200000,-46141072500000,7153148200000,-27748516300000,-9739283300000,29132826200000,-82412075200000,4787247900000,29457880000000,52785774100000,-61267950200000,3983143100000,-1414609300000,43573606200000,454426200000,-91600954600000,47485130500000,47917926300000,-33576334100000,10014683800000,-12566685200000,-34456311800000,-37005540300000,20643413200000,60440051800000,768605100000,-5875633000000,4278074400000,-31398611400000,78744355100000,-62814328200000,14305090500000,28480165900000,-43390805200000,36409867000000,30540757500000,-51587300000,12256058500000,-44362423500000,6915570300000,15032574000000,8357081900000,-6900537800000,-21892674100000,1808518400000,-51052618600000,6385689600000,16163773400000,73149072800000,-28541372600000,-64868371300000,20337563800000,-5482009700000,24967912000000,-10849894200000,-69536305800000,28548145800000,-13911223300000,-2013023100000,-7798753600000,-14396153800000,-21132065200000,-14157449700000,32117331100000,8682039800000,-46524135900000,15483178800000,7506090800000,16439373300000,-41947206900000,30292266200000,14031903500000,-35263744000000,-26003039800000,134129672100000,-38698374400000,79495270700000,-28442744900000,87944665700000,-180247894400000,29827368000000,104877656100000,49416641000000,-29942533700000,-34657102900000,19569271800000,7532110600000,-35771190300000],"hashrate_average_7d":252517962784523.72,"hashrate_average_7d_count":168,"expected_blocks":0.38,"multipool":5},{"url":"https:\/\/lab.antpool.com","hashrate":1890000000000000,"miners":-1,"minpay":0.1,"id":11,"pool_id":"antpool.com","i":2185,"nethash":80830000000000000,"netdiff":5305562122,"feetype":"PPS","fee":3,"income":3.5061716999999996e-15,"lastblock":724226,"lastblocktime":"1672218694","country":"WL|Global","hashrate_average_100_count":76,"hashrate_average_100":1861885279605263.2,"hashrate_average_1h":1951000000000000,"history_start":1672278223,"history_interval":3600,"history_addlast":true,"history":[11225500000000000,84000000000000,-113500000000000,11000000000000,21500000000000,-56394740000000,-51605260000000,45500000000000,47000000000000,-106500000000000,59500000000000,-110500000000000,-77500000000000,119000000000000,73000000000000,-100000000000000,21000000000000,222000000000000,-173000000000000,23000000000000,38000000000000,-92000000000000,-66000000000000,53500000000000,-87500000000000,122500000000000,-4639500000000000,-4526000000000000,45000000000000,-24684211000000,64184211000000,-89500000000000,-26500000000000,81500000000000,-23500000000000,16000000000000,-35500000000000,-2500000000000,25500000000000,-110000000000000,41000000000000,-5500000000000,-7500000000000,15000000000000,-6500000000000,24000000000000,16500000000000,35000000000000,64500000000000,-31000000000000,-64000000000000,-21500000000000,32500000000000,36000000000000,-23000000000000,-18500000000000,-54000000000000,198000000000000,375000000000000,-479500000000000,-128500000000000,-9500000000000,10500000000000,-97000000000000,47000000000000,40000000000000,-3000000000000,-15500000000000,30500000000000,11500000000000,99500000000000,-14000000000000,25000000000000,-27500000000000,11500000000000,-54000000000000,-21500000000000,3500000000000,-22500000000000,-83000000000000,30500000000000,55500000000000,-44500000000000,-19500000000000,-13500000000000,-49000000000000,68000000000000,-108000000000000,56000000000000,7500000000000,14500000000000,-46000000000000,46000000000000,-11500000000000,-44000000000000,65500000000000,34500000000000,15000000000000,-1000000000000,7500000000000,-26500000000000,-4500000000000,9500000000000,-25500000000000,10500000000000,26000000000000,7500000000000,-21500000000000,-15500000000000,-51000000000000,59500000000000,-80000000000000,51500000000000,21000000000000,-14500000000000,-83500000000000,16000000000000,-21000000000000,25000000000000,-4000000000000,-6500000000000,44500000000000,-61500000000000,31000000000000,40000000000000,53500000000000,14500000000000,1500000000000,-29500000000000,13000000000000,54500000000000,-56000000000000,-7000000000000,36000000000000,-14000000000000,-80000000000000,74500000000000,-22000000000000,-18000000000000,-24000000000000,25000000000000,16500000000000,-7000000000000,5000000000000,4500000000000,16000000000000,14000000000000,-112000000000000,0,25000000000000,-500000000000,16000000000000,27000000000000,35000000000000,-10000000000000,33000000000000,-28000000000000,9000000000000,2000000000000,-45000000000000,57000000000000,-70500000000000,54000000000000,-10500000000000,-3500000000000,-3500000000000,31500000000000,68500000000000],"hashrate_average_7d":3341121553863093.5,"hashrate_average_7d_count":168,"expected_blocks":2.37,"multipool":17},{"url":"https:\/\/pool.btc.com","hashrate":3534000000000000,"miners":-1,"minpay":0.1,"id":4,"pool_id":"pool.btc.com","feetype":"PPS","i":14692,"workers":86,"income":3.6559214118139e-15,"i_blocks":14734,"json_blocks":{"err_no":0,"data":{"blocks":{"current_page":1,"data":[{"height":719623,"is_orphaned":0,"hash":"00000000000000007fd3b458ae2c5cfc371ff62e349e132b0f07803dd3fab4f9","rewards":"0.97385825","size":4640,"prev_hash":"000000000000000082df9febe46b4d8e66d2f7b871a6914b45f391346c5d7bff","bits":419479943,"version":9,"created_at":1670823994,"region_id":34,"region_name":"America"},{"height":719621,"is_orphaned":0,"hash":"000000000000000007a4cd1f5233b2955f372235388c901810d3f449e3b7909f","rewards":"0.97385825","size":2158,"prev_hash":"00000000000000004c28ed39afd6e4007a2398343c6c3c013f1954bc222400f2","bits":419479943,"version":9,"created_at":1670823337,"region_id":36,"region_name":"BitDeer"},{"height":719607,"is_orphaned":0,"hash":"00000000000000002565bcb135c25c236dcf254eef04dab72a41c254a551e7df","rewards":"0.97385825","size":21883,"prev_hash":"00000000000000001289b8ecf5abff4d5052c9ac2d02b44144b10900e521114d","bits":419479943,"version":9,"created_at":1670819532,"region_id":36,"region_name":"BitDeer"},{"height":719606,"is_orphaned":0,"hash":"00000000000000001289b8ecf5abff4d5052c9ac2d02b44144b10900e521114d","rewards":"0.97385825","size":6719,"prev_hash":"000000000000000062685b25dd5754441b0ba60802e281af5b2291254aff2268","bits":419479943,"version":9,"created_at":1670819131,"region_id":34,"region_name":"America"},{"height":719595,"is_orphaned":0,"hash":"00000000000000005ee466d61279b95cdc8b87bd204194fc3f247dd3d0631b87","rewards":"0.97385825","size":29683,"prev_hash":"00000000000000000d94430259f8b7142020636d1acc90d36103fd3ca432b815","bits":419479943,"version":9,"created_at":1670814468,"region_id":36,"region_name":"BitDeer"},{"height":719593,"is_orphaned":0,"hash":"0000000000000000af8a682caa01e997dd6bc51e1acdc978555fddbdf574d954","rewards":"0.97385825","size":39296,"prev_hash":"000000000000000068ee61fd358cf1c30e03004c47e7d71b49fe96d75bfc9a1d","bits":419479943,"version":9,"created_at":1670813944,"region_id":34,"region_name":"America"},{"height":719562,"is_orphaned":0,"hash":"00000000000000004d846bfb8a03cbb4e358c6c6fb560b8c62103ad950a78385","rewards":"0.97385825","size":36506,"prev_hash":"000000000000000049ca075c4565265a2e01076ded37304ef3eec84e3d915cdf","bits":419480081,"version":9,"created_at":1670806809,"region_id":36,"region_name":"BitDeer"},{"height":719552,"is_orphaned":0,"hash":"000000000000000074239eccccd432a24906807149bcac49b57e3397ae1f8d0b","rewards":"0.97385825","size":82425,"prev_hash":"00000000000000003e087a9a1bcddc2be634087767d5aeaf380a824ff762ce50","bits":419480081,"version":9,"created_at":1670802767,"region_id":36,"region_name":"BitDeer"},{"height":719547,"is_orphaned":0,"hash":"000000000000000000749338689d9149ce67e50065639fe6acc5d5dec0b37553","rewards":"0.97385825","size":18550,"prev_hash":"0000000000000000b817b1c810e396d6c236e2c1a6bc27459e947c3fc5a1a597","bits":419480081,"version":9,"created_at":1670800767,"region_id":36,"region_name":"BitDeer"},{"height":719503,"is_orphaned":0,"hash":"000000000000000054d50fc3159d7e7374bd9cc632b1d660e2844cc18fb02a49","rewards":"0.97385825","size":34781,"prev_hash":"00000000000000001090d6bcdc5785389e3df0e403f799864f4cd4e00cfb8f24","bits":419480081,"version":9,"created_at":1670786243,"region_id":34,"region_name":"America"}],"first_page_url":"https:\/\/eu-api.connectbtc.com\/\/public\/v1\/pool\/blocks\/merge?order_by=desc&page_size=10&page=1","from":1,"last_page":2281,"last_page_url":"https:\/\/eu-api.connectbtc.com\/\/public\/v1\/pool\/blocks\/merge?order_by=desc&page_size=10&page=2281","next_page_url":"https:\/\/eu-api.connectbtc.com\/\/public\/v1\/pool\/blocks\/merge?order_by=desc&page_size=10&page=2","path":"https:\/\/eu-api.connectbtc.com\/\/public\/v1\/pool\/blocks\/merge","per_page":10,"prev_page_url":null,"to":10,"total":22808},"blocks_count":22808,"rewards_count":"191174.31377628"},"trace_id":"df5087a9-a34d-4a62-9dd6-3bd8cf373ae1"},"blocks_nr":10,"lastblock":719623,"lastblocktime":"1670823992","country":"WL|CN , EU , US","hashrate_average_100_count":76,"hashrate_average_100":3539150493421052.5,"hashrate_average_1h":3543400000000000,"history_start":1672278223,"history_interval":3600,"history_addlast":true,"history":[2519250000000000,-33400000000000,-15600000000000,-27350000000000,33050000000000,32997368000000,35352632000000,-4450000000000,-29050000000000,43200000000000,-6250000000000,28750000000000,3150000000000,-24700000000000,9150000000000,8650000000000,-16800000000000,332600000000000,794300000000000,-47500000000000,14650000000000,-51700000000000,105750000000000,-16550000000000,21200000000000,-46250000000000,-24050000000000,-37500000000000,2300000000000,-57050000000000,-23200000000000,9800000000000,50550000000000,-13750000000000,18650000000000,32650000000000,38200000000000,-21450000000000,40050000000000,-4800000000000,-13050000000000,51300000000000,-30050000000000,-1600000000000,5950000000000,-58500000000000,18300000000000,11650000000000,20700000000000,-40400000000000,-2100000000000,-10750000000000,-22050000000000,-5300000000000,-44250000000000,5450000000000,-46250000000000,19800000000000,-6750000000000,54800000000000,51500000000000,-30700000000000,-19550000000000,-76400000000000,-16600000000000,-38100000000000,-9800000000000,-700000000000,-16800000000000,-47300000000000,14700000000000,67600000000000,-8450000000000,-19100000000000,53350000000000,-28900000000000,-57600000000000,-17800000000000,80900000000000,17200000000000,-6000000000000,-17100000000000,10000000000000,-450000000000,-24750000000000,56350000000000,30950000000000,-11150000000000,-46400000000000,7200000000000,-11850000000000,-43250000000000,-23650000000000,39450000000000,850000000000,-9500000000000,-58300000000000,51000000000000,35800000000000,-12950000000000,-6600000000000,15044737000000,47055263000000,44400000000000,-22550000000000,-51950000000000,27750000000000,18800000000000,12800000000000,-16050000000000,-1050000000000,43750000000000,7200000000000,2350000000000,-25000000000000,-28600000000000,35200000000000,-39100000000000,-41000000000000,51350000000000,6550000000000,-13650000000000,-45350000000000,-40500000000000,-13450000000000,30050000000000,450000000000,-7350000000000,114050000000000,57650000000000,-28250000000000,34900000000000,11450000000000,-29950000000000,8350000000000,-5150000000000,-44100000000000,31500000000000,11200000000000,550000000000,-34500000000000,-14400000000000,-27350000000000,18200000000000,-3050000000000,-28200000000000,56800000000000,-5500000000000,12850000000000,5100000000000,9900000000000,300000000000,48050000000000,11050000000000,16950000000000,-18000000000000,-28500000000000,-39800000000000,68600000000000,-54100000000000,8950000000000,-19000000000000,-50150000000000,-28450000000000,13350000000000,7500000000000,35300000000000,-14700000000000],"hashrate_average_7d":3437014833958331,"hashrate_average_7d_count":168,"expected_blocks":4.5,"multipool":7},{"url":"https:\/\/www.poolin.com","hashrate":45018000000000000,"miners":-1,"minpay":0.01,"id":3,"pool_id":"poolin.com","fee":3,"feetype":"PPS","i":13753,"json":{"err_no":0,"data":{"shares":{"shares_1m":44.012,"shares_5m":45.018,"shares_15m":44.75,"shares_1h":44.685,"shares_unit":"P"},"reject":{"1m":0,"5m":0,"15m":0.0024,"1h":0.0022},"workers":1719,"users":381,"total_blocks":151980,"total_rewards":105358510774334}},"workers":1719,"netdiff":5305562122.886225,"nethash":"75957386002954540","income":4.11957e-15,"blocks_nr":18,"lastblock":726466,"lastblocktime":1672883715,"country":"US|United States","blocks_1000":560,"blocks_count":59,"hashrate_average_100_count":76,"hashrate_average_100":44704506424753290,"hashrate_average_1h":44372500000000000,"history_start":1672278223,"history_interval":3600,"history_addlast":true,"history":[36540350000000000,-1231800000000000,-657350000000000,-350900000000000,952550000000000,1096150000000000,88750000000000,-305100000000000,485000000000000,475150000000000,-77000000000000,241700000000000,-376150000000000,47900000000000,79800000000000,247700000000000,-127550000000000,-70350000000000,169600000000000,130450000000000,-79250000000000,-841300000000000,-232800000000000,168050000000000,20350000000000,-64050000000000,-1250000000000,2300000000000,-595550000000000,57950000000000,735300000000000,88750000000000,54250000000000,-284750000000000,580500000000000,-101300000000000,501400000000000,-16500000000000,-172900000000000,-261100000000000,208550000000000,-117900000000000,263550000000000,-68250000000000,210500000000000,-514500000000000,-846000000000000,-4607000000000000,1809300000000000,2977300000000000,-341700000000000,81950000000000,776250000000000,-93576320000000,834926320000000,1921300000000000,233950000000000,722000000000000,905800000000000,114550000000000,574150000000000,-145850000000000,33250000000000,253500000000000,-64000000000000,-71400000000000,-272050000000000,154300000000000,-1200000000000,-685800000000000,-16900000000000,-525050000000000,-1181800000000000,1753100000000000,84650000000000,-184200000000000,-409950000000000,-714300000000000,539350000000000,191700000000000,-162200000000000,699950000000000,383450000000000,-25400000000000,136800000000000,-219300000000000,85850000000000,-50100000000000,45050000000000,-169250000000000,-833700000000000,-56550000000000,-472000000000000,-622100000000000,2300000000000,-67200000000000,-38550000000000,-910850000000000,-199050000000000,1077550000000000,2651750000000000,-144318420000000,-1032931580000000,-3104050000000000,701050000000000,-1492550000000000,-425200000000000,651900000000000,-180750000000000,268800000000000,494300000000000,793700000000000,24900000000000,-110550000000000,-111700000000000,-91700000000000,-26500000000000,-423000000000000,-114750000000000,3505350000000000,2678400000000000,116250000000000,140300000000000,307050000000000,66650000000000,-51800000000000,-36900000000000,277350000000000,920850000000000,470300000000000,-216100000000000,137900000000000,490750000000000,-158950000000000,105700000000000,263100000000000,-314700000000000,114900000000000,-190650000000000,-25600000000000,-11350000000000,-884500000000000,-469600000000000,59350000000000,-127100000000000,528650000000000,-954050000000000,-96100000000000,666300000000000,192050000000000,-2780550000000000,235000000000000,-25500000000000,476900000000000,504850000000000,1526500000000000,379650000000000,-327000000000000,-516400000000000,-217800000000000,779750000000000,61600000000000,-130900000000000,-26500000000000,-60050000000000,-1143200000000000,186850000000000,312900000000000],"hashrate_average_7d":40270215507499980,"hashrate_average_7d_count":168,"hashrate_block":757703498724632,"expected_blocks":56.81,"luck":2.1906557588318023,"multipool":15},{"url":"https:\/\/www.f2pool.com","hashrate":29429092436294220,"miners":-1,"minpay":0.1,"id":14,"pool_id":"f2pool.com","fee":3,"feetype":"PPS%3","i":2554,"income":3.7033291158859385e-15,"blocks_nr":10,"lastblock":726468,"lastblocktime":1672883922,"country":"WL|Global","blocks_1000":356,"blocks_count":35,"hashrate_average_100_count":76,"hashrate_average_100":29266134498110440,"hashrate_average_1h":29412492300886904,"history_start":1672278223,"history_interval":3600,"history_addlast":true,"history":[28017001900000000,145678730000000,-66757500000000,75822580000000,446742960000000,146513680000000,-75883980000000,29074700000000,19804650000000,-27622500000000,-118329490000000,108959720000000,-41097300000000,-32249480000000,-24294760000000,7097320000000,-89864580000000,98668420000000,-37096890000000,181629250000000,-61973580000000,64099200000000,103518280000000,-203075710000000,-203987710000000,332821440000000,3629480000000,39452460000000,-127444050000000,-71291550000000,194502200000000,57375790000000,60714030000000,-391642730000000,49408990000000,-215966600000000,-42374380000000,24242150000000,-174773200000000,146637490000000,127458040000000,-106767670000000,-115797700000000,223803770000000,15730020000000,13223690000000,60827190000000,-80113660000000,38605900000000,-69584860000000,62569780000000,-26102000000000,-29170520000000,-31059700000000,16467990000000,-196931380000000,-203880350000000,41044110000000,-210120300000000,10603300000000,-182842160000000,-81452300000000,-36675270000000,-18714200000000,268261260000000,-59608820000000,41725330000000,-8990290000000,77771100000000,123477160000000,92828580000000,-97263470000000,-127271330000000,-113268810000000,221322930000000,509621410000000,-234919090000000,58547020000000,-227271590000000,103122610000000,-284446950000000,241483130000000,-6981300000000,-40363300000000,68202260000000,-21671400000000,-131289580000000,-64634480000000,92478430000000,62957200000000,-47791560000000,-254642830000000,-143999160000000,210004280000000,30124440000000,-44712080000000,-31765890000000,441860700000000,32348810000000,-40148130000000,-2497929270000000,-400232630000000,-95698670000000,-887250000000,-48244750000000,1977833110000000,-2256232050000000,-119599630000000,102231200000000,3232440000000,-101453580000000,55796260000000,-102633070000000,-153442450000000,192785650000000,40520470000000,99530470000000,-294092270000000,1741870000000,68694680000000,-67626180000000,136105640000000,91329970000000,287835320000000,158912010000000,-155135810000000,-115139250000000,-51211990000000,-84709460000000,372658070000000,41232980000000,486406850000000,184098570000000,-104712560000000,-96834850000000,41922240000000,108617910000000,164351310000000,-247947590000000,91143080000000,150839440000000,126538650000000,-134178110000000,110250340000000,44805160000000,221085960000000,-104869740000000,-16584410000000,-20703270000000,179634850000000,2514859800000000,293214940000000,-37064880000000,-136511820000000,-35039450000000,-120360210000000,164650630000000,154577220000000,-66278970000000,-230638470000000,154542680000000,133035130000000,-25308550000000,-59989790000000,6778850000000,136170720000000,-50616290000000,82547360000000],"hashrate_average_7d":27561582160654772,"hashrate_average_7d_count":168,"hashrate_block":836175271374584,"expected_blocks":37.19,"luck":-2.1906557588318094,"multipool":33}],"hashblock":{"hashrate_average_100":73970640922863730,"blocks_count":94,"pools":[[757703498724632,59,12842432181773.424,"https:\/\/www.poolin.com"],[836175271374584,35,23890722039273.83,"https:\/\/www.f2pool.com"]],"hashrate_block_all":786921711945358.8,"hashrate_block_min":12842432181773.424,"hashrate_block_max":23890722039273.83,"pool_hashblock_average":18366577110523.625,"hashrate_block":786921711945358.8},"time":1672884643,"hashrate":80830000000000000,"difficulty":5305562122.886225,"height":726468,"symbol":"DCR","maxhash":45018000000000000,"poolshash":80172318428779520,"nethash_estimat":78692171194535870,"poolsminers":1834,"supply":{"circulating":14634461.35628157,"total":21000000,"emission24":2456},"block_time_target":300,"block_height_ok":true,"algo":"Blake256R14","hashrate_from_diff":false,"hashrate_src":"https:\/\/lab.antpool.com","unit":"H\/s","block_time_average":304,"minerstat":[1.5514246998407e-16,18.784113378885,0.98201804,3436],"link":{"coingecko":"decred","cmc":"decred","whattomine":"152-dcr-blake (14r)","coin360":"decred-dcr","coinpaprika":"dcr-decred"},"latest_release":{"tag":"release-v1.7.5","name":"dcrd v1.7.5","t":1665429869},"price":18.8}