{"data":[{"url":"https:\/\/www.okx.com\/pool","hashrate":8420000000000,"miners":-1,"minpay":-1,"id":23,"pool_id":"okx.com","data":{"url":"https:\/\/www.okx.com\/pool","hashrate":-1,"miners":-1,"minpay":-1,"id":23,"pool_id":"okx.com"},"i":1609,"workers":1,"lastblock":630904,"feetype":"PPLNS","fee":2,"country":"HK|Hong Kong","hashrate_average_100_count":84,"hashrate_average_100":8960903087797.62,"hashrate_average_1h":8069230769230.77,"history_start":1663125035,"history_interval":3600,"history_addlast":true,"history":[8382500000000,1162000000000,-1103000000000,335000000000,1180500000000,-858500000000,-150000000000,-466500000000,328000000000,436842105000,518657895000,-743000000000,-1193500000000,656500000000,-208500000000,184000000000,-148000000000,489500000000,609000000000,-712000000000,344000000000,-220000000000,248000000000,-207500000000,500500000000,-182500000000,371333333000,-177017544000,-289315789000,-413500000000,-205500000000,82000000000,-478500000000,683500000000,316000000000,-866263158000,673763158000,-365000000000,472500000000,-218500000000,-536447368000,646725146000,-765277778000,548500000000,610500000000,911000000000,622500000000,-1362000000000,-1770500000000,992500000000,51500000000,-140500000000,-974000000000,1158500000000,-231000000000,173500000000,131500000000,257000000000,-679500000000,61000000000,479500000000,634000000000,-1178000000000,-219500000000,1052500000000,-494000000000,491500000000,-418000000000,232000000000,252000000000,-223500000000,-596000000000,334500000000,981000000000,59000000000,-1110500000000,689000000000,-1052000000000,803000000000,-156000000000,509500000000,570000000000,-1551947368000,-17552632000,597000000000,-1500000000,-787500000000,1478000000000,-245500000000,-509000000000,21000000000,214000000000,-1439000000000,1360000000000,-242000000000,-1028000000000,146500000000,213000000000,1066500000000,970500000000,-10357500000000,0,0,0,0,0,0,0,0,0,0,0,0,0,0,0,0,0,0,0,0,0,0,0,0,0,0,0,0,0,0,0,0,0,0,0,0,0,0,0,0,0,0,0,5822000000000,4060631579000,-472631579000,-33500000000,-1414500000000,700000000000,-59000000000,16000000000,567000000000,205000000000,-615000000000,449500000000,3500000000,303000000000,-314500000000,45000000000,1267000000000,-1264000000000,8000000000,-958000000000,165500000000,-79000000000,-128000000000,-204769231000],"hashrate_average_7d":6567538532494.05,"hashrate_average_7d_count":168,"expected_blocks":0.01,"multipool":5},{"url":"https:\/\/www2.coinmine.pl\/dcr","hashrate":520463547958122,"miners":-1,"minpay":0.05,"id":5,"pool_id":"coinmine.pl","data":{"url":"https:\/\/www2.coinmine.pl\/dcr","hashrate":-1,"miners":-1,"minpay":-1,"id":5,"pool_id":"coinmine.pl"},"i":12269,"workers":38,"blocks_nr":5,"lastblock":695467,"lastblocktime":"1663554944","fee":1,"feetype":"PPLNS","height":696043,"country":"WL|EU , US , Asia","blocks_1000":4,"hashrate_average_100_count":84,"hashrate_average_100":502183039458027.5,"hashrate_average_1h":510219433232281.6,"history_start":1663125035,"history_interval":3600,"history_addlast":true,"history":[504630722100000,-16159463100000,-9253171800000,19959869300000,-8236643900000,6369407100000,17992516800000,8435879600000,-13784794200000,10650284800000,-3372598600000,-3087378300000,-5405551800000,5731195900000,-5893731900000,-23602747400000,-7289277800000,23622421800000,-9242230200000,-781548900000,-8285493900000,-11086344600000,-1662334800000,31716268900000,-29131180200000,5131643600000,6564677000000,-847596900000,-15605734200000,5663140000000,22711272500000,-31793141300000,32975646100000,14106193800000,7624348300000,-2965895800000,6950773700000,-12575543200000,-8807094200000,-15758698200000,17208565300000,-25300432800000,-6229127800000,9055604100000,-12194050700000,14574475700000,16627294400000,20969423600000,-11117620500000,-6755542700000,18924196500000,-11482300500000,-4638343000000,14151106200000,-138411900000,-5514447600000,35816823900000,-40879680200000,-2222119800000,9287149800000,6339167300000,-6589073300000,-7826001600000,-3248102300000,-24456893600000,-6139654800000,-6635606100000,10223295100000,10083850200000,-2082191600000,-10358388900000,11453912000000,-21740713500000,19597315200000,14504859800000,37639655100000,-29054628800000,1128539000000,12789783000000,-13904398900000,5076186000000,44756255000000,-8932155000000,-7104498200000,-3569846500000,5551230300000,-4300572300000,12251812000000,-32076920600000,-345336400000,12615942400000,22114054400000,-10943591900000,-114309000000,9522657900000,-12191123000000,19177827400000,-12773718500000,10393406300000,-29373722000000,19313333500000,-5406082500000,-1669389300000,22592494000000,-8106820500000,11329718500000,-12715405800000,1352591600000,488235800000,-10300124100000,21687042700000,-16195965700000,-6236415400000,11785622000000,-6566013300000,-10392778500000,15374143000000,-2980056100000,5726096000000,1909133300000,841157800000,-1693062000000,-861376900000,-19030531600000,14751725000000,-3024418400000,-4368104600000,-9664267300000,27765476200000,-11544197600000,-17292200000,-11199733000000,-27854155700000,4680818900000,537566800000,-28674435400000,-1450329300000,8082463700000,7654814100000,-16997516100000,21247841800000,-12273191400000,4930633900000,-11632647300000,-6251990300000,9445861400000,7483570700000,28752643500000,-2789816400000,-3286694200000,-2550373300000,760219400000,16463375100000,-4179868200000,-4912960200000,-4755567300000,-21551520400000,-19477423200000,16628053700000,-11216797600000,14930812700000,-7896565300000,-7619148900000,12708561900000,19187086100000,10502546800000,-19173821300000,13720200000],"hashrate_average_7d":515458826883333.3,"hashrate_average_7d_count":168,"expected_blocks":0.64,"multipool":6},{"url":"https:\/\/lab.antpool.com","hashrate":3220000000000000,"miners":-1,"minpay":0.1,"id":11,"pool_id":"antpool.com","data":{"url":"https:\/\/lab.antpool.com","hashrate":-1,"miners":-1,"minpay":-1,"id":11,"pool_id":"antpool.com"},"i":2060,"nethash":79720000000000000,"netdiff":6712230689,"feetype":"PPS","fee":3,"income":2.9460452e-15,"country":"WL|Global","hashrate_average_100_count":84,"hashrate_average_100":3257065197172619,"hashrate_average_1h":3234615384615384.5,"history_start":1663125035,"history_interval":3600,"history_addlast":true,"history":[2946000000000000,16000000000000,-1500000000000,-47000000000000,9500000000000,75500000000000,-40000000000000,-14000000000000,27500000000000,-160947368000000,46447368000000,-13500000000000,-19500000000000,-45500000000000,33500000000000,-16000000000000,17500000000000,-33000000000000,26000000000000,-71000000000000,5000000000000,2500000000000,-64500000000000,93000000000000,64000000000000,-26000000000000,27368421000000,30000000000000,-85868421000000,25000000000000,3000000000000,3000000000000,26000000000000,-106000000000000,-60000000000000,128552632000000,-4052632000000,-59000000000000,116500000000000,-15500000000000,-27947368000000,4502924000000,5444444000000,68500000000000,-128000000000000,82500000000000,-17000000000000,15000000000000,-20500000000000,-37500000000000,417500000000000,-55500000000000,47500000000000,44500000000000,-116000000000000,115500000000000,136500000000000,-104500000000000,-33500000000000,50000000000000,-13500000000000,-55500000000000,-1000000000000,-10000000000000,40500000000000,59000000000000,-71000000000000,-15500000000000,-31500000000000,70500000000000,3000000000000,1000000000000,-22000000000000,-20000000000000,-21000000000000,17500000000000,-18500000000000,58000000000000,-70500000000000,53500000000000,-39000000000000,-98000000000000,-185684211000000,-92315789000000,45000000000000,-85500000000000,95000000000000,148000000000000,20000000000000,-57000000000000,27500000000000,-19000000000000,-8000000000000,17000000000000,-12500000000000,17500000000000,-87000000000000,-3500000000000,48000000000000,55500000000000,-84500000000000,141000000000000,261500000000000,500000000000,-27500000000000,-978500000000000,-34000000000000,38500000000000,-19000000000000,-97500000000000,49000000000000,-104500000000000,67000000000000,50500000000000,-46000000000000,-14500000000000,32500000000000,-1000000000000,-61500000000000,141000000000000,-313000000000000,-19500000000000,-88000000000000,17000000000000,21000000000000,309500000000000,32500000000000,-15500000000000,18500000000000,-84000000000000,-10500000000000,0,-27000000000000,-33000000000000,91368421000000,-92368421000000,27500000000000,6500000000000,-10500000000000,30500000000000,-10052632000000,4552632000000,-2000000000000,2500000000000,54500000000000,-18500000000000,27500000000000,40000000000000,-1000000000000,-14000000000000,738500000000000,282500000000000,-12500000000000,31500000000000,19500000000000,-1500000000000,-22000000000000,-108000000000000,45000000000000,-4000000000000,36500000000000,-65500000000000,16500000000000,-12000000000000,75500000000000,-28000000000000,-19000000000000,-20884615000000],"hashrate_average_7d":2809712483672619,"hashrate_average_7d_count":168,"expected_blocks":4.13,"multipool":16},{"url":"https:\/\/www.poolin.com","hashrate":25944000000000000,"miners":-1,"minpay":0.01,"id":3,"pool_id":"poolin.com","fee":3,"feetype":"PPS","data":{"url":"https:\/\/www.poolin.com","hashrate":-1,"miners":-1,"minpay":0.01,"id":3,"pool_id":"poolin.com","fee":3,"feetype":"PPS"},"i":13330,"json":{"err_no":0,"data":{"shares":{"shares_1m":24.956,"shares_5m":25.944,"shares_15m":25.953,"shares_1h":26.195,"shares_unit":"P"},"reject":{"1m":0,"5m":0,"15m":0.0029,"1h":0.0028},"workers":1299,"users":408,"total_blocks":139124,"total_rewards":104091211819384}},"workers":1299,"netdiff":6712230689.735298,"nethash":"96096037641541823","income":3.2562400000000002e-15,"blocks_nr":19,"lastblock":696042,"lastblocktime":1663731666,"country":"US|United States","blocks_1000":357,"blocks_count":37,"hashrate_average_100_count":84,"hashrate_average_100":25863351027715772,"hashrate_average_1h":25977538461538460,"history_start":1663125035,"history_interval":3600,"history_addlast":true,"history":[32415850000000000,-373700000000000,-208800000000000,74200000000000,-201800000000000,358100000000000,709750000000000,1282200000000000,256500000000000,65542110000000,127457890000000,-232950000000000,79450000000000,872750000000000,-102150000000000,19600000000000,-250200000000000,135450000000000,-325550000000000,-97900000000000,76700000000000,-105900000000000,143300000000000,489100000000000,237650000000000,-183500000000000,693797370000000,1233177630000000,-275475000000000,1042850000000000,-108350000000000,-2371050000000000,-2080700000000000,-148600000000000,-56300000000000,-540394740000000,309444740000000,-172050000000000,377900000000000,-202300000000000,107794740000000,-13894740000000,116250000000000,68350000000000,-128100000000000,155400000000000,-2064100000000000,822050000000000,71950000000000,-2364150000000000,1119900000000000,1254450000000000,-103850000000000,76950000000000,170750000000000,180050000000000,-6702900000000000,6168400000000000,19100000000000,-32800000000000,128000000000000,850000000000,110000000000000,19950000000000,217050000000000,8600000000000,2950000000000,348950000000000,323750000000000,-887950000000000,-4012950000000000,-62150000000000,-158500000000000,-453050000000000,-253600000000000,-292400000000000,80650000000000,626700000000000,-176000000000000,1109300000000000,-768000000000000,-212350000000000,17184210000000,116015790000000,-342650000000000,-41000000000000,-60250000000000,-110000000000000,-78150000000000,-15800000000000,21000000000000,296200000000000,-161750000000000,-130350000000000,-212600000000000,-130350000000000,-16900000000000,-60350000000000,90700000000000,112200000000000,-129150000000000,-30400000000000,69250000000000,203000000000000,-1271000000000000,1457450000000000,-40700000000000,146750000000000,-76100000000000,137650000000000,-70700000000000,-168550000000000,-90000000000000,64100000000000,-13300000000000,89150000000000,-2850000000000,3558700000000000,1900050000000000,-2994850000000000,-4799000000000000,-159600000000000,6168350000000000,1505250000000000,79500000000000,-19050000000000,-125250000000000,320200000000000,-236350000000000,87550000000000,14650000000000,-793300000000000,-28205260000000,-252228070000000,-107245620000000,110028950000000,236900000000000,131550000000000,-38600000000000,165200000000000,166552630000000,-15052630000000,299900000000000,109100000000000,-56850000000000,-10413160000000,-48586840000000,-61250000000000,-65850000000000,-4744050000000000,-686300000000000,-106850000000000,-513250000000000,-59700000000000,-400000000000,-167350000000000,137250000000000,-12650000000000,-55300000000000,-246850000000000,-101700000000000,125950000000000,7200000000000,100900000000000,33100000000000,-50550000000000,75650000000000,48388460000000],"hashrate_average_7d":30434355708809530,"hashrate_average_7d_count":168,"hashrate_block":699009487235561.4,"expected_blocks":32.78,"luck":4.2184564827014555,"multipool":15},{"url":"https:\/\/pool.btc.com","hashrate":2745000000000000,"miners":-1,"minpay":0.1,"id":4,"pool_id":"pool.btc.com","feetype":"PPS","data":{"url":"https:\/\/pool.btc.com","hashrate":-1,"miners":-1,"minpay":0.1,"id":4,"pool_id":"pool.btc.com","feetype":"PPS"},"i":14250,"workers":91,"income":3.3721400476847e-15,"i_blocks":14292,"json_blocks":{"err_no":0,"data":{"blocks":{"current_page":1,"data":[{"height":695969,"is_orphaned":0,"hash":"000000000000000094690d84ce7c97c579189ba263ac84b6c57a2a084c47978e","rewards":"1.01340080","size":11779,"prev_hash":"000000000000000002159b4843af3df2d539999552855d999ac305210afc5c31","bits":419472334,"version":9,"created_at":1663703867,"region_id":34,"region_name":"America"},{"height":695943,"is_orphaned":0,"hash":"000000000000000043d469689871a792abf46c635cf669070dd4bc8218c7c237","rewards":"1.01340080","size":30126,"prev_hash":"00000000000000000d453112da629e17f794a5bcb76bf67edea1bd9321609722","bits":419472499,"version":9,"created_at":1663693692,"region_id":34,"region_name":"America"},{"height":695851,"is_orphaned":0,"hash":"00000000000000000bd73a11c1cf88b68f07b241fe01913f2b9a7648398c2a03","rewards":"1.01340080","size":46997,"prev_hash":"000000000000000057d256bc0c0c9c144978adc0c4487328fcf8a6e1a2c5cde3","bits":419472499,"version":9,"created_at":1663666189,"region_id":34,"region_name":"America"},{"height":695816,"is_orphaned":0,"hash":"00000000000000002fc1129d9141e7ed284dc812fdc5f571191747e22beaf63b","rewards":"1.01340080","size":15622,"prev_hash":"00000000000000001e5bad6827e9855c345257e7f478c34ae1f03ce3e35605d6","bits":419472499,"version":9,"created_at":1663653982,"region_id":34,"region_name":"America"},{"height":695810,"is_orphaned":0,"hash":"00000000000000003a8c7692a4cae9712cd8f333ff0b63be19fb36a64c874e28","rewards":"1.01340080","size":11817,"prev_hash":"00000000000000009d12822a1a02ecf7a3d814a9ada0c0c007f0676726d4369b","bits":419472499,"version":9,"created_at":1663652832,"region_id":34,"region_name":"America"},{"height":695717,"is_orphaned":0,"hash":"00000000000000000e5a8997a3a43fdedf239e315eb057a74eae099976bf8ec9","rewards":"1.01340080","size":2500,"prev_hash":"00000000000000002826ca83d7ad10d18a511d31d67ed9d457049e92eebf2df3","bits":419474536,"version":9,"created_at":1663626883,"region_id":34,"region_name":"America"},{"height":695652,"is_orphaned":0,"hash":"00000000000000008c6148a250172192e1678762751a318625a7eae67c7e821a","rewards":"1.01340080","size":28012,"prev_hash":"0000000000000000635dd2bb12265580e16d698e9ade790cd89604dc5b8c8eca","bits":419477455,"version":9,"created_at":1663606950,"region_id":34,"region_name":"America"},{"height":695644,"is_orphaned":0,"hash":"00000000000000009a3a3c15967287308ab263d77fd5d563ddf3031bd76881e4","rewards":"1.01340080","size":24424,"prev_hash":"000000000000000033c64e9f281b1ef64657f0fad339bd118630295fa4c49368","bits":419477455,"version":9,"created_at":1663604175,"region_id":36,"region_name":"BitDeer"},{"height":695638,"is_orphaned":0,"hash":"0000000000000000528d6c90e9ee2318acb2a9a18f04b8b3fb5c92d2aed85636","rewards":"1.01340080","size":36339,"prev_hash":"000000000000000044fdf5c31c588792d29815567827713183784230f8f9bcde","bits":419477455,"version":9,"created_at":1663601369,"region_id":34,"region_name":"America"},{"height":695633,"is_orphaned":0,"hash":"0000000000000000746039dface46b797a101fa363b49d7140aa996ca19a8bd9","rewards":"1.01340080","size":46230,"prev_hash":"000000000000000064a70ee690cb216282665a72dea37d71bdf9215812e91b8e","bits":419477455,"version":9,"created_at":1663599828,"region_id":34,"region_name":"America"}],"first_page_url":"https:\/\/eu-api.connectbtc.com\/\/public\/v1\/pool\/blocks\/merge?order_by=desc&page_size=10&page=1","from":1,"last_page":2160,"last_page_url":"https:\/\/eu-api.connectbtc.com\/\/public\/v1\/pool\/blocks\/merge?order_by=desc&page_size=10&page=2160","next_page_url":"https:\/\/eu-api.connectbtc.com\/\/public\/v1\/pool\/blocks\/merge?order_by=desc&page_size=10&page=2","path":"https:\/\/eu-api.connectbtc.com\/\/public\/v1\/pool\/blocks\/merge","per_page":10,"prev_page_url":null,"to":10,"total":21596},"blocks_count":21596,"rewards_count":"189985.52824381"},"trace_id":"bd6e5019-5e62-4ddb-9633-0aed5086c0e8"},"blocks_nr":10,"lastblock":695969,"lastblocktime":"1663703835","country":"WL|CN , EU , US","blocks_1000":22,"blocks_count":1,"hashrate_average_100_count":84,"hashrate_average_100":2792645252046131,"hashrate_average_1h":2741153846153846,"history_start":1663125035,"history_interval":3600,"history_addlast":true,"history":[2270000000000000,39200000000000,312350000000000,51500000000000,12250000000000,37250000000000,34200000000000,-14250000000000,-8050000000000,-2186842000000,56936842000000,8450000000000,6500000000000,-17150000000000,1550000000000,22400000000000,-19400000000000,-7050000000000,40400000000000,6900000000000,-19550000000000,-22300000000000,33800000000000,-28750000000000,-92600000000000,-32950000000000,6023684000000,-15526316000000,54902632000000,-10850000000000,1000000000000,-7250000000000,-3600000000000,2500000000000,29650000000000,-11194737000000,8894737000000,15850000000000,5750000000000,-28750000000000,-131060526000000,179377193000000,-2216667000000,950000000000,900000000000,-15350000000000,-1200000000000,-236550000000000,-325600000000000,3550000000000,25150000000000,-10200000000000,12900000000000,-11900000000000,4200000000000,-156350000000000,-59500000000000,49550000000000,208700000000000,329250000000000,-56550000000000,47850000000000,69600000000000,-6250000000000,43200000000000,46250000000000,-26800000000000,26200000000000,-20200000000000,-45550000000000,-1750000000000,-22300000000000,7100000000000,-150000000000,-27350000000000,11750000000000,-8500000000000,-7750000000000,-10300000000000,-7550000000000,-2050000000000,-21650000000000,-2700000000000,18400000000000,26750000000000,26550000000000,37350000000000,16450000000000,-13500000000000,-71850000000000,-18250000000000,-28650000000000,-39200000000000,-30500000000000,23950000000000,-45100000000000,-29500000000000,29300000000000,22350000000000,-30750000000000,-4550000000000,15150000000000,-24300000000000,20400000000000,32500000000000,23900000000000,34700000000000,21150000000000,-25700000000000,-27300000000000,25950000000000,-6150000000000,-21450000000000,-12100000000000,-32550000000000,50000000000,9050000000000,139050000000000,5800000000000,-10300000000000,10650000000000,-24250000000000,-22700000000000,-1900000000000,-63350000000000,-26850000000000,108300000000000,175350000000000,1550000000000,-28450000000000,-46850000000000,43950000000000,-20286842000000,52670175000000,-10196491000000,-5036842000000,22750000000000,10600000000000,-28550000000000,1650000000000,42850000000000,30450000000000,-3400000000000,11100000000000,-22100000000000,19476316000000,-1526316000000,50250000000000,-9200000000000,-7550000000000,-17950000000000,4700000000000,-13100000000000,-35650000000000,-1700000000000,50000000000,-172650000000000,187700000000000,16850000000000,11400000000000,4250000000000,6150000000000,-39200000000000,-64250000000000,-124850000000000,116750000000000,-11650000000000,-8196154000000],"hashrate_average_7d":2644837256601191.5,"hashrate_average_7d_count":168,"expected_blocks":3.54,"luck":-2.539650440510329,"multipool":7},{"url":"https:\/\/www.f2pool.com","hashrate":51501386732929656,"miners":-1,"minpay":0.1,"id":14,"pool_id":"f2pool.com","fee":3,"feetype":"PPS%3","data":{"url":"https:\/\/www.f2pool.com","hashrate":-1,"miners":-1,"minpay":0.1,"id":14,"pool_id":"f2pool.com","fee":3,"feetype":"PPS%3"},"i":2440,"income":2.8700762277346587e-15,"blocks_nr":12,"lastblock":696043,"lastblocktime":1663731695,"country":"WL|Global","blocks_1000":578,"blocks_count":61,"hashrate_average_100_count":84,"hashrate_average_100":51454802078121180,"hashrate_average_1h":51601029352495750,"history_start":1663125035,"history_interval":3600,"history_addlast":true,"history":[42187101750000000,-470522250000000,498980750000000,4102922160000000,2496815170000000,-468341990000000,146307440000000,-117729450000000,454456530000000,-37008730000000,-655172860000000,295442880000000,170699940000000,160167210000000,-20562220000000,-515803240000000,407050870000000,47923770000000,-321720090000000,98072840000000,-350106320000000,590342100000000,379186330000000,425404410000000,-370745760000000,-273822330000000,349980370000000,-10932290000000,162876480000000,-185264120000000,-318320040000000,358886400000000,271499820000000,207257790000000,-899484090000000,544755620000000,-6307350000000,12835090000000,256046080000000,-301551510000000,200316190000000,40206000000000,-235454480000000,85364050000000,-501670000000000,640569180000000,92054700000000,411589030000000,-96114390000000,-305173440000000,148626460000000,-36363920000000,204880040000000,-254693110000000,44023190000000,102598010000000,-35502160000000,286877120000000,-857295040000000,220893060000000,277534280000000,117261710000000,70653370000000,-473585750000000,289883480000000,21816330000000,-75638740000000,-178171370000000,-358798670000000,672742640000000,135753320000000,-90247470000000,-917806240000000,-1011582610000000,529181460000000,122656670000000,-14652460000000,-157579070000000,-201305450000000,742830860000000,1641472230000000,50128230000000,-261844830000000,549477810000000,114552610000000,285430000000,-203921760000000,-70234990000000,354977610000000,-267096900000000,42275940000000,-125874340000000,-356606730000000,564022620000000,-98914620000000,-298730910000000,-25267910000000,-439487570000000,140631600000000,149930120000000,-247110880000000,28508740000000,289029700000000,168800880000000,-69548940000000,55699820000000,-424751180000000,298538870000000,146566510000000,107713790000000,83348920000000,-524257620000000,280392000000000,98566970000000,157075470000000,215738340000000,-763575130000000,410757600000000,199012990000000,-371142470000000,-10256470890000000,-1192449600000000,1489609160000000,10199964080000000,171819670000000,25664190000000,-10941520000000,112199150000000,245539970000000,-65975090000000,-406393330000000,345528480000000,177140850000000,12274770000000,-70073820000000,-449665840000000,521928220000000,-42058350000000,-101794190000000,-189266950000000,-510588990000000,-2749127300000000,-21169012990000000,10380416430000000,14173271890000000,-34434200000000,565561860000000,-198135030000000,92386290000000,-199495780000000,125502670000000,252777100000000,-99203320000000,24171630000000,-413984300000000,338539220000000,211222280000000,98319370000000,-358642680000000,-751595570000000,677076310000000,70537940000000,-20027170000000,-935530000000,-784680400000000,902899540000000,-108251160000000,12450320000000],"hashrate_average_7d":49549613605714296,"hashrate_average_7d_count":168,"hashrate_block":843521345542970.2,"expected_blocks":65.22,"luck":-4.2184564827014555,"multipool":33}],"hashblock":{"hashrate_average_100":77318153105836960,"blocks_count":98,"pools":[[699009487235561.4,37,18892148303663.82,"https:\/\/www.poolin.com"],[843521345542970.2,61,13828218779392.955,"https:\/\/www.f2pool.com"]],"hashrate_block_all":788960745977928.1,"hashrate_block_min":13828218779392.955,"hashrate_block_max":18892148303663.82,"pool_hashblock_average":16360183541528.387,"hashrate_block":788960745977928.1},"time":1663731995,"hashrate":79720000000000000,"difficulty":6712230689.735298,"height":696043,"symbol":"DCR","maxhash":51501386732929656,"poolshash":83939270280887780,"nethash_estimat":78896074597792820,"poolsminers":1429,"supply":{"circulating":14364264.60023206,"total":21000000,"emission24":2353},"block_time_target":300,"block_height_ok":true,"algo":"Blake256R14","hashrate_from_diff":false,"hashrate_src":"https:\/\/lab.antpool.com","unit":"H\/s","block_time_average":332,"minerstat":[1.2663657625573e-16,24.233089907784,1.0141061,1637],"link":{"coingecko":"decred","cmc":"decred","whattomine":"152-dcr-blake (14r)","coin360":"decred-dcr","coinpaprika":"dcr-decred"},"latest_release":{"tag":"release-v1.7.4","name":"dcrd v1.7.4","t":1659553036},"price":24.24}