{"data":[{"url":"https:\/\/www.okx.com\/pool","hashrate":8670000000000,"miners":-1,"minpay":-1,"id":23,"pool_id":"okx.com","i":1609,"workers":1,"lastblock":630904,"feetype":"PPLNS","fee":2,"country":"HK|Hong Kong","hashrate_average_100_count":74,"hashrate_average_100":8588108108108.108,"hashrate_average_1h":8245500000000,"history_start":1663814448,"history_interval":3600,"history_addlast":true,"history":[7703000000000,1409000000000,227000000000,137000000000,-929000000000,211000000000,2065500000000,-1482500000000,12000000000,330000000000,-2148000000000,2757000000000,-858000000000,-1311000000000,112000000000,-6838000000000,6890500000000,712500000000,-739000000000,726500000000,-970500000000,1316000000000,115500000000,-86000000000,-644000000000,110000000000,-426000000000,414500000000,253500000000,355000000000,378500000000,-816631579000,644631579000,-456500000000,394500000000,-108500000000,-557500000000,-515000000000,212052632000,-200552632000,564000000000,358000000000,-1165000000000,1275500000000,468000000000,83500000000,-386500000000,106000000000,-677500000000,-687000000000,888000000000,771500000000,28000000000,-1194000000000,-709000000000,719500000000,144500000000,-559578947000,-121421053000,107000000000,2331000000000,-2351500000000,94500000000,-116000000000,-629000000000,1019000000000,363500000000,15500000000,146500000000,679000000000,-882500000000,1401500000000,-809000000000,418000000000,-360000000000,-173000000000,101000000000,-1218500000000,623000000000,-1194500000000,1789500000000,504000000000,-878000000000,1093000000000,155500000000,-2324500000000,477000000000,272500000000,-111000000000,813500000000,-1023000000000,335000000000,36000000000,233000000000,-481000000000,1157000000000,-503500000000,-1440000000000,1576000000000,706500000000,308421050000,-1914921050000,-776357143000,1334436090000,-936078947000,-125500000000,1480500000000,-837500000000,772500000000,40000000000,-358500000000,86500000000,-1075500000000,-25000000000,-56333333000,946333333000,-241500000000,660500000000,-927000000000,-169500000000,451000000000,-203000000000,12000000000,-142000000000,-831500000000,707500000000,1595000000000,-1077500000000,-278500000000,-258500000000,827000000000,49000000000,-366500000000,120500000000,-340500000000,1027500000000,-943500000000,-231500000000,303500000000,651500000000,-1227000000000,169500000000,-15000000000,-11500000000,2001500000000,-1042500000000,-970000000000,958000000000,-501500000000,-434000000000,386000000000,-75000000000,1296000000000,-479000000000,-1160000000000,858500000000,-537500000000,-173000000000,-526000000000,1511500000000,-588105263000,-290394737000,1034000000000,-820500000000,-889500000000,487000000000,1051000000000,-1284000000000],"hashrate_average_7d":8978306823595.24,"hashrate_average_7d_count":168,"expected_blocks":0.01,"multipool":5},{"url":"https:\/\/www2.coinmine.pl\/dcr","hashrate":494717707296044,"miners":-1,"minpay":0.05,"id":5,"pool_id":"coinmine.pl","i":12310,"workers":35,"blocks_nr":5,"lastblock":698326,"lastblocktime":"1664422340","fee":1,"feetype":"PPLNS","height":698327,"country":"WL|EU , US , Asia","blocks_1000":4,"blocks_count":1,"hashrate_average_100_count":74,"hashrate_average_100":496753404754085.4,"hashrate_average_1h":490278273964532.8,"history_start":1663814448,"history_interval":3600,"history_addlast":true,"history":[527824884900000,4385105900000,-6366766000000,7082828100000,-13659646500000,13100013100000,-12522500800000,4271648400000,-17453531400000,15013765800000,-7619108700000,6577362000000,2790971800000,11499001300000,3970740900000,-2941923700000,-5501203100000,-20510004400000,5748706600000,23802531000000,-15814495000000,24448119900000,-17442808500000,-12387838300000,11872390900000,4833163700000,-10321022700000,-1623093800000,11708919300000,-18041721200000,3232681700000,25708982200000,-20373418100000,-19727555100000,24067890200000,-6308058700000,6345815200000,-2808942800000,14295151100000,-18590274000000,-405288500000,2402165700000,-7808701200000,13139917500000,7794379600000,-7720180700000,-3880931600000,-2660767800000,501429300000,-4837179900000,-5218051500000,29975997800000,-29321958300000,8173649000000,-4607451000000,10429068300000,-1457424600000,-1360561000000,-3409465300000,-1704356600000,-9235676900000,-22808874300000,-654918200000,10933734600000,9678265600000,-8079879100000,-8943679900000,-1944576100000,-9436407400000,23204288400000,21177542600000,18032146900000,-11573847600000,-2981742200000,-11701818500000,22604197600000,-9546460400000,-173594400000,-1518998700000,7684606800000,-15097464400000,6340684900000,-2925981800000,1011630400000,12865930400000,-12959896900000,4796875100000,-4578249400000,9476204300000,-41449928800000,6510430300000,-4210268200000,-7050570300000,-1668480900000,-8529358700000,16212532300000,11414444300000,7155444500000,6228485500000,18240820800000,-24516473000000,1199698900000,30769640700000,6052150300000,-12336365700000,-2646249500000,-39160190700000,-702861300000,13583084700000,-11472557800000,7740959200000,1822989300000,-3737499100000,10455611400000,-39220155500000,-1727500700000,8995339900000,-4218956100000,-11437739700000,13658174700000,-6539984300000,-3462542000000,14979594500000,18810356700000,6608278500000,-5861987800000,-6549831100000,2846564100000,-4587862600000,-22217925700000,18682709100000,4918159100000,-11458999200000,14124655300000,-6259830400000,-2274937600000,-1542812400000,13076775100000,-25971149500000,-24576411600000,11535852300000,-8723333700000,13990196300000,-20077622800000,14492182800000,6072733400000,-5608806000000,-1743912900000,-13047855900000,1715433000000,-1218599300000,27793519900000,-14373163200000,38733482500000,-41309305700000,-2953467200000,-17192104800000,13179707100000,9391860100000,24261726500000,14342415100000,-5726812900000,-3700283000000,-1632503300000,-2425498600000,30135828500000,-16835890200000,-11730064800000],"hashrate_average_7d":507141187205357.1,"hashrate_average_7d_count":168,"expected_blocks":0.63,"luck":0.3710349111193716,"multipool":6},{"url":"https:\/\/lab.antpool.com","hashrate":1810000000000000,"miners":-1,"minpay":0.1,"id":11,"pool_id":"antpool.com","i":2060,"nethash":91420000000000000,"netdiff":5302463721,"feetype":"PPS","fee":3,"income":3.7293202e-15,"country":"WL|Global","hashrate_average_100_count":74,"hashrate_average_100":1818904138513513.5,"hashrate_average_1h":1801500000000000,"history_start":1663814448,"history_interval":3600,"history_addlast":true,"history":[3329500000000000,-54000000000000,147500000000000,-78000000000000,-23000000000000,-64500000000000,1000000000000,-20000000000000,103000000000000,100500000000000,26500000000000,-42500000000000,53500000000000,-71000000000000,-47500000000000,63000000000000,-92000000000000,79000000000000,-13000000000000,18500000000000,-13500000000000,-35500000000000,-3000000000000,-106500000000000,59000000000000,6500000000000,-34500000000000,35500000000000,-39500000000000,42000000000000,-10500000000000,-23342105000000,9342105000000,6000000000000,-4000000000000,6500000000000,-69500000000000,24500000000000,-61263158000000,56763158000000,-49000000000000,74500000000000,-26500000000000,5500000000000,13000000000000,-25000000000000,18000000000000,9500000000000,1000000000000,-55500000000000,39500000000000,29500000000000,-3000000000000,-68500000000000,37500000000000,-4000000000000,-787000000000000,-178894737000000,-45105263000000,8500000000000,-136500000000000,-433000000000000,-47000000000000,32500000000000,-44000000000000,75500000000000,22000000000000,-14500000000000,-38000000000000,15500000000000,9000000000000,31500000000000,35500000000000,-76500000000000,-13500000000000,29000000000000,-37000000000000,57000000000000,-29500000000000,-1500000000000,-30000000000000,-33000000000000,22000000000000,3000000000000,35000000000000,-8000000000000,-79000000000000,102000000000000,-35000000000000,53500000000000,-26500000000000,-3500000000000,9500000000000,32000000000000,-35500000000000,15000000000000,-103000000000000,89000000000000,-12500000000000,36500000000000,1763158000000,1236842000000,-15785714000000,145075188000000,7710526000000,-7500000000000,40000000000000,-6000000000000,-28000000000000,16500000000000,-95000000000000,72000000000000,-22000000000000,35000000000000,-23500000000000,4000000000000,-28000000000000,10500000000000,46500000000000,-20000000000000,21000000000000,-34500000000000,9500000000000,-28500000000000,-68000000000000,57500000000000,-79000000000000,-46000000000000,-22000000000000,44500000000000,19500000000000,5000000000000,-54000000000000,56500000000000,-105000000000000,48500000000000,-16500000000000,34500000000000,-25000000000000,25000000000000,-22500000000000,-15500000000000,73500000000000,68000000000000,-232000000000000,-151000000000000,14000000000000,-40000000000000,23000000000000,-3500000000000,-8500000000000,36500000000000,1500000000000,25500000000000,98500000000000,259000000000000,-24000000000000,25500000000000,-3000000000000,-35000000000000,-29947368000000,83447368000000,-44000000000000,27500000000000,2000000000000,-7500000000000,-27000000000000,6000000000000],"hashrate_average_7d":2265850116369049.5,"hashrate_average_7d_count":168,"expected_blocks":2.3,"multipool":16},{"url":"https:\/\/www.poolin.com","hashrate":35962000000000004,"miners":-1,"minpay":0.01,"id":3,"pool_id":"poolin.com","fee":3,"feetype":"PPS","i":13371,"json":{"err_no":0,"data":{"shares":{"shares_1m":34.226,"shares_5m":35.962,"shares_15m":35.811,"shares_1h":35.793,"shares_unit":"P"},"reject":{"1m":0,"5m":0,"15m":0.0028,"1h":0.0014},"workers":1342,"users":401,"total_blocks":139978,"total_rewards":104177431959448}},"workers":1342,"netdiff":5302463721.782115,"nethash":"75913027566404894","income":4.12198e-15,"blocks_nr":19,"lastblock":698325,"lastblocktime":1664422155,"country":"US|United States","blocks_1000":393,"blocks_count":46,"hashrate_average_100_count":74,"hashrate_average_100":35240911739864868,"hashrate_average_1h":35491700000000000,"history_start":1663814448,"history_interval":3600,"history_addlast":true,"history":[20491650000000000,83850000000000,266050000000000,92000000000000,466750000000000,-52150000000000,2434550000000000,3023050000000000,-165700000000000,4310100000000000,3866750000000000,-53200000000000,84650000000000,539100000000000,-145650000000000,600000000000,-2479900000000000,-1282450000000000,63400000000000,132700000000000,-224200000000000,186750000000000,-111600000000000,385150000000000,2750850000000000,197300000000000,-107000000000000,255950000000000,4769400000000000,520350000000000,107700000000000,-978536840000000,-61663160000000,118150000000000,-97250000000000,-50950000000000,106900000000000,-55950000000000,95131580000000,122218420000000,-5650000000000,-64550000000000,-202450000000000,213150000000000,-212600000000000,68500000000000,-180500000000000,163150000000000,-242800000000000,-134350000000000,-567950000000000,720500000000000,420250000000000,-3232250000000000,-5093450000000000,-354600000000000,262800000000000,52739470000000,76760530000000,-80850000000000,150350000000000,-44250000000000,-160150000000000,12150000000000,-62000000000000,122750000000000,24800000000000,-162800000000000,273450000000000,-16600000000000,-188150000000000,-4000000000000,-383700000000000,264650000000000,-166750000000000,-297750000000000,158250000000000,-101800000000000,201200000000000,239600000000000,110050000000000,-235550000000000,267000000000000,300300000000000,-193900000000000,10200000000000,58950000000000,-165400000000000,-104650000000000,-108050000000000,40400000000000,122100000000000,-530800000000000,-2490050000000000,1529350000000000,1943050000000000,1623000000000000,73700000000000,57850000000000,-496250000000000,-30513160000000,501263160000000,113714290000000,599706760000000,303228950000000,455050000000000,-422250000000000,116550000000000,-19950000000000,79750000000000,-208650000000000,160450000000000,-22650000000000,-31900000000000,-41605560000000,213455560000000,-637900000000000,-1989950000000000,2272400000000000,34900000000000,477300000000000,177600000000000,-119700000000000,101900000000000,-362200000000000,-694550000000000,141500000000000,-26600000000000,-639550000000000,25500000000000,-32500000000000,-36550000000000,229550000000000,87250000000000,-28100000000000,-286250000000000,-2100000000000,139800000000000,-186450000000000,197400000000000,-25850000000000,-169600000000000,-266650000000000,123450000000000,106000000000000,14350000000000,-1633200000000000,1539600000000000,181100000000000,-355100000000000,366900000000000,27200000000000,-223200000000000,-54050000000000,485650000000000,350250000000000,344800000000000,359300000000000,614900000000000,-105750000000000,-348121050000000,257821050000000,187050000000000,21400000000000,-66600000000000,155950000000000,-200600000000000,315100000000000],"hashrate_average_7d":33379845712976170,"hashrate_average_7d_count":168,"hashrate_block":766106776953584.1,"expected_blocks":44.62,"luck":1.3796652975709733,"multipool":15},{"url":"https:\/\/pool.btc.com","hashrate":3616000000000000,"miners":-1,"minpay":0.1,"id":4,"pool_id":"pool.btc.com","feetype":"PPS","i":14307,"workers":88,"income":3.3721400476847e-15,"i_blocks":14349,"json_blocks":{"err_no":0,"data":{"blocks":{"current_page":1,"data":[{"height":698249,"is_orphaned":1,"hash":"000000000000000020fd1a938c9e74a137398f0cf4634b5d02e5c95536ebead0","rewards":"1.01340080","size":2825,"prev_hash":"000000000000000010188f256281a3733a664dbe070864e24d28a5e756bb248e","bits":419481276,"version":9,"created_at":1664401299,"region_id":34,"region_name":"America"},{"height":698202,"is_orphaned":0,"hash":"0000000000000000af721a95fde4366f1daa3d160084f2785adf61f571585655","rewards":"1.01340080","size":15034,"prev_hash":"0000000000000000c39f2683933418dc59ac5895d7870beda2572c2290574c9d","bits":419481276,"version":9,"created_at":1664389899,"region_id":34,"region_name":"America"},{"height":698187,"is_orphaned":0,"hash":"000000000000000064165ee4f5310868138a4d4613945df30d660e2dfb58f88f","rewards":"1.01340080","size":33855,"prev_hash":"00000000000000006debd9ef464a3d25c1e3075e6b0dab20062533b5e9574a5c","bits":419481276,"version":9,"created_at":1664384189,"region_id":36,"region_name":"BitDeer"},{"height":698136,"is_orphaned":0,"hash":"0000000000000000605c02c14d7555048a3630f1616f16f992faaf83f7d4371b","rewards":"1.01340080","size":3089,"prev_hash":"0000000000000000618f320fe121bafbdae1a8f1a9f771dbb6d177da67219e9d","bits":419481276,"version":9,"created_at":1664365587,"region_id":34,"region_name":"America"},{"height":698105,"is_orphaned":0,"hash":"0000000000000000756d3b34122fea52a5676cd8f412844374dac17eaa9fe08e","rewards":"1.01340080","size":24825,"prev_hash":"000000000000000021770734bb481cc02fb9e9de72a53c158515e139d32ac9cb","bits":419476913,"version":9,"created_at":1664357099,"region_id":34,"region_name":"America"},{"height":698075,"is_orphaned":0,"hash":"000000000000000035db7d0634c32e41477d7d9450d3839dd366b9c3848dac60","rewards":"1.01340080","size":28833,"prev_hash":"00000000000000005401257160a6fe83be6825a7d12867316c11c852e049bd54","bits":419476913,"version":9,"created_at":1664346444,"region_id":34,"region_name":"America"},{"height":698051,"is_orphaned":0,"hash":"00000000000000004d98690ddd0aee7c8f7a9bea2cb89ce9428b1a116e5ff60a","rewards":"1.01340080","size":24154,"prev_hash":"000000000000000091f68f1bb01e782e6c270ea6c8e791706ac4c3e96444e167","bits":419476913,"version":9,"created_at":1664339919,"region_id":34,"region_name":"America"},{"height":698047,"is_orphaned":0,"hash":"0000000000000000808d073315ef4ffc0873472aefb993aa38ad6e617991ed76","rewards":"1.01340080","size":3423,"prev_hash":"00000000000000000bd7168f384ba74316222b9841f10d49baa79b33c91fdbca","bits":419476913,"version":9,"created_at":1664337799,"region_id":34,"region_name":"America"},{"height":698042,"is_orphaned":0,"hash":"000000000000000041d8dad4886e7c9cc4ef4588249fad18e10be258d46145c0","rewards":"1.01340080","size":3044,"prev_hash":"000000000000000053cfa0e6787fe70818bf09bf62c5ed92befaff7f678203de","bits":419476913,"version":9,"created_at":1664336677,"region_id":34,"region_name":"America"},{"height":697979,"is_orphaned":0,"hash":"0000000000000000327b41a8c2492176ecedfeb9876a396ca445c7c6068b05d7","rewards":"1.01340080","size":7167,"prev_hash":"0000000000000000447ec1dac29d7e50862e325a337f4f7d019bfa1da2ade6ef","bits":419476913,"version":9,"created_at":1664313955,"region_id":34,"region_name":"America"}],"first_page_url":"https:\/\/eu-api.connectbtc.com\/\/public\/v1\/pool\/blocks\/merge?order_by=desc&page_size=10&page=1","from":1,"last_page":2169,"last_page_url":"https:\/\/eu-api.connectbtc.com\/\/public\/v1\/pool\/blocks\/merge?order_by=desc&page_size=10&page=2169","next_page_url":"https:\/\/eu-api.connectbtc.com\/\/public\/v1\/pool\/blocks\/merge?order_by=desc&page_size=10&page=2","path":"https:\/\/eu-api.connectbtc.com\/\/public\/v1\/pool\/blocks\/merge","per_page":10,"prev_page_url":null,"to":10,"total":21688},"blocks_count":21688,"rewards_count":"190077.54503645"},"trace_id":"717b4208-3d39-42bc-8c67-a496bc065272"},"blocks_nr":9,"lastblock":698202,"lastblocktime":"1664389885","country":"WL|CN , EU , US","blocks_1000":41,"hashrate_average_100_count":74,"hashrate_average_100":3603133234797297.5,"hashrate_average_1h":3622050000000000,"history_start":1663814448,"history_interval":3600,"history_addlast":true,"history":[2695200000000000,-10250000000000,-13950000000000,22700000000000,38150000000000,-32250000000000,-13750000000000,-26250000000000,-2800000000000,-108950000000000,-56000000000000,2750000000000,30050000000000,16450000000000,44250000000000,1800000000000,-16000000000000,-38550000000000,-5450000000000,21550000000000,-23800000000000,-3000000000000,-5800000000000,54150000000000,-15750000000000,-59000000000000,-17000000000000,-5150000000000,-43400000000000,14450000000000,4100000000000,-33078947000000,22428947000000,-38300000000000,16700000000000,16250000000000,-21550000000000,39600000000000,21186842000000,-49686842000000,40250000000000,28950000000000,28950000000000,-7050000000000,-25900000000000,-39650000000000,32750000000000,-12250000000000,-77850000000000,7500000000000,100650000000000,1250000000000,-6100000000000,-11550000000000,-10750000000000,18400000000000,-18700000000000,25839474000000,65810526000000,24350000000000,-71750000000000,-44450000000000,25700000000000,-2250000000000,-850000000000,39050000000000,22100000000000,-13700000000000,950000000000,-10850000000000,-7750000000000,10300000000000,71250000000000,4500000000000,-7300000000000,-22600000000000,-28550000000000,32350000000000,12950000000000,4000000000000,-22250000000000,27100000000000,35100000000000,32400000000000,-3950000000000,2250000000000,-20050000000000,-50300000000000,-30600000000000,-9800000000000,32950000000000,550000000000,-34300000000000,49650000000000,-10250000000000,40400000000000,-31000000000000,-38200000000000,10300000000000,-13050000000000,4210526000000,-23310526000000,-2542857000000,4906015000000,32286842000000,500000000000,24700000000000,23050000000000,30250000000000,25200000000000,-39100000000000,-20500000000000,60600000000000,71800000000000,10894444000000,20405556000000,-36450000000000,1950000000000,4050000000000,5500000000000,19900000000000,-19700000000000,-158650000000000,87850000000000,15400000000000,11550000000000,7650000000000,-16850000000000,11350000000000,-6650000000000,-20650000000000,27300000000000,14000000000000,7050000000000,51850000000000,-33350000000000,-16450000000000,-23450000000000,-13150000000000,-19300000000000,10400000000000,-8900000000000,47850000000000,-33400000000000,16650000000000,-16150000000000,24350000000000,25000000000000,96500000000000,-174350000000000,471600000000000,428100000000000,-7100000000000,33700000000000,56550000000000,2700000000000,-50500000000000,-66250000000000,-28700000000000,-38250000000000,55152632000000,101247368000000,-38050000000000,-33400000000000,28250000000000,-25900000000000,81500000000000,-27650000000000],"hashrate_average_7d":2699317412333333.5,"hashrate_average_7d_count":168,"expected_blocks":4.56,"multipool":7},{"url":"https:\/\/www.f2pool.com","hashrate":39569977056420620,"miners":-1,"minpay":0.1,"id":14,"pool_id":"f2pool.com","fee":3,"feetype":"PPS%3","i":2442,"income":3.633143902247315e-15,"blocks_nr":11,"lastblock":698327,"lastblocktime":1664422342,"country":"WL|Global","blocks_1000":534,"blocks_count":49,"hashrate_average_100_count":74,"hashrate_average_100":39789601536516070,"hashrate_average_1h":40122905803628110,"history_start":1663814448,"history_interval":3600,"history_addlast":true,"history":[45125050250000000,2462923200000000,3779504060000000,345601250000000,-124678680000000,60819150000000,-76431220000000,-94601940000000,223854390000000,-175878980000000,-102345650000000,-409750920000000,804617120000000,-383012430000000,-215312320000000,125491740000000,-173345690000000,390075840000000,148011410000000,79543530000000,-1651410000000,-565254420000000,459268430000000,131472770000000,-130783440000000,68882770000000,-279784240000000,694667550000000,-1448400000000,-84318290000000,-1211097310000000,1231338080000000,20643630000000,145575500000000,101150850000000,-600552040000000,105891140000000,44683970000000,129160730000000,-37246750000000,-460219410000000,490283900000000,-80045530000000,-252452150000000,-253100190000000,-160405690000000,537905220000000,10436950000000,121391290000000,-207338260000000,-122590030000000,440767660000000,227876940000000,-192485930000000,-162336380000000,-224530980000000,123357630000000,197705560000000,209072880000000,-421122120000000,381666800000000,59599370000000,-195583720000000,52162070000000,-549181380000000,404374730000000,73264400000000,102143260000000,-89663310000000,-603592680000000,404141870000000,175967750000000,47207190000000,-1692796600000000,1134671820000000,816537630000000,-384831070000000,-315059660000000,-39230200000000,-157168080000000,61261110000000,-26486970000000,-280091870000000,102787650000000,136973080000000,-192318010000000,15722480000000,-35942050000000,-127183550000000,215918680000000,9950110000000,-11200200000000,-164920250000000,-168820700000000,266918850000000,66978240000000,127901880000000,80699170000000,-263819420000000,337068340000000,-408060780000000,-88123010000000,-59417790000000,-338235050000000,361059740000000,70650700000000,-45440430000000,-406195360000000,214261680000000,31275520000000,59429340000000,-152806610000000,-30141970000000,77263550000000,-94475810000000,-66357400000000,-142432110000000,199135380000000,851404610000000,187022800000000,100504690000000,-630313390000000,313216720000000,189952720000000,101157670000000,-375120440000000,-572656970000000,-1606230230000000,-9409157980000000,-13309760000000,-344240410000000,-7576400000000,565035660000000,92340150000000,8965800000000,-133875470000000,101778410000000,23579970000000,96144010000000,38555880000000,-553132290000000,-21902760000000,223948380000000,313631160000000,-166530050000000,-446594660000000,435908230000000,-1280315030000000,1299268580000000,-129933030000000,-439422630000000,409268690000000,-112415900000000,35516480000000,-60720410000000,-290967470000000,340832840000000,-64984930000000,52784280000000,-395283600000000,356684960000000,133681720000000,15137870000000,52823490000000,-863574260000000,413824440000000,425112220000000,72760500000000],"hashrate_average_7d":48720334011011890,"hashrate_average_7d_count":168,"hashrate_block":812032684418695.4,"expected_blocks":50.38,"luck":-1.3796652975709662,"multipool":33}],"hashblock":{"hashrate_average_100":75030513276380940,"blocks_count":95,"pools":[[766106776953584.1,46,16654495151164.873,"https:\/\/www.poolin.com"],[812032684418695.4,49,16572095600381.54,"https:\/\/www.f2pool.com"]],"hashrate_block_all":789794876593483.6,"hashrate_block_min":16572095600381.54,"hashrate_block_max":16654495151164.873,"pool_hashblock_average":16613295375773.207,"hashrate_block":789794876593483.6},"time":1664422662,"hashrate":91420000000000000,"difficulty":5302463721.782115,"height":698327,"symbol":"DCR","maxhash":39569977056420620,"poolshash":81461364763716670,"nethash_estimat":78979487659348370,"poolsminers":1466,"supply":{"circulating":14385024.92645451,"total":21000000,"emission24":2643},"block_time_target":300,"block_height_ok":true,"algo":"Blake256R14","hashrate_from_diff":false,"hashrate_src":"https:\/\/lab.antpool.com","unit":"H\/s","block_time_average":297,"minerstat":[1.6027366037486e-16,24.913927829369,1.0139049,1458],"link":{"coingecko":"decred","cmc":"decred","whattomine":"152-dcr-blake (14r)","coin360":"decred-dcr","coinpaprika":"dcr-decred"},"latest_release":{"tag":"release-v1.7.4","name":"dcrd v1.7.4","t":1659553036},"price":24.99}