{"data":[{"url":"https:\/\/www.okx.com\/pool","hashrate":8220000000000,"miners":-1,"minpay":-1,"id":23,"pool_id":"okx.com","data":{"url":"https:\/\/www.okx.com\/pool","hashrate":-1,"miners":-1,"minpay":-1,"id":23,"pool_id":"okx.com"},"i":1609,"workers":1,"lastblock":630904,"feetype":"PPLNS","fee":2,"country":"HK|Hong Kong","hashrate_average_100_count":78,"hashrate_average_100":8909234274839.744,"hashrate_average_1h":8440000000000,"history_start":1663728034,"history_interval":3600,"history_addlast":true,"history":[9209000000000,-109500000000,-9099500000000,0,0,0,0,0,8740000000000,769500000000,-253500000000,-387500000000,-121500000000,-618000000000,573000000000,-316000000000,2718000000000,-202000000000,-1825157895000,1664157895000,-2868500000000,1083000000000,6500000000,311500000000,-1570500000000,1409000000000,227000000000,137000000000,-929000000000,211000000000,2065500000000,-1482500000000,12000000000,330000000000,-2148000000000,2757000000000,-858000000000,-1311000000000,112000000000,-6838000000000,6890500000000,712500000000,-739000000000,726500000000,-970500000000,1316000000000,115500000000,-86000000000,-644000000000,110000000000,-426000000000,414500000000,253500000000,355000000000,378500000000,-816631579000,644631579000,-456500000000,394500000000,-108500000000,-557500000000,-515000000000,212052632000,-200552632000,564000000000,358000000000,-1165000000000,1275500000000,468000000000,83500000000,-386500000000,106000000000,-677500000000,-687000000000,888000000000,771500000000,28000000000,-1194000000000,-709000000000,719500000000,144500000000,-559578947000,-121421053000,107000000000,2331000000000,-2351500000000,94500000000,-116000000000,-629000000000,1019000000000,363500000000,15500000000,146500000000,679000000000,-882500000000,1401500000000,-809000000000,418000000000,-360000000000,-173000000000,101000000000,-1218500000000,623000000000,-1194500000000,1789500000000,504000000000,-878000000000,1093000000000,155500000000,-2324500000000,477000000000,272500000000,-111000000000,813500000000,-1023000000000,335000000000,36000000000,233000000000,-481000000000,1157000000000,-503500000000,-1440000000000,1576000000000,706500000000,308421050000,-1914921050000,-776357143000,1334436090000,-936078947000,-125500000000,1480500000000,-837500000000,772500000000,40000000000,-358500000000,86500000000,-1075500000000,-25000000000,-56333333000,946333333000,-241500000000,660500000000,-927000000000,-169500000000,451000000000,-203000000000,12000000000,-142000000000,-831500000000,707500000000,1595000000000,-1077500000000,-278500000000,-258500000000,827000000000,49000000000,-366500000000,120500000000,-340500000000,1027500000000,-943500000000,-231500000000,303500000000,651500000000,-1227000000000,169500000000,-15000000000,-4500000000],"hashrate_average_7d":8682880915071.428,"hashrate_average_7d_count":168,"expected_blocks":0.01,"multipool":5},{"url":"https:\/\/www2.coinmine.pl\/dcr","hashrate":458635816075155,"miners":-1,"minpay":0.05,"id":5,"pool_id":"coinmine.pl","data":{"url":"https:\/\/www2.coinmine.pl\/dcr","hashrate":-1,"miners":-1,"minpay":-1,"id":5,"pool_id":"coinmine.pl"},"i":12292,"workers":36,"blocks_nr":5,"lastblock":697900,"lastblocktime":"1664285332","fee":1,"feetype":"PPLNS","height":698039,"country":"WL|EU , US , Asia","blocks_1000":6,"hashrate_average_100_count":78,"hashrate_average_100":475277575501024.6,"hashrate_average_1h":450024095513680.4,"history_start":1663728034,"history_interval":3600,"history_addlast":true,"history":[519270475900000,2818033100000,11323937900000,-2598688500000,866029400000,-3719159800000,-6958487700000,-7390975600000,21788800300000,-7765291900000,-690029900000,4555612800000,8067901300000,-20144737500000,-3189537500000,16334244900000,-8994036000000,-86372300000,8229833600000,-17196657000000,4992842100000,-1737228400000,-8412589500000,18802030100000,-341064900000,4385105900000,-6366766000000,7082828100000,-13659646500000,13100013100000,-12522500800000,4271648400000,-17453531400000,15013765800000,-7619108700000,6577362000000,2790971800000,11499001300000,3970740900000,-2941923700000,-5501203100000,-20510004400000,5748706600000,23802531000000,-15814495000000,24448119900000,-17442808500000,-12387838300000,11872390900000,4833163700000,-10321022700000,-1623093800000,11708919300000,-18041721200000,3232681700000,25708982200000,-20373418100000,-19727555100000,24067890200000,-6308058700000,6345815200000,-2808942800000,14295151100000,-18590274000000,-405288500000,2402165700000,-7808701200000,13139917500000,7794379600000,-7720180700000,-3880931600000,-2660767800000,501429300000,-4837179900000,-5218051500000,29975997800000,-29321958300000,8173649000000,-4607451000000,10429068300000,-1457424600000,-1360561000000,-3409465300000,-1704356600000,-9235676900000,-22808874300000,-654918200000,10933734600000,9678265600000,-8079879100000,-8943679900000,-1944576100000,-9436407400000,23204288400000,21177542600000,18032146900000,-11573847600000,-2981742200000,-11701818500000,22604197600000,-9546460400000,-173594400000,-1518998700000,7684606800000,-15097464400000,6340684900000,-2925981800000,1011630400000,12865930400000,-12959896900000,4796875100000,-4578249400000,9476204300000,-41449928800000,6510430300000,-4210268200000,-7050570300000,-1668480900000,-8529358700000,16212532300000,11414444300000,7155444500000,6228485500000,18240820800000,-24516473000000,1199698900000,30769640700000,6052150300000,-12336365700000,-2646249500000,-39160190700000,-702861300000,13583084700000,-11472557800000,7740959200000,1822989300000,-3737499100000,10455611400000,-39220155500000,-1727500700000,8995339900000,-4218956100000,-11437739700000,13658174700000,-6539984300000,-3462542000000,14979594500000,18810356700000,6608278500000,-5861987800000,-6549831100000,2846564100000,-4587862600000,-22217925700000,18682709100000,4918159100000,-11458999200000,14124655300000,-6259830400000,-2274937600000,-1542812400000,13076775100000,-25971149500000,-24576411600000,11535852300000,-8723333700000,13990196300000,-19711180200000],"hashrate_average_7d":514232328128571.4,"hashrate_average_7d_count":168,"expected_blocks":0.58,"multipool":6},{"url":"https:\/\/lab.antpool.com","hashrate":1880000000000000,"miners":-1,"minpay":0.1,"id":11,"pool_id":"antpool.com","data":{"url":"https:\/\/lab.antpool.com","hashrate":-1,"miners":-1,"minpay":-1,"id":11,"pool_id":"antpool.com"},"i":2060,"nethash":74440000000000000,"netdiff":6051441139,"feetype":"PPS","fee":3,"income":3.2677456999999995e-15,"country":"WL|Global","hashrate_average_100_count":78,"hashrate_average_100":1695975060096153.8,"hashrate_average_1h":1805263157894736.8,"history_start":1663728034,"history_interval":3600,"history_addlast":true,"history":[3283500000000000,-5000000000000,-13500000000000,66000000000000,11500000000000,-75000000000000,-82000000000000,143000000000000,-7000000000000,-35000000000000,29000000000000,-5500000000000,-9000000000000,6000000000000,-52500000000000,-22500000000000,-15000000000000,101000000000000,-88000000000000,45000000000000,-27000000000000,14000000000000,11000000000000,21500000000000,35000000000000,-54000000000000,147500000000000,-78000000000000,-23000000000000,-64500000000000,1000000000000,-20000000000000,103000000000000,100500000000000,26500000000000,-42500000000000,53500000000000,-71000000000000,-47500000000000,63000000000000,-92000000000000,79000000000000,-13000000000000,18500000000000,-13500000000000,-35500000000000,-3000000000000,-106500000000000,59000000000000,6500000000000,-34500000000000,35500000000000,-39500000000000,42000000000000,-10500000000000,-23342105000000,9342105000000,6000000000000,-4000000000000,6500000000000,-69500000000000,24500000000000,-61263158000000,56763158000000,-49000000000000,74500000000000,-26500000000000,5500000000000,13000000000000,-25000000000000,18000000000000,9500000000000,1000000000000,-55500000000000,39500000000000,29500000000000,-3000000000000,-68500000000000,37500000000000,-4000000000000,-787000000000000,-178894737000000,-45105263000000,8500000000000,-136500000000000,-433000000000000,-47000000000000,32500000000000,-44000000000000,75500000000000,22000000000000,-14500000000000,-38000000000000,15500000000000,9000000000000,31500000000000,35500000000000,-76500000000000,-13500000000000,29000000000000,-37000000000000,57000000000000,-29500000000000,-1500000000000,-30000000000000,-33000000000000,22000000000000,3000000000000,35000000000000,-8000000000000,-79000000000000,102000000000000,-35000000000000,53500000000000,-26500000000000,-3500000000000,9500000000000,32000000000000,-35500000000000,15000000000000,-103000000000000,89000000000000,-12500000000000,36500000000000,1763158000000,1236842000000,-15785714000000,145075188000000,7710526000000,-7500000000000,40000000000000,-6000000000000,-28000000000000,16500000000000,-95000000000000,72000000000000,-22000000000000,35000000000000,-23500000000000,4000000000000,-28000000000000,10500000000000,46500000000000,-20000000000000,21000000000000,-34500000000000,9500000000000,-28500000000000,-68000000000000,57500000000000,-79000000000000,-46000000000000,-22000000000000,44500000000000,19500000000000,5000000000000,-54000000000000,56500000000000,-105000000000000,48500000000000,-16500000000000,34500000000000,-25000000000000,25000000000000,-22500000000000,-15500000000000,73500000000000,68763158000000],"hashrate_average_7d":2499044821880953.5,"hashrate_average_7d_count":168,"expected_blocks":2.09,"multipool":16},{"url":"https:\/\/www.poolin.com","hashrate":32872000000000000,"miners":-1,"minpay":0.01,"id":3,"pool_id":"poolin.com","fee":3,"feetype":"PPS","data":{"url":"https:\/\/www.poolin.com","hashrate":-1,"miners":-1,"minpay":0.01,"id":3,"pool_id":"poolin.com","fee":3,"feetype":"PPS"},"i":13353,"json":{"err_no":0,"data":{"shares":{"shares_1m":31.276,"shares_5m":32.872,"shares_15m":33.399,"shares_1h":33.433,"shares_unit":"P"},"reject":{"1m":0,"5m":0,"15m":0.0007,"1h":0.0017},"workers":1302,"users":396,"total_blocks":139850,"total_rewards":104164500965240}},"workers":1302,"netdiff":6051441139.968611,"nethash":"86635805952246633","income":3.61181e-15,"blocks_nr":19,"lastblock":698037,"lastblocktime":1664335036,"country":"US|United States","blocks_1000":361,"blocks_count":41,"hashrate_average_100_count":78,"hashrate_average_100":33327844401041664,"hashrate_average_1h":33168263157894736,"history_start":1663728034,"history_interval":3600,"history_addlast":true,"history":[25944200000000000,-14900000000000,11300000000000,-144050000000000,146800000000000,-69150000000000,-3017700000000000,-2315800000000000,-1708950000000000,1570400000000000,825650000000000,-41850000000000,23250000000000,-189500000000000,-453850000000000,-208550000000000,21550000000000,-58400000000000,190655260000000,-122905260000000,-12850000000000,4150000000000,112800000000000,-81300000000000,80650000000000,83850000000000,266050000000000,92000000000000,466750000000000,-52150000000000,2434550000000000,3023050000000000,-165700000000000,4310100000000000,3866750000000000,-53200000000000,84650000000000,539100000000000,-145650000000000,600000000000,-2479900000000000,-1282450000000000,63400000000000,132700000000000,-224200000000000,186750000000000,-111600000000000,385150000000000,2750850000000000,197300000000000,-107000000000000,255950000000000,4769400000000000,520350000000000,107700000000000,-978536840000000,-61663160000000,118150000000000,-97250000000000,-50950000000000,106900000000000,-55950000000000,95131580000000,122218420000000,-5650000000000,-64550000000000,-202450000000000,213150000000000,-212600000000000,68500000000000,-180500000000000,163150000000000,-242800000000000,-134350000000000,-567950000000000,720500000000000,420250000000000,-3232250000000000,-5093450000000000,-354600000000000,262800000000000,52739470000000,76760530000000,-80850000000000,150350000000000,-44250000000000,-160150000000000,12150000000000,-62000000000000,122750000000000,24800000000000,-162800000000000,273450000000000,-16600000000000,-188150000000000,-4000000000000,-383700000000000,264650000000000,-166750000000000,-297750000000000,158250000000000,-101800000000000,201200000000000,239600000000000,110050000000000,-235550000000000,267000000000000,300300000000000,-193900000000000,10200000000000,58950000000000,-165400000000000,-104650000000000,-108050000000000,40400000000000,122100000000000,-530800000000000,-2490050000000000,1529350000000000,1943050000000000,1623000000000000,73700000000000,57850000000000,-496250000000000,-30513160000000,501263160000000,113714290000000,599706760000000,303228950000000,455050000000000,-422250000000000,116550000000000,-19950000000000,79750000000000,-208650000000000,160450000000000,-22650000000000,-31900000000000,-41605560000000,213455560000000,-637900000000000,-1989950000000000,2272400000000000,34900000000000,477300000000000,177600000000000,-119700000000000,101900000000000,-362200000000000,-694550000000000,141500000000000,-26600000000000,-639550000000000,25500000000000,-32500000000000,-36550000000000,229550000000000,87250000000000,-28100000000000,-286250000000000,-2100000000000,139800000000000,-186450000000000,197400000000000,-25850000000000,-169600000000000,-266650000000000,140763160000000],"hashrate_average_7d":31638401900297610,"hashrate_average_7d_count":168,"hashrate_block":812874253683943,"expected_blocks":41,"luck":0,"multipool":15},{"url":"https:\/\/pool.btc.com","hashrate":2719000000000000,"miners":-1,"minpay":0.1,"id":4,"pool_id":"pool.btc.com","feetype":"PPS","data":{"url":"https:\/\/pool.btc.com","hashrate":-1,"miners":-1,"minpay":0.1,"id":4,"pool_id":"pool.btc.com","feetype":"PPS"},"i":14289,"workers":86,"income":3.3721400476847e-15,"i_blocks":14331,"json_blocks":{"err_no":0,"data":{"blocks":{"current_page":1,"data":[{"height":697979,"is_orphaned":0,"hash":"0000000000000000327b41a8c2492176ecedfeb9876a396ca445c7c6068b05d7","rewards":"1.01340080","size":7167,"prev_hash":"0000000000000000447ec1dac29d7e50862e325a337f4f7d019bfa1da2ade6ef","bits":419476913,"version":9,"created_at":1664313955,"region_id":34,"region_name":"America"},{"height":697960,"is_orphaned":0,"hash":"000000000000000014d7734fa3b9b6ebda1387f2e43b6104c0d74627c42acd50","rewards":"1.01340080","size":42188,"prev_hash":"000000000000000092cc1d7825bb5c2782e7da90f091033ed98a15015f1bde35","bits":419474877,"version":9,"created_at":1664307776,"region_id":36,"region_name":"BitDeer"},{"height":697932,"is_orphaned":0,"hash":"0000000000000000a89e5e6874428deb54355eb1a593a49da49ee927257875a8","rewards":"1.01340080","size":28724,"prev_hash":"00000000000000004457249abf04421fb14fdb705915fc505178536c131524fc","bits":419474877,"version":9,"created_at":1664298964,"region_id":36,"region_name":"BitDeer"},{"height":697924,"is_orphaned":0,"hash":"000000000000000067a2b8d1cfb938083dced6f19703741ec9bb9ae224e65048","rewards":"1.01340080","size":28825,"prev_hash":"00000000000000004ee490bd41f4ce1e2b83ffdeb3fc9265b1a1f792e083c25a","bits":419474877,"version":9,"created_at":1664295543,"region_id":36,"region_name":"BitDeer"},{"height":697895,"is_orphaned":0,"hash":"00000000000000002bf408962f6abed8b7ea8793483cfd5f88fb691a60071121","rewards":"1.01340080","size":8349,"prev_hash":"00000000000000000e49bc677635c1a49ec94834d4ec00a8c72b320e696aa1f9","bits":419474877,"version":9,"created_at":1664283940,"region_id":34,"region_name":"America"},{"height":697890,"is_orphaned":0,"hash":"00000000000000003c00d144f7e92b6a72ff152befdfcf55077248afe0e4ad45","rewards":"1.01340080","size":2158,"prev_hash":"0000000000000000a07772b55b69b230253eabacce4c66705ae1f0512c83825e","bits":419474877,"version":9,"created_at":1664281999,"region_id":34,"region_name":"America"},{"height":697881,"is_orphaned":0,"hash":"00000000000000005528840d0f63b249524efbeffd800dd2078b3f5aa611dfbd","rewards":"1.01340080","size":37213,"prev_hash":"0000000000000000abe9148a3389ce05365092b672ecfcd68167cd62641e9c68","bits":419474877,"version":9,"created_at":1664279477,"region_id":34,"region_name":"America"},{"height":697853,"is_orphaned":0,"hash":"0000000000000000aacb6b80b5a5c19dd97ff814edbc8a11d94a6ed4cba42b40","rewards":"1.01340080","size":2158,"prev_hash":"00000000000000008e0ad6f64c4dd18c25fd2a2c43105f190b1fc03f211be18c","bits":419474877,"version":9,"created_at":1664268909,"region_id":34,"region_name":"America"},{"height":697841,"is_orphaned":0,"hash":"00000000000000001c25fd19bac7a7c66afa6eecb22d108f053cabe8047a49e1","rewards":"1.01340080","size":5612,"prev_hash":"000000000000000032385a9b1fa230a095bb850a1c82236b1a0d037abc073215","bits":419474877,"version":9,"created_at":1664265609,"region_id":34,"region_name":"America"},{"height":697819,"is_orphaned":0,"hash":"00000000000000005ef9869bafb45269f6b7c2cdcfb1fb8218175ec3518d59bc","rewards":"1.01340080","size":10708,"prev_hash":"000000000000000033761bb8a5ec20d2ecdc829ab66998ceca7b2eef2f9b841f","bits":419476181,"version":9,"created_at":1664258965,"region_id":34,"region_name":"America"}],"first_page_url":"https:\/\/eu-api.connectbtc.com\/\/public\/v1\/pool\/blocks\/merge?order_by=desc&page_size=10&page=1","from":1,"last_page":2168,"last_page_url":"https:\/\/eu-api.connectbtc.com\/\/public\/v1\/pool\/blocks\/merge?order_by=desc&page_size=10&page=2168","next_page_url":"https:\/\/eu-api.connectbtc.com\/\/public\/v1\/pool\/blocks\/merge?order_by=desc&page_size=10&page=2","path":"https:\/\/eu-api.connectbtc.com\/\/public\/v1\/pool\/blocks\/merge","per_page":10,"prev_page_url":null,"to":10,"total":21679},"blocks_count":21679,"rewards_count":"190068.42442925"},"trace_id":"f8a7baa8-8fb1-4dea-8168-5594505f3715"},"blocks_nr":10,"lastblock":697979,"lastblocktime":"1664313946","country":"WL|CN , EU , US","blocks_1000":40,"blocks_count":2,"hashrate_average_100_count":78,"hashrate_average_100":2723603766025641,"hashrate_average_1h":2706947368421052.5,"history_start":1663728034,"history_interval":3600,"history_addlast":true,"history":[2741950000000000,29000000000000,-20500000000000,-11700000000000,-50650000000000,12450000000000,-14250000000000,-6450000000000,8600000000000,-15100000000000,2600000000000,-25000000000000,-49650000000000,-10750000000000,52300000000000,-20900000000000,30950000000000,-66000000000000,-16005263000000,-45494737000000,37350000000000,-14350000000000,17050000000000,81100000000000,48650000000000,-10250000000000,-13950000000000,22700000000000,38150000000000,-32250000000000,-13750000000000,-26250000000000,-2800000000000,-108950000000000,-56000000000000,2750000000000,30050000000000,16450000000000,44250000000000,1800000000000,-16000000000000,-38550000000000,-5450000000000,21550000000000,-23800000000000,-3000000000000,-5800000000000,54150000000000,-15750000000000,-59000000000000,-17000000000000,-5150000000000,-43400000000000,14450000000000,4100000000000,-33078947000000,22428947000000,-38300000000000,16700000000000,16250000000000,-21550000000000,39600000000000,21186842000000,-49686842000000,40250000000000,28950000000000,28950000000000,-7050000000000,-25900000000000,-39650000000000,32750000000000,-12250000000000,-77850000000000,7500000000000,100650000000000,1250000000000,-6100000000000,-11550000000000,-10750000000000,18400000000000,-18700000000000,25839474000000,65810526000000,24350000000000,-71750000000000,-44450000000000,25700000000000,-2250000000000,-850000000000,39050000000000,22100000000000,-13700000000000,950000000000,-10850000000000,-7750000000000,10300000000000,71250000000000,4500000000000,-7300000000000,-22600000000000,-28550000000000,32350000000000,12950000000000,4000000000000,-22250000000000,27100000000000,35100000000000,32400000000000,-3950000000000,2250000000000,-20050000000000,-50300000000000,-30600000000000,-9800000000000,32950000000000,550000000000,-34300000000000,49650000000000,-10250000000000,40400000000000,-31000000000000,-38200000000000,10300000000000,-13050000000000,4210526000000,-23310526000000,-2542857000000,4906015000000,32286842000000,500000000000,24700000000000,23050000000000,30250000000000,25200000000000,-39100000000000,-20500000000000,60600000000000,71800000000000,10894444000000,20405556000000,-36450000000000,1950000000000,4050000000000,5500000000000,19900000000000,-19700000000000,-158650000000000,87850000000000,15400000000000,11550000000000,7650000000000,-16850000000000,11350000000000,-6650000000000,-20650000000000,27300000000000,14000000000000,7050000000000,51850000000000,-33350000000000,-16450000000000,-23450000000000,-13150000000000,-19300000000000,10400000000000,-8900000000000,47850000000000,-33502632000000],"hashrate_average_7d":2597778659196429,"hashrate_average_7d_count":168,"hashrate_block":1361801883012820.5,"expected_blocks":3.35,"luck":-1.3505843661332353,"multipool":7},{"url":"https:\/\/www.f2pool.com","hashrate":40386731206504670,"miners":-1,"minpay":0.1,"id":14,"pool_id":"f2pool.com","fee":3,"feetype":"PPS%3","data":{"url":"https:\/\/www.f2pool.com","hashrate":-1,"miners":-1,"minpay":0.1,"id":14,"pool_id":"f2pool.com","fee":3,"feetype":"PPS%3"},"i":2442,"income":3.1834753560505125e-15,"blocks_nr":13,"lastblock":698039,"lastblocktime":1664335332,"country":"WL|Global","blocks_1000":570,"blocks_count":48,"hashrate_average_100_count":78,"hashrate_average_100":40153987322352550,"hashrate_average_1h":40344085288287500,"history_start":1663728034,"history_interval":3600,"history_addlast":true,"history":[51590816540000000,1001430000000,-690449550000000,806389720000000,3012340000000,-128206180000000,-89231590000000,18693150000000,118929220000000,191598860000000,-191157030000000,-320494550000000,288051020000000,-41435010000000,145338140000000,-139715920000000,-650226010000000,401181600000000,53038100000000,221048950000000,-136928150000000,-534173780000000,620840060000000,3753570000000,-6416624680000000,2462923200000000,3779504060000000,345601250000000,-124678680000000,60819150000000,-76431220000000,-94601940000000,223854390000000,-175878980000000,-102345650000000,-409750920000000,804617120000000,-383012430000000,-215312320000000,125491740000000,-173345690000000,390075840000000,148011410000000,79543530000000,-1651410000000,-565254420000000,459268430000000,131472770000000,-130783440000000,68882770000000,-279784240000000,694667550000000,-1448400000000,-84318290000000,-1211097310000000,1231338080000000,20643630000000,145575500000000,101150850000000,-600552040000000,105891140000000,44683970000000,129160730000000,-37246750000000,-460219410000000,490283900000000,-80045530000000,-252452150000000,-253100190000000,-160405690000000,537905220000000,10436950000000,121391290000000,-207338260000000,-122590030000000,440767660000000,227876940000000,-192485930000000,-162336380000000,-224530980000000,123357630000000,197705560000000,209072880000000,-421122120000000,381666800000000,59599370000000,-195583720000000,52162070000000,-549181380000000,404374730000000,73264400000000,102143260000000,-89663310000000,-603592680000000,404141870000000,175967750000000,47207190000000,-1692796600000000,1134671820000000,816537630000000,-384831070000000,-315059660000000,-39230200000000,-157168080000000,61261110000000,-26486970000000,-280091870000000,102787650000000,136973080000000,-192318010000000,15722480000000,-35942050000000,-127183550000000,215918680000000,9950110000000,-11200200000000,-164920250000000,-168820700000000,266918850000000,66978240000000,127901880000000,80699170000000,-263819420000000,337068340000000,-408060780000000,-88123010000000,-59417790000000,-338235050000000,361059740000000,70650700000000,-45440430000000,-406195360000000,214261680000000,31275520000000,59429340000000,-152806610000000,-30141970000000,77263550000000,-94475810000000,-66357400000000,-142432110000000,199135380000000,851404610000000,187022800000000,100504690000000,-630313390000000,313216720000000,189952720000000,101157670000000,-375120440000000,-572656970000000,-1606230230000000,-9409157980000000,-13309760000000,-344240410000000,-7576400000000,565035660000000,92340150000000,8965800000000,-133875470000000,101778410000000,23579970000000,96144010000000,38555880000000,-553132290000000,-21902760000000,223948380000000,327672980000000],"hashrate_average_7d":50383019616726184,"hashrate_average_7d_count":168,"hashrate_block":836541402549011.5,"expected_blocks":49.4,"luck":-1.3975385988359648,"multipool":33}],"hashblock":{"hashrate_average_100":33327844401041664,"blocks_count":41,"pools":[[812874253683943,41,19826201309364.465,"https:\/\/www.poolin.com"],[1361801883012820.5,2,680900941506410.2,"https:\/\/pool.btc.com"],[836541402549011.5,48,17427945886437.74,"https:\/\/www.f2pool.com"]],"hashrate_block_all":837422368015602.9,"hashrate_block_min":17427945886437.74,"hashrate_block_max":680900941506410.2,"pool_hashblock_average":239385029567404.16,"ignored":[[1361801883012820.5,2,680900941506410.2,"https:\/\/pool.btc.com"],[836541402549011.5,48,17427945886437.74,"https:\/\/www.f2pool.com"]],"hashrate_block":812874253683943},"time":1664336081,"hashrate":74440000000000000,"difficulty":6051441139.968611,"height":698039,"symbol":"DCR","maxhash":40386731206504670,"poolshash":78324587022579820,"nethash_estimat":81287425368394300,"poolsminers":1425,"supply":{"circulating":14382409.13629521,"total":21000000,"emission24":2302},"block_time_target":300,"block_height_ok":true,"algo":"Blake256R14","hashrate_from_diff":false,"hashrate_src":"https:\/\/lab.antpool.com","unit":"H\/s","block_time_average":342,"minerstat":[1.4180279230974e-16,24.083055310677,1.0237666,2357],"link":{"coingecko":"decred","cmc":"decred","whattomine":"152-dcr-blake (14r)","coin360":"decred-dcr","coinpaprika":"dcr-decred"},"latest_release":{"tag":"release-v1.7.4","name":"dcrd v1.7.4","t":1659553036},"price":24.17}