{"data":[{"url":"https:\/\/www.okx.com\/pool","hashrate":7660000000000,"miners":-1,"minpay":-1,"id":23,"pool_id":"okx.com","i":1611,"workers":1,"lastblock":630904,"feetype":"PPLNS","fee":2,"country":"HK|Hong Kong","hashrate_average_100_count":71,"hashrate_average_100":8428914640184.859,"hashrate_average_1h":7774000000000,"history_start":1663904444,"history_interval":3600,"history_addlast":true,"history":[8828500000000,-426000000000,414500000000,253500000000,355000000000,378500000000,-816631579000,644631579000,-456500000000,394500000000,-108500000000,-557500000000,-515000000000,212052632000,-200552632000,564000000000,358000000000,-1165000000000,1275500000000,468000000000,83500000000,-386500000000,106000000000,-677500000000,-687000000000,888000000000,771500000000,28000000000,-1194000000000,-709000000000,719500000000,144500000000,-559578947000,-121421053000,107000000000,2331000000000,-2351500000000,94500000000,-116000000000,-629000000000,1019000000000,363500000000,15500000000,146500000000,679000000000,-882500000000,1401500000000,-809000000000,418000000000,-360000000000,-173000000000,101000000000,-1218500000000,623000000000,-1194500000000,1789500000000,504000000000,-878000000000,1093000000000,155500000000,-2324500000000,477000000000,272500000000,-111000000000,813500000000,-1023000000000,335000000000,36000000000,233000000000,-481000000000,1157000000000,-503500000000,-1440000000000,1576000000000,706500000000,308421050000,-1914921050000,-776357143000,1334436090000,-936078947000,-125500000000,1480500000000,-837500000000,772500000000,40000000000,-358500000000,86500000000,-1075500000000,-25000000000,-56333333000,946333333000,-241500000000,660500000000,-927000000000,-169500000000,451000000000,-203000000000,12000000000,-142000000000,-831500000000,707500000000,1595000000000,-1077500000000,-278500000000,-258500000000,827000000000,49000000000,-366500000000,120500000000,-340500000000,1027500000000,-943500000000,-231500000000,303500000000,651500000000,-1227000000000,169500000000,-15000000000,-11500000000,2001500000000,-1042500000000,-970000000000,958000000000,-501500000000,-434000000000,386000000000,-75000000000,1296000000000,-479000000000,-1160000000000,858500000000,-537500000000,-173000000000,-526000000000,1511500000000,-588105263000,-290394737000,1034000000000,-820500000000,-889500000000,487000000000,1051000000000,-1284000000000,571000000000,247000000000,678000000000,-317500000000,-894500000000,-368500000000,713000000000,-326105263000,1238105263000,-1171500000000,435500000000,719000000000,-593000000000,761000000000,910500000000,-1822500000000,-562000000000,-259500000000,103868421000,-194368421000,-82000000000,255000000000,1761000000000,-1430500000000,-842500000000],"hashrate_average_7d":9017814342392.857,"hashrate_average_7d_count":168,"expected_blocks":0.01,"multipool":5},{"url":"https:\/\/www2.coinmine.pl\/dcr","hashrate":454919719797173,"miners":-1,"minpay":0.05,"id":5,"pool_id":"coinmine.pl","i":12312,"workers":33,"blocks_nr":5,"lastblock":698368,"lastblocktime":"1664436048","fee":1,"feetype":"PPLNS","height":698625,"country":"WL|EU , US , Asia","blocks_1000":5,"hashrate_average_100_count":71,"hashrate_average_100":488758561908983.56,"hashrate_average_1h":491695856795080,"history_start":1663904444,"history_interval":3600,"history_addlast":true,"history":[535001407900000,-10321022700000,-1623093800000,11708919300000,-18041721200000,3232681700000,25708982200000,-20373418100000,-19727555100000,24067890200000,-6308058700000,6345815200000,-2808942800000,14295151100000,-18590274000000,-405288500000,2402165700000,-7808701200000,13139917500000,7794379600000,-7720180700000,-3880931600000,-2660767800000,501429300000,-4837179900000,-5218051500000,29975997800000,-29321958300000,8173649000000,-4607451000000,10429068300000,-1457424600000,-1360561000000,-3409465300000,-1704356600000,-9235676900000,-22808874300000,-654918200000,10933734600000,9678265600000,-8079879100000,-8943679900000,-1944576100000,-9436407400000,23204288400000,21177542600000,18032146900000,-11573847600000,-2981742200000,-11701818500000,22604197600000,-9546460400000,-173594400000,-1518998700000,7684606800000,-15097464400000,6340684900000,-2925981800000,1011630400000,12865930400000,-12959896900000,4796875100000,-4578249400000,9476204300000,-41449928800000,6510430300000,-4210268200000,-7050570300000,-1668480900000,-8529358700000,16212532300000,11414444300000,7155444500000,6228485500000,18240820800000,-24516473000000,1199698900000,30769640700000,6052150300000,-12336365700000,-2646249500000,-39160190700000,-702861300000,13583084700000,-11472557800000,7740959200000,1822989300000,-3737499100000,10455611400000,-39220155500000,-1727500700000,8995339900000,-4218956100000,-11437739700000,13658174700000,-6539984300000,-3462542000000,14979594500000,18810356700000,6608278500000,-5861987800000,-6549831100000,2846564100000,-4587862600000,-22217925700000,18682709100000,4918159100000,-11458999200000,14124655300000,-6259830400000,-2274937600000,-1542812400000,13076775100000,-25971149500000,-24576411600000,11535852300000,-8723333700000,13990196300000,-20077622800000,14492182800000,6072733400000,-5608806000000,-1743912900000,-13047855900000,1715433000000,-1218599300000,27793519900000,-14373163200000,38733482500000,-41309305700000,-2953467200000,-17192104800000,13179707100000,9391860100000,24261726500000,14342415100000,-5726812900000,-3700283000000,-1632503300000,-2425498600000,30135828500000,-16835890200000,-11730064800000,29696387300000,-11812576000000,-9172084700000,9880276400000,-2041582500000,-14321071000000,12903377100000,5179554700000,-9883115900000,-16252855800000,12914954900000,-1728004300000,-9233457000000,681312000000,19010053200000,-17025189100000,-1005454200000,-3249189600000,18586516900000,-7674455100000,-6302219200000,-21972457800000,21306519300000,-19279651300000,22211994500000],"hashrate_average_7d":502497640506547.4,"hashrate_average_7d_count":168,"expected_blocks":0.58,"multipool":6},{"url":"https:\/\/lab.antpool.com","hashrate":2840000000000000,"miners":-1,"minpay":0.1,"id":11,"pool_id":"antpool.com","i":2062,"nethash":77310000000000000,"netdiff":5235300233,"feetype":"PPS","fee":3,"income":3.7771606e-15,"country":"WL|Global","hashrate_average_100_count":71,"hashrate_average_100":2763245213468309.5,"hashrate_average_1h":2832000000000000,"history_start":1663904444,"history_interval":3600,"history_addlast":true,"history":[3323500000000000,-34500000000000,35500000000000,-39500000000000,42000000000000,-10500000000000,-23342105000000,9342105000000,6000000000000,-4000000000000,6500000000000,-69500000000000,24500000000000,-61263158000000,56763158000000,-49000000000000,74500000000000,-26500000000000,5500000000000,13000000000000,-25000000000000,18000000000000,9500000000000,1000000000000,-55500000000000,39500000000000,29500000000000,-3000000000000,-68500000000000,37500000000000,-4000000000000,-787000000000000,-178894737000000,-45105263000000,8500000000000,-136500000000000,-433000000000000,-47000000000000,32500000000000,-44000000000000,75500000000000,22000000000000,-14500000000000,-38000000000000,15500000000000,9000000000000,31500000000000,35500000000000,-76500000000000,-13500000000000,29000000000000,-37000000000000,57000000000000,-29500000000000,-1500000000000,-30000000000000,-33000000000000,22000000000000,3000000000000,35000000000000,-8000000000000,-79000000000000,102000000000000,-35000000000000,53500000000000,-26500000000000,-3500000000000,9500000000000,32000000000000,-35500000000000,15000000000000,-103000000000000,89000000000000,-12500000000000,36500000000000,1763158000000,1236842000000,-15785714000000,145075188000000,7710526000000,-7500000000000,40000000000000,-6000000000000,-28000000000000,16500000000000,-95000000000000,72000000000000,-22000000000000,35000000000000,-23500000000000,4000000000000,-28000000000000,10500000000000,46500000000000,-20000000000000,21000000000000,-34500000000000,9500000000000,-28500000000000,-68000000000000,57500000000000,-79000000000000,-46000000000000,-22000000000000,44500000000000,19500000000000,5000000000000,-54000000000000,56500000000000,-105000000000000,48500000000000,-16500000000000,34500000000000,-25000000000000,25000000000000,-22500000000000,-15500000000000,73500000000000,68000000000000,-232000000000000,-151000000000000,14000000000000,-40000000000000,23000000000000,-3500000000000,-8500000000000,36500000000000,1500000000000,25500000000000,98500000000000,259000000000000,-24000000000000,25500000000000,-3000000000000,-35000000000000,-29947368000000,83447368000000,-44000000000000,27500000000000,2000000000000,-7500000000000,-27000000000000,6000000000000,34000000000000,-26500000000000,47500000000000,-35500000000000,-63000000000000,34500000000000,36000000000000,199921053000000,340078947000000,174000000000000,241500000000000,-10000000000000,-16500000000000,-246500000000000,-208000000000000,381000000000000,-8000000000000,97500000000000,-26131579000000,-15368421000000,9500000000000,22000000000000,14000000000000,58000000000000,-3500000000000],"hashrate_average_7d":2124569101333333.2,"hashrate_average_7d_count":168,"expected_blocks":3.29,"multipool":16},{"url":"https:\/\/www.poolin.com","hashrate":39261000000000000,"miners":-1,"minpay":0.01,"id":3,"pool_id":"poolin.com","fee":3,"feetype":"PPS","i":13373,"json":{"err_no":0,"data":{"shares":{"shares_1m":39.329,"shares_5m":39.261,"shares_15m":39.078,"shares_1h":39.432,"shares_unit":"P"},"reject":{"1m":0,"5m":0,"15m":0.0021,"1h":0.0024},"workers":1484,"users":399,"total_blocks":140113,"total_rewards":104191052066200}},"workers":1484,"netdiff":5235300233.3040695,"nethash":"74951477618253933","income":4.17486e-15,"blocks_nr":23,"lastblock":698623,"lastblocktime":1664509062,"country":"US|United States","blocks_1000":411,"blocks_count":56,"hashrate_average_100_count":71,"hashrate_average_100":37921926661531690,"hashrate_average_1h":38727600000000000,"history_start":1663904444,"history_interval":3600,"history_addlast":true,"history":[34860400000000000,-107000000000000,255950000000000,4769400000000000,520350000000000,107700000000000,-978536840000000,-61663160000000,118150000000000,-97250000000000,-50950000000000,106900000000000,-55950000000000,95131580000000,122218420000000,-5650000000000,-64550000000000,-202450000000000,213150000000000,-212600000000000,68500000000000,-180500000000000,163150000000000,-242800000000000,-134350000000000,-567950000000000,720500000000000,420250000000000,-3232250000000000,-5093450000000000,-354600000000000,262800000000000,52739470000000,76760530000000,-80850000000000,150350000000000,-44250000000000,-160150000000000,12150000000000,-62000000000000,122750000000000,24800000000000,-162800000000000,273450000000000,-16600000000000,-188150000000000,-4000000000000,-383700000000000,264650000000000,-166750000000000,-297750000000000,158250000000000,-101800000000000,201200000000000,239600000000000,110050000000000,-235550000000000,267000000000000,300300000000000,-193900000000000,10200000000000,58950000000000,-165400000000000,-104650000000000,-108050000000000,40400000000000,122100000000000,-530800000000000,-2490050000000000,1529350000000000,1943050000000000,1623000000000000,73700000000000,57850000000000,-496250000000000,-30513160000000,501263160000000,113714290000000,599706760000000,303228950000000,455050000000000,-422250000000000,116550000000000,-19950000000000,79750000000000,-208650000000000,160450000000000,-22650000000000,-31900000000000,-41605560000000,213455560000000,-637900000000000,-1989950000000000,2272400000000000,34900000000000,477300000000000,177600000000000,-119700000000000,101900000000000,-362200000000000,-694550000000000,141500000000000,-26600000000000,-639550000000000,25500000000000,-32500000000000,-36550000000000,229550000000000,87250000000000,-28100000000000,-286250000000000,-2100000000000,139800000000000,-186450000000000,197400000000000,-25850000000000,-169600000000000,-266650000000000,123450000000000,106000000000000,14350000000000,-1633200000000000,1539600000000000,181100000000000,-355100000000000,366900000000000,27200000000000,-223200000000000,-54050000000000,485650000000000,350250000000000,344800000000000,359300000000000,614900000000000,-105750000000000,-348121050000000,257821050000000,187050000000000,21400000000000,-66600000000000,155950000000000,-200600000000000,315100000000000,-315600000000000,-36600000000000,-202800000000000,123750000000000,-738750000000000,-200550000000000,224550000000000,703773680000000,217476320000000,-114150000000000,-18200000000000,766150000000000,1528650000000000,277050000000000,304200000000000,122700000000000,-694900000000000,-24300000000000,21060530000000,-335960530000000,359600000000000,778500000000000,637050000000000,262550000000000,-409350000000000],"hashrate_average_7d":34451171511845230,"hashrate_average_7d_count":168,"hashrate_block":677177261813065.9,"expected_blocks":45.21,"luck":10.788096807522408,"multipool":15},{"url":"https:\/\/pool.btc.com","hashrate":3643000000000000,"miners":-1,"minpay":0.1,"id":4,"pool_id":"pool.btc.com","feetype":"PPS","i":14309,"workers":89,"income":3.3721400476847e-15,"i_blocks":14351,"json_blocks":{"err_no":0,"data":{"blocks":{"current_page":1,"data":[{"height":698606,"is_orphaned":0,"hash":"00000000000000007f1623e7fcb6c2bd4a6c6b2171a0507d3c5d747c45161c0a","rewards":"1.01340080","size":3118,"prev_hash":"00000000000000007874768443112e82126db3d9e788353b1c8f3d3006bd29f3","bits":419484164,"version":9,"created_at":1664503071,"region_id":34,"region_name":"America"},{"height":698604,"is_orphaned":0,"hash":"00000000000000006ae0749414e0218d86671f812ff275e996e1450cf5808828","rewards":"1.01340080","size":3587,"prev_hash":"0000000000000000addeea5e793ea098f127289aefaacd28c95047ac5dd852c4","bits":419484164,"version":9,"created_at":1664502960,"region_id":34,"region_name":"America"},{"height":698600,"is_orphaned":0,"hash":"00000000000000003cccf9ffaad791c3e26b442ae24b8faa9c9cb7e1a4b9b8ac","rewards":"1.01340080","size":2373,"prev_hash":"0000000000000000b31313bb3adc3c6d957feb8fb4864da4cfd8458b41d93d51","bits":419484164,"version":9,"created_at":1664502370,"region_id":34,"region_name":"America"},{"height":698580,"is_orphaned":0,"hash":"0000000000000000974609fe358d2f8a9e094f5d57ef074c65c1c2ce675d7565","rewards":"1.01340080","size":25217,"prev_hash":"0000000000000000b5d03a9b6de7a927ce23f654f96d6679b4b9897dc58e2c6e","bits":419484164,"version":9,"created_at":1664495496,"region_id":34,"region_name":"America"},{"height":698558,"is_orphaned":0,"hash":"00000000000000001216ad5a2aa4a1b1339c4cee553fbac3c0ac5109d1c459fe","rewards":"1.01340080","size":29430,"prev_hash":"00000000000000000b84fa3a2ba1d06670be5ddeb729a16259e4a43a0daf0451","bits":419484164,"version":9,"created_at":1664490554,"region_id":36,"region_name":"BitDeer"},{"height":698533,"is_orphaned":0,"hash":"00000000000000005784daa5ddc79fa20814e23968b4fb04cd974d72f8a832ef","rewards":"1.01340080","size":8830,"prev_hash":"0000000000000000688a2131c1bd88870a6b7b707ceb0cee1fb79cfaa0a0a935","bits":419485825,"version":9,"created_at":1664483139,"region_id":36,"region_name":"BitDeer"},{"height":698522,"is_orphaned":0,"hash":"0000000000000000d33fc54f29260d7e0f65edb8cb715aed1cf4aa759b806e32","rewards":"1.01340080","size":3286,"prev_hash":"000000000000000039effbec9fc522ae2e235a889c06958684684f6dc420a10d","bits":419485825,"version":9,"created_at":1664480174,"region_id":34,"region_name":"America"},{"height":698498,"is_orphaned":0,"hash":"0000000000000000c15e579e41ca3768f28c6e29c177cf645cdac91980382f5a","rewards":"1.01340080","size":8327,"prev_hash":"000000000000000008e54c20725dc774bcc40aaf553edc39791cb5dbde74e40b","bits":419485825,"version":9,"created_at":1664473115,"region_id":36,"region_name":"BitDeer"},{"height":698489,"is_orphaned":0,"hash":"00000000000000002c42282c14a4911f8a7a5d117da7b93dbffd53aad502c5c1","rewards":"1.01340080","size":6601,"prev_hash":"00000000000000005f0b619ca266b4a83127b0be7bd8f03d2f8c02babf4943b2","bits":419485825,"version":9,"created_at":1664471257,"region_id":34,"region_name":"America"},{"height":698431,"is_orphaned":0,"hash":"00000000000000009c0f031a1fdd7b9eaaace1b6791d91412cad2f899d70e0e9","rewards":"1.01340080","size":20269,"prev_hash":"00000000000000002abe88d78effee54879909150213e7c801c66b5db29ea93d","bits":419485825,"version":9,"created_at":1664453892,"region_id":36,"region_name":"BitDeer"}],"first_page_url":"https:\/\/eu-api.connectbtc.com\/\/public\/v1\/pool\/blocks\/merge?order_by=desc&page_size=10&page=1","from":1,"last_page":2171,"last_page_url":"https:\/\/eu-api.connectbtc.com\/\/public\/v1\/pool\/blocks\/merge?order_by=desc&page_size=10&page=2171","next_page_url":"https:\/\/eu-api.connectbtc.com\/\/public\/v1\/pool\/blocks\/merge?order_by=desc&page_size=10&page=2","path":"https:\/\/eu-api.connectbtc.com\/\/public\/v1\/pool\/blocks\/merge","per_page":10,"prev_page_url":null,"to":10,"total":21703},"blocks_count":21703,"rewards_count":"190092.74604845"},"trace_id":"e7464cbc-0077-4a9c-94d9-c1fb851c3f06"},"blocks_nr":10,"lastblock":698606,"lastblocktime":"1664503071","country":"WL|CN , EU , US","blocks_1000":43,"blocks_count":6,"hashrate_average_100_count":71,"hashrate_average_100":3649757042253521,"hashrate_average_1h":3655000000000000,"history_start":1663904444,"history_interval":3600,"history_addlast":true,"history":[2495500000000000,-17000000000000,-5150000000000,-43400000000000,14450000000000,4100000000000,-33078947000000,22428947000000,-38300000000000,16700000000000,16250000000000,-21550000000000,39600000000000,21186842000000,-49686842000000,40250000000000,28950000000000,28950000000000,-7050000000000,-25900000000000,-39650000000000,32750000000000,-12250000000000,-77850000000000,7500000000000,100650000000000,1250000000000,-6100000000000,-11550000000000,-10750000000000,18400000000000,-18700000000000,25839474000000,65810526000000,24350000000000,-71750000000000,-44450000000000,25700000000000,-2250000000000,-850000000000,39050000000000,22100000000000,-13700000000000,950000000000,-10850000000000,-7750000000000,10300000000000,71250000000000,4500000000000,-7300000000000,-22600000000000,-28550000000000,32350000000000,12950000000000,4000000000000,-22250000000000,27100000000000,35100000000000,32400000000000,-3950000000000,2250000000000,-20050000000000,-50300000000000,-30600000000000,-9800000000000,32950000000000,550000000000,-34300000000000,49650000000000,-10250000000000,40400000000000,-31000000000000,-38200000000000,10300000000000,-13050000000000,4210526000000,-23310526000000,-2542857000000,4906015000000,32286842000000,500000000000,24700000000000,23050000000000,30250000000000,25200000000000,-39100000000000,-20500000000000,60600000000000,71800000000000,10894444000000,20405556000000,-36450000000000,1950000000000,4050000000000,5500000000000,19900000000000,-19700000000000,-158650000000000,87850000000000,15400000000000,11550000000000,7650000000000,-16850000000000,11350000000000,-6650000000000,-20650000000000,27300000000000,14000000000000,7050000000000,51850000000000,-33350000000000,-16450000000000,-23450000000000,-13150000000000,-19300000000000,10400000000000,-8900000000000,47850000000000,-33400000000000,16650000000000,-16150000000000,24350000000000,25000000000000,96500000000000,-174350000000000,471600000000000,428100000000000,-7100000000000,33700000000000,56550000000000,2700000000000,-50500000000000,-66250000000000,-28700000000000,-38250000000000,55152632000000,101247368000000,-38050000000000,-33400000000000,28250000000000,-25900000000000,81500000000000,-27650000000000,-24750000000000,-6200000000000,53600000000000,68950000000000,126900000000000,-47400000000000,5350000000000,7973684000000,-64923684000000,14650000000000,1750000000000,-55800000000000,-22200000000000,19400000000000,26300000000000,-38800000000000,-50950000000000,14500000000000,-9136842000000,-40963158000000,9400000000000,43200000000000,4750000000000,119050000000000,-121700000000000],"hashrate_average_7d":2863582512583333.5,"hashrate_average_7d_count":168,"hashrate_block":608292840375586.9,"expected_blocks":4.35,"luck":1.6486266232401228,"multipool":7},{"url":"https:\/\/www.f2pool.com","hashrate":40161050039087190,"miners":-1,"minpay":0.1,"id":14,"pool_id":"f2pool.com","fee":3,"feetype":"PPS%3","i":2444,"income":3.6797533816932845e-15,"blocks_nr":9,"lastblock":698625,"lastblocktime":1664509193,"country":"WL|Global","blocks_1000":510,"blocks_count":35,"hashrate_average_100_count":61,"hashrate_average_100":39788016428913350,"hashrate_average_1h":40195931401355860,"history_start":1663904444,"history_interval":3600,"history_addlast":true,"history":[51752068810000000,-279784240000000,694667550000000,-1448400000000,-84318290000000,-1211097310000000,1231338080000000,20643630000000,145575500000000,101150850000000,-600552040000000,105891140000000,44683970000000,129160730000000,-37246750000000,-460219410000000,490283900000000,-80045530000000,-252452150000000,-253100190000000,-160405690000000,537905220000000,10436950000000,121391290000000,-207338260000000,-122590030000000,440767660000000,227876940000000,-192485930000000,-162336380000000,-224530980000000,123357630000000,197705560000000,209072880000000,-421122120000000,381666800000000,59599370000000,-195583720000000,52162070000000,-549181380000000,404374730000000,73264400000000,102143260000000,-89663310000000,-603592680000000,404141870000000,175967750000000,47207190000000,-1692796600000000,1134671820000000,816537630000000,-384831070000000,-315059660000000,-39230200000000,-157168080000000,61261110000000,-26486970000000,-280091870000000,102787650000000,136973080000000,-192318010000000,15722480000000,-35942050000000,-127183550000000,215918680000000,9950110000000,-11200200000000,-164920250000000,-168820700000000,266918850000000,66978240000000,127901880000000,80699170000000,-263819420000000,337068340000000,-408060780000000,-88123010000000,-59417790000000,-338235050000000,361059740000000,70650700000000,-45440430000000,-406195360000000,214261680000000,31275520000000,59429340000000,-152806610000000,-30141970000000,77263550000000,-94475810000000,-66357400000000,-142432110000000,199135380000000,851404610000000,187022800000000,100504690000000,-630313390000000,313216720000000,189952720000000,101157670000000,-375120440000000,-572656970000000,-1606230230000000,-9409157980000000,-13309760000000,-344240410000000,-7576400000000,565035660000000,92340150000000,8965800000000,-133875470000000,101778410000000,23579970000000,96144010000000,38555880000000,-553132290000000,-21902760000000,223948380000000,313631160000000,-166530050000000,-446594660000000,435908230000000,-1280315030000000,1299268580000000,-129933030000000,-439422630000000,409268690000000,-112415900000000,35516480000000,-60720410000000,-290967470000000,340832840000000,-64984930000000,52784280000000,-395283600000000,356684960000000,133681720000000,15137870000000,52823490000000,-863574260000000,413824440000000,425112220000000,72760500000000,-165304140000000,-384680210000000,352757070000000,151483470000000,-197098600000000,131978020000000,14050900000000,420416670000000,-169312990000000,205834280000000,-1355732910000000,-408130860000000,1640067270000000,-313414610000000,-1336528310000000,348870520000000,104446260000000,560061860000000,371916830000000,-481788690000000,-1714270490000000,1801700940000000,727630200000000,-251818270000000,19891390000000],"hashrate_average_7d":47027908574047600,"hashrate_average_7d_count":168,"hashrate_block":1136800469397524.2,"expected_blocks":47.44,"luck":-12.436723430762534,"multipool":33}],"hashblock":{"hashrate_average_100":81359700132698560,"blocks_count":97,"pools":[[677177261813065.9,56,12092451103804.748,"https:\/\/www.poolin.com"],[608292840375586.9,6,101382140062597.81,"https:\/\/pool.btc.com"],[1136800469397524.2,35,32480013411357.836,"https:\/\/www.f2pool.com"]],"hashrate_block_all":838759795182459.4,"hashrate_block_min":12092451103804.748,"hashrate_block_max":101382140062597.81,"pool_hashblock_average":48651534859253.47,"hashrate_block":838759795182459.4},"time":1664509955,"hashrate":77310000000000000,"difficulty":5235300233.3040695,"height":698625,"symbol":"DCR","maxhash":40161050039087190,"poolshash":86367629758884370,"nethash_estimat":83875979518245940,"poolsminers":1607,"supply":{"circulating":14387730.09856486,"total":21000000,"emission24":2696},"block_time_target":300,"block_height_ok":true,"algo":"Blake256R14","hashrate_from_diff":false,"hashrate_src":"https:\/\/lab.antpool.com","unit":"H\/s","block_time_average":290.9,"minerstat":[1.6390853749219e-16,25.875938214717,1.02376559,917],"link":{"coingecko":"decred","cmc":"decred","whattomine":"152-dcr-blake (14r)","coin360":"decred-dcr","coinpaprika":"dcr-decred"},"latest_release":{"tag":"release-v1.7.4","name":"dcrd v1.7.4","t":1659553036},"price":25.89}