{"data":[{"url":"https:\/\/www.okx.com\/pool","hashrate":0,"miners":-1,"minpay":-1,"id":23,"pool_id":"okx.com","data":{"url":"https:\/\/www.okx.com\/pool","hashrate":-1,"miners":-1,"minpay":-1,"id":23,"pool_id":"okx.com"},"i":1609,"workers":0,"lastblock":630904,"feetype":"PPLNS","fee":2,"country":"HK|Hong Kong","hashrate_average_100_count":73,"hashrate_average_100":0,"hashrate_average_1h":0,"history_start":1663038636,"history_interval":3600,"history_addlast":true,"history":[8756000000000,-2308000000000,2934500000000,-1089000000000,-265000000000,-7500000000,1050000000000,-1360000000000,1225000000000,-1237500000000,198500000000,2492500000000,-1860000000000,-200500000000,16500000000,116500000000,689500000000,1032500000000,-1952500000000,-379921053000,588921053000,573000000000,-408500000000,175000000000,-397500000000,1162000000000,-1103000000000,335000000000,1180500000000,-858500000000,-150000000000,-466500000000,328000000000,436842105000,518657895000,-743000000000,-1193500000000,656500000000,-208500000000,184000000000,-148000000000,489500000000,609000000000,-712000000000,344000000000,-220000000000,248000000000,-207500000000,500500000000,-182500000000,371333333000,-177017544000,-289315789000,-413500000000,-205500000000,82000000000,-478500000000,683500000000,316000000000,-866263158000,673763158000,-365000000000,472500000000,-218500000000,-536447368000,646725146000,-765277778000,548500000000,610500000000,911000000000,622500000000,-1362000000000,-1770500000000,992500000000,51500000000,-140500000000,-974000000000,1158500000000,-231000000000,173500000000,131500000000,257000000000,-679500000000,61000000000,479500000000,634000000000,-1178000000000,-219500000000,1052500000000,-494000000000,491500000000,-418000000000,232000000000,252000000000,-223500000000,-596000000000,334500000000,981000000000,59000000000,-1110500000000,689000000000,-1052000000000,803000000000,-156000000000,509500000000,570000000000,-1551947368000,-17552632000,597000000000,-1500000000,-787500000000,1478000000000,-245500000000,-509000000000,21000000000,214000000000,-1439000000000,1360000000000,-242000000000,-1028000000000,146500000000,213000000000,1066500000000,970500000000,-10357500000000,0,0,0,0,0,0,0,0,0,0,0,0,0,0,0,0,0,0,0,0,0,0,0,0,0,0,0,0,0,0,0,0,0,0,0,0,0,0,0,0,0,0,0],"hashrate_average_7d":6518664821773.8125,"hashrate_average_7d_count":168,"expected_blocks":0,"multipool":5},{"url":"https:\/\/www2.coinmine.pl\/dcr","hashrate":503311455373449,"miners":-1,"minpay":0.05,"id":5,"pool_id":"coinmine.pl","data":{"url":"https:\/\/www2.coinmine.pl\/dcr","hashrate":-1,"miners":-1,"minpay":-1,"id":5,"pool_id":"coinmine.pl"},"i":12244,"workers":36,"blocks_nr":5,"lastblock":695467,"lastblocktime":"1663554944","fee":1,"feetype":"PPLNS","height":695780,"country":"WL|EU , US , Asia","blocks_1000":5,"hashrate_average_100_count":73,"hashrate_average_100":493390247731486.7,"hashrate_average_1h":477362140267782.56,"history_start":1663038636,"history_interval":3600,"history_addlast":true,"history":[467178709600000,1138738100000,25036368900000,-1470215300000,-863613800000,-16151757900000,-1870932300000,21069945500000,-4968639600000,-8604469400000,169514700000,5483389600000,-10045098600000,15095359400000,-11589238400000,-21432235700000,3692801200000,-7343578400000,-4572921600000,4445384700000,275170400000,20052542800000,13298102700000,-6344507800000,22951903300000,-16159463100000,-9253171800000,19959869300000,-8236643900000,6369407100000,17992516800000,8435879600000,-13784794200000,10650284800000,-3372598600000,-3087378300000,-5405551800000,5731195900000,-5893731900000,-23602747400000,-7289277800000,23622421800000,-9242230200000,-781548900000,-8285493900000,-11086344600000,-1662334800000,31716268900000,-29131180200000,5131643600000,6564677000000,-847596900000,-15605734200000,5663140000000,22711272500000,-31793141300000,32975646100000,14106193800000,7624348300000,-2965895800000,6950773700000,-12575543200000,-8807094200000,-15758698200000,17208565300000,-25300432800000,-6229127800000,9055604100000,-12194050700000,14574475700000,16627294400000,20969423600000,-11117620500000,-6755542700000,18924196500000,-11482300500000,-4638343000000,14151106200000,-138411900000,-5514447600000,35816823900000,-40879680200000,-2222119800000,9287149800000,6339167300000,-6589073300000,-7826001600000,-3248102300000,-24456893600000,-6139654800000,-6635606100000,10223295100000,10083850200000,-2082191600000,-10358388900000,11453912000000,-21740713500000,19597315200000,14504859800000,37639655100000,-29054628800000,1128539000000,12789783000000,-13904398900000,5076186000000,44756255000000,-8932155000000,-7104498200000,-3569846500000,5551230300000,-4300572300000,12251812000000,-32076920600000,-345336400000,12615942400000,22114054400000,-10943591900000,-114309000000,9522657900000,-12191123000000,19177827400000,-12773718500000,10393406300000,-29373722000000,19313333500000,-5406082500000,-1669389300000,22592494000000,-8106820500000,11329718500000,-12715405800000,1352591600000,488235800000,-10300124100000,21687042700000,-16195965700000,-6236415400000,11785622000000,-6566013300000,-10392778500000,15374143000000,-2980056100000,5726096000000,1909133300000,841157800000,-1693062000000,-861376900000,-19030531600000,14751725000000,-3024418400000,-4368104600000,-9664267300000,27765476200000,-11544197600000,-17292200000,-11199733000000,-27854155700000,4680818900000,537566800000,-28674435400000,-1450329300000,8082463700000,7654814100000,-16997516100000,21247841800000,-12273191400000,4930633900000,-23276035300000],"hashrate_average_7d":510508371074999.9,"hashrate_average_7d_count":168,"expected_blocks":0.6,"multipool":6},{"url":"https:\/\/lab.antpool.com","hashrate":2340000000000000,"miners":-1,"minpay":0.1,"id":11,"pool_id":"antpool.com","data":{"url":"https:\/\/lab.antpool.com","hashrate":-1,"miners":-1,"minpay":-1,"id":11,"pool_id":"antpool.com"},"i":2060,"nethash":92160000000000000,"netdiff":6377349142,"feetype":"PPS","fee":3,"income":3.1007505e-15,"country":"WL|Global","hashrate_average_100_count":73,"hashrate_average_100":2180105950342465.8,"hashrate_average_1h":2200000000000000,"history_start":1663038636,"history_interval":3600,"history_addlast":true,"history":[2968000000000000,20000000000000,46000000000000,41500000000000,-75000000000000,32000000000000,-21500000000000,-47500000000000,21000000000000,39000000000000,-47000000000000,49500000000000,-35500000000000,-92000000000000,34000000000000,-38000000000000,68000000000000,-10500000000000,-25000000000000,50894737000000,11105263000000,-18000000000000,3500000000000,20000000000000,-48500000000000,16000000000000,-1500000000000,-47000000000000,9500000000000,75500000000000,-40000000000000,-14000000000000,27500000000000,-160947368000000,46447368000000,-13500000000000,-19500000000000,-45500000000000,33500000000000,-16000000000000,17500000000000,-33000000000000,26000000000000,-71000000000000,5000000000000,2500000000000,-64500000000000,93000000000000,64000000000000,-26000000000000,27368421000000,30000000000000,-85868421000000,25000000000000,3000000000000,3000000000000,26000000000000,-106000000000000,-60000000000000,128552632000000,-4052632000000,-59000000000000,116500000000000,-15500000000000,-27947368000000,4502924000000,5444444000000,68500000000000,-128000000000000,82500000000000,-17000000000000,15000000000000,-20500000000000,-37500000000000,417500000000000,-55500000000000,47500000000000,44500000000000,-116000000000000,115500000000000,136500000000000,-104500000000000,-33500000000000,50000000000000,-13500000000000,-55500000000000,-1000000000000,-10000000000000,40500000000000,59000000000000,-71000000000000,-15500000000000,-31500000000000,70500000000000,3000000000000,1000000000000,-22000000000000,-20000000000000,-21000000000000,17500000000000,-18500000000000,58000000000000,-70500000000000,53500000000000,-39000000000000,-98000000000000,-185684211000000,-92315789000000,45000000000000,-85500000000000,95000000000000,148000000000000,20000000000000,-57000000000000,27500000000000,-19000000000000,-8000000000000,17000000000000,-12500000000000,17500000000000,-87000000000000,-3500000000000,48000000000000,55500000000000,-84500000000000,141000000000000,261500000000000,500000000000,-27500000000000,-978500000000000,-34000000000000,38500000000000,-19000000000000,-97500000000000,49000000000000,-104500000000000,67000000000000,50500000000000,-46000000000000,-14500000000000,32500000000000,-1000000000000,-61500000000000,141000000000000,-313000000000000,-19500000000000,-88000000000000,17000000000000,21000000000000,309500000000000,32500000000000,-15500000000000,18500000000000,-84000000000000,-10500000000000,0,-27000000000000,-33000000000000,91368421000000,-92368421000000,27500000000000,6500000000000,-10500000000000,30500000000000,-10052632000000,4552632000000,-2000000000000,8500000000000],"hashrate_average_7d":2805196289339285.5,"hashrate_average_7d_count":168,"expected_blocks":2.67,"multipool":16},{"url":"https:\/\/www.poolin.com","hashrate":32299999999999996,"miners":-1,"minpay":0.01,"id":3,"pool_id":"poolin.com","fee":3,"feetype":"PPS","data":{"url":"https:\/\/www.poolin.com","hashrate":-1,"miners":-1,"minpay":0.01,"id":3,"pool_id":"poolin.com","fee":3,"feetype":"PPS"},"i":13305,"json":{"err_no":0,"data":{"shares":{"shares_1m":31.412,"shares_5m":32.3,"shares_15m":32.508,"shares_1h":32.647,"shares_unit":"P"},"reject":{"1m":0,"5m":0,"15m":0.0041,"1h":0.0034},"workers":1310,"users":412,"total_blocks":139031,"total_rewards":104081827727976}},"workers":1310,"netdiff":6377349142.272974,"nethash":"91301686666878866","income":3.42723e-15,"blocks_nr":24,"lastblock":695780,"lastblocktime":1663644440,"country":"US|United States","blocks_1000":362,"blocks_count":37,"hashrate_average_100_count":73,"hashrate_average_100":31859370411494010,"hashrate_average_1h":32372555555555556,"history_start":1663038636,"history_interval":3600,"history_addlast":true,"history":[27551600000000000,-2076950000000000,456450000000000,1036450000000000,77350000000000,4182000000000000,1566000000000000,335450000000000,4900000000000,124850000000000,-92500000000000,80300000000000,-92700000000000,9650000000000,-268700000000000,60000000000000,-63950000000000,121050000000000,-59450000000000,-44168420000000,141268420000000,-252150000000000,-194650000000000,-420450000000000,234200000000000,-373700000000000,-208800000000000,74200000000000,-201800000000000,358100000000000,709750000000000,1282200000000000,256500000000000,65542110000000,127457890000000,-232950000000000,79450000000000,872750000000000,-102150000000000,19600000000000,-250200000000000,135450000000000,-325550000000000,-97900000000000,76700000000000,-105900000000000,143300000000000,489100000000000,237650000000000,-183500000000000,693797370000000,1233177630000000,-275475000000000,1042850000000000,-108350000000000,-2371050000000000,-2080700000000000,-148600000000000,-56300000000000,-540394740000000,309444740000000,-172050000000000,377900000000000,-202300000000000,107794740000000,-13894740000000,116250000000000,68350000000000,-128100000000000,155400000000000,-2064100000000000,822050000000000,71950000000000,-2364150000000000,1119900000000000,1254450000000000,-103850000000000,76950000000000,170750000000000,180050000000000,-6702900000000000,6168400000000000,19100000000000,-32800000000000,128000000000000,850000000000,110000000000000,19950000000000,217050000000000,8600000000000,2950000000000,348950000000000,323750000000000,-887950000000000,-4012950000000000,-62150000000000,-158500000000000,-453050000000000,-253600000000000,-292400000000000,80650000000000,626700000000000,-176000000000000,1109300000000000,-768000000000000,-212350000000000,17184210000000,116015790000000,-342650000000000,-41000000000000,-60250000000000,-110000000000000,-78150000000000,-15800000000000,21000000000000,296200000000000,-161750000000000,-130350000000000,-212600000000000,-130350000000000,-16900000000000,-60350000000000,90700000000000,112200000000000,-129150000000000,-30400000000000,69250000000000,203000000000000,-1271000000000000,1457450000000000,-40700000000000,146750000000000,-76100000000000,137650000000000,-70700000000000,-168550000000000,-90000000000000,64100000000000,-13300000000000,89150000000000,-2850000000000,3558700000000000,1900050000000000,-2994850000000000,-4799000000000000,-159600000000000,6168350000000000,1505250000000000,79500000000000,-19050000000000,-125250000000000,320200000000000,-236350000000000,87550000000000,14650000000000,-793300000000000,-28205260000000,-252228070000000,-107245620000000,110028950000000,236900000000000,131550000000000,-38600000000000,165200000000000,166552630000000,-15052630000000,299900000000000,44655560000000],"hashrate_average_7d":31031171850714290,"hashrate_average_7d_count":168,"hashrate_block":861064065175513.8,"expected_blocks":39.07,"luck":-2.065910672456212,"multipool":15},{"url":"https:\/\/pool.btc.com","hashrate":2842000000000000,"miners":-1,"minpay":0.1,"id":4,"pool_id":"pool.btc.com","feetype":"PPS","data":{"url":"https:\/\/pool.btc.com","hashrate":-1,"miners":-1,"minpay":0.1,"id":4,"pool_id":"pool.btc.com","feetype":"PPS"},"i":14225,"workers":94,"income":3.3721400476847e-15,"i_blocks":14267,"json_blocks":{"err_no":0,"data":{"blocks":{"current_page":1,"data":[{"height":695717,"is_orphaned":0,"hash":"00000000000000000e5a8997a3a43fdedf239e315eb057a74eae099976bf8ec9","rewards":"1.01340080","size":2500,"prev_hash":"00000000000000002826ca83d7ad10d18a511d31d67ed9d457049e92eebf2df3","bits":419474536,"version":9,"created_at":1663626883,"region_id":34,"region_name":"America"},{"height":695652,"is_orphaned":0,"hash":"00000000000000008c6148a250172192e1678762751a318625a7eae67c7e821a","rewards":"1.01340080","size":28012,"prev_hash":"0000000000000000635dd2bb12265580e16d698e9ade790cd89604dc5b8c8eca","bits":419477455,"version":9,"created_at":1663606950,"region_id":34,"region_name":"America"},{"height":695644,"is_orphaned":0,"hash":"00000000000000009a3a3c15967287308ab263d77fd5d563ddf3031bd76881e4","rewards":"1.01340080","size":24424,"prev_hash":"000000000000000033c64e9f281b1ef64657f0fad339bd118630295fa4c49368","bits":419477455,"version":9,"created_at":1663604175,"region_id":36,"region_name":"BitDeer"},{"height":695638,"is_orphaned":0,"hash":"0000000000000000528d6c90e9ee2318acb2a9a18f04b8b3fb5c92d2aed85636","rewards":"1.01340080","size":36339,"prev_hash":"000000000000000044fdf5c31c588792d29815567827713183784230f8f9bcde","bits":419477455,"version":9,"created_at":1663601369,"region_id":34,"region_name":"America"},{"height":695633,"is_orphaned":0,"hash":"0000000000000000746039dface46b797a101fa363b49d7140aa996ca19a8bd9","rewards":"1.01340080","size":46230,"prev_hash":"000000000000000064a70ee690cb216282665a72dea37d71bdf9215812e91b8e","bits":419477455,"version":9,"created_at":1663599828,"region_id":34,"region_name":"America"},{"height":695615,"is_orphaned":1,"hash":"00000000000000007886e84754d15a5ba665549243e046d61263a8212fd180be","rewards":0,"size":57841,"prev_hash":"fa6e070b000000008079eda52717e738c3dacdc69daf58231716469e7c06af19","bits":419477455,"version":9,"created_at":1663594761,"region_id":34,"region_name":"America"},{"height":695612,"is_orphaned":0,"hash":"00000000000000001f69f5d20ed74244ac1dc58417fbf05c75f51a5a65c62623","rewards":"1.01340080","size":5075,"prev_hash":"000000000000000028908d7bc405c977d25ab667c24b747212bff9220afedbb9","bits":419477455,"version":9,"created_at":1663594000,"region_id":34,"region_name":"America"},{"height":695579,"is_orphaned":0,"hash":"000000000000000071730380e0bbfca6b968c7a6790569fcae65c0200cd2214c","rewards":"1.01340080","size":46773,"prev_hash":"00000000000000003c8e0fef143acd195334d35974518f013d96000265c75913","bits":419477455,"version":9,"created_at":1663586242,"region_id":34,"region_name":"America"},{"height":695519,"is_orphaned":0,"hash":"0000000000000000aa0d14fccd98a2b37db671efd3409b1b9d8d4095140d496f","rewards":"1.01340080","size":2649,"prev_hash":"000000000000000038717059f00ae87f370a861bc9bab6cfc7eea31f4995bd80","bits":419478729,"version":9,"created_at":1663571096,"region_id":34,"region_name":"America"},{"height":695410,"is_orphaned":0,"hash":"0000000000000000a2f78278582d84bf761636b38c1f9af31f54d8971810533c","rewards":"1.01340080","size":26283,"prev_hash":"0000000000000000a7a5b48f4e724050c781ea0ba034a2e21220cc3cb3ba286b","bits":419478729,"version":9,"created_at":1663538124,"region_id":34,"region_name":"America"}],"first_page_url":"https:\/\/eu-api.connectbtc.com\/\/public\/v1\/pool\/blocks\/merge?order_by=desc&page_size=10&page=1","from":1,"last_page":2160,"last_page_url":"https:\/\/eu-api.connectbtc.com\/\/public\/v1\/pool\/blocks\/merge?order_by=desc&page_size=10&page=2160","next_page_url":"https:\/\/eu-api.connectbtc.com\/\/public\/v1\/pool\/blocks\/merge?order_by=desc&page_size=10&page=2","path":"https:\/\/eu-api.connectbtc.com\/\/public\/v1\/pool\/blocks\/merge","per_page":10,"prev_page_url":null,"to":10,"total":21591},"blocks_count":21591,"rewards_count":"189980.46123981"},"trace_id":"01695d88-ec84-453d-9f6b-dba7e1de0f54"},"blocks_nr":9,"lastblock":695717,"lastblocktime":"1663626883","country":"WL|CN , EU , US","blocks_1000":27,"blocks_count":1,"hashrate_average_100_count":73,"hashrate_average_100":2806083141588185,"hashrate_average_1h":2840000000000000,"history_start":1663038636,"history_interval":3600,"history_addlast":true,"history":[2773950000000000,-105650000000000,90700000000000,-276600000000000,-25250000000000,68500000000000,45650000000000,61250000000000,-52400000000000,81300000000000,119400000000000,-700000000000,12550000000000,27000000000000,31150000000000,-5750000000000,-175500000000000,79750000000000,150000000000,-4447368000000,18997368000000,2900000000000,-7350000000000,-224500000000000,-265100000000000,39200000000000,312350000000000,51500000000000,12250000000000,37250000000000,34200000000000,-14250000000000,-8050000000000,-2186842000000,56936842000000,8450000000000,6500000000000,-17150000000000,1550000000000,22400000000000,-19400000000000,-7050000000000,40400000000000,6900000000000,-19550000000000,-22300000000000,33800000000000,-28750000000000,-92600000000000,-32950000000000,6023684000000,-15526316000000,54902632000000,-10850000000000,1000000000000,-7250000000000,-3600000000000,2500000000000,29650000000000,-11194737000000,8894737000000,15850000000000,5750000000000,-28750000000000,-131060526000000,179377193000000,-2216667000000,950000000000,900000000000,-15350000000000,-1200000000000,-236550000000000,-325600000000000,3550000000000,25150000000000,-10200000000000,12900000000000,-11900000000000,4200000000000,-156350000000000,-59500000000000,49550000000000,208700000000000,329250000000000,-56550000000000,47850000000000,69600000000000,-6250000000000,43200000000000,46250000000000,-26800000000000,26200000000000,-20200000000000,-45550000000000,-1750000000000,-22300000000000,7100000000000,-150000000000,-27350000000000,11750000000000,-8500000000000,-7750000000000,-10300000000000,-7550000000000,-2050000000000,-21650000000000,-2700000000000,18400000000000,26750000000000,26550000000000,37350000000000,16450000000000,-13500000000000,-71850000000000,-18250000000000,-28650000000000,-39200000000000,-30500000000000,23950000000000,-45100000000000,-29500000000000,29300000000000,22350000000000,-30750000000000,-4550000000000,15150000000000,-24300000000000,20400000000000,32500000000000,23900000000000,34700000000000,21150000000000,-25700000000000,-27300000000000,25950000000000,-6150000000000,-21450000000000,-12100000000000,-32550000000000,50000000000,9050000000000,139050000000000,5800000000000,-10300000000000,10650000000000,-24250000000000,-22700000000000,-1900000000000,-63350000000000,-26850000000000,108300000000000,175350000000000,1550000000000,-28450000000000,-46850000000000,43950000000000,-20286842000000,52670175000000,-10196491000000,-5036842000000,22750000000000,10600000000000,-28550000000000,1650000000000,42850000000000,30450000000000,-3400000000000,-2050000000000],"hashrate_average_7d":2627138878446430,"hashrate_average_7d_count":168,"expected_blocks":3.44,"luck":-2.44081480371064,"multipool":7},{"url":"https:\/\/www.f2pool.com","hashrate":35322712971471824,"miners":-1,"minpay":0.1,"id":14,"pool_id":"f2pool.com","fee":3,"feetype":"PPS%3","data":{"url":"https:\/\/www.f2pool.com","hashrate":-1,"miners":-1,"minpay":0.1,"id":14,"pool_id":"f2pool.com","fee":3,"feetype":"PPS%3"},"i":2415,"income":3.0207870555467383e-15,"blocks_nr":7,"lastblock":695779,"lastblocktime":1663644061,"country":"WL|Global","blocks_1000":560,"blocks_count":59,"hashrate_average_100_count":73,"hashrate_average_100":46431382494462140,"hashrate_average_1h":29776014512590080,"history_start":1663038636,"history_interval":3600,"history_addlast":true,"history":[48990553140000000,-498455800000000,166944160000000,-122084180000000,221722000000000,-340989260000000,-329494780000000,585959270000000,63053320000000,284895560000000,-454027930000000,145864330000000,261093100000000,80285010000000,-262584140000000,-224287970000000,227946800000000,-145890000000,-228184920000000,66038910000000,-342524610000000,87984980000000,-388489270000000,-5535074240000000,-268895840000000,-470522250000000,498980750000000,4102922160000000,2496815170000000,-468341990000000,146307440000000,-117729450000000,454456530000000,-37008730000000,-655172860000000,295442880000000,170699940000000,160167210000000,-20562220000000,-515803240000000,407050870000000,47923770000000,-321720090000000,98072840000000,-350106320000000,590342100000000,379186330000000,425404410000000,-370745760000000,-273822330000000,349980370000000,-10932290000000,162876480000000,-185264120000000,-318320040000000,358886400000000,271499820000000,207257790000000,-899484090000000,544755620000000,-6307350000000,12835090000000,256046080000000,-301551510000000,200316190000000,40206000000000,-235454480000000,85364050000000,-501670000000000,640569180000000,92054700000000,411589030000000,-96114390000000,-305173440000000,148626460000000,-36363920000000,204880040000000,-254693110000000,44023190000000,102598010000000,-35502160000000,286877120000000,-857295040000000,220893060000000,277534280000000,117261710000000,70653370000000,-473585750000000,289883480000000,21816330000000,-75638740000000,-178171370000000,-358798670000000,672742640000000,135753320000000,-90247470000000,-917806240000000,-1011582610000000,529181460000000,122656670000000,-14652460000000,-157579070000000,-201305450000000,742830860000000,1641472230000000,50128230000000,-261844830000000,549477810000000,114552610000000,285430000000,-203921760000000,-70234990000000,354977610000000,-267096900000000,42275940000000,-125874340000000,-356606730000000,564022620000000,-98914620000000,-298730910000000,-25267910000000,-439487570000000,140631600000000,149930120000000,-247110880000000,28508740000000,289029700000000,168800880000000,-69548940000000,55699820000000,-424751180000000,298538870000000,146566510000000,107713790000000,83348920000000,-524257620000000,280392000000000,98566970000000,157075470000000,215738340000000,-763575130000000,410757600000000,199012990000000,-371142470000000,-10256470890000000,-1192449600000000,1489609160000000,10199964080000000,171819670000000,25664190000000,-10941520000000,112199150000000,245539970000000,-65975090000000,-406393330000000,345528480000000,177140850000000,12274770000000,-70073820000000,-449665840000000,521928220000000,-42058350000000,-101794190000000,-189266950000000,-510588990000000,-2749127300000000,-21169012990000000,3130732870000000],"hashrate_average_7d":49055790768035720,"hashrate_average_7d_count":168,"hashrate_block":786972584651900.8,"expected_blocks":56.93,"luck":2.0659106724562193,"multipool":33}],"hashblock":{"hashrate_average_100":78290752905956160,"blocks_count":96,"pools":[[861064065175513.8,37,23272001761500.37,"https:\/\/www.poolin.com"],[786972584651900.8,59,13338518383930.521,"https:\/\/www.f2pool.com"]],"hashrate_block_all":815528676103710,"hashrate_block_min":13338518383930.521,"hashrate_block_max":23272001761500.37,"pool_hashblock_average":18305260072715.445,"hashrate_block":815528676103710},"time":1663644875,"hashrate":92160000000000000,"difficulty":6377349142.272974,"height":695780,"symbol":"DCR","maxhash":35322712971471824,"poolshash":73308024426845260,"nethash_estimat":81552867610371000,"poolsminers":1440,"supply":{"circulating":14361876.82525401,"total":21000000,"emission24":2765},"block_time_target":300,"block_height_ok":true,"algo":"Blake256R14","hashrate_from_diff":false,"hashrate_src":"https:\/\/lab.antpool.com","unit":"H\/s","block_time_average":285.2,"minerstat":[1.332064110037e-16,24.703100454436,1.0134975,2715],"link":{"coingecko":"decred","cmc":"decred","whattomine":"152-dcr-blake (14r)","coin360":"decred-dcr","coinpaprika":"dcr-decred"},"latest_release":{"tag":"release-v1.7.4","name":"dcrd v1.7.4","t":1659553036},"price":24.69}