{"data":[{"url":"https:\/\/www.okx.com\/pool","hashrate":8930000000000,"miners":-1,"minpay":-1,"id":23,"pool_id":"okx.com","data":{"url":"https:\/\/www.okx.com\/pool","hashrate":-1,"miners":-1,"minpay":-1,"id":23,"pool_id":"okx.com"},"i":1609,"workers":1,"lastblock":630904,"feetype":"PPLNS","fee":2,"country":"HK|Hong Kong","hashrate_average_100_count":78,"hashrate_average_100":9065241386217.95,"hashrate_average_1h":8385454545454.546,"history_start":1663294234,"history_interval":3600,"history_addlast":true,"history":[9443000000000,-1770500000000,992500000000,51500000000,-140500000000,-974000000000,1158500000000,-231000000000,173500000000,131500000000,257000000000,-679500000000,61000000000,479500000000,634000000000,-1178000000000,-219500000000,1052500000000,-494000000000,491500000000,-418000000000,232000000000,252000000000,-223500000000,-596000000000,334500000000,981000000000,59000000000,-1110500000000,689000000000,-1052000000000,803000000000,-156000000000,509500000000,570000000000,-1551947368000,-17552632000,597000000000,-1500000000,-787500000000,1478000000000,-245500000000,-509000000000,21000000000,214000000000,-1439000000000,1360000000000,-242000000000,-1028000000000,146500000000,213000000000,1066500000000,970500000000,-10357500000000,0,0,0,0,0,0,0,0,0,0,0,0,0,0,0,0,0,0,0,0,0,0,0,0,0,0,0,0,0,0,0,0,0,0,0,0,0,0,0,0,0,0,0,5822000000000,4060631579000,-472631579000,-33500000000,-1414500000000,700000000000,-59000000000,16000000000,567000000000,205000000000,-615000000000,449500000000,3500000000,303000000000,-314500000000,45000000000,1267000000000,-1264000000000,8000000000,-958000000000,165500000000,-79000000000,-128000000000,935000000000,-109500000000,-9099500000000,0,0,0,0,0,8740000000000,769500000000,-253500000000,-387500000000,-121500000000,-618000000000,573000000000,-316000000000,2718000000000,-202000000000,-1825157895000,1664157895000,-2868500000000,1083000000000,6500000000,311500000000,-1570500000000,1409000000000,227000000000,137000000000,-929000000000,211000000000,2065500000000,-1482500000000,12000000000,330000000000,-2148000000000,2757000000000,-858000000000,-1311000000000,112000000000,-6838000000000,6890500000000,712500000000,-739000000000,726500000000,-970500000000,1316000000000,115500000000,-86000000000,-977045455000],"hashrate_average_7d":6265348999177.516,"hashrate_average_7d_count":169,"expected_blocks":0.01,"multipool":5},{"url":"https:\/\/www2.coinmine.pl\/dcr","hashrate":555096883465769,"miners":-1,"minpay":0.05,"id":5,"pool_id":"coinmine.pl","data":{"url":"https:\/\/www2.coinmine.pl\/dcr","hashrate":-1,"miners":-1,"minpay":-1,"id":5,"pool_id":"coinmine.pl"},"i":12272,"workers":36,"blocks_nr":5,"lastblock":696386,"lastblocktime":"1663837845","fee":1,"feetype":"PPLNS","height":696616,"country":"WL|EU , US , Asia","blocks_1000":3,"hashrate_average_100_count":78,"hashrate_average_100":526002911252637.6,"hashrate_average_1h":526072845998016.75,"history_start":1663294234,"history_interval":3600,"history_addlast":true,"history":[520919817900000,-11117620500000,-6755542700000,18924196500000,-11482300500000,-4638343000000,14151106200000,-138411900000,-5514447600000,35816823900000,-40879680200000,-2222119800000,9287149800000,6339167300000,-6589073300000,-7826001600000,-3248102300000,-24456893600000,-6139654800000,-6635606100000,10223295100000,10083850200000,-2082191600000,-10358388900000,11453912000000,-21740713500000,19597315200000,14504859800000,37639655100000,-29054628800000,1128539000000,12789783000000,-13904398900000,5076186000000,44756255000000,-8932155000000,-7104498200000,-3569846500000,5551230300000,-4300572300000,12251812000000,-32076920600000,-345336400000,12615942400000,22114054400000,-10943591900000,-114309000000,9522657900000,-12191123000000,19177827400000,-12773718500000,10393406300000,-29373722000000,19313333500000,-5406082500000,-1669389300000,22592494000000,-8106820500000,11329718500000,-12715405800000,1352591600000,488235800000,-10300124100000,21687042700000,-16195965700000,-6236415400000,11785622000000,-6566013300000,-10392778500000,15374143000000,-2980056100000,5726096000000,1909133300000,841157800000,-1693062000000,-861376900000,-19030531600000,14751725000000,-3024418400000,-4368104600000,-9664267300000,27765476200000,-11544197600000,-17292200000,-11199733000000,-27854155700000,4680818900000,537566800000,-28674435400000,-1450329300000,8082463700000,7654814100000,-16997516100000,21247841800000,-12273191400000,4930633900000,-11632647300000,-6251990300000,9445861400000,7483570700000,28752643500000,-2789816400000,-3286694200000,-2550373300000,760219400000,16463375100000,-4179868200000,-4912960200000,-4755567300000,-21551520400000,-19477423200000,16628053700000,-11216797600000,14930812700000,-7896565300000,-7619148900000,12708561900000,19187086100000,10502546800000,-19173821300000,9064762900000,2818033100000,11323937900000,-2598688500000,866029400000,-3719159800000,-6958487700000,-7390975600000,21788800300000,-7765291900000,-690029900000,4555612800000,8067901300000,-20144737500000,-3189537500000,16334244900000,-8994036000000,-86372300000,8229833600000,-17196657000000,4992842100000,-1737228400000,-8412589500000,18802030100000,-341064900000,4385105900000,-6366766000000,7082828100000,-13659646500000,13100013100000,-12522500800000,4271648400000,-17453531400000,15013765800000,-7619108700000,6577362000000,2790971800000,11499001300000,3970740900000,-2941923700000,-5501203100000,-20510004400000,5748706600000,23802531000000,-15814495000000,24448119900000,-17442808500000,-12387838300000,7776992700000],"hashrate_average_7d":524227461553846.3,"hashrate_average_7d_count":169,"expected_blocks":0.59,"multipool":6},{"url":"https:\/\/lab.antpool.com","hashrate":3170000000000000,"miners":-1,"minpay":0.1,"id":11,"pool_id":"antpool.com","data":{"url":"https:\/\/lab.antpool.com","hashrate":-1,"miners":-1,"minpay":-1,"id":11,"pool_id":"antpool.com"},"i":2060,"nethash":78970000000000000,"netdiff":5372193032,"feetype":"PPS","fee":3,"income":3.6809075e-15,"country":"WL|Global","hashrate_average_100_count":78,"hashrate_average_100":3376559495192307.5,"hashrate_average_1h":3300000000000000,"history_start":1663294234,"history_interval":3600,"history_addlast":true,"history":[2842000000000000,-20500000000000,-37500000000000,417500000000000,-55500000000000,47500000000000,44500000000000,-116000000000000,115500000000000,136500000000000,-104500000000000,-33500000000000,50000000000000,-13500000000000,-55500000000000,-1000000000000,-10000000000000,40500000000000,59000000000000,-71000000000000,-15500000000000,-31500000000000,70500000000000,3000000000000,1000000000000,-22000000000000,-20000000000000,-21000000000000,17500000000000,-18500000000000,58000000000000,-70500000000000,53500000000000,-39000000000000,-98000000000000,-185684211000000,-92315789000000,45000000000000,-85500000000000,95000000000000,148000000000000,20000000000000,-57000000000000,27500000000000,-19000000000000,-8000000000000,17000000000000,-12500000000000,17500000000000,-87000000000000,-3500000000000,48000000000000,55500000000000,-84500000000000,141000000000000,261500000000000,500000000000,-27500000000000,-978500000000000,-34000000000000,38500000000000,-19000000000000,-97500000000000,49000000000000,-104500000000000,67000000000000,50500000000000,-46000000000000,-14500000000000,32500000000000,-1000000000000,-61500000000000,141000000000000,-313000000000000,-19500000000000,-88000000000000,17000000000000,21000000000000,309500000000000,32500000000000,-15500000000000,18500000000000,-84000000000000,-10500000000000,0,-27000000000000,-33000000000000,91368421000000,-92368421000000,27500000000000,6500000000000,-10500000000000,30500000000000,-10052632000000,4552632000000,-2000000000000,2500000000000,54500000000000,-18500000000000,27500000000000,40000000000000,-1000000000000,-14000000000000,738500000000000,282500000000000,-12500000000000,31500000000000,19500000000000,-1500000000000,-22000000000000,-108000000000000,45000000000000,-4000000000000,36500000000000,-65500000000000,16500000000000,-12000000000000,75500000000000,-28000000000000,-19000000000000,28000000000000,-5000000000000,-13500000000000,66000000000000,11500000000000,-75000000000000,-82000000000000,143000000000000,-7000000000000,-35000000000000,29000000000000,-5500000000000,-9000000000000,6000000000000,-52500000000000,-22500000000000,-15000000000000,101000000000000,-88000000000000,45000000000000,-27000000000000,14000000000000,11000000000000,21500000000000,35000000000000,-54000000000000,147500000000000,-78000000000000,-23000000000000,-64500000000000,1000000000000,-20000000000000,103000000000000,100500000000000,26500000000000,-42500000000000,53500000000000,-71000000000000,-47500000000000,63000000000000,-92000000000000,79000000000000,-13000000000000,18500000000000,-13500000000000,-35500000000000,-3000000000000,-106500000000000,42000000000000],"hashrate_average_7d":2950267050757395,"hashrate_average_7d_count":169,"expected_blocks":3.8,"multipool":16},{"url":"https:\/\/www.poolin.com","hashrate":34342000000000000,"miners":-1,"minpay":0.01,"id":3,"pool_id":"poolin.com","fee":3,"feetype":"PPS","data":{"url":"https:\/\/www.poolin.com","hashrate":-1,"miners":-1,"minpay":0.01,"id":3,"pool_id":"poolin.com","fee":3,"feetype":"PPS"},"i":13333,"json":{"err_no":0,"data":{"shares":{"shares_1m":32.778,"shares_5m":34.342,"shares_15m":34.902,"shares_1h":33.715,"shares_unit":"P"},"reject":{"1m":0,"5m":0,"15m":0.0024,"1h":0.0019},"workers":1472,"users":406,"total_blocks":139298,"total_rewards":104108763921240}},"workers":1472,"netdiff":5372193032.472421,"nethash":"76911311267463604","income":4.06848e-15,"blocks_nr":21,"lastblock":696617,"lastblocktime":1663904333,"country":"US|United States","blocks_1000":325,"blocks_count":38,"hashrate_average_100_count":78,"hashrate_average_100":31841766426282050,"hashrate_average_1h":34380000000000000,"history_start":1663294234,"history_interval":3600,"history_addlast":true,"history":[32026850000000000,71950000000000,-2364150000000000,1119900000000000,1254450000000000,-103850000000000,76950000000000,170750000000000,180050000000000,-6702900000000000,6168400000000000,19100000000000,-32800000000000,128000000000000,850000000000,110000000000000,19950000000000,217050000000000,8600000000000,2950000000000,348950000000000,323750000000000,-887950000000000,-4012950000000000,-62150000000000,-158500000000000,-453050000000000,-253600000000000,-292400000000000,80650000000000,626700000000000,-176000000000000,1109300000000000,-768000000000000,-212350000000000,17184210000000,116015790000000,-342650000000000,-41000000000000,-60250000000000,-110000000000000,-78150000000000,-15800000000000,21000000000000,296200000000000,-161750000000000,-130350000000000,-212600000000000,-130350000000000,-16900000000000,-60350000000000,90700000000000,112200000000000,-129150000000000,-30400000000000,69250000000000,203000000000000,-1271000000000000,1457450000000000,-40700000000000,146750000000000,-76100000000000,137650000000000,-70700000000000,-168550000000000,-90000000000000,64100000000000,-13300000000000,89150000000000,-2850000000000,3558700000000000,1900050000000000,-2994850000000000,-4799000000000000,-159600000000000,6168350000000000,1505250000000000,79500000000000,-19050000000000,-125250000000000,320200000000000,-236350000000000,87550000000000,14650000000000,-793300000000000,-28205260000000,-252228070000000,-107245620000000,110028950000000,236900000000000,131550000000000,-38600000000000,165200000000000,166552630000000,-15052630000000,299900000000000,109100000000000,-56850000000000,-10413160000000,-48586840000000,-61250000000000,-65850000000000,-4744050000000000,-686300000000000,-106850000000000,-513250000000000,-59700000000000,-400000000000,-167350000000000,137250000000000,-12650000000000,-55300000000000,-246850000000000,-101700000000000,125950000000000,7200000000000,100900000000000,33100000000000,-50550000000000,75650000000000,15050000000000,-14900000000000,11300000000000,-144050000000000,146800000000000,-69150000000000,-3017700000000000,-2315800000000000,-1708950000000000,1570400000000000,825650000000000,-41850000000000,23250000000000,-189500000000000,-453850000000000,-208550000000000,21550000000000,-58400000000000,190655260000000,-122905260000000,-12850000000000,4150000000000,112800000000000,-81300000000000,80650000000000,83850000000000,266050000000000,92000000000000,466750000000000,-52150000000000,2434550000000000,3023050000000000,-165700000000000,4310100000000000,3866750000000000,-53200000000000,84650000000000,539100000000000,-145650000000000,600000000000,-2479900000000000,-1282450000000000,63400000000000,132700000000000,-224200000000000,186750000000000,-111600000000000,385150000000000,2467750000000000],"hashrate_average_7d":28078571665088760,"hashrate_average_7d_count":169,"hashrate_block":837941221744264.4,"expected_blocks":35.83,"luck":2.173093323292605,"multipool":15},{"url":"https:\/\/pool.btc.com","hashrate":2554000000000000,"miners":-1,"minpay":0.1,"id":4,"pool_id":"pool.btc.com","feetype":"PPS","data":{"url":"https:\/\/pool.btc.com","hashrate":-1,"miners":-1,"minpay":0.1,"id":4,"pool_id":"pool.btc.com","feetype":"PPS"},"i":14253,"workers":84,"income":3.3721400476847e-15,"i_blocks":14295,"json_blocks":{"err_no":0,"data":{"blocks":{"current_page":1,"data":[{"height":696599,"is_orphaned":0,"hash":"0000000000000000710a7c731675383c8de9857a8fe0f61821de19df7e946216","rewards":"1.01340080","size":24102,"prev_hash":"0000000000000000c95cd3be199aac5b8b792e98adc189d25e7111cf00fdc342","bits":419482794,"version":9,"created_at":1663898875,"region_id":34,"region_name":"America"},{"height":696596,"is_orphaned":0,"hash":"00000000000000007671ac081cffccb8180dcc2f34907fbfb6839400a2873e6a","rewards":"1.01340080","size":13334,"prev_hash":"00000000000000001bca28b88c24a3178ec1e528dbf32020589b543bd5358742","bits":419482794,"version":9,"created_at":1663898395,"region_id":34,"region_name":"America"},{"height":696595,"is_orphaned":0,"hash":"00000000000000001bca28b88c24a3178ec1e528dbf32020589b543bd5358742","rewards":"1.01340080","size":13116,"prev_hash":"00000000000000008298c572e355750fbca47a39e2dcafadd96e53eb321b8c19","bits":419482794,"version":9,"created_at":1663898247,"region_id":34,"region_name":"America"},{"height":696560,"is_orphaned":1,"hash":"00000000000000004a2e8c43c46fa71f574d3502f016427ab563615464d65950","rewards":0,"size":2799,"prev_hash":"fa6e070b00000000cc6f82a8e2dfaeaf624026fcacff7f671717512fa00a25fd","bits":419482794,"version":9,"created_at":1663887852,"region_id":34,"region_name":"America"},{"height":696545,"is_orphaned":0,"hash":"000000000000000034ebea6123eb7ddcbe982127c97fec067156839a8a847704","rewards":"1.01340080","size":44198,"prev_hash":"000000000000000011e38d6237a8473fbfe508a7a76cd9785fef469e7f3fab7c","bits":419482794,"version":9,"created_at":1663885183,"region_id":34,"region_name":"America"},{"height":696500,"is_orphaned":0,"hash":"00000000000000004ee26b5ae6703092d6de35e2bfc669d9cff0072466ce7773","rewards":"1.01340080","size":59344,"prev_hash":"0000000000000000025902d6adf296fca9b3b64ce08acabf6a1bfc2abcc1d3af","bits":419482372,"version":9,"created_at":1663870565,"region_id":36,"region_name":"BitDeer"},{"height":696488,"is_orphaned":0,"hash":"000000000000000075a5738b7ed26fb761fdb6f66b31f9db6788123eda9c1336","rewards":"1.01340080","size":8489,"prev_hash":"00000000000000004c2ba63efcdc1665be7161cf8ec2901faada6370132d9045","bits":419482372,"version":9,"created_at":1663867274,"region_id":36,"region_name":"BitDeer"},{"height":696482,"is_orphaned":0,"hash":"0000000000000000821b840ff29ea657241a9d72a848f7d653d5f1cf8043e007","rewards":"1.01340080","size":47689,"prev_hash":"000000000000000091d01efe195feea017d3175313090f8ed11fcd40332d40bc","bits":419482372,"version":9,"created_at":1663866099,"region_id":34,"region_name":"America"},{"height":696462,"is_orphaned":0,"hash":"00000000000000002ce44d20314fa628875df43be9ee8a46e4d6df02bff0d022","rewards":"1.01340080","size":2742,"prev_hash":"0000000000000000278db4e12c59791aa948e1483e56e7f4776ba1c06548c27e","bits":419482372,"version":9,"created_at":1663860190,"region_id":34,"region_name":"America"},{"height":696449,"is_orphaned":0,"hash":"0000000000000000c66f5a39c8dc5984d228fc19041ebf4d2cb363643b79ae43","rewards":"1.01340080","size":4452,"prev_hash":"000000000000000006d6a45433a47c842395825eb0d5c9da37e93f07d2159ef9","bits":419482372,"version":9,"created_at":1663855458,"region_id":34,"region_name":"America"}],"first_page_url":"https:\/\/eu-api.connectbtc.com\/\/public\/v1\/pool\/blocks\/merge?order_by=desc&page_size=10&page=1","from":1,"last_page":2163,"last_page_url":"https:\/\/eu-api.connectbtc.com\/\/public\/v1\/pool\/blocks\/merge?order_by=desc&page_size=10&page=2163","next_page_url":"https:\/\/eu-api.connectbtc.com\/\/public\/v1\/pool\/blocks\/merge?order_by=desc&page_size=10&page=2","path":"https:\/\/eu-api.connectbtc.com\/\/public\/v1\/pool\/blocks\/merge","per_page":10,"prev_page_url":null,"to":10,"total":21627},"blocks_count":21627,"rewards_count":"190015.72758765"},"trace_id":"e16d0f94-44c0-42e2-ac13-361128886a2b"},"blocks_nr":9,"lastblock":696599,"lastblocktime":"1663898838","country":"WL|CN , EU , US","blocks_1000":40,"blocks_count":4,"hashrate_average_100_count":78,"hashrate_average_100":2536734875801282,"hashrate_average_1h":2585272727272727.5,"history_start":1663294234,"history_interval":3600,"history_addlast":true,"history":[2511700000000000,-325600000000000,3550000000000,25150000000000,-10200000000000,12900000000000,-11900000000000,4200000000000,-156350000000000,-59500000000000,49550000000000,208700000000000,329250000000000,-56550000000000,47850000000000,69600000000000,-6250000000000,43200000000000,46250000000000,-26800000000000,26200000000000,-20200000000000,-45550000000000,-1750000000000,-22300000000000,7100000000000,-150000000000,-27350000000000,11750000000000,-8500000000000,-7750000000000,-10300000000000,-7550000000000,-2050000000000,-21650000000000,-2700000000000,18400000000000,26750000000000,26550000000000,37350000000000,16450000000000,-13500000000000,-71850000000000,-18250000000000,-28650000000000,-39200000000000,-30500000000000,23950000000000,-45100000000000,-29500000000000,29300000000000,22350000000000,-30750000000000,-4550000000000,15150000000000,-24300000000000,20400000000000,32500000000000,23900000000000,34700000000000,21150000000000,-25700000000000,-27300000000000,25950000000000,-6150000000000,-21450000000000,-12100000000000,-32550000000000,50000000000,9050000000000,139050000000000,5800000000000,-10300000000000,10650000000000,-24250000000000,-22700000000000,-1900000000000,-63350000000000,-26850000000000,108300000000000,175350000000000,1550000000000,-28450000000000,-46850000000000,43950000000000,-20286842000000,52670175000000,-10196491000000,-5036842000000,22750000000000,10600000000000,-28550000000000,1650000000000,42850000000000,30450000000000,-3400000000000,11100000000000,-22100000000000,19476316000000,-1526316000000,50250000000000,-9200000000000,-7550000000000,-17950000000000,4700000000000,-13100000000000,-35650000000000,-1700000000000,50000000000,-172650000000000,187700000000000,16850000000000,11400000000000,4250000000000,6150000000000,-39200000000000,-64250000000000,-124850000000000,116750000000000,-11650000000000,-7400000000000,29000000000000,-20500000000000,-11700000000000,-50650000000000,12450000000000,-14250000000000,-6450000000000,8600000000000,-15100000000000,2600000000000,-25000000000000,-49650000000000,-10750000000000,52300000000000,-20900000000000,30950000000000,-66000000000000,-16005263000000,-45494737000000,37350000000000,-14350000000000,17050000000000,81100000000000,48650000000000,-10250000000000,-13950000000000,22700000000000,38150000000000,-32250000000000,-13750000000000,-26250000000000,-2800000000000,-108950000000000,-56000000000000,2750000000000,30050000000000,16450000000000,44250000000000,1800000000000,-16000000000000,-38550000000000,-5450000000000,21550000000000,-23800000000000,-3000000000000,-5800000000000,54150000000000,15022727000000],"hashrate_average_7d":2615950456289941.5,"hashrate_average_7d_count":169,"hashrate_block":634183718950320.5,"expected_blocks":2.85,"luck":1.1457813476118348,"multipool":7},{"url":"https:\/\/www.f2pool.com","hashrate":51587466417802760,"miners":-1,"minpay":0.1,"id":14,"pool_id":"f2pool.com","fee":3,"feetype":"PPS%3","data":{"url":"https:\/\/www.f2pool.com","hashrate":-1,"miners":-1,"minpay":0.1,"id":14,"pool_id":"f2pool.com","fee":3,"feetype":"PPS%3"},"i":2440,"income":3.585986881192582e-15,"blocks_nr":11,"lastblock":696616,"lastblocktime":1663904040,"country":"WL|Global","blocks_1000":600,"blocks_count":56,"hashrate_average_100_count":78,"hashrate_average_100":51702315988638570,"hashrate_average_1h":51679212289373540,"history_start":1663294234,"history_interval":3600,"history_addlast":true,"history":[50034591830000000,-96114390000000,-305173440000000,148626460000000,-36363920000000,204880040000000,-254693110000000,44023190000000,102598010000000,-35502160000000,286877120000000,-857295040000000,220893060000000,277534280000000,117261710000000,70653370000000,-473585750000000,289883480000000,21816330000000,-75638740000000,-178171370000000,-358798670000000,672742640000000,135753320000000,-90247470000000,-917806240000000,-1011582610000000,529181460000000,122656670000000,-14652460000000,-157579070000000,-201305450000000,742830860000000,1641472230000000,50128230000000,-261844830000000,549477810000000,114552610000000,285430000000,-203921760000000,-70234990000000,354977610000000,-267096900000000,42275940000000,-125874340000000,-356606730000000,564022620000000,-98914620000000,-298730910000000,-25267910000000,-439487570000000,140631600000000,149930120000000,-247110880000000,28508740000000,289029700000000,168800880000000,-69548940000000,55699820000000,-424751180000000,298538870000000,146566510000000,107713790000000,83348920000000,-524257620000000,280392000000000,98566970000000,157075470000000,215738340000000,-763575130000000,410757600000000,199012990000000,-371142470000000,-10256470890000000,-1192449600000000,1489609160000000,10199964080000000,171819670000000,25664190000000,-10941520000000,112199150000000,245539970000000,-65975090000000,-406393330000000,345528480000000,177140850000000,12274770000000,-70073820000000,-449665840000000,521928220000000,-42058350000000,-101794190000000,-189266950000000,-510588990000000,-2749127300000000,-21169012990000000,10380416430000000,14173271890000000,-34434200000000,565561860000000,-198135030000000,92386290000000,-199495780000000,125502670000000,252777100000000,-99203320000000,24171630000000,-413984300000000,338539220000000,211222280000000,98319370000000,-358642680000000,-751595570000000,677076310000000,70537940000000,-20027170000000,-935530000000,-784680400000000,902899540000000,-108251160000000,2237510000000,1001430000000,-690449550000000,806389720000000,3012340000000,-128206180000000,-89231590000000,18693150000000,118929220000000,191598860000000,-191157030000000,-320494550000000,288051020000000,-41435010000000,145338140000000,-139715920000000,-650226010000000,401181600000000,53038100000000,221048950000000,-136928150000000,-534173780000000,620840060000000,3753570000000,-6416624680000000,2462923200000000,3779504060000000,345601250000000,-124678680000000,60819150000000,-76431220000000,-94601940000000,223854390000000,-175878980000000,-102345650000000,-409750920000000,804617120000000,-383012430000000,-215312320000000,125491740000000,-173345690000000,390075840000000,148011410000000,79543530000000,-1651410000000,-565254420000000,459268430000000,131472770000000,-134757190000000],"hashrate_average_7d":50343370922366870,"hashrate_average_7d_count":169,"hashrate_block":923255642654260.1,"expected_blocks":58.17,"luck":-2.173093323292605,"multipool":33}],"hashblock":{"hashrate_average_100":83544082414920600,"blocks_count":94,"pools":[[837941221744264.4,38,22051084782743.8,"https:\/\/www.poolin.com"],[634183718950320.5,4,158545929737580.12,"https:\/\/pool.btc.com"],[923255642654260.1,56,16486707904540.36,"https:\/\/www.f2pool.com"]],"hashrate_block_all":878375686640019.2,"hashrate_block_min":16486707904540.36,"hashrate_block_max":158545929737580.12,"pool_hashblock_average":65694574141621.44,"ignored":[[634183718950320.5,4,158545929737580.12,"https:\/\/pool.btc.com"]],"hashrate_block":888766834201283.1},"time":1663904434,"hashrate":78970000000000000,"difficulty":5372193032.472421,"height":696617,"symbol":"DCR","maxhash":51587466417802760,"poolshash":92217493301268530,"nethash_estimat":88876683420128320,"poolsminers":1593,"supply":{"circulating":14369472.46697181,"total":21000000,"emission24":2650},"block_time_target":300,"block_height_ok":true,"algo":"Blake256R14","hashrate_from_diff":false,"hashrate_src":"https:\/\/lab.antpool.com","unit":"H\/s","block_time_average":295.9,"minerstat":[1.6119489935357e-16,26.365051470611,1.03314259,2358],"link":{"coingecko":"decred","cmc":"decred","whattomine":"152-dcr-blake (14r)","coin360":"decred-dcr","coinpaprika":"dcr-decred"},"latest_release":{"tag":"release-v1.7.4","name":"dcrd v1.7.4","t":1659553036},"price":26.52}