{"data":[{"url":"https:\/\/www.okx.com\/pool","hashrate":8870000000000,"miners":-1,"minpay":-1,"id":23,"pool_id":"okx.com","data":{"url":"https:\/\/www.okx.com\/pool","hashrate":-1,"miners":-1,"minpay":-1,"id":23,"pool_id":"okx.com"},"i":1609,"workers":1,"lastblock":630904,"feetype":"PPLNS","fee":2,"country":"HK|Hong Kong","hashrate_average_100_count":75,"hashrate_average_100":8840162500000,"hashrate_average_1h":8431764705882.353,"history_start":1663641634,"history_interval":3600,"history_addlast":true,"history":[0,5822000000000,4060631579000,-472631579000,-33500000000,-1414500000000,700000000000,-59000000000,16000000000,567000000000,205000000000,-615000000000,449500000000,3500000000,303000000000,-314500000000,45000000000,1267000000000,-1264000000000,8000000000,-958000000000,165500000000,-79000000000,-128000000000,935000000000,-109500000000,-9099500000000,0,0,0,0,0,8740000000000,769500000000,-253500000000,-387500000000,-121500000000,-618000000000,573000000000,-316000000000,2718000000000,-202000000000,-1825157895000,1664157895000,-2868500000000,1083000000000,6500000000,311500000000,-1570500000000,1409000000000,227000000000,137000000000,-929000000000,211000000000,2065500000000,-1482500000000,12000000000,330000000000,-2148000000000,2757000000000,-858000000000,-1311000000000,112000000000,-6838000000000,6890500000000,712500000000,-739000000000,726500000000,-970500000000,1316000000000,115500000000,-86000000000,-644000000000,110000000000,-426000000000,414500000000,253500000000,355000000000,378500000000,-816631579000,644631579000,-456500000000,394500000000,-108500000000,-557500000000,-515000000000,212052632000,-200552632000,564000000000,358000000000,-1165000000000,1275500000000,468000000000,83500000000,-386500000000,106000000000,-677500000000,-687000000000,888000000000,771500000000,28000000000,-1194000000000,-709000000000,719500000000,144500000000,-559578947000,-121421053000,107000000000,2331000000000,-2351500000000,94500000000,-116000000000,-629000000000,1019000000000,363500000000,15500000000,146500000000,679000000000,-882500000000,1401500000000,-809000000000,418000000000,-360000000000,-173000000000,101000000000,-1218500000000,623000000000,-1194500000000,1789500000000,504000000000,-878000000000,1093000000000,155500000000,-2324500000000,477000000000,272500000000,-111000000000,813500000000,-1023000000000,335000000000,36000000000,233000000000,-481000000000,1157000000000,-503500000000,-1440000000000,1576000000000,706500000000,308421050000,-1914921050000,-776357143000,1334436090000,-936078947000,-125500000000,1480500000000,-837500000000,772500000000,40000000000,-358500000000,86500000000,-1075500000000,-25000000000,-56333333000,946333333000,-241500000000,660500000000,-927000000000,-183235294000],"hashrate_average_7d":8642538035815.471,"hashrate_average_7d_count":168,"expected_blocks":0.01,"multipool":5},{"url":"https:\/\/www2.coinmine.pl\/dcr","hashrate":504055409452558,"miners":-1,"minpay":0.05,"id":5,"pool_id":"coinmine.pl","data":{"url":"https:\/\/www2.coinmine.pl\/dcr","hashrate":-1,"miners":-1,"minpay":-1,"id":5,"pool_id":"coinmine.pl"},"i":12292,"workers":37,"blocks_nr":5,"lastblock":697443,"lastblocktime":"1664156599","fee":1,"feetype":"PPLNS","height":697778,"country":"WL|EU , US , Asia","blocks_1000":5,"hashrate_average_100_count":75,"hashrate_average_100":487947117638283.2,"hashrate_average_1h":480009069223767.5,"history_start":1663641634,"history_interval":3600,"history_addlast":true,"history":[489005528300000,-6251990300000,9445861400000,7483570700000,28752643500000,-2789816400000,-3286694200000,-2550373300000,760219400000,16463375100000,-4179868200000,-4912960200000,-4755567300000,-21551520400000,-19477423200000,16628053700000,-11216797600000,14930812700000,-7896565300000,-7619148900000,12708561900000,19187086100000,10502546800000,-19173821300000,9064762900000,2818033100000,11323937900000,-2598688500000,866029400000,-3719159800000,-6958487700000,-7390975600000,21788800300000,-7765291900000,-690029900000,4555612800000,8067901300000,-20144737500000,-3189537500000,16334244900000,-8994036000000,-86372300000,8229833600000,-17196657000000,4992842100000,-1737228400000,-8412589500000,18802030100000,-341064900000,4385105900000,-6366766000000,7082828100000,-13659646500000,13100013100000,-12522500800000,4271648400000,-17453531400000,15013765800000,-7619108700000,6577362000000,2790971800000,11499001300000,3970740900000,-2941923700000,-5501203100000,-20510004400000,5748706600000,23802531000000,-15814495000000,24448119900000,-17442808500000,-12387838300000,11872390900000,4833163700000,-10321022700000,-1623093800000,11708919300000,-18041721200000,3232681700000,25708982200000,-20373418100000,-19727555100000,24067890200000,-6308058700000,6345815200000,-2808942800000,14295151100000,-18590274000000,-405288500000,2402165700000,-7808701200000,13139917500000,7794379600000,-7720180700000,-3880931600000,-2660767800000,501429300000,-4837179900000,-5218051500000,29975997800000,-29321958300000,8173649000000,-4607451000000,10429068300000,-1457424600000,-1360561000000,-3409465300000,-1704356600000,-9235676900000,-22808874300000,-654918200000,10933734600000,9678265600000,-8079879100000,-8943679900000,-1944576100000,-9436407400000,23204288400000,21177542600000,18032146900000,-11573847600000,-2981742200000,-11701818500000,22604197600000,-9546460400000,-173594400000,-1518998700000,7684606800000,-15097464400000,6340684900000,-2925981800000,1011630400000,12865930400000,-12959896900000,4796875100000,-4578249400000,9476204300000,-41449928800000,6510430300000,-4210268200000,-7050570300000,-1668480900000,-8529358700000,16212532300000,11414444300000,7155444500000,6228485500000,18240820800000,-24516473000000,1199698900000,30769640700000,6052150300000,-12336365700000,-2646249500000,-39160190700000,-702861300000,13583084700000,-11472557800000,7740959200000,1822989300000,-3737499100000,10455611400000,-39220155500000,-1727500700000,8995339900000,-4218956100000,-11437739700000,13477501300000],"hashrate_average_7d":517610362290476.1,"hashrate_average_7d_count":168,"expected_blocks":0.54,"multipool":6},{"url":"https:\/\/lab.antpool.com","hashrate":1820000000000000,"miners":-1,"minpay":0.1,"id":11,"pool_id":"antpool.com","data":{"url":"https:\/\/lab.antpool.com","hashrate":-1,"miners":-1,"minpay":-1,"id":11,"pool_id":"antpool.com"},"i":2060,"nethash":87370000000000000,"netdiff":6148198635,"feetype":"PPS","fee":3,"income":3.2163163e-15,"country":"WL|Global","hashrate_average_100_count":75,"hashrate_average_100":1850992708333333.2,"hashrate_average_1h":1858235294117647,"history_start":1663641634,"history_interval":3600,"history_addlast":true,"history":[2194000000000000,54500000000000,-18500000000000,27500000000000,40000000000000,-1000000000000,-14000000000000,738500000000000,282500000000000,-12500000000000,31500000000000,19500000000000,-1500000000000,-22000000000000,-108000000000000,45000000000000,-4000000000000,36500000000000,-65500000000000,16500000000000,-12000000000000,75500000000000,-28000000000000,-19000000000000,28000000000000,-5000000000000,-13500000000000,66000000000000,11500000000000,-75000000000000,-82000000000000,143000000000000,-7000000000000,-35000000000000,29000000000000,-5500000000000,-9000000000000,6000000000000,-52500000000000,-22500000000000,-15000000000000,101000000000000,-88000000000000,45000000000000,-27000000000000,14000000000000,11000000000000,21500000000000,35000000000000,-54000000000000,147500000000000,-78000000000000,-23000000000000,-64500000000000,1000000000000,-20000000000000,103000000000000,100500000000000,26500000000000,-42500000000000,53500000000000,-71000000000000,-47500000000000,63000000000000,-92000000000000,79000000000000,-13000000000000,18500000000000,-13500000000000,-35500000000000,-3000000000000,-106500000000000,59000000000000,6500000000000,-34500000000000,35500000000000,-39500000000000,42000000000000,-10500000000000,-23342105000000,9342105000000,6000000000000,-4000000000000,6500000000000,-69500000000000,24500000000000,-61263158000000,56763158000000,-49000000000000,74500000000000,-26500000000000,5500000000000,13000000000000,-25000000000000,18000000000000,9500000000000,1000000000000,-55500000000000,39500000000000,29500000000000,-3000000000000,-68500000000000,37500000000000,-4000000000000,-787000000000000,-178894737000000,-45105263000000,8500000000000,-136500000000000,-433000000000000,-47000000000000,32500000000000,-44000000000000,75500000000000,22000000000000,-14500000000000,-38000000000000,15500000000000,9000000000000,31500000000000,35500000000000,-76500000000000,-13500000000000,29000000000000,-37000000000000,57000000000000,-29500000000000,-1500000000000,-30000000000000,-33000000000000,22000000000000,3000000000000,35000000000000,-8000000000000,-79000000000000,102000000000000,-35000000000000,53500000000000,-26500000000000,-3500000000000,9500000000000,32000000000000,-35500000000000,15000000000000,-103000000000000,89000000000000,-12500000000000,36500000000000,1763158000000,1236842000000,-15785714000000,145075188000000,7710526000000,-7500000000000,40000000000000,-6000000000000,-28000000000000,16500000000000,-95000000000000,72000000000000,-22000000000000,35000000000000,-23500000000000,4000000000000,-28000000000000,10500000000000,46500000000000,-19764706000000],"hashrate_average_7d":2675553584595239.5,"hashrate_average_7d_count":168,"expected_blocks":2.07,"multipool":16},{"url":"https:\/\/www.poolin.com","hashrate":34438000000000004,"miners":-1,"minpay":0.01,"id":3,"pool_id":"poolin.com","fee":3,"feetype":"PPS","data":{"url":"https:\/\/www.poolin.com","hashrate":-1,"miners":-1,"minpay":0.01,"id":3,"pool_id":"poolin.com","fee":3,"feetype":"PPS"},"i":13353,"json":{"err_no":0,"data":{"shares":{"shares_1m":32.887,"shares_5m":34.438,"shares_15m":34.766,"shares_1h":34.558,"shares_unit":"P"},"reject":{"1m":0,"5m":0,"15m":0.0012,"1h":0.0027},"workers":1441,"users":399,"total_blocks":139749,"total_rewards":104154265617160}},"workers":1441,"netdiff":6148198635.751949,"nethash":"88021040222122803","income":3.55497e-15,"blocks_nr":21,"lastblock":697776,"lastblocktime":1664247526,"country":"US|United States","blocks_1000":381,"blocks_count":36,"hashrate_average_100_count":75,"hashrate_average_100":34090105624999996,"hashrate_average_1h":34233117647058824,"history_start":1663641634,"history_interval":3600,"history_addlast":true,"history":[32437000000000000,-56850000000000,-10413160000000,-48586840000000,-61250000000000,-65850000000000,-4744050000000000,-686300000000000,-106850000000000,-513250000000000,-59700000000000,-400000000000,-167350000000000,137250000000000,-12650000000000,-55300000000000,-246850000000000,-101700000000000,125950000000000,7200000000000,100900000000000,33100000000000,-50550000000000,75650000000000,15050000000000,-14900000000000,11300000000000,-144050000000000,146800000000000,-69150000000000,-3017700000000000,-2315800000000000,-1708950000000000,1570400000000000,825650000000000,-41850000000000,23250000000000,-189500000000000,-453850000000000,-208550000000000,21550000000000,-58400000000000,190655260000000,-122905260000000,-12850000000000,4150000000000,112800000000000,-81300000000000,80650000000000,83850000000000,266050000000000,92000000000000,466750000000000,-52150000000000,2434550000000000,3023050000000000,-165700000000000,4310100000000000,3866750000000000,-53200000000000,84650000000000,539100000000000,-145650000000000,600000000000,-2479900000000000,-1282450000000000,63400000000000,132700000000000,-224200000000000,186750000000000,-111600000000000,385150000000000,2750850000000000,197300000000000,-107000000000000,255950000000000,4769400000000000,520350000000000,107700000000000,-978536840000000,-61663160000000,118150000000000,-97250000000000,-50950000000000,106900000000000,-55950000000000,95131580000000,122218420000000,-5650000000000,-64550000000000,-202450000000000,213150000000000,-212600000000000,68500000000000,-180500000000000,163150000000000,-242800000000000,-134350000000000,-567950000000000,720500000000000,420250000000000,-3232250000000000,-5093450000000000,-354600000000000,262800000000000,52739470000000,76760530000000,-80850000000000,150350000000000,-44250000000000,-160150000000000,12150000000000,-62000000000000,122750000000000,24800000000000,-162800000000000,273450000000000,-16600000000000,-188150000000000,-4000000000000,-383700000000000,264650000000000,-166750000000000,-297750000000000,158250000000000,-101800000000000,201200000000000,239600000000000,110050000000000,-235550000000000,267000000000000,300300000000000,-193900000000000,10200000000000,58950000000000,-165400000000000,-104650000000000,-108050000000000,40400000000000,122100000000000,-530800000000000,-2490050000000000,1529350000000000,1943050000000000,1623000000000000,73700000000000,57850000000000,-496250000000000,-30513160000000,501263160000000,113714290000000,599706760000000,303228950000000,455050000000000,-422250000000000,116550000000000,-19950000000000,79750000000000,-208650000000000,160450000000000,-22650000000000,-31900000000000,-41605560000000,213455560000000,-637900000000000,-1989950000000000,2272400000000000,-58332350000000],"hashrate_average_7d":30763859289166664,"hashrate_average_7d_count":168,"hashrate_block":946947378472222.1,"expected_blocks":38.05,"luck":-2.0529127382992414,"multipool":15},{"url":"https:\/\/pool.btc.com","hashrate":2767000000000000,"miners":-1,"minpay":0.1,"id":4,"pool_id":"pool.btc.com","feetype":"PPS","data":{"url":"https:\/\/pool.btc.com","hashrate":-1,"miners":-1,"minpay":0.1,"id":4,"pool_id":"pool.btc.com","feetype":"PPS"},"i":14273,"workers":88,"income":3.3721400476847e-15,"i_blocks":14315,"json_blocks":{"err_no":0,"data":{"blocks":{"current_page":1,"data":[{"height":697772,"is_orphaned":0,"hash":"00000000000000003942cf8ce0f05d3dac33bee473238a86144b80ba6d6dee68","rewards":"1.01340080","size":2897,"prev_hash":"000000000000000067801669d116aa9cd56463fa11bf344fc86e8a3049cd7258","bits":419476181,"version":9,"created_at":1664246005,"region_id":34,"region_name":"America"},{"height":697765,"is_orphaned":0,"hash":"00000000000000004a9891f3f38bf3f10ef69eb24001793874753d83c388e6c9","rewards":"1.01340080","size":19319,"prev_hash":"00000000000000008554e2c4e15e2531d0ac266d1490b4ba437cc8002c0da56a","bits":419476181,"version":9,"created_at":1664243693,"region_id":34,"region_name":"America"},{"height":697754,"is_orphaned":0,"hash":"0000000000000000540c39d3f250e4659c94bb3f39ec90c92205a2bbc6d0dc7e","rewards":"1.01340080","size":7553,"prev_hash":"00000000000000002ce9bd909483a3456834f48b8b1883994b0a3ec65eb93409","bits":419476181,"version":9,"created_at":1664241484,"region_id":34,"region_name":"America"},{"height":697743,"is_orphaned":0,"hash":"00000000000000000c97f7c497391a251c8e9827846750df9f45853469a58044","rewards":"1.01340080","size":2754,"prev_hash":"000000000000000063a33a07e2f17435475330f714f6bc50b0e5770fd9df4112","bits":419476181,"version":9,"created_at":1664238266,"region_id":34,"region_name":"America"},{"height":697740,"is_orphaned":0,"hash":"000000000000000094e6ba78a5c18a4d9b3d865efbee0926cd5ccef892b516d5","rewards":"1.01340080","size":7550,"prev_hash":"000000000000000090fb49ff6dbd94abc296b66e8be70e2b98a2693b7b4800a0","bits":419476181,"version":9,"created_at":1664237733,"region_id":36,"region_name":"BitDeer"},{"height":697732,"is_orphaned":0,"hash":"00000000000000000b64eb7bf842fa33a9b2924fe27e1456676234c485cc825a","rewards":"1.01340080","size":22694,"prev_hash":"000000000000000097cc0a322576e3b38474d83cc52e61878c0a5f0c5a3405d2","bits":419476181,"version":9,"created_at":1664234637,"region_id":34,"region_name":"America"},{"height":697712,"is_orphaned":0,"hash":"00000000000000003408a37687d5804fcac27f5aa453d5c3d1a59fe1e5d8f779","rewards":"1.01340080","size":43995,"prev_hash":"000000000000000055633cea7a674344f6d7fa1fc0bd25bf09ff48dee3767541","bits":419476181,"version":9,"created_at":1664228839,"region_id":34,"region_name":"America"},{"height":697684,"is_orphaned":0,"hash":"00000000000000000ac6dad999ce65ec2d64cfb12b755e726378ec5ab344b928","rewards":"1.01340080","size":2910,"prev_hash":"00000000000000004464e1ab9fdfc1d874a09b8515c64a1f7dae506397309951","bits":419476181,"version":9,"created_at":1664219509,"region_id":34,"region_name":"America"},{"height":697624,"is_orphaned":0,"hash":"000000000000000013bf382357ec9d36dd338441956edea2cc38ad7eb3549b38","rewards":"1.01340080","size":6770,"prev_hash":"00000000000000009cfbd3ff128526d300ca890cb97757a09ef72b3997250033","bits":419479366,"version":9,"created_at":1664203501,"region_id":36,"region_name":"BitDeer"},{"height":697605,"is_orphaned":0,"hash":"00000000000000009274f4b5dcc72f74993fa1b382adc0a0eb7df9845e4314fa","rewards":"1.01340080","size":44526,"prev_hash":"0000000000000000267ae386a52bcc95c1b769baa7089a84d6e7be48f146d6f6","bits":419479366,"version":9,"created_at":1664199465,"region_id":34,"region_name":"America"}],"first_page_url":"https:\/\/eu-api.connectbtc.com\/\/public\/v1\/pool\/blocks\/merge?order_by=desc&page_size=10&page=1","from":1,"last_page":2167,"last_page_url":"https:\/\/eu-api.connectbtc.com\/\/public\/v1\/pool\/blocks\/merge?order_by=desc&page_size=10&page=2167","next_page_url":"https:\/\/eu-api.connectbtc.com\/\/public\/v1\/pool\/blocks\/merge?order_by=desc&page_size=10&page=2","path":"https:\/\/eu-api.connectbtc.com\/\/public\/v1\/pool\/blocks\/merge","per_page":10,"prev_page_url":null,"to":10,"total":21667},"blocks_count":21667,"rewards_count":"190056.26361965"},"trace_id":"66c56e5e-9fff-45c3-9e27-2a00911e2f58"},"blocks_nr":10,"lastblock":697772,"lastblocktime":"1664245976","country":"WL|CN , EU , US","blocks_1000":35,"blocks_count":8,"hashrate_average_100_count":75,"hashrate_average_100":2742076458333333.5,"hashrate_average_1h":2764294117647059,"history_start":1663641634,"history_interval":3600,"history_addlast":true,"history":[2853150000000000,-22100000000000,19476316000000,-1526316000000,50250000000000,-9200000000000,-7550000000000,-17950000000000,4700000000000,-13100000000000,-35650000000000,-1700000000000,50000000000,-172650000000000,187700000000000,16850000000000,11400000000000,4250000000000,6150000000000,-39200000000000,-64250000000000,-124850000000000,116750000000000,-11650000000000,-7400000000000,29000000000000,-20500000000000,-11700000000000,-50650000000000,12450000000000,-14250000000000,-6450000000000,8600000000000,-15100000000000,2600000000000,-25000000000000,-49650000000000,-10750000000000,52300000000000,-20900000000000,30950000000000,-66000000000000,-16005263000000,-45494737000000,37350000000000,-14350000000000,17050000000000,81100000000000,48650000000000,-10250000000000,-13950000000000,22700000000000,38150000000000,-32250000000000,-13750000000000,-26250000000000,-2800000000000,-108950000000000,-56000000000000,2750000000000,30050000000000,16450000000000,44250000000000,1800000000000,-16000000000000,-38550000000000,-5450000000000,21550000000000,-23800000000000,-3000000000000,-5800000000000,54150000000000,-15750000000000,-59000000000000,-17000000000000,-5150000000000,-43400000000000,14450000000000,4100000000000,-33078947000000,22428947000000,-38300000000000,16700000000000,16250000000000,-21550000000000,39600000000000,21186842000000,-49686842000000,40250000000000,28950000000000,28950000000000,-7050000000000,-25900000000000,-39650000000000,32750000000000,-12250000000000,-77850000000000,7500000000000,100650000000000,1250000000000,-6100000000000,-11550000000000,-10750000000000,18400000000000,-18700000000000,25839474000000,65810526000000,24350000000000,-71750000000000,-44450000000000,25700000000000,-2250000000000,-850000000000,39050000000000,22100000000000,-13700000000000,950000000000,-10850000000000,-7750000000000,10300000000000,71250000000000,4500000000000,-7300000000000,-22600000000000,-28550000000000,32350000000000,12950000000000,4000000000000,-22250000000000,27100000000000,35100000000000,32400000000000,-3950000000000,2250000000000,-20050000000000,-50300000000000,-30600000000000,-9800000000000,32950000000000,550000000000,-34300000000000,49650000000000,-10250000000000,40400000000000,-31000000000000,-38200000000000,10300000000000,-13050000000000,4210526000000,-23310526000000,-2542857000000,4906015000000,32286842000000,500000000000,24700000000000,23050000000000,30250000000000,25200000000000,-39100000000000,-20500000000000,60600000000000,71800000000000,10894444000000,20405556000000,-36450000000000,1950000000000,4050000000000,4394118000000],"hashrate_average_7d":2612342189351190.5,"hashrate_average_7d_count":168,"hashrate_block":342759557291666.7,"expected_blocks":3.06,"luck":4.939170639759407,"multipool":7},{"url":"https:\/\/www.f2pool.com","hashrate":51549222948430080,"miners":-1,"minpay":0.1,"id":14,"pool_id":"f2pool.com","fee":3,"feetype":"PPS%3","data":{"url":"https:\/\/www.f2pool.com","hashrate":-1,"miners":-1,"minpay":0.1,"id":14,"pool_id":"f2pool.com","fee":3,"feetype":"PPS%3"},"i":2442,"income":3.133375298848677e-15,"blocks_nr":10,"lastblock":697778,"lastblocktime":1664248215,"country":"WL|Global","blocks_1000":558,"blocks_count":54,"hashrate_average_100_count":75,"hashrate_average_100":50962157714669640,"hashrate_average_1h":51894089240623550,"history_start":1663641634,"history_interval":3600,"history_addlast":true,"history":[37025698070000000,14173271890000000,-34434200000000,565561860000000,-198135030000000,92386290000000,-199495780000000,125502670000000,252777100000000,-99203320000000,24171630000000,-413984300000000,338539220000000,211222280000000,98319370000000,-358642680000000,-751595570000000,677076310000000,70537940000000,-20027170000000,-935530000000,-784680400000000,902899540000000,-108251160000000,2237510000000,1001430000000,-690449550000000,806389720000000,3012340000000,-128206180000000,-89231590000000,18693150000000,118929220000000,191598860000000,-191157030000000,-320494550000000,288051020000000,-41435010000000,145338140000000,-139715920000000,-650226010000000,401181600000000,53038100000000,221048950000000,-136928150000000,-534173780000000,620840060000000,3753570000000,-6416624680000000,2462923200000000,3779504060000000,345601250000000,-124678680000000,60819150000000,-76431220000000,-94601940000000,223854390000000,-175878980000000,-102345650000000,-409750920000000,804617120000000,-383012430000000,-215312320000000,125491740000000,-173345690000000,390075840000000,148011410000000,79543530000000,-1651410000000,-565254420000000,459268430000000,131472770000000,-130783440000000,68882770000000,-279784240000000,694667550000000,-1448400000000,-84318290000000,-1211097310000000,1231338080000000,20643630000000,145575500000000,101150850000000,-600552040000000,105891140000000,44683970000000,129160730000000,-37246750000000,-460219410000000,490283900000000,-80045530000000,-252452150000000,-253100190000000,-160405690000000,537905220000000,10436950000000,121391290000000,-207338260000000,-122590030000000,440767660000000,227876940000000,-192485930000000,-162336380000000,-224530980000000,123357630000000,197705560000000,209072880000000,-421122120000000,381666800000000,59599370000000,-195583720000000,52162070000000,-549181380000000,404374730000000,73264400000000,102143260000000,-89663310000000,-603592680000000,404141870000000,175967750000000,47207190000000,-1692796600000000,1134671820000000,816537630000000,-384831070000000,-315059660000000,-39230200000000,-157168080000000,61261110000000,-26486970000000,-280091870000000,102787650000000,136973080000000,-192318010000000,15722480000000,-35942050000000,-127183550000000,215918680000000,9950110000000,-11200200000000,-164920250000000,-168820700000000,266918850000000,66978240000000,127901880000000,80699170000000,-263819420000000,337068340000000,-408060780000000,-88123010000000,-59417790000000,-338235050000000,361059740000000,70650700000000,-45440430000000,-406195360000000,214261680000000,31275520000000,59429340000000,-152806610000000,-30141970000000,77263550000000,-94475810000000,-66357400000000,-142432110000000,199135380000000,851404610000000,252363690000000],"hashrate_average_7d":51400494933452330,"hashrate_average_7d_count":168,"hashrate_block":943743661382771.1,"expected_blocks":56.89,"luck":-2.886257901460155,"multipool":33}],"hashblock":{"hashrate_average_100":87794339798002980,"blocks_count":98,"pools":[[946947378472222.1,36,26304093846450.613,"https:\/\/www.poolin.com"],[342759557291666.7,8,42844944661458.336,"https:\/\/pool.btc.com"],[943743661382771.1,54,17476734470051.316,"https:\/\/www.f2pool.com"]],"hashrate_block_all":895860610183703.9,"hashrate_block_min":17476734470051.316,"hashrate_block_max":42844944661458.336,"pool_hashblock_average":28875257659320.09,"hashrate_block":895860610183703.9},"time":1664249317,"hashrate":87370000000000000,"difficulty":6148198635.751949,"height":697778,"symbol":"DCR","maxhash":51549222948430080,"poolshash":91087148357882640,"nethash_estimat":89586061018370380,"poolsminers":1567,"supply":{"circulating":14380034.13016731,"total":21000000,"emission24":2961},"block_time_target":300,"block_height_ok":true,"algo":"Blake256R14","hashrate_from_diff":false,"hashrate_src":"https:\/\/lab.antpool.com","unit":"H\/s","block_time_average":270.5,"minerstat":[1.3816549733817e-16,25.03921490992,1.0134559,3076],"link":{"coingecko":"decred","cmc":"decred","whattomine":"152-dcr-blake (14r)","coin360":"decred-dcr","coinpaprika":"dcr-decred"},"latest_release":{"tag":"release-v1.7.4","name":"dcrd v1.7.4","t":1659553036},"price":25.38}