{"data":[{"url":"https:\/\/www.okx.com\/pool","hashrate":9450000000000,"miners":-1,"minpay":-1,"id":23,"pool_id":"okx.com","data":{"url":"https:\/\/www.okx.com\/pool","hashrate":-1,"miners":-1,"minpay":-1,"id":23,"pool_id":"okx.com"},"i":1609,"workers":1,"lastblock":630904,"feetype":"PPLNS","fee":2,"country":"HK|Hong Kong","hashrate_average_100_count":76,"hashrate_average_100":8944890393708.88,"hashrate_average_1h":8912222222222.223,"history_start":1663467035,"history_interval":3600,"history_addlast":true,"history":[7961000000000,146500000000,213000000000,1066500000000,970500000000,-10357500000000,0,0,0,0,0,0,0,0,0,0,0,0,0,0,0,0,0,0,0,0,0,0,0,0,0,0,0,0,0,0,0,0,0,0,0,0,0,0,0,0,0,0,0,5822000000000,4060631579000,-472631579000,-33500000000,-1414500000000,700000000000,-59000000000,16000000000,567000000000,205000000000,-615000000000,449500000000,3500000000,303000000000,-314500000000,45000000000,1267000000000,-1264000000000,8000000000,-958000000000,165500000000,-79000000000,-128000000000,935000000000,-109500000000,-9099500000000,0,0,0,0,0,8740000000000,769500000000,-253500000000,-387500000000,-121500000000,-618000000000,573000000000,-316000000000,2718000000000,-202000000000,-1825157895000,1664157895000,-2868500000000,1083000000000,6500000000,311500000000,-1570500000000,1409000000000,227000000000,137000000000,-929000000000,211000000000,2065500000000,-1482500000000,12000000000,330000000000,-2148000000000,2757000000000,-858000000000,-1311000000000,112000000000,-6838000000000,6890500000000,712500000000,-739000000000,726500000000,-970500000000,1316000000000,115500000000,-86000000000,-644000000000,110000000000,-426000000000,414500000000,253500000000,355000000000,378500000000,-816631579000,644631579000,-456500000000,394500000000,-108500000000,-557500000000,-515000000000,212052632000,-200552632000,564000000000,358000000000,-1165000000000,1275500000000,468000000000,83500000000,-386500000000,106000000000,-677500000000,-687000000000,888000000000,771500000000,28000000000,-1194000000000,-709000000000,719500000000,144500000000,-559578947000,-121421053000,107000000000,2331000000000,-2351500000000,94500000000,-116000000000,-629000000000,1019000000000,363500000000,15500000000,146500000000,679000000000,-882500000000,1401500000000,-1573277778000],"hashrate_average_7d":6310822710130.177,"hashrate_average_7d_count":169,"expected_blocks":0.01,"multipool":5},{"url":"https:\/\/www2.coinmine.pl\/dcr","hashrate":509449844242405,"miners":-1,"minpay":0.05,"id":5,"pool_id":"coinmine.pl","data":{"url":"https:\/\/www2.coinmine.pl\/dcr","hashrate":-1,"miners":-1,"minpay":-1,"id":5,"pool_id":"coinmine.pl"},"i":12291,"workers":38,"blocks_nr":5,"lastblock":697177,"lastblocktime":"1664072542","fee":1,"feetype":"PPLNS","height":697188,"country":"WL|EU , US , Asia","blocks_1000":8,"blocks_count":2,"hashrate_average_100_count":76,"hashrate_average_100":504351610253730.3,"hashrate_average_1h":520606070551492.75,"history_start":1663467035,"history_interval":3600,"history_addlast":true,"history":[540385136500000,19177827400000,-12773718500000,10393406300000,-29373722000000,19313333500000,-5406082500000,-1669389300000,22592494000000,-8106820500000,11329718500000,-12715405800000,1352591600000,488235800000,-10300124100000,21687042700000,-16195965700000,-6236415400000,11785622000000,-6566013300000,-10392778500000,15374143000000,-2980056100000,5726096000000,1909133300000,841157800000,-1693062000000,-861376900000,-19030531600000,14751725000000,-3024418400000,-4368104600000,-9664267300000,27765476200000,-11544197600000,-17292200000,-11199733000000,-27854155700000,4680818900000,537566800000,-28674435400000,-1450329300000,8082463700000,7654814100000,-16997516100000,21247841800000,-12273191400000,4930633900000,-11632647300000,-6251990300000,9445861400000,7483570700000,28752643500000,-2789816400000,-3286694200000,-2550373300000,760219400000,16463375100000,-4179868200000,-4912960200000,-4755567300000,-21551520400000,-19477423200000,16628053700000,-11216797600000,14930812700000,-7896565300000,-7619148900000,12708561900000,19187086100000,10502546800000,-19173821300000,9064762900000,2818033100000,11323937900000,-2598688500000,866029400000,-3719159800000,-6958487700000,-7390975600000,21788800300000,-7765291900000,-690029900000,4555612800000,8067901300000,-20144737500000,-3189537500000,16334244900000,-8994036000000,-86372300000,8229833600000,-17196657000000,4992842100000,-1737228400000,-8412589500000,18802030100000,-341064900000,4385105900000,-6366766000000,7082828100000,-13659646500000,13100013100000,-12522500800000,4271648400000,-17453531400000,15013765800000,-7619108700000,6577362000000,2790971800000,11499001300000,3970740900000,-2941923700000,-5501203100000,-20510004400000,5748706600000,23802531000000,-15814495000000,24448119900000,-17442808500000,-12387838300000,11872390900000,4833163700000,-10321022700000,-1623093800000,11708919300000,-18041721200000,3232681700000,25708982200000,-20373418100000,-19727555100000,24067890200000,-6308058700000,6345815200000,-2808942800000,14295151100000,-18590274000000,-405288500000,2402165700000,-7808701200000,13139917500000,7794379600000,-7720180700000,-3880931600000,-2660767800000,501429300000,-4837179900000,-5218051500000,29975997800000,-29321958300000,8173649000000,-4607451000000,10429068300000,-1457424600000,-1360561000000,-3409465300000,-1704356600000,-9235676900000,-22808874300000,-654918200000,10933734600000,9678265600000,-8079879100000,-8943679900000,-1944576100000,-9436407400000,23204288400000,21177542600000,18032146900000,-21906946000000],"hashrate_average_7d":525492236835503.25,"hashrate_average_7d_count":169,"hashrate_block":252175805126865.16,"expected_blocks":0.58,"luck":1.4211095585704319,"multipool":6},{"url":"https:\/\/lab.antpool.com","hashrate":1770000000000000,"miners":-1,"minpay":0.1,"id":11,"pool_id":"antpool.com","data":{"url":"https:\/\/lab.antpool.com","hashrate":-1,"miners":-1,"minpay":-1,"id":11,"pool_id":"antpool.com"},"i":2060,"nethash":79040000000000000,"netdiff":6758324091,"feetype":"PPS","fee":3,"income":2.9259564999999998e-15,"country":"WL|Global","hashrate_average_100_count":76,"hashrate_average_100":1685975406044408,"hashrate_average_1h":1765555555555555.5,"history_start":1663467035,"history_interval":3600,"history_addlast":true,"history":[3012000000000000,-87000000000000,-3500000000000,48000000000000,55500000000000,-84500000000000,141000000000000,261500000000000,500000000000,-27500000000000,-978500000000000,-34000000000000,38500000000000,-19000000000000,-97500000000000,49000000000000,-104500000000000,67000000000000,50500000000000,-46000000000000,-14500000000000,32500000000000,-1000000000000,-61500000000000,141000000000000,-313000000000000,-19500000000000,-88000000000000,17000000000000,21000000000000,309500000000000,32500000000000,-15500000000000,18500000000000,-84000000000000,-10500000000000,0,-27000000000000,-33000000000000,91368421000000,-92368421000000,27500000000000,6500000000000,-10500000000000,30500000000000,-10052632000000,4552632000000,-2000000000000,2500000000000,54500000000000,-18500000000000,27500000000000,40000000000000,-1000000000000,-14000000000000,738500000000000,282500000000000,-12500000000000,31500000000000,19500000000000,-1500000000000,-22000000000000,-108000000000000,45000000000000,-4000000000000,36500000000000,-65500000000000,16500000000000,-12000000000000,75500000000000,-28000000000000,-19000000000000,28000000000000,-5000000000000,-13500000000000,66000000000000,11500000000000,-75000000000000,-82000000000000,143000000000000,-7000000000000,-35000000000000,29000000000000,-5500000000000,-9000000000000,6000000000000,-52500000000000,-22500000000000,-15000000000000,101000000000000,-88000000000000,45000000000000,-27000000000000,14000000000000,11000000000000,21500000000000,35000000000000,-54000000000000,147500000000000,-78000000000000,-23000000000000,-64500000000000,1000000000000,-20000000000000,103000000000000,100500000000000,26500000000000,-42500000000000,53500000000000,-71000000000000,-47500000000000,63000000000000,-92000000000000,79000000000000,-13000000000000,18500000000000,-13500000000000,-35500000000000,-3000000000000,-106500000000000,59000000000000,6500000000000,-34500000000000,35500000000000,-39500000000000,42000000000000,-10500000000000,-23342105000000,9342105000000,6000000000000,-4000000000000,6500000000000,-69500000000000,24500000000000,-61263158000000,56763158000000,-49000000000000,74500000000000,-26500000000000,5500000000000,13000000000000,-25000000000000,18000000000000,9500000000000,1000000000000,-55500000000000,39500000000000,29500000000000,-3000000000000,-68500000000000,37500000000000,-4000000000000,-787000000000000,-178894737000000,-45105263000000,8500000000000,-136500000000000,-433000000000000,-47000000000000,32500000000000,-44000000000000,75500000000000,22000000000000,-14500000000000,-38000000000000,15500000000000,9000000000000,31500000000000,37055556000000],"hashrate_average_7d":2851232966538462.5,"hashrate_average_7d_count":169,"expected_blocks":1.94,"multipool":16},{"url":"https:\/\/www.poolin.com","hashrate":30704000000000000,"miners":-1,"minpay":0.01,"id":3,"pool_id":"poolin.com","fee":3,"feetype":"PPS","data":{"url":"https:\/\/www.poolin.com","hashrate":-1,"miners":-1,"minpay":0.01,"id":3,"pool_id":"poolin.com","fee":3,"feetype":"PPS"},"i":13352,"json":{"err_no":0,"data":{"shares":{"shares_1m":29.961,"shares_5m":30.704,"shares_15m":31.379,"shares_1h":31.409,"shares_unit":"P"},"reject":{"1m":0,"5m":0,"15m":0.0024,"1h":0.0021},"workers":1455,"users":403,"total_blocks":139533,"total_rewards":104132477499960}},"workers":1455,"netdiff":6758324091.033423,"nethash":"96755936488713093","income":3.2340300000000002e-15,"blocks_nr":18,"lastblock":697188,"lastblocktime":1664076537,"country":"US|United States","blocks_1000":366,"blocks_count":37,"hashrate_average_100_count":76,"hashrate_average_100":31196525287828944,"hashrate_average_1h":31143000000000000,"history_start":1663467035,"history_interval":3600,"history_addlast":true,"history":[26752000000000000,-16900000000000,-60350000000000,90700000000000,112200000000000,-129150000000000,-30400000000000,69250000000000,203000000000000,-1271000000000000,1457450000000000,-40700000000000,146750000000000,-76100000000000,137650000000000,-70700000000000,-168550000000000,-90000000000000,64100000000000,-13300000000000,89150000000000,-2850000000000,3558700000000000,1900050000000000,-2994850000000000,-4799000000000000,-159600000000000,6168350000000000,1505250000000000,79500000000000,-19050000000000,-125250000000000,320200000000000,-236350000000000,87550000000000,14650000000000,-793300000000000,-28205260000000,-252228070000000,-107245620000000,110028950000000,236900000000000,131550000000000,-38600000000000,165200000000000,166552630000000,-15052630000000,299900000000000,109100000000000,-56850000000000,-10413160000000,-48586840000000,-61250000000000,-65850000000000,-4744050000000000,-686300000000000,-106850000000000,-513250000000000,-59700000000000,-400000000000,-167350000000000,137250000000000,-12650000000000,-55300000000000,-246850000000000,-101700000000000,125950000000000,7200000000000,100900000000000,33100000000000,-50550000000000,75650000000000,15050000000000,-14900000000000,11300000000000,-144050000000000,146800000000000,-69150000000000,-3017700000000000,-2315800000000000,-1708950000000000,1570400000000000,825650000000000,-41850000000000,23250000000000,-189500000000000,-453850000000000,-208550000000000,21550000000000,-58400000000000,190655260000000,-122905260000000,-12850000000000,4150000000000,112800000000000,-81300000000000,80650000000000,83850000000000,266050000000000,92000000000000,466750000000000,-52150000000000,2434550000000000,3023050000000000,-165700000000000,4310100000000000,3866750000000000,-53200000000000,84650000000000,539100000000000,-145650000000000,600000000000,-2479900000000000,-1282450000000000,63400000000000,132700000000000,-224200000000000,186750000000000,-111600000000000,385150000000000,2750850000000000,197300000000000,-107000000000000,255950000000000,4769400000000000,520350000000000,107700000000000,-978536840000000,-61663160000000,118150000000000,-97250000000000,-50950000000000,106900000000000,-55950000000000,95131580000000,122218420000000,-5650000000000,-64550000000000,-202450000000000,213150000000000,-212600000000000,68500000000000,-180500000000000,163150000000000,-242800000000000,-134350000000000,-567950000000000,720500000000000,420250000000000,-3232250000000000,-5093450000000000,-354600000000000,262800000000000,52739470000000,76760530000000,-80850000000000,150350000000000,-44250000000000,-160150000000000,12150000000000,-62000000000000,122750000000000,24800000000000,-162800000000000,273450000000000,-16600000000000,-188150000000000,-4000000000000,-13250000000000],"hashrate_average_7d":29876092966863910,"hashrate_average_7d_count":169,"hashrate_block":843149332103485,"expected_blocks":35.81,"luck":1.1928965273757441,"multipool":15},{"url":"https:\/\/pool.btc.com","hashrate":2616000000000000,"miners":-1,"minpay":0.1,"id":4,"pool_id":"pool.btc.com","feetype":"PPS","data":{"url":"https:\/\/pool.btc.com","hashrate":-1,"miners":-1,"minpay":0.1,"id":4,"pool_id":"pool.btc.com","feetype":"PPS"},"i":14272,"workers":83,"income":3.3721400476847e-15,"i_blocks":14314,"json_blocks":{"err_no":0,"data":{"blocks":{"current_page":1,"data":[{"height":697174,"is_orphaned":0,"hash":"0000000000000000943541042167d5563fe83f6a744e49962317d7d2edcfb8bf","rewards":"1.01340080","size":50902,"prev_hash":"000000000000000056eca13ea933a5dbe4b2730f3b413cb6fa72da42c8720654","bits":419472048,"version":9,"created_at":1664070639,"region_id":34,"region_name":"America"},{"height":697126,"is_orphaned":0,"hash":"00000000000000007715a5b61c799d303dae874e5bfee964adb7d2bbf73456ff","rewards":"1.01340080","size":10914,"prev_hash":"000000000000000021edc44dbf47ecb133e97d3cc766ee400d28b152c8a9a4f2","bits":419472048,"version":9,"created_at":1664050684,"region_id":34,"region_name":"America"},{"height":697093,"is_orphaned":0,"hash":"00000000000000003a7eea5c754a5748e82a8bddcdc192343f97c9b73314a63a","rewards":"1.01340080","size":4281,"prev_hash":"000000000000000077261adee112abf7acf15beb9ababfc266cea707310028ef","bits":419471810,"version":9,"created_at":1664039684,"region_id":36,"region_name":"BitDeer"},{"height":697089,"is_orphaned":0,"hash":"000000000000000024c8c5e5ceeddcc461990bf4107a3cf0b59d2c5ab45bc10b","rewards":"1.01340080","size":26810,"prev_hash":"00000000000000004f9950fd249e7526ce035712bf2d46ec8c90d12746d3e677","bits":419471810,"version":9,"created_at":1664039337,"region_id":34,"region_name":"America"},{"height":697065,"is_orphaned":0,"hash":"0000000000000000295da1033137b3c2c13f151d7327775767e56404be1b80f2","rewards":"1.01340080","size":22402,"prev_hash":"00000000000000008b0e49583999781547baaca35501da810cda3e8ed8203571","bits":419471810,"version":9,"created_at":1664031430,"region_id":36,"region_name":"BitDeer"},{"height":697019,"is_orphaned":0,"hash":"0000000000000000998a20a0f73f2eb2938e96cdc44fc170ed358ca794177e80","rewards":"1.01340080","size":8363,"prev_hash":"000000000000000003c305c12099f42e41843e03fa91477ddeb260d2400aaf99","bits":419471810,"version":9,"created_at":1664019395,"region_id":34,"region_name":"America"},{"height":696995,"is_orphaned":0,"hash":"00000000000000007fe9636d18ad8754a81148058f64b8bdc807817d83d06028","rewards":"1.01340080","size":78989,"prev_hash":"00000000000000000dd3be742b2b24d191cc39c43849f15f66d7a75172739753","bits":419471810,"version":9,"created_at":1664010080,"region_id":34,"region_name":"America"},{"height":696917,"is_orphaned":0,"hash":"00000000000000009b0f8560f7a0de1de3195aaf1051663ec863da119c5f87a0","rewards":"1.01340080","size":5031,"prev_hash":"00000000000000003ab86bbe5412200a40e59831cbec35ef6e246fb0cf21d7f0","bits":419473529,"version":9,"created_at":1663986428,"region_id":36,"region_name":"BitDeer"},{"height":696909,"is_orphaned":0,"hash":"000000000000000003fae7281b8b16f19a120cb6eb1421fd41619be07d75107a","rewards":"1.01340080","size":35290,"prev_hash":"00000000000000005a81728bb50d1afe79e383e8bd05c300cf17687dfad479d3","bits":419473529,"version":9,"created_at":1663983507,"region_id":34,"region_name":"America"},{"height":696864,"is_orphaned":0,"hash":"000000000000000063d4bd6a47fa0626040cacb4708ad3609e8f13ff4d2a7f91","rewards":"1.01340080","size":5453,"prev_hash":"0000000000000000963476831bb574213af759fd8a2f49df176f5e83a3e72e47","bits":419473529,"version":9,"created_at":1663967614,"region_id":34,"region_name":"America"}],"first_page_url":"https:\/\/eu-api.connectbtc.com\/\/public\/v1\/pool\/blocks\/merge?order_by=desc&page_size=10&page=1","from":1,"last_page":2165,"last_page_url":"https:\/\/eu-api.connectbtc.com\/\/public\/v1\/pool\/blocks\/merge?order_by=desc&page_size=10&page=2165","next_page_url":"https:\/\/eu-api.connectbtc.com\/\/public\/v1\/pool\/blocks\/merge?order_by=desc&page_size=10&page=2","path":"https:\/\/eu-api.connectbtc.com\/\/public\/v1\/pool\/blocks\/merge","per_page":10,"prev_page_url":null,"to":10,"total":21644},"blocks_count":21644,"rewards_count":"190032.95540125"},"trace_id":"f71c6ebf-d5e6-4de2-934a-0966037374bb"},"blocks_nr":10,"lastblock":697174,"lastblocktime":"1664070622","country":"WL|CN , EU , US","blocks_1000":39,"blocks_count":3,"hashrate_average_100_count":76,"hashrate_average_100":2529167711759868.5,"hashrate_average_1h":2600444444444444.5,"history_start":1663467035,"history_interval":3600,"history_addlast":true,"history":[2468400000000000,-29500000000000,29300000000000,22350000000000,-30750000000000,-4550000000000,15150000000000,-24300000000000,20400000000000,32500000000000,23900000000000,34700000000000,21150000000000,-25700000000000,-27300000000000,25950000000000,-6150000000000,-21450000000000,-12100000000000,-32550000000000,50000000000,9050000000000,139050000000000,5800000000000,-10300000000000,10650000000000,-24250000000000,-22700000000000,-1900000000000,-63350000000000,-26850000000000,108300000000000,175350000000000,1550000000000,-28450000000000,-46850000000000,43950000000000,-20286842000000,52670175000000,-10196491000000,-5036842000000,22750000000000,10600000000000,-28550000000000,1650000000000,42850000000000,30450000000000,-3400000000000,11100000000000,-22100000000000,19476316000000,-1526316000000,50250000000000,-9200000000000,-7550000000000,-17950000000000,4700000000000,-13100000000000,-35650000000000,-1700000000000,50000000000,-172650000000000,187700000000000,16850000000000,11400000000000,4250000000000,6150000000000,-39200000000000,-64250000000000,-124850000000000,116750000000000,-11650000000000,-7400000000000,29000000000000,-20500000000000,-11700000000000,-50650000000000,12450000000000,-14250000000000,-6450000000000,8600000000000,-15100000000000,2600000000000,-25000000000000,-49650000000000,-10750000000000,52300000000000,-20900000000000,30950000000000,-66000000000000,-16005263000000,-45494737000000,37350000000000,-14350000000000,17050000000000,81100000000000,48650000000000,-10250000000000,-13950000000000,22700000000000,38150000000000,-32250000000000,-13750000000000,-26250000000000,-2800000000000,-108950000000000,-56000000000000,2750000000000,30050000000000,16450000000000,44250000000000,1800000000000,-16000000000000,-38550000000000,-5450000000000,21550000000000,-23800000000000,-3000000000000,-5800000000000,54150000000000,-15750000000000,-59000000000000,-17000000000000,-5150000000000,-43400000000000,14450000000000,4100000000000,-33078947000000,22428947000000,-38300000000000,16700000000000,16250000000000,-21550000000000,39600000000000,21186842000000,-49686842000000,40250000000000,28950000000000,28950000000000,-7050000000000,-25900000000000,-39650000000000,32750000000000,-12250000000000,-77850000000000,7500000000000,100650000000000,1250000000000,-6100000000000,-11550000000000,-10750000000000,18400000000000,-18700000000000,25839474000000,65810526000000,24350000000000,-71750000000000,-44450000000000,25700000000000,-2250000000000,-850000000000,39050000000000,22100000000000,-13700000000000,950000000000,-10850000000000,-7750000000000,10300000000000,66994444000000],"hashrate_average_7d":2607563882834319.5,"hashrate_average_7d_count":169,"hashrate_block":843055903919956.1,"expected_blocks":2.9,"luck":0.09704304825454457,"multipool":7},{"url":"https:\/\/www.f2pool.com","hashrate":52252544271354640,"miners":-1,"minpay":0.1,"id":14,"pool_id":"f2pool.com","fee":3,"feetype":"PPS%3","data":{"url":"https:\/\/www.f2pool.com","hashrate":-1,"miners":-1,"minpay":0.1,"id":14,"pool_id":"f2pool.com","fee":3,"feetype":"PPS%3"},"i":2441,"income":2.8505016152213735e-15,"blocks_nr":14,"lastblock":697189,"lastblocktime":1664076545,"country":"WL|Global","blocks_1000":561,"blocks_count":57,"hashrate_average_100_count":76,"hashrate_average_100":51938014192933820,"hashrate_average_1h":52259756962937096,"history_start":1663467035,"history_interval":3600,"history_addlast":true,"history":[50592261340000000,-25267910000000,-439487570000000,140631600000000,149930120000000,-247110880000000,28508740000000,289029700000000,168800880000000,-69548940000000,55699820000000,-424751180000000,298538870000000,146566510000000,107713790000000,83348920000000,-524257620000000,280392000000000,98566970000000,157075470000000,215738340000000,-763575130000000,410757600000000,199012990000000,-371142470000000,-10256470890000000,-1192449600000000,1489609160000000,10199964080000000,171819670000000,25664190000000,-10941520000000,112199150000000,245539970000000,-65975090000000,-406393330000000,345528480000000,177140850000000,12274770000000,-70073820000000,-449665840000000,521928220000000,-42058350000000,-101794190000000,-189266950000000,-510588990000000,-2749127300000000,-21169012990000000,10380416430000000,14173271890000000,-34434200000000,565561860000000,-198135030000000,92386290000000,-199495780000000,125502670000000,252777100000000,-99203320000000,24171630000000,-413984300000000,338539220000000,211222280000000,98319370000000,-358642680000000,-751595570000000,677076310000000,70537940000000,-20027170000000,-935530000000,-784680400000000,902899540000000,-108251160000000,2237510000000,1001430000000,-690449550000000,806389720000000,3012340000000,-128206180000000,-89231590000000,18693150000000,118929220000000,191598860000000,-191157030000000,-320494550000000,288051020000000,-41435010000000,145338140000000,-139715920000000,-650226010000000,401181600000000,53038100000000,221048950000000,-136928150000000,-534173780000000,620840060000000,3753570000000,-6416624680000000,2462923200000000,3779504060000000,345601250000000,-124678680000000,60819150000000,-76431220000000,-94601940000000,223854390000000,-175878980000000,-102345650000000,-409750920000000,804617120000000,-383012430000000,-215312320000000,125491740000000,-173345690000000,390075840000000,148011410000000,79543530000000,-1651410000000,-565254420000000,459268430000000,131472770000000,-130783440000000,68882770000000,-279784240000000,694667550000000,-1448400000000,-84318290000000,-1211097310000000,1231338080000000,20643630000000,145575500000000,101150850000000,-600552040000000,105891140000000,44683970000000,129160730000000,-37246750000000,-460219410000000,490283900000000,-80045530000000,-252452150000000,-253100190000000,-160405690000000,537905220000000,10436950000000,121391290000000,-207338260000000,-122590030000000,440767660000000,227876940000000,-192485930000000,-162336380000000,-224530980000000,123357630000000,197705560000000,209072880000000,-421122120000000,381666800000000,59599370000000,-195583720000000,52162070000000,-549181380000000,404374730000000,73264400000000,102143260000000,-89663310000000,-603592680000000,404141870000000,175967750000000,211553210000000],"hashrate_average_7d":50926632606153820,"hashrate_average_7d_count":169,"hashrate_block":911193231454979.4,"expected_blocks":59.61,"luck":-2.61400608594618,"multipool":33}],"hashblock":{"hashrate_average_100":83638891091016500,"blocks_count":96,"pools":[[252175805126865.16,2,126087902563432.58,"https:\/\/www2.coinmine.pl\/dcr"],[843149332103485,37,22787819786580.676,"https:\/\/www.poolin.com"],[843055903919956.1,3,281018634639985.38,"https:\/\/pool.btc.com"],[911193231454979.4,57,15985846165876.832,"https:\/\/www.f2pool.com"]],"hashrate_block_all":870384432351276.5,"hashrate_block_min":15985846165876.832,"hashrate_block_max":281018634639985.38,"pool_hashblock_average":111470050788968.86,"ignored":[[843055903919956.1,3,281018634639985.38,"https:\/\/pool.btc.com"]],"hashrate_block":871238448864755.1},"time":1664076875,"hashrate":79040000000000000,"difficulty":6758324091.033423,"height":697189,"symbol":"DCR","maxhash":52252544271354640,"poolshash":87861444115597040,"nethash_estimat":87123844886475520,"poolsminers":1577,"supply":{"circulating":14374682.15783301,"total":21000000,"emission24":2362},"block_time_target":300,"block_height_ok":true,"algo":"Blake256R14","hashrate_from_diff":false,"hashrate_src":"https:\/\/lab.antpool.com","unit":"H\/s","block_time_average":332,"minerstat":[1.2573070388667e-16,24.803286627112,1.013766,3076],"link":{"coingecko":"decred","cmc":"decred","whattomine":"152-dcr-blake (14r)","coin360":"decred-dcr","coinpaprika":"dcr-decred"},"latest_release":{"tag":"release-v1.7.4","name":"dcrd v1.7.4","t":1659553036},"price":24.79}