{"data":[{"url":"https:\/\/www.okx.com\/pool","hashrate":0,"miners":-1,"minpay":-1,"id":23,"pool_id":"okx.com","i":1660,"workers":0,"lastblock":630904,"feetype":"PPLNS","fee":2,"country":"HK|Hong Kong","hashrate_average_100_count":82,"hashrate_average_100":0,"hashrate_average_1h":0,"history_start":1670291023,"history_interval":3600,"history_addlast":true,"history":[0,0,0,0,0,0,0,0,0,0,0,0,0,0,0,0,0,0,0,0,0,0,0,0,0,0,0,0,0,0,0,0,0,0,0,0,0,0,0,0,0,0,0,0,0,0,0,0,0,0,0,0,0,0,0,0,0,0,0,0,0,0,0,0,0,0,0,0,0,0,0,0,0,0,0,0,0,0,0,0,0,0,0,0,0,0,0,0,0,0,0,0,0,0,0,0,0,0,0,0,0,0,0,0,0,0,0,0,0,0,0,0,0,0,0,0,0,0,0,0,0,0,0,0,0,0,0,0,0,0,0,0,0,0,0,0,0,0,0,0,0,0,0,0,0,0,0,0,0,0,0,0,0,0,0,0,0,0,0,0,0,0,0,0,0,0,0,0],"hashrate_average_7d":0,"hashrate_average_7d_count":168,"expected_blocks":0,"multipool":5},{"url":"https:\/\/www2.coinmine.pl\/dcr","hashrate":0,"miners":-1,"minpay":0.05,"id":5,"pool_id":"coinmine.pl","i":12527,"workers":0,"blocks_nr":5,"lastblock":719844,"lastblocktime":"1670894567","fee":1,"feetype":"PPLNS","height":719856,"country":"WL|EU , US , Asia","blocks_1000":2,"blocks_count":1,"hashrate_average_100_count":82,"hashrate_average_100":178616362753456.34,"hashrate_average_1h":189509102559190,"history_start":1670291023,"history_interval":3600,"history_addlast":true,"history":[240105881900000,12236265600000,-66902438400000,66914574700000,-35973148100000,-5490427500000,-19151004600000,31026107200000,-8022277100000,-32224713000000,-18352397800000,5831483200000,-17984616200000,31058567900000,-23223908400000,-8182834200000,-5764337000000,22681247700000,-25771875400000,11906320800000,24700203400000,-4901372900000,13983266400000,-85233851100000,14720958700000,63667432500000,-19534081400000,-43443439300000,16040773700000,17885665200000,-23460335700000,-16733480200000,24524789900000,-28989229600000,-468355400000,74558942000000,-22187953700000,-43807787300000,13240112000000,18541171900000,-33355193900000,12008963700000,15389641700000,-28813412600000,5389476200000,4983155400000,-8397912700000,55950318700000,-38684260500000,-2856977900000,-46590111410000,66043424710000,-28300651900000,42080696400000,-30134762400000,11604862800000,-20383953600000,3774615700000,-623949200000,24273857400000,-37341152700000,20655677000000,-37239971070000,-1451268560000,12894814330000,13801160100000,1708383400000,6383905100000,17736134200000,-69548464060000,19906247140000,8587782720000,30146972700000,-26008439500000,18719044700000,4857668800000,73005323800000,-51784328500000,-1684685900000,-2398098200000,34916477000000,-49808853100000,22800365800000,13168996600000,-3710040300000,1967532200000,-23506911100000,-36492156200000,50113977100000,9002148000000,32526795200000,50298073600000,-34006183600000,-41190874600000,29384521400000,-2474359000000,-20465278400000,47023194900000,-17767573300000,-8627773600000,18994622000000,-44615486200000,-45475120600000,69417353900000,35269365200000,-14067906500000,-32147189100000,1201889600000,1309143000000,30035491600000,16246427100000,-12804548300000,-28592496100000,14313489100000,-1688582600000,-64031718700000,33721659900000,55211576400000,-1818664200000,-41227649300000,62797491400000,-58896777400000,-3616752600000,58329566200000,894586400000,-83945649900000,104696084000000,-56699179200000,-15103843800000,66237373400000,-16786425500000,-53728834500000,-24786030400000,16600968200000,-12115726500000,-9491700300000,35716043100000,-23076732800000,30662065800000,-12846205800000,38589416600000,-35491232000000,89917128400000,-104104601900000,20598802500000,10448549300000,3162531900000,38148117100000,-33712174000000,3324484700000,-49232770200000,4309802600000,-36262519300000,30774334600000,116754911800000,-79103612800000,-20027698900000,-1994458600000,-1196400500000,10420101400000,-78289881800000,24361512300000,-8446430400000,31426335200000,-42010041000000,79674997500000,11010658300000,-32909247300000],"hashrate_average_7d":175293848377440.5,"hashrate_average_7d_count":168,"expected_blocks":0.23,"luck":0.7744493126398693,"multipool":6},{"url":"https:\/\/lab.antpool.com","hashrate":14120000000000000,"miners":-1,"minpay":0.1,"id":11,"pool_id":"antpool.com","i":2136,"nethash":56680000000000000,"netdiff":5488469732,"feetype":"PPS","fee":3,"income":3.3156151999999997e-15,"lastblock":719327,"lastblocktime":"1670732243","country":"WL|Global","blocks_1000":1,"hashrate_average_100_count":82,"hashrate_average_100":14266928055926066,"hashrate_average_1h":14154615384615384,"history_start":1670291023,"history_interval":3600,"history_addlast":true,"history":[14683500000000000,207500000000000,-110000000000000,-3926500000000000,3618000000000000,381000000000000,72500000000000,-378000000000000,516500000000000,-423000000000000,-29000000000000,234000000000000,126000000000000,-195500000000000,209000000000000,-244500000000000,176500000000000,-113500000000000,76000000000000,-152500000000000,146500000000000,-22000000000000,-160000000000000,206000000000000,-133000000000000,77000000000000,-49500000000000,35500000000000,36500000000000,-540789470000000,-242210530000000,165000000000000,75500000000000,-116000000000000,61000000000000,-7000000000000,146000000000000,-231500000000000,143500000000000,-171500000000000,-34500000000000,57000000000000,-4500000000000,-2000000000000,77000000000000,134000000000000,-127000000000000,63500000000000,-107000000000000,109500000000000,-2000000000000,-23000000000000,-108500000000000,136500000000000,-5500000000000,-186000000000000,262500000000000,-197500000000000,-6000000000000,-84000000000000,-16000000000000,344000000000000,-209000000000000,-56500000000000,39500000000000,33000000000000,166000000000000,-181000000000000,299500000000000,358000000000000,-109000000000000,-13000000000000,153500000000000,-87000000000000,136000000000000,-75500000000000,25500000000000,-9500000000000,260500000000000,-151500000000000,16500000000000,-26500000000000,4500000000000,263000000000000,-469500000000000,4500000000000,155000000000000,-450000000000000,192000000000000,150500000000000,75000000000000,-18000000000000,30000000000000,79000000000000,-187000000000000,150500000000000,84000000000000,-161000000000000,-81000000000000,265000000000000,-84000000000000,-172000000000000,129000000000000,-14000000000000,-117000000000000,207000000000000,-201000000000000,26000000000000,87500000000000,-222000000000000,216500000000000,-194500000000000,158500000000000,-36000000000000,38500000000000,25500000000000,-17500000000000,-218500000000000,59000000000000,-36500000000000,91000000000000,11500000000000,142500000000000,-101500000000000,250500000000000,-400500000000000,267500000000000,-313000000000000,-383000000000000,43500000000000,-44500000000000,84000000000000,153000000000000,-263500000000000,194000000000000,-46500000000000,-35000000000000,137000000000000,-225000000000000,24500000000000,-98500000000000,327000000000000,-87500000000000,-6500000000000,-151000000000000,76500000000000,-744000000000000,756500000000000,30368420000000,136131580000000,-52000000000000,-29000000000000,-147500000000000,95000000000000,-79500000000000,-46000000000000,170500000000000,-84500000000000,-40500000000000,-22000000000000,219000000000000,-141000000000000,-96000000000000,-65000000000000,78500000000000,51500000000000,-178500000000000,-21884620000000],"hashrate_average_7d":14568736275773808,"hashrate_average_7d_count":168,"expected_blocks":18.02,"multipool":16},{"url":"https:\/\/pool.btc.com","hashrate":3589000000000000,"miners":-1,"minpay":0.1,"id":4,"pool_id":"pool.btc.com","feetype":"PPS","i":14573,"workers":84,"income":3.4572287092248e-15,"i_blocks":14615,"json_blocks":{"err_no":0,"data":{"blocks":{"current_page":1,"data":[{"height":719623,"is_orphaned":0,"hash":"00000000000000007fd3b458ae2c5cfc371ff62e349e132b0f07803dd3fab4f9","rewards":"0.97385825","size":4640,"prev_hash":"000000000000000082df9febe46b4d8e66d2f7b871a6914b45f391346c5d7bff","bits":419479943,"version":9,"created_at":1670823994,"region_id":34,"region_name":"America"},{"height":719621,"is_orphaned":0,"hash":"000000000000000007a4cd1f5233b2955f372235388c901810d3f449e3b7909f","rewards":"0.97385825","size":2158,"prev_hash":"00000000000000004c28ed39afd6e4007a2398343c6c3c013f1954bc222400f2","bits":419479943,"version":9,"created_at":1670823337,"region_id":36,"region_name":"BitDeer"},{"height":719607,"is_orphaned":0,"hash":"00000000000000002565bcb135c25c236dcf254eef04dab72a41c254a551e7df","rewards":"0.97385825","size":21883,"prev_hash":"00000000000000001289b8ecf5abff4d5052c9ac2d02b44144b10900e521114d","bits":419479943,"version":9,"created_at":1670819532,"region_id":36,"region_name":"BitDeer"},{"height":719606,"is_orphaned":0,"hash":"00000000000000001289b8ecf5abff4d5052c9ac2d02b44144b10900e521114d","rewards":"0.97385825","size":6719,"prev_hash":"000000000000000062685b25dd5754441b0ba60802e281af5b2291254aff2268","bits":419479943,"version":9,"created_at":1670819131,"region_id":34,"region_name":"America"},{"height":719595,"is_orphaned":0,"hash":"00000000000000005ee466d61279b95cdc8b87bd204194fc3f247dd3d0631b87","rewards":"0.97385825","size":29683,"prev_hash":"00000000000000000d94430259f8b7142020636d1acc90d36103fd3ca432b815","bits":419479943,"version":9,"created_at":1670814468,"region_id":36,"region_name":"BitDeer"},{"height":719593,"is_orphaned":0,"hash":"0000000000000000af8a682caa01e997dd6bc51e1acdc978555fddbdf574d954","rewards":"0.97385825","size":39296,"prev_hash":"000000000000000068ee61fd358cf1c30e03004c47e7d71b49fe96d75bfc9a1d","bits":419479943,"version":9,"created_at":1670813944,"region_id":34,"region_name":"America"},{"height":719562,"is_orphaned":0,"hash":"00000000000000004d846bfb8a03cbb4e358c6c6fb560b8c62103ad950a78385","rewards":"0.97385825","size":36506,"prev_hash":"000000000000000049ca075c4565265a2e01076ded37304ef3eec84e3d915cdf","bits":419480081,"version":9,"created_at":1670806809,"region_id":36,"region_name":"BitDeer"},{"height":719552,"is_orphaned":0,"hash":"000000000000000074239eccccd432a24906807149bcac49b57e3397ae1f8d0b","rewards":"0.97385825","size":82425,"prev_hash":"00000000000000003e087a9a1bcddc2be634087767d5aeaf380a824ff762ce50","bits":419480081,"version":9,"created_at":1670802767,"region_id":36,"region_name":"BitDeer"},{"height":719547,"is_orphaned":0,"hash":"000000000000000000749338689d9149ce67e50065639fe6acc5d5dec0b37553","rewards":"0.97385825","size":18550,"prev_hash":"0000000000000000b817b1c810e396d6c236e2c1a6bc27459e947c3fc5a1a597","bits":419480081,"version":9,"created_at":1670800767,"region_id":36,"region_name":"BitDeer"},{"height":719503,"is_orphaned":0,"hash":"000000000000000054d50fc3159d7e7374bd9cc632b1d660e2844cc18fb02a49","rewards":"0.97385825","size":34781,"prev_hash":"00000000000000001090d6bcdc5785389e3df0e403f799864f4cd4e00cfb8f24","bits":419480081,"version":9,"created_at":1670786243,"region_id":34,"region_name":"America"}],"first_page_url":"https:\/\/eu-api.connectbtc.com\/\/public\/v1\/pool\/blocks\/merge?order_by=desc&page_size=10&page=1","from":1,"last_page":2281,"last_page_url":"https:\/\/eu-api.connectbtc.com\/\/public\/v1\/pool\/blocks\/merge?order_by=desc&page_size=10&page=2281","next_page_url":"https:\/\/eu-api.connectbtc.com\/\/public\/v1\/pool\/blocks\/merge?order_by=desc&page_size=10&page=2","path":"https:\/\/eu-api.connectbtc.com\/\/public\/v1\/pool\/blocks\/merge","per_page":10,"prev_page_url":null,"to":10,"total":22808},"blocks_count":22808,"rewards_count":"191174.31377628"},"trace_id":"793575dc-9ebd-4c0a-80eb-871ef37e00df"},"blocks_nr":10,"lastblock":719623,"lastblocktime":"1670823992","country":"WL|CN , EU , US","blocks_1000":54,"hashrate_average_100_count":82,"hashrate_average_100":3653531305080507.5,"hashrate_average_1h":3574153846153846,"history_start":1670291023,"history_interval":3600,"history_addlast":true,"history":[3661050000000000,-58500000000000,19700000000000,300000000000,265350000000000,185500000000000,24400000000000,-85100000000000,15450000000000,79300000000000,-16150000000000,9750000000000,3950000000000,27250000000000,-42250000000000,-51300000000000,9000000000000,-41400000000000,150000000000,39450000000000,-48900000000000,-32350000000000,-37850000000000,-14850000000000,-73300000000000,51000000000000,15050000000000,-20000000000000,-26250000000000,8650000000000,200000000000,-3000000000000,9050000000000,36550000000000,39150000000000,-32450000000000,5350000000000,23650000000000,66500000000000,39100000000000,13950000000000,-41600000000000,-39900000000000,15700000000000,-28600000000000,-12950000000000,48800000000000,-35000000000000,52050000000000,-60950000000000,41750000000000,23500000000000,-450000000000,56400000000000,7600000000000,8750000000000,-6250000000000,-3650000000000,32250000000000,4500000000000,-3150000000000,17050000000000,22250000000000,-54850000000000,-24100000000000,-45400000000000,41350000000000,19950000000000,-24700000000000,-36250000000000,37600000000000,5950000000000,-4200000000000,-38350000000000,-34650000000000,27600000000000,-3050000000000,26900000000000,-10150000000000,11050000000000,-203050000000000,224750000000000,29350000000000,31950000000000,-21800000000000,-57600000000000,23450000000000,-55200000000000,-4000000000000,-79950000000000,5800000000000,12850000000000,-3800000000000,23300000000000,-74700000000000,17500000000000,800000000000,-10900000000000,-13800000000000,18050000000000,36800000000000,-48800000000000,33100000000000,-11250000000000,4550000000000,30700000000000,6350000000000,-17950000000000,-30000000000000,69200000000000,13350000000000,-36800000000000,-13500000000000,7900000000000,11050000000000,7550000000000,-4750000000000,-51500000000000,-16300000000000,-52900000000000,47750000000000,-21650000000000,42600000000000,26450000000000,-60950000000000,26600000000000,-26450000000000,-33100000000000,-22000000000000,10550000000000,29700000000000,-20600000000000,6900000000000,-6900000000000,-36300000000000,27200000000000,67900000000000,-19850000000000,-25200000000000,28400000000000,11400000000000,-45450000000000,7700000000000,-70000000000000,67550000000000,-32550000000000,27200000000000,-34650000000000,-1315789000000,49615789000000,46750000000000,-15300000000000,-47200000000000,29800000000000,24450000000000,-11300000000000,-9200000000000,-55300000000000,-175800000000000,25150000000000,45150000000000,-35550000000000,-11200000000000,-42700000000000,-7500000000000,-11950000000000,-44450000000000,-7996154000000],"hashrate_average_7d":3944289214625000,"hashrate_average_7d_count":168,"expected_blocks":4.61,"multipool":7},{"url":"https:\/\/www.f2pool.com","hashrate":37586980747285110,"miners":-1,"minpay":0.1,"id":14,"pool_id":"f2pool.com","fee":3,"feetype":"PPS%3","i":2505,"income":3.7033291158859385e-15,"blocks_nr":8,"lastblock":719855,"lastblocktime":1670896677,"country":"WL|Global","blocks_1000":405,"blocks_count":42,"hashrate_average_100_count":82,"hashrate_average_100":36845097579707050,"hashrate_average_1h":37816853744984410,"history_start":1670291023,"history_interval":3600,"history_addlast":true,"history":[23739686940000000,26076240000000,-88058080000000,-167249000000000,-5635720000000,-71634540000000,73958630000000,-92303570000000,-330778100000000,-108552660000000,231679720000000,111803680000000,-40828160000000,-75302180000000,-161883200000000,-185518980000000,-34023490000000,-32805830000000,17724910000000,-18399830000000,17296210000000,60843760000000,-1542656690000000,215627330000000,1322147160000000,217650190000000,247213720000000,35770130000000,-150187120000000,530155480000000,6799760000000,-49543060000000,-142924850000000,106086720000000,-217253470000000,155414250000000,39321310000000,-113076180000000,84285340000000,-45284920000000,120795310000000,-384602930000000,-31917940000000,-124104380000000,-39854310000000,74032270000000,-8351290000000,209587160000000,8449010000000,71248430000000,-134585400000000,393778640000000,-712825120000000,767893030000000,-40717970000000,-82308030000000,-14406450000000,74107880000000,-96450720000000,-2554454590000000,-3856214180000000,6261959870000000,-270738590000000,27762830000000,-61816240000000,42140370000000,69898800000000,-118918670000000,-78688840000000,-57648900000000,-3806070000000,-36008280000000,18575670000000,63955560000000,41710250000000,129133150000000,-29976100000000,-6957160000000,-84565460000000,158433860000000,108080390000000,-122796360000000,-17747010000000,130326470000000,4822260000000,-49557220000000,-184289910000000,227482100000000,-187190480000000,33757520000000,79261890000000,-83496430000000,-145210150000000,132327700000000,127169200000000,341963730000000,-3996680000000,-199272420000000,-52227350000000,94794420000000,-63036590000000,-49398000000000,54409660000000,115321930000000,28426240000000,2178107240000000,8245279700000000,2354374710000000,966520110000000,18842080000000,-1721046050000000,1548518390000000,219666230000000,-72002340000000,-215928150000000,32091860000000,-22270750000000,-10008960000000,-1308657790000000,-8473807720000000,-1269526630000000,-1137101640000000,222392000000000,1544031150000000,895899730000000,1010158910000000,1231345330000000,824230220000000,397786610000000,-520342210000000,1319372790000000,922966260000000,1111658420000000,1238111930000000,1417637000000000,211555750000000,-249905360000000,-19199070000000,187357700000000,57244860000000,-218683730000000,-91134850000000,161081870000000,165306430000000,-414722490000000,-2411338690000000,-2287470870000000,-2018476560000000,4419819670000000,270808070000000,1211847720000000,-536874510000000,-1630791650000000,-3932221650000000,1948571090000000,2901111840000000,2545751770000000,14055970000000,557055870000000,59144980000000,-55788030000000,195684870000000,-20698000000000,-925353420000000,-3502257690000000,4805373280000000,-208529190000000,91118100000000],"hashrate_average_7d":27320300425476200,"hashrate_average_7d_count":168,"hashrate_block":877264228088263,"expected_blocks":46.53,"luck":-4.5267400860966305,"multipool":33},{"url":"https:\/\/www.poolin.com","hashrate":30209000000000000,"miners":-1,"minpay":0.01,"id":3,"pool_id":"poolin.com","fee":3,"feetype":"PPS","i":13634,"json":{"err_no":0,"data":{"shares":{"shares_1m":28.773,"shares_5m":30.209,"shares_15m":30.396,"shares_1h":30.785,"shares_unit":"P"},"reject":{"1m":0,"5m":0,"15m":0.0035,"1h":0.0041},"workers":1375,"users":372,"total_blocks":148895,"total_rewards":105060180966392}},"workers":1375,"netdiff":5488469732.145699,"nethash":"78575993346752948","income":3.98229e-15,"blocks_nr":16,"lastblock":719856,"lastblocktime":"1670897397","country":"US|United States","blocks_1000":427,"blocks_count":43,"hashrate_average_100_count":82,"hashrate_average_100":30467447603551350,"hashrate_average_1h":30394307692307692,"history_start":1670291023,"history_interval":3600,"history_addlast":true,"history":[30921650000000000,117000000000000,1250000000000,-213300000000000,-436600000000000,279105260000000,5344740000000,35950000000000,711700000000000,483850000000000,393650000000000,-869800000000000,636700000000000,59150000000000,-44800000000000,11250000000000,157300000000000,-10300000000000,-598150000000000,325900000000000,240900000000000,-360000000000000,4700000000000,47600000000000,140800000000000,-203450000000000,-114450000000000,95400000000000,-64550000000000,221900000000000,201950000000000,-173650000000000,-28400000000000,-8600000000000,-967600000000000,-75950000000000,88800000000000,103550000000000,-124900000000000,105700000000000,182500000000000,-130800000000000,-9600000000000,103300000000000,-87950000000000,-301500000000000,325100000000000,101100000000000,-302800000000000,-172400000000000,201650000000000,89600000000000,14100000000000,-98636840000000,-66863160000000,-90550000000000,145500000000000,-573800000000000,628150000000000,-10350000000000,-76750000000000,58750000000000,-107700000000000,-177500000000000,344250000000000,-1057250000000000,-7250000000000,-4200000000000,-20850000000000,763250000000000,801750000000000,-473850000000000,45450000000000,158900000000000,-40350000000000,122950000000000,-11200000000000,-52550000000000,310800000000000,96450000000000,152000000000000,190500000000000,76650000000000,-1201100000000000,1582550000000000,378900000000000,212400000000000,-14350000000000,-175300000000000,89350000000000,82300000000000,-43800000000000,-296800000000000,-839400000000000,159600000000000,74850000000000,-22050000000000,266700000000000,389650000000000,284100000000000,-534250000000000,344600000000000,65200000000000,-97050000000000,132650000000000,848300000000000,-655900000000000,104700000000000,-590450000000000,410400000000000,24150000000000,6750000000000,-108950000000000,-118100000000000,185100000000000,-197950000000000,4650000000000,23800000000000,88100000000000,129650000000000,21100000000000,-76250000000000,144300000000000,-134800000000000,-73850000000000,298250000000000,-44800000000000,346250000000000,34900000000000,-8900000000000,-182300000000000,58500000000000,159950000000000,-217600000000000,281500000000000,61600000000000,39900000000000,-194200000000000,-57150000000000,55400000000000,-536600000000000,-793850000000000,94700000000000,194900000000000,-1180050000000000,-284750000000000,-825100000000000,-211500000000000,-316676320000000,534026320000000,-211400000000000,1350000000000,-3750000000000,-24950000000000,140850000000000,439050000000000,-14700000000000,-48700000000000,-112450000000000,37650000000000,50250000000000,-56350000000000,7750000000000,-750000000000,-116700000000000,39500000000000,67900000000000,-114742310000000],"hashrate_average_7d":31803700296369052,"hashrate_average_7d_count":168,"hashrate_block":708545293105845.4,"expected_blocks":38.47,"luck":4.5267400860966305,"multipool":15}],"hashblock":{"hashrate_average_100":67312545183258400,"blocks_count":85,"pools":[[877264228088263,42,20887243525911.023,"https:\/\/www.f2pool.com"],[708545293105845.4,43,16477797514089.428,"https:\/\/www.poolin.com"]],"hashrate_block_all":791912296273628.2,"hashrate_block_min":16477797514089.428,"hashrate_block_max":20887243525911.023,"pool_hashblock_average":18682520520000.227,"hashrate_block":791912296273628.2},"time":1670897984,"hashrate":56680000000000000,"difficulty":5488469732.145699,"height":719856,"symbol":"DCR","maxhash":37586980747285110,"poolshash":85504980747285120,"nethash_estimat":79191229627362830,"poolsminers":1459,"supply":{"circulating":14576911.67355294,"total":21000000,"emission24":2389},"block_time_target":300,"block_height_ok":true,"algo":"Blake256R14","hashrate_from_diff":false,"hashrate_src":"https:\/\/lab.antpool.com","unit":"H\/s","block_time_average":314,"minerstat":[1.440511962177e-16,20.976755977043,0.97385825,1096],"link":{"coingecko":"decred","cmc":"decred","whattomine":"152-dcr-blake (14r)","coin360":"decred-dcr","coinpaprika":"dcr-decred"},"latest_release":{"tag":"release-v1.7.5","name":"dcrd v1.7.5","t":1665429869},"price":20.95}