{"data":[{"url":"https:\/\/www.okx.com\/pool","hashrate":0,"miners":-1,"minpay":-1,"id":23,"pool_id":"okx.com","i":1709,"workers":0,"lastblock":630904,"feetype":"PPLNS","fee":2,"country":"HK|Hong Kong","hashrate_average_100_count":75,"hashrate_average_100":0,"hashrate_average_1h":0,"history_start":1671410622,"history_interval":3600,"history_addlast":true,"history":[0,0,0,0,0,0,0,0,0,0,0,0,0,0,0,0,0,0,0,0,0,0,0,0,0,0,0,0,0,0,0,0,0,0,0,0,0,0,0,0,0,0,0,0,0,0,0,0,0,0,0,0,0,0,0,0,0,0,0,0,0,0,0,0,0,0,0,0,0,0,0,0,0,0,0,0,0,0,0,0,0,0,0,0,0,0,0,0,0,0,0,0,0,0,0,0,0,0,0,0,0,0,0,0,0,0,0,0,0,0,0,0,0,0,0,0,0,0,0,0,0,0,0,0,0,0,0,0,0,0,0,0,0,0,0,0,0,0,0,0,0,0,0,0,0,0,0,0,0,0,0,0,0,0,0,0,0,0,0,0,0,0,0,0,0,0,0,0,0],"hashrate_average_7d":0,"hashrate_average_7d_count":169,"expected_blocks":0,"multipool":5},{"url":"https:\/\/www2.coinmine.pl\/dcr","hashrate":321505050293699,"miners":-1,"minpay":0.05,"id":5,"pool_id":"coinmine.pl","i":12607,"workers":31,"blocks_nr":5,"lastblock":723420,"lastblocktime":"1671970260","fee":1,"feetype":"PPLNS","height":723628,"country":"WL|EU , US , Asia","blocks_1000":1,"hashrate_average_100_count":75,"hashrate_average_100":342449012833002.3,"hashrate_average_1h":363067261970944.9,"history_start":1671410622,"history_interval":3600,"history_addlast":true,"history":[443907159100000,28567198600000,-56820645200000,-16640320300000,60617426900000,-35930320200000,-14659894500000,-3275552800000,-30369516000000,-37176149100000,14039384700000,45318525500000,-53587937600000,-49021834400000,114772874800000,-91888201800000,13104697700000,-8043697300000,49214709000000,-8128582900000,-160771656600000,144671284500000,-57370680500000,56296017000000,-69659107500000,60403603400000,-26297415100000,-40611301400000,92946801700000,-20082537400000,33525857000000,25892448400000,-74745551300000,-29616582700000,4111110500000,-46398154100000,97349518800000,4564767500000,-3504374200000,-94042835600000,17958345100000,24144624000000,-116468021400000,145236429200000,21652977000000,23335980000000,-12605220900000,-1583600000000,50187807600000,-124428159200000,76930686200000,-18036721100000,60274562900000,-62437493300000,8472242300000,-34082497700000,-88974708400000,2358562200000,-27901773000000,134150739600000,-4431059900000,53398131800000,-45824050000000,-109554907800000,16107995300000,124975826800000,40764318700000,-95929677300000,-74603902700000,34899421500000,94578528500000,-59536444600000,-46817061100000,30541457900000,125073861900000,-129830067300000,19118340000000,-11284019900000,-69660851700000,101886225500000,-30918013200000,-25512712400000,12647530900000,60663115500000,39530539500000,-101077318100000,48017107200000,-26112754300000,-26216567800000,43003600500000,41965683600000,-123088662000000,1628452300000,85957189500000,-15672581200000,91539366700000,-96004324900000,4600609100000,7337894700000,15302274900000,40170123200000,-5677672800000,-58977941600000,-26518129500000,107276119100000,-99055371700000,90748723700000,-81002680500000,7452011400000,-40857070300000,52554900800000,20968110700000,51209247800000,-151813266500000,-30642069800000,156548877100000,-69518058100000,18794160500000,11387661000000,55938916200000,-86271783700000,59121563600000,-56749259400000,25393001300000,30643924400000,-68561893400000,-108047294800000,-43367831700000,55034849700000,-48571520500000,38789171200000,327275000000,29487805400000,-33861388700000,-29345515600000,-21054425500000,53579677100000,-33319583700000,24822794900000,-8530363900000,106292008900000,29650543500000,91450702900000,-72437324900000,31272899500000,-7530826100000,21304588100000,1611525000000,-14588482600000,-3569362500000,-94889093000000,45706751800000,-4946130100000,46613580000000,-63193755500000,42799960900000,-34273620800000,13839671300000,-27222881100000,117166959900000,13104439000000,-100465527500000,15611349900000,29994188000000,-19928517500000,-12938816900000,-24970661300000,93301658300000,-24512151400000],"hashrate_average_7d":317682423988757.56,"hashrate_average_7d_count":169,"expected_blocks":0.44,"multipool":5},{"url":"https:\/\/lab.antpool.com","hashrate":10910000000000000,"miners":-1,"minpay":0.1,"id":11,"pool_id":"antpool.com","i":2185,"nethash":56680000000000000,"netdiff":6328027916,"feetype":"PPS","fee":3,"income":2.9690438999999995e-15,"lastblock":723512,"lastblocktime":"1671990938","country":"WL|Global","blocks_1000":1,"hashrate_average_100_count":75,"hashrate_average_100":11074297916666666,"hashrate_average_1h":10820000000000000,"history_start":1671410622,"history_interval":3600,"history_addlast":true,"history":[12272500000000000,-106000000000000,31000000000000,199500000000000,0,-257000000000000,23000000000000,-7500000000000,197000000000000,39500000000000,113500000000000,-111000000000000,30000000000000,146500000000000,-97500000000000,105000000000000,-324000000000000,-63500000000000,138000000000000,75000000000000,-232500000000000,152000000000000,123500000000000,-44500000000000,-52500000000000,25500000000000,76500000000000,-18500000000000,-2500000000000,-121500000000000,41026320000000,15473680000000,-36000000000000,93500000000000,-92500000000000,91500000000000,-161500000000000,-31000000000000,51500000000000,2000000000000,10500000000000,-110500000000000,14000000000000,56000000000000,-64000000000000,5500000000000,25500000000000,93500000000000,18000000000000,149500000000000,97000000000000,-22500000000000,-181500000000000,171000000000000,-1378657890000000,38157890000000,-121000000000000,69000000000000,4000000000000,-46000000000000,-83500000000000,-7500000000000,-46000000000000,180000000000000,-104000000000000,46000000000000,15500000000000,-47000000000000,-5500000000000,-128000000000000,73000000000000,139000000000000,-9500000000000,-64500000000000,136000000000000,-121500000000000,-6500000000000,27000000000000,131500000000000,-264500000000000,37500000000000,-65000000000000,70500000000000,13500000000000,-56500000000000,47500000000000,-47500000000000,4000000000000,41500000000000,26000000000000,61000000000000,-193000000000000,59500000000000,-93000000000000,97000000000000,27000000000000,82000000000000,-20000000000000,115500000000000,-151000000000000,126500000000000,-33000000000000,-62500000000000,86000000000000,6500000000000,-66500000000000,-111000000000000,46500000000000,216500000000000,-279500000000000,196500000000000,2000000000000,-77500000000000,-44000000000000,65000000000000,-1500000000000,65000000000000,-137000000000000,244000000000000,-127000000000000,-151000000000000,140500000000000,28000000000000,-41000000000000,98500000000000,-749500000000000,519500000000000,255000000000000,-151500000000000,47000000000000,-160000000000000,56000000000000,80500000000000,134000000000000,-31500000000000,-98500000000000,42000000000000,-147500000000000,122500000000000,-15000000000000,9000000000000,-29500000000000,102500000000000,-130000000000000,-11500000000000,-150000000000000,171000000000000,117000000000000,-171500000000000,68500000000000,-111000000000000,62500000000000,30000000000000,-36500000000000,120000000000000,-12500000000000,-9000000000000,148500000000000,-49500000000000,-76000000000000,-70500000000000,56500000000000,94000000000000,-138500000000000,-64000000000000,55500000000000,46500000000000,-50000000000000,-272000000000000],"hashrate_average_7d":11483833541005918,"hashrate_average_7d_count":169,"expected_blocks":14.09,"multipool":17},{"url":"https:\/\/pool.btc.com","hashrate":3578000000000000,"miners":-1,"minpay":0.1,"id":4,"pool_id":"pool.btc.com","feetype":"PPS","i":14669,"workers":84,"income":3.0958594980335e-15,"i_blocks":14711,"json_blocks":{"err_no":0,"data":{"blocks":{"current_page":1,"data":[{"height":719623,"is_orphaned":0,"hash":"00000000000000007fd3b458ae2c5cfc371ff62e349e132b0f07803dd3fab4f9","rewards":"0.97385825","size":4640,"prev_hash":"000000000000000082df9febe46b4d8e66d2f7b871a6914b45f391346c5d7bff","bits":419479943,"version":9,"created_at":1670823994,"region_id":34,"region_name":"America"},{"height":719621,"is_orphaned":0,"hash":"000000000000000007a4cd1f5233b2955f372235388c901810d3f449e3b7909f","rewards":"0.97385825","size":2158,"prev_hash":"00000000000000004c28ed39afd6e4007a2398343c6c3c013f1954bc222400f2","bits":419479943,"version":9,"created_at":1670823337,"region_id":36,"region_name":"BitDeer"},{"height":719607,"is_orphaned":0,"hash":"00000000000000002565bcb135c25c236dcf254eef04dab72a41c254a551e7df","rewards":"0.97385825","size":21883,"prev_hash":"00000000000000001289b8ecf5abff4d5052c9ac2d02b44144b10900e521114d","bits":419479943,"version":9,"created_at":1670819532,"region_id":36,"region_name":"BitDeer"},{"height":719606,"is_orphaned":0,"hash":"00000000000000001289b8ecf5abff4d5052c9ac2d02b44144b10900e521114d","rewards":"0.97385825","size":6719,"prev_hash":"000000000000000062685b25dd5754441b0ba60802e281af5b2291254aff2268","bits":419479943,"version":9,"created_at":1670819131,"region_id":34,"region_name":"America"},{"height":719595,"is_orphaned":0,"hash":"00000000000000005ee466d61279b95cdc8b87bd204194fc3f247dd3d0631b87","rewards":"0.97385825","size":29683,"prev_hash":"00000000000000000d94430259f8b7142020636d1acc90d36103fd3ca432b815","bits":419479943,"version":9,"created_at":1670814468,"region_id":36,"region_name":"BitDeer"},{"height":719593,"is_orphaned":0,"hash":"0000000000000000af8a682caa01e997dd6bc51e1acdc978555fddbdf574d954","rewards":"0.97385825","size":39296,"prev_hash":"000000000000000068ee61fd358cf1c30e03004c47e7d71b49fe96d75bfc9a1d","bits":419479943,"version":9,"created_at":1670813944,"region_id":34,"region_name":"America"},{"height":719562,"is_orphaned":0,"hash":"00000000000000004d846bfb8a03cbb4e358c6c6fb560b8c62103ad950a78385","rewards":"0.97385825","size":36506,"prev_hash":"000000000000000049ca075c4565265a2e01076ded37304ef3eec84e3d915cdf","bits":419480081,"version":9,"created_at":1670806809,"region_id":36,"region_name":"BitDeer"},{"height":719552,"is_orphaned":0,"hash":"000000000000000074239eccccd432a24906807149bcac49b57e3397ae1f8d0b","rewards":"0.97385825","size":82425,"prev_hash":"00000000000000003e087a9a1bcddc2be634087767d5aeaf380a824ff762ce50","bits":419480081,"version":9,"created_at":1670802767,"region_id":36,"region_name":"BitDeer"},{"height":719547,"is_orphaned":0,"hash":"000000000000000000749338689d9149ce67e50065639fe6acc5d5dec0b37553","rewards":"0.97385825","size":18550,"prev_hash":"0000000000000000b817b1c810e396d6c236e2c1a6bc27459e947c3fc5a1a597","bits":419480081,"version":9,"created_at":1670800767,"region_id":36,"region_name":"BitDeer"},{"height":719503,"is_orphaned":0,"hash":"000000000000000054d50fc3159d7e7374bd9cc632b1d660e2844cc18fb02a49","rewards":"0.97385825","size":34781,"prev_hash":"00000000000000001090d6bcdc5785389e3df0e403f799864f4cd4e00cfb8f24","bits":419480081,"version":9,"created_at":1670786243,"region_id":34,"region_name":"America"}],"first_page_url":"https:\/\/eu-api.connectbtc.com\/\/public\/v1\/pool\/blocks\/merge?order_by=desc&page_size=10&page=1","from":1,"last_page":2281,"last_page_url":"https:\/\/eu-api.connectbtc.com\/\/public\/v1\/pool\/blocks\/merge?order_by=desc&page_size=10&page=2281","next_page_url":"https:\/\/eu-api.connectbtc.com\/\/public\/v1\/pool\/blocks\/merge?order_by=desc&page_size=10&page=2","path":"https:\/\/eu-api.connectbtc.com\/\/public\/v1\/pool\/blocks\/merge","per_page":10,"prev_page_url":null,"to":10,"total":22808},"blocks_count":22808,"rewards_count":"191174.31377628"},"trace_id":"3e5ac21b-d83b-4976-ba54-d0f8fa82daec"},"blocks_nr":10,"lastblock":719623,"lastblocktime":"1670823992","country":"WL|CN , EU , US","hashrate_average_100_count":75,"hashrate_average_100":3600934791666666.5,"hashrate_average_1h":3578444444444444.5,"history_start":1671410622,"history_interval":3600,"history_addlast":true,"history":[3590650000000000,14750000000000,-58250000000000,27650000000000,-25950000000000,25350000000000,-11750000000000,66900000000000,4650000000000,-72000000000000,-40450000000000,25550000000000,-5300000000000,-750000000000,-10200000000000,-1950000000000,38050000000000,-65950000000000,-11200000000000,8600000000000,-78000000000000,67850000000000,-17150000000000,-22100000000000,-41450000000000,23250000000000,-7900000000000,32550000000000,32250000000000,-45050000000000,11050000000000,72900000000000,-4600000000000,-9100000000000,82300000000000,-43250000000000,-60500000000000,24950000000000,-93800000000000,42950000000000,2250000000000,-48500000000000,13500000000000,-5850000000000,74300000000000,15400000000000,-52650000000000,22400000000000,-19300000000000,8950000000000,-16400000000000,51100000000000,-49400000000000,9700000000000,17000000000000,14850000000000,-8000000000000,-3150000000000,28200000000000,-24750000000000,8900000000000,20700000000000,-116500000000000,-239400000000000,282400000000000,110850000000000,-29450000000000,4100000000000,-55850000000000,20550000000000,17550000000000,-52450000000000,-11600000000000,46050000000000,-62650000000000,25700000000000,1800000000000,13250000000000,-25450000000000,-2700000000000,16450000000000,15500000000000,26000000000000,-2800000000000,3800000000000,33900000000000,-28250000000000,-31600000000000,-10050000000000,-9600000000000,-42500000000000,91450000000000,-44600000000000,15600000000000,25400000000000,-53050000000000,44600000000000,-13850000000000,75150000000000,-69550000000000,-5000000000000,74850000000000,-28050000000000,23100000000000,61300000000000,12500000000000,-69650000000000,-34050000000000,-21450000000000,14400000000000,-13150000000000,78850000000000,68950000000000,-14750000000000,-82300000000000,-91750000000000,60000000000000,39100000000000,16200000000000,45400000000000,-34500000000000,-78750000000000,-5400000000000,15800000000000,27200000000000,-86950000000000,-13400000000000,5050000000000,16000000000000,92150000000000,-34700000000000,23450000000000,19100000000000,55300000000000,14400000000000,-4400000000000,50200000000000,-25300000000000,16350000000000,-70450000000000,24200000000000,10550000000000,-63100000000000,57350000000000,-74000000000000,17400000000000,-30650000000000,-63500000000000,54150000000000,40100000000000,-37450000000000,-5150000000000,20900000000000,48000000000000,-26100000000000,-56250000000000,33450000000000,33750000000000,4750000000000,49050000000000,5550000000000,-28400000000000,56400000000000,-107100000000000,-750000000000,17950000000000,0,15750000000000,-27055556000000],"hashrate_average_7d":3526341978958578.5,"hashrate_average_7d_count":169,"expected_blocks":4.58,"multipool":7},{"url":"https:\/\/www.f2pool.com","hashrate":42937735064665224,"miners":-1,"minpay":0.1,"id":14,"pool_id":"f2pool.com","fee":3,"feetype":"PPS%3","i":2554,"income":3.7033291158859385e-15,"blocks_nr":13,"lastblock":723629,"lastblocktime":1672020295,"country":"WL|Global","blocks_1000":519,"blocks_count":60,"hashrate_average_100_count":75,"hashrate_average_100":42556487354289280,"hashrate_average_1h":42621611336930850,"history_start":1671410622,"history_interval":3600,"history_addlast":true,"history":[23232939930000000,11637539000000000,-4925259140000000,-7167385260000000,2147479340000000,9520002320000000,2944787310000000,492530510000000,2014296730000000,1332296660000000,-57467430000000,-458039930000000,443291540000000,95328260000000,55513370000000,-51429710000000,-12362040000000,42473190000000,-12393300000000,-268687460000000,264061920000000,146197000000000,163428280000000,58093790000000,-26706210000000,-66694670000000,215574840000000,-170993300000000,43243270000000,74826220000000,-488078000000000,345345220000000,28621760000000,-13210880000000,-21579340000000,112512760000000,-112299190000000,192002110000000,-213845270000000,-50806920000000,30333120000000,-168165110000000,-73876440000000,-18761690000000,52713240000000,32187700000000,20807760000000,116692990000000,258101310000000,10184710000000,-115514860000000,103128380000000,7857130000000,-117433890000000,-67692220000000,58675550000000,-93405490000000,330911860000000,-102889310000000,155398480000000,-149646030000000,-83024430000000,-96288600000000,-55820400000000,-360454050000000,106746320000000,135721240000000,185122310000000,60682870000000,4186390000000,134900980000000,87669400000000,341007940000000,233184080000000,-4774160000000,-12654340000000,-65090530000000,-222277170000000,-769285830000000,938625460000000,63873450000000,-129397900000000,-17658830000000,93612140000000,-135921270000000,-28550970000000,177449370000000,-438945460000000,-145274670000000,14368150000000,135868420000000,-74651850000000,-2037300000000,-12031730000000,225847150000000,-77522150000000,325444070000000,53104070000000,-1738656920000000,1832754170000000,363925880000000,529533840000000,721323840000000,-78324250000000,-268871830000000,-79848920000000,93159220000000,-120527130000000,-151607300000000,204226680000000,-69860610000000,-20918510000000,-55158720000000,-16420830000000,-11485060000000,181815360000000,-208736020000000,11905080000000,-48101990000000,7524000000000,-56383540000000,-26048590000000,220593170000000,-190579890000000,-79300620000000,-36632300000000,-1492343000000000,76385780000000,-83740860000000,850676770000000,599656730000000,-90537170000000,-1232646490000000,998601580000000,228421290000000,33209330000000,-99757030000000,107093530000000,-247924690000000,-26152980000000,-297623850000000,1797830000000,-519442470000000,-899776220000000,-276634900000000,-10640258000000000,10490688640000000,2056297940000000,-132964960000000,179640470000000,-275033160000000,-211924290000000,14687440000000,-104629960000000,-90295030000000,-80902490000000,16821040000000,212777410000000,-12564870000000,-58615150000000,285704840000000,175334630000000,-250732490000000,183605760000000,-337136080000000,174365840000000,111782040000000,109223660000000,-73329920000000],"hashrate_average_7d":41539363115562140,"hashrate_average_7d_count":169,"hashrate_block":709274789238154.6,"expected_blocks":54.13,"luck":5.873630638132418,"multipool":33},{"url":"https:\/\/www.poolin.com","hashrate":31293000000000000,"miners":-1,"minpay":0.01,"id":3,"pool_id":"poolin.com","fee":3,"feetype":"PPS","i":13730,"json":{"err_no":0,"data":{"shares":{"shares_1m":29.009,"shares_5m":31.293,"shares_15m":31.856,"shares_1h":31.698,"shares_unit":"P"},"reject":{"1m":0,"5m":0,"15m":0.0042,"1h":0.0031},"workers":1336,"users":368,"total_blocks":150436,"total_rewards":105209668207767}},"workers":1336,"netdiff":6328027916.892086,"nethash":"90595576491316783","income":3.45394e-15,"blocks_nr":15,"lastblock":723628,"lastblocktime":"1672020060","country":"US|United States","blocks_1000":385,"blocks_count":36,"hashrate_average_100_count":75,"hashrate_average_100":32922855416666664,"hashrate_average_1h":31568777777777776,"history_start":1671410622,"history_interval":3600,"history_addlast":true,"history":[35146750000000000,118050000000000,500800000000000,-102000000000000,-835350000000000,708400000000000,-271300000000000,60000000000000,-2122050000000000,-350150000000000,-281000000000000,-513250000000000,-29350000000000,28850000000000,-3880300000000000,-1456700000000000,-73450000000000,133450000000000,-88450000000000,56150000000000,277500000000000,-15900000000000,-220700000000000,30000000000000,940700000000000,3932100000000000,793150000000000,-326000000000000,206150000000000,-424750000000000,-703450000000000,594500000000000,861600000000000,121900000000000,-296750000000000,340350000000000,-557800000000000,159900000000000,585900000000000,201750000000000,-78300000000000,-29550000000000,257150000000000,-132100000000000,-22100000000000,-433350000000000,-4870400000000000,192950000000000,344650000000000,2841400000000000,139750000000000,-308250000000000,-1632800000000000,451850000000000,1450060530000000,1783139470000000,-125950000000000,-375150000000000,-35550000000000,-348800000000000,-4500000000000,492000000000000,141450000000000,-1289050000000000,-108800000000000,1557750000000000,-47750000000000,-134000000000000,-180700000000000,136600000000000,216350000000000,-36650000000000,-92400000000000,457350000000000,-179300000000000,-206500000000000,159450000000000,145300000000000,-229500000000000,-106250000000000,144100000000000,-130750000000000,566700000000000,36500000000000,-752250000000000,-273700000000000,-1229900000000000,107400000000000,84200000000000,-10900000000000,-371950000000000,507850000000000,49450000000000,-164850000000000,-1003100000000000,736200000000000,-1017300000000000,-1975400000000000,-21900000000000,-152700000000000,28700000000000,-91500000000000,1881750000000000,1912050000000000,541300000000000,803450000000000,429800000000000,222300000000000,-106750000000000,-65650000000000,-338700000000000,-178600000000000,1174700000000000,7500000000000,-157000000000000,188500000000000,-103850000000000,-406000000000000,-624550000000000,-982400000000000,745100000000000,494100000000000,389950000000000,357850000000000,134100000000000,-99850000000000,134100000000000,128900000000000,250000000000,-147600000000000,65400000000000,598000000000000,-26250000000000,-130700000000000,150150000000000,69700000000000,-29500000000000,202700000000000,51200000000000,-53650000000000,-77850000000000,75800000000000,-729400000000000,-202850000000000,-130100000000000,292100000000000,-48350000000000,139050000000000,-200400000000000,-1497950000000000,-422950000000000,406200000000000,17750000000000,40550000000000,155100000000000,60150000000000,266150000000000,165250000000000,-183700000000000,31000000000000,18900000000000,-87050000000000,88950000000000,-191300000000000,5950000000000,-141100000000000,-478250000000000,-802800000000000,-305522220000000],"hashrate_average_7d":32538003185266250,"hashrate_average_7d_count":169,"hashrate_block":914523761574074,"expected_blocks":41.87,"luck":-5.8736306381324255,"multipool":15}],"hashblock":{"hashrate_average_100":75479342770955940,"blocks_count":96,"pools":[[709274789238154.6,60,11821246487302.576,"https:\/\/www.f2pool.com"],[914523761574074,36,25403437821502.055,"https:\/\/www.poolin.com"]],"hashrate_block_all":786243153864124.4,"hashrate_block_min":11821246487302.576,"hashrate_block_max":25403437821502.055,"pool_hashblock_average":18612342154402.316,"hashrate_block":786243153864124.4},"time":1672020462,"hashrate":56680000000000000,"difficulty":6328027916.892086,"height":723629,"symbol":"DCR","maxhash":42937735064665224,"poolshash":89040240114958930,"nethash_estimat":78624315386412430,"poolsminers":1451,"supply":{"circulating":14609812.69544259,"total":21000000,"emission24":2766},"block_time_target":300,"block_height_ok":true,"algo":"Blake256R14","hashrate_from_diff":false,"hashrate_src":"https:\/\/lab.antpool.com","unit":"H\/s","block_time_average":272.5,"minerstat":[1.2899414575139e-16,19.450134456903,0.97385825,1816],"link":{"coingecko":"decred","cmc":"decred","whattomine":"152-dcr-blake (14r)","coin360":"decred-dcr","coinpaprika":"dcr-decred"},"latest_release":{"tag":"release-v1.7.5","name":"dcrd v1.7.5","t":1665429869},"price":19.38}