{"data":[{"url":"https:\/\/www.okx.com\/pool","hashrate":0,"miners":-1,"minpay":-1,"id":23,"pool_id":"okx.com","i":1660,"workers":0,"lastblock":630904,"feetype":"PPLNS","fee":2,"country":"HK|Hong Kong","hashrate_average_100_count":74,"hashrate_average_100":0,"hashrate_average_1h":0,"history_start":1669254223,"history_interval":3600,"history_addlast":true,"history":[0,0,0,0,0,0,0,0,0,0,0,0,0,0,0,0,0,0,0,0,0,0,0,0,0,0,0,0,0,0,0,0,0,0,0,0,0,0,0,0,0,0,0,0,0,0,0,0,0,0,0,0,0,0,0,0,0,0,0,0,0,0,0,0,0,0,0,0,0,0,0,0,0,0,0,0,0,0,0,0,0,0,0,0,0,0,0,0,0,0,0,0,0,0,0,0,0,0,0,0,0,0,0,0,0,0,0,0,0,0,0,0,0,0,0,0,0,0,0,0,0,0,0,0,0,0,0,0,0,0,0,0,0,0,0,0,0,0,0,0,0,0,0,0,0,0,0,0,0,0,0,0,0,0,0,0,0,0,0,0,0,0,0,0,0,0,0,0,0],"hashrate_average_7d":0,"hashrate_average_7d_count":169,"expected_blocks":0,"multipool":5},{"url":"https:\/\/www2.coinmine.pl\/dcr","hashrate":338617514055434,"miners":-1,"minpay":0.05,"id":5,"pool_id":"coinmine.pl","i":12491,"workers":20,"blocks_nr":5,"lastblock":716397,"lastblocktime":"1669861337","fee":1,"feetype":"PPLNS","height":716400,"country":"WL|EU , US , Asia","blocks_1000":3,"blocks_count":1,"hashrate_average_100_count":74,"hashrate_average_100":256892678346381.72,"hashrate_average_1h":338617514055434,"history_start":1669254223,"history_interval":3600,"history_addlast":true,"history":[220793964200000,-4931809700000,81291013000000,-41457612600000,37430935700000,-105444673100000,12721319200000,13508188600000,-20271635700000,-77032555200000,-12918777400000,52210251000000,-10206318600000,2494640400000,-7634984300000,56815032400000,-54304760600000,34345812300000,64268475700000,-88260882500000,61129133200000,-65069400800000,32402618700000,-24648616700000,42976146400000,30807731300000,-9297247800000,2554779500000,85404089700000,-45528368800000,-9971192100000,-18550482300000,-7578587700000,58366606000000,-71298040700000,52900609000000,-51407130300000,48562977400000,-77910553000000,48140424400000,-24825620900000,-61142640300000,103990667300000,-106689600000,-28347927600000,-10342407900000,-22075974100000,9766804900000,-64248192200000,75429586100000,40367772700000,24800555700000,-33238562800000,-34849486900000,2400984700000,-8180979200000,35828590000000,7758444500000,103227114500000,-78787982400000,-15178553100000,39857588800000,-25387716900000,32113833800000,-87450397700000,20645245700000,-58147050600000,-57453097700000,45697721500000,-8871256600000,62012026600000,-87608565100000,34290397900000,12384495900000,-33714043000000,32911763200000,65773747500000,-65695843600000,64863032300000,-44617210400000,104807893400000,-78270765400000,36193914000000,1460570100000,20133681600000,-85303155400000,57457514300000,-23386467600000,-4437668600000,-106343795100000,47742809300000,-22680686900000,-26215017700000,-27662747660000,5191617380000,41436877280000,62652761900000,-50574902700000,56271186100000,-59335487500000,66440280300000,-40795549000000,103250880600000,-43998499800000,-10049972000000,-30953307200000,-18767935600000,5450015800000,-12178091100000,-27650733200000,43210893700000,-17965991100000,56110652600000,-51714324000000,-8281823000000,-26399687600000,64778422100000,-32423343600000,56836416000000,-57046452100000,-8125378400000,11375856800000,-25738304600000,-15004243500000,41791324300000,-5237208100000,-12790235600000,33499661200000,-58813048600000,-13173100300000,63619818900000,-63746288000000,23696807400000,45503593600000,-28954201800000,573469400000,-19962551800000,-8485977100000,18924402600000,26169886900000,52046513800000,-61216290900000,65563501300000,-6471032000000,-80651708700000,60929895100000,-44809275300000,83196584100000,-109608676000000,63518205500000,-27659715800000,87329422500000,-47908274500000,56178331400000,59530241700000,-52682736500000,-41288705200000,14950402700000,-53178567700000,-27878542000000,42350283200000,33666092400000,20020700400000,-41207374500000,42359388300000,-30224315300000,89233458500000,-94935115900000,116099264400000],"hashrate_average_7d":201918805209822.66,"hashrate_average_7d_count":169,"expected_blocks":0.39,"luck":0.6123320534540395,"multipool":6},{"url":"https:\/\/lab.antpool.com","hashrate":13890000000000000,"miners":-1,"minpay":0.1,"id":11,"pool_id":"antpool.com","i":2111,"nethash":65030000000000000,"netdiff":4589370493,"feetype":"PPS","fee":3,"income":4.2711816e-15,"lastblock":712107,"lastblocktime":"1668580440","country":"WL|Global","hashrate_average_100_count":74,"hashrate_average_100":14056301203547296,"hashrate_average_1h":13890000000000000,"history_start":1669254223,"history_interval":3600,"history_addlast":true,"history":[14493000000000000,-132500000000000,13000000000000,-158000000000000,89500000000000,-170000000000000,-6500000000000,62000000000000,-146815790000000,189315790000000,-24500000000000,251000000000000,-319500000000000,24000000000000,203500000000000,-242500000000000,169000000000000,-215500000000000,21000000000000,-45500000000000,83000000000000,-103500000000000,112500000000000,-13000000000000,17500000000000,12500000000000,-47000000000000,32500000000000,129000000000000,-159500000000000,59000000000000,118000000000000,-68000000000000,-12500000000000,-5000000000000,46500000000000,-98500000000000,91000000000000,19500000000000,-169000000000000,186500000000000,67000000000000,-193500000000000,55000000000000,-84500000000000,-25500000000000,158000000000000,-80000000000000,-27000000000000,44500000000000,-79500000000000,32000000000000,26500000000000,-34500000000000,214500000000000,74500000000000,-194500000000000,-32500000000000,15500000000000,-87000000000000,141000000000000,-138000000000000,147500000000000,-311500000000000,223000000000000,-238000000000000,276500000000000,-90500000000000,164500000000000,-98500000000000,98000000000000,-169500000000000,43000000000000,-22500000000000,280500000000000,-275500000000000,189500000000000,-50500000000000,-51000000000000,110500000000000,-126500000000000,19500000000000,-1500000000000,98500000000000,-49000000000000,-67500000000000,47000000000000,-69000000000000,-134000000000000,172000000000000,-74000000000000,206000000000000,-164000000000000,123000000000000,12500000000000,-73500000000000,271500000000000,-190000000000000,-2063000000000000,1330500000000000,581500000000000,38500000000000,85500000000000,-35000000000000,-122000000000000,39500000000000,65500000000000,-153500000000000,-103500000000000,83000000000000,106000000000000,59000000000000,69500000000000,-110763160000000,180263160000000,-195000000000000,51500000000000,-257289470000000,192789470000000,-3500000000000,370000000000000,-303500000000000,82000000000000,-39000000000000,-103000000000000,170500000000000,-72500000000000,132500000000000,-87500000000000,-59000000000000,-35000000000000,-82000000000000,16000000000000,-46000000000000,18500000000000,-2674500000000000,2509000000000000,251500000000000,-265500000000000,153500000000000,-31000000000000,-31000000000000,39000000000000,-130500000000000,357500000000000,-99500000000000,77500000000000,34000000000000,-245500000000000,12105260000000,-47605260000000,79500000000000,126000000000000,-220000000000000,131500000000000,34500000000000,-10000000000000,-118000000000000,-22000000000000,-151500000000000,228500000000000,-141000000000000,49000000000000,41000000000000,500000000000,-98500000000000,102000000000000,-14500000000000,-201500000000000],"hashrate_average_7d":14178267673609466,"hashrate_average_7d_count":169,"expected_blocks":21.21,"multipool":16},{"url":"https:\/\/pool.btc.com","hashrate":4184000000000000,"miners":-1,"minpay":0.1,"id":4,"pool_id":"pool.btc.com","feetype":"PPS","i":14537,"workers":100,"income":4.4536068561442e-15,"i_blocks":14579,"json_blocks":{"err_no":0,"data":{"blocks":{"current_page":1,"data":[{"height":716382,"is_orphaned":0,"hash":"00000000000000002d52edd34ef69b3846d47b9b4ddffa9505200d24857eac6f","rewards":"0.98359683","size":4344,"prev_hash":"00000000000000001da4c8acda1645ea607026515585d5b9c16e1a670fa1527b","bits":419493754,"version":9,"created_at":1669857797,"region_id":34,"region_name":"America"},{"height":716379,"is_orphaned":0,"hash":"0000000000000000b9c3f7fd7cf9042d20709e72ad053da6dbd4040b960fdd31","rewards":"0.98359683","size":98456,"prev_hash":"0000000000000000343ee4542f2cf4f43f8dbb9f0b15c9d4a359808ec446c725","bits":419493754,"version":9,"created_at":1669856987,"region_id":36,"region_name":"BitDeer"},{"height":716369,"is_orphaned":0,"hash":"0000000000000000d5e53d2e1779788e71ca3bc299df28ab6e04c5b74b64af9b","rewards":"0.98359683","size":3406,"prev_hash":"00000000000000005fd8c05c94bff48a0e0aa00a7d62c1b0607f684c3d160ab3","bits":419493754,"version":9,"created_at":1669854578,"region_id":34,"region_name":"America"},{"height":716367,"is_orphaned":0,"hash":"00000000000000003ccb54f7cd9e725c0654c0232584cb11d59865172bc4fff4","rewards":"0.98359683","size":42194,"prev_hash":"000000000000000020ef7d3c24e89271a4acb44cb21ee19dbb21df61bb2b8c6d","bits":419493754,"version":9,"created_at":1669854049,"region_id":36,"region_name":"BitDeer"},{"height":716353,"is_orphaned":1,"hash":"0000000000000000f06c165f7de6ab04b83a03724bfee7184555fa94506af993","rewards":0,"size":3018,"prev_hash":"fa6e070b000000000a1129e0e757a4540701af5e3d56b052172c7ec5e3129138","bits":419493754,"version":9,"created_at":1669848951,"region_id":34,"region_name":"America"},{"height":716316,"is_orphaned":0,"hash":"00000000000000006948b576289d37890fff3f9efb210a5e90f1440c341a70bd","rewards":"0.98359683","size":9360,"prev_hash":"0000000000000000f5b15c2c44b6189695a00d9b87486fed0e8379fd0615abaf","bits":419493754,"version":9,"created_at":1669838129,"region_id":36,"region_name":"BitDeer"},{"height":716292,"is_orphaned":0,"hash":"000000000000000047490ff0b1e1b7b5eab6f8163ff0fd0953dc35c54f576d60","rewards":"0.98359683","size":14119,"prev_hash":"0000000000000000610576a23eb9ffb6a505060dbc56f7b5b1e2d10b9e867152","bits":419493754,"version":9,"created_at":1669832338,"region_id":34,"region_name":"America"},{"height":716290,"is_orphaned":0,"hash":"0000000000000000e7d863156673c8307ef27b9dfd2d4de1f883511869e72103","rewards":"0.98359683","size":36812,"prev_hash":"00000000000000006035936025e526df069894aae284773f81e6430158129c80","bits":419493754,"version":9,"created_at":1669831308,"region_id":34,"region_name":"America"},{"height":716280,"is_orphaned":0,"hash":"0000000000000000e0a80ed86e0926fa186897834040968a2721269abbc96bce","rewards":"0.98359683","size":9053,"prev_hash":"000000000000000076f5a16f5b682974888738e996fd49073a06d29a5255037b","bits":419493754,"version":9,"created_at":1669826684,"region_id":34,"region_name":"America"},{"height":716233,"is_orphaned":0,"hash":"0000000000000000b926c7da33e8aceea767f0888be988f40240b19d8a53506a","rewards":"0.98359683","size":2302,"prev_hash":"000000000000000047a8161293dc4d47ac83c6271f838fd45dbd63f3cb26c1ac","bits":419492971,"version":9,"created_at":1669817763,"region_id":34,"region_name":"America"}],"first_page_url":"https:\/\/eu-api.connectbtc.com\/\/public\/v1\/pool\/blocks\/merge?order_by=desc&page_size=10&page=1","from":1,"last_page":2261,"last_page_url":"https:\/\/eu-api.connectbtc.com\/\/public\/v1\/pool\/blocks\/merge?order_by=desc&page_size=10&page=2261","next_page_url":"https:\/\/eu-api.connectbtc.com\/\/public\/v1\/pool\/blocks\/merge?order_by=desc&page_size=10&page=2","path":"https:\/\/eu-api.connectbtc.com\/\/public\/v1\/pool\/blocks\/merge","per_page":10,"prev_page_url":null,"to":10,"total":22609},"blocks_count":22609,"rewards_count":"190983.04412091"},"trace_id":"33610995-ebd4-4dc3-a00c-9b5cf178ba65"},"blocks_nr":9,"lastblock":716382,"lastblocktime":"1669857740","country":"WL|CN , EU , US","blocks_1000":60,"blocks_count":5,"hashrate_average_100_count":74,"hashrate_average_100":4166960462415541,"hashrate_average_1h":4184000000000000,"history_start":1669254223,"history_interval":3600,"history_addlast":true,"history":[4098050000000000,3500000000000,-56800000000000,9050000000000,-32250000000000,21450000000000,-550000000000,19950000000000,26600000000000,-18000000000000,62450000000000,-38950000000000,41850000000000,-38200000000000,-62950000000000,59250000000000,-39200000000000,4350000000000,-38750000000000,-38400000000000,51850000000000,-55900000000000,71450000000000,47950000000000,57550000000000,-19450000000000,37100000000000,28700000000000,26350000000000,27700000000000,-31250000000000,-35300000000000,-15150000000000,2150000000000,13500000000000,18950000000000,-3550000000000,-14700000000000,14400000000000,-2050000000000,19950000000000,-61650000000000,30200000000000,-29900000000000,4300000000000,-57850000000000,34550000000000,-26050000000000,40450000000000,36350000000000,-13700000000000,1400000000000,-79600000000000,56700000000000,-10400000000000,14300000000000,20850000000000,25000000000000,45350000000000,31800000000000,-28750000000000,-8200000000000,34000000000000,24250000000000,700000000000,-22350000000000,-41050000000000,-36850000000000,1950000000000,-28000000000000,-17550000000000,53150000000000,5200000000000,-31150000000000,-48550000000000,350000000000,-51300000000000,43450000000000,11750000000000,-31800000000000,-13350000000000,40650000000000,-54200000000000,2200000000000,46550000000000,74200000000000,23250000000000,-27600000000000,11700000000000,-15100000000000,-4700000000000,5500000000000,1450000000000,-38850000000000,13350000000000,-3400000000000,-14100000000000,28750000000000,-71050000000000,-2100000000000,43650000000000,52500000000000,48550000000000,-18600000000000,2900000000000,4900000000000,-14350000000000,10150000000000,-23150000000000,29100000000000,14000000000000,15000000000000,-30300000000000,4502632000000,-23252632000000,11450000000000,11200000000000,-37502632000000,-11997368000000,-44800000000000,13600000000000,-38700000000000,42050000000000,-18100000000000,-74400000000000,14900000000000,24350000000000,18700000000000,16400000000000,13250000000000,51750000000000,-12300000000000,-1000000000000,-76550000000000,26450000000000,-11750000000000,-6050000000000,-49300000000000,-41950000000000,19750000000000,-8300000000000,24550000000000,-24450000000000,47950000000000,-4300000000000,21850000000000,-26300000000000,41700000000000,-31000000000000,14628947000000,89321053000000,-60300000000000,-12150000000000,77300000000000,31400000000000,-63750000000000,-4700000000000,-4450000000000,60150000000000,-5000000000000,-16900000000000,-54100000000000,1600000000000,13400000000000,-44500000000000,31800000000000,-12500000000000,6650000000000,22150000000000],"hashrate_average_7d":4164137745248523,"hashrate_average_7d_count":169,"hashrate_block":833392092483108.2,"expected_blocks":6.29,"luck":-1.2882173840109035,"multipool":7},{"url":"https:\/\/www.f2pool.com","hashrate":24251521034482092,"miners":-1,"minpay":0.1,"id":14,"pool_id":"f2pool.com","fee":3,"feetype":"PPS%3","i":2480,"income":4.2085942600243545e-15,"blocks_nr":9,"lastblock":716400,"lastblocktime":1669862229,"country":"WL|Global","blocks_1000":316,"blocks_count":37,"hashrate_average_100_count":74,"hashrate_average_100":23664828538145710,"hashrate_average_1h":24251521034482092,"history_start":1669254223,"history_interval":3600,"history_addlast":true,"history":[23440805000000000,39946990000000,-129474670000000,354028110000000,-633972600000000,786634810000000,233208800000000,-114059150000000,-55734680000000,-75160640000000,76205510000000,-40526660000000,148503750000000,287565530000000,-73047570000000,89833840000000,-169475750000000,-280685280000000,16421730000000,-89549850000000,-107672000000000,14954500000000,47523400000000,-25514600000000,-109285940000000,330720790000000,258630370000000,-152166390000000,-474049770000000,476356490000000,-27373940000000,-73736740000000,-225685670000000,80151610000000,69048140000000,23021710000000,108587940000000,-77526040000000,-16425900000000,-45078240000000,-26069590000000,-66848100000000,-97965900000000,54296520000000,38946170000000,249142490000000,-10519080000000,675279540000000,138922030000000,-177037950000000,-62146030000000,-341289840000000,-327242810000000,291854410000000,45511430000000,73728670000000,40248470000000,-223832970000000,-59602640000000,139854520000000,-119888150000000,-55065270000000,-65314550000000,-34026940000000,19306810000000,71817180000000,-121977290000000,-86331940000000,56728440000000,-68268360000000,62853600000000,-231752270000000,-162234860000000,289429900000000,6934430000000,-36850990000000,-113611800000000,-89663570000000,29229160000000,-238485930000000,50696350000000,153479670000000,-131402140000000,100806170000000,141307580000000,-146505080000000,-67873350000000,-63650530000000,13888380000000,-11139080000000,-2850430000000,-67380950000000,-203030310000000,209410680000000,-35233360000000,84641900000000,147607650000000,60816720000000,-62703050000000,-106507260000000,-103515170000000,40345210000000,-20409500000000,42563440000000,109405420000000,31104460000000,-301071240000000,184633310000000,58221070000000,-118121740000000,73343020000000,7769420000000,150005820000000,67888170000000,-6903730000000,-114978620000000,61655910000000,157656320000000,90805750000000,378012070000000,211280200000000,-107813260000000,-126514000000000,-132673870000000,-143715070000000,-49538090000000,90459330000000,-130074750000000,9171500000000,-55825640000000,-5463610000000,7993990000000,-98340790000000,-79023330000000,103528340000000,-61664610000000,-46730330000000,23220060000000,-22697180000000,-45196640000000,-6562920000000,-14129440000000,130248350000000,167428980000000,189903630000000,-51278710000000,-160918670000000,41006130000000,38335250000000,74213550000000,-12909630000000,-236057470000000,48979970000000,-228636010000000,111058210000000,100108140000000,40580130000000,-141339140000000,18240690000000,-66380690000000,-161090190000000,57161960000000,38277330000000,130921260000000,-86599400000000,38655430000000,34922500000000,497482930000000,112723780000000],"hashrate_average_7d":23779814565562130,"hashrate_average_7d_count":169,"hashrate_block":639589960490424.6,"expected_blocks":35.71,"luck":1.288217384010899,"multipool":33},{"url":"https:\/\/www.poolin.com","hashrate":32344000000000000,"miners":-1,"minpay":0.01,"id":3,"pool_id":"poolin.com","fee":3,"feetype":"PPS","i":13598,"json":{"err_no":0,"data":{"shares":{"shares_1m":31.028,"shares_5m":32.344,"shares_15m":32.086,"shares_1h":32.642,"shares_unit":"P"},"reject":{"1m":0,"5m":0,"15m":0.0022,"1h":0.0043},"workers":1407,"users":366,"total_blocks":147311,"total_rewards":104905435669848}},"workers":1407,"netdiff":4589370493.60617,"nethash":"65703987255541323","income":4.76245e-15,"blocks_nr":15,"lastblock":716396,"lastblocktime":"1669861152","country":"US|United States","blocks_1000":515,"blocks_count":46,"hashrate_average_100_count":74,"hashrate_average_100":33005111169763516,"hashrate_average_1h":32344000000000000,"history_start":1669254223,"history_interval":3600,"history_addlast":true,"history":[36533450000000000,22850000000000,-170200000000000,-470600000000000,694600000000000,-1875700000000000,833000000000000,1196150000000000,-507602630000000,-545297370000000,-33550000000000,-350850000000000,204900000000000,51050000000000,15200000000000,-3950000000000,-112550000000000,41300000000000,-167150000000000,218150000000000,-4850000000000,-75250000000000,-195200000000000,-411650000000000,-18900000000000,-687450000000000,359500000000000,-96950000000000,-87200000000000,237300000000000,-133050000000000,-342900000000000,-31300000000000,-660800000000000,-387550000000000,-727160530000000,-204239470000000,76100000000000,83700000000000,-29950000000000,-77300000000000,56750000000000,-112150000000000,17000000000000,-92900000000000,-25600000000000,253400000000000,-544250000000000,-125600000000000,-3255650000000000,1973600000000000,1726000000000000,72750000000000,137400000000000,557150000000000,587450000000000,581950000000000,-66850000000000,-192150000000000,-491700000000000,632100000000000,-82750000000000,66400000000000,-278950000000000,99900000000000,241850000000000,-143150000000000,-35900000000000,78250000000000,-5900000000000,129650000000000,682500000000000,31500000000000,-197100000000000,97900000000000,146350000000000,-363700000000000,154300000000000,376650000000000,77850000000000,-112250000000000,-250500000000000,-251100000000000,440550000000000,-53650000000000,3550000000000,-25450000000000,-16500000000000,145050000000000,157750000000000,48800000000000,-146800000000000,-290100000000000,-6050000000000,-67150000000000,-191050000000000,265250000000000,217000000000000,-139400000000000,193550000000000,-505900000000000,-91100000000000,272500000000000,-11600000000000,75650000000000,-214700000000000,104800000000000,238100000000000,-225250000000000,-141950000000000,-134800000000000,39000000000000,-253700000000000,231052630000000,191747370000000,8650000000000,-78550000000000,-13847370000000,25097370000000,88100000000000,-375650000000000,118900000000000,-1141800000000000,-136150000000000,26200000000000,58100000000000,7250000000000,-78250000000000,-108200000000000,191800000000000,-164650000000000,-381300000000000,324100000000000,145850000000000,-177200000000000,526900000000000,315850000000000,-84500000000000,-341500000000000,317400000000000,-12450000000000,242250000000000,68700000000000,150300000000000,-74450000000000,38600000000000,-41000000000000,292450000000000,-633000000000000,-246273680000000,364773680000000,531950000000000,-409350000000000,424900000000000,342000000000000,-204800000000000,-231600000000000,-21400000000000,137550000000000,-1055100000000000,91550000000000,169100000000000,5800000000000,52200000000000,-421750000000000,-215200000000000,62250000000000,-547150000000000,-7250000000000],"hashrate_average_7d":33966881469940830,"hashrate_average_7d_count":169,"hashrate_block":717502416733989.5,"expected_blocks":49.81,"luck":-3.806883384395931,"multipool":15}],"hashblock":{"hashrate_average_100":27831789000561252,"blocks_count":42,"pools":[[833392092483108.2,5,166678418496621.66,"https:\/\/pool.btc.com"],[639589960490424.6,37,17286215148389.855,"https:\/\/www.f2pool.com"],[717502416733989.5,46,15597878624651.945,"https:\/\/www.poolin.com"]],"hashrate_block_all":691328411026417.9,"hashrate_block_min":15597878624651.945,"hashrate_block_max":166678418496621.66,"pool_hashblock_average":66520837423221.15,"hashrate_block":662661642870506},"time":1669862623,"hashrate":65030000000000000,"difficulty":4589370493.60617,"height":716400,"symbol":"DCR","maxhash":32344000000000000,"poolshash":75008138548537520,"nethash_estimat":66266164287050600,"poolsminers":1527,"supply":{"circulating":14546536.8555762,"total":21000000,"emission24":2711},"block_time_target":300,"block_height_ok":true,"algo":"Blake256R14","hashrate_from_diff":false,"hashrate_src":"https:\/\/lab.antpool.com","unit":"H\/s","block_time_average":281.4,"minerstat":[1.8605424638766e-16,20.507691113231,0.98617973,738],"link":{"coingecko":"decred","cmc":"decred","whattomine":"152-dcr-blake (14r)","coin360":"decred-dcr","coinpaprika":"dcr-decred"},"latest_release":{"tag":"release-v1.7.5","name":"dcrd v1.7.5","t":1665429869},"price":20.52}