{"data":[{"url":"https:\/\/www.okx.com\/pool","hashrate":0,"miners":-1,"minpay":-1,"id":23,"pool_id":"okx.com","i":1660,"workers":0,"lastblock":630904,"feetype":"PPLNS","fee":2,"country":"HK|Hong Kong","hashrate_average_100_count":74,"hashrate_average_100":0,"hashrate_average_1h":0,"history_start":1670809423,"history_interval":3600,"history_addlast":true,"history":[0,0,0,0,0,0,0,0,0,0,0,0,0,0,0,0,0,0,0,0,0,0,0,0,0,0,0,0,0,0,0,0,0,0,0,0,0,0,0,0,0,0,0,0,0,0,0,0,0,0,0,0,0,0,0,0,0,0,0,0,0,0,0,0,0,0,0,0,0,0,0,0,0,0,0,0,0,0,0,0,0,0,0,0,0,0,0,0,0,0,0,0,0,0,0,0,0,0,0,0,0,0,0,0,0,0,0,0,0,0,0,0,0,0,0,0,0,0,0,0,0,0,0,0,0,0,0,0,0,0,0,0,0,0,0,0,0,0,0,0,0,0,0,0,0,0,0,0,0,0,0,0,0,0,0,0,0,0,0,0,0,0,0,0,0,0,0,0],"hashrate_average_7d":0,"hashrate_average_7d_count":168,"expected_blocks":0,"multipool":5},{"url":"https:\/\/www2.coinmine.pl\/dcr","hashrate":432999157967531,"miners":-1,"minpay":0.05,"id":5,"pool_id":"coinmine.pl","i":12558,"workers":25,"blocks_nr":5,"lastblock":720996,"lastblocktime":"1671234048","fee":1,"feetype":"PPLNS","height":721535,"country":"WL|EU , US , Asia","blocks_1000":4,"hashrate_average_100_count":74,"hashrate_average_100":365299753312296.25,"hashrate_average_1h":552743689988341.9,"history_start":1670809423,"history_interval":3600,"history_addlast":true,"history":[208878000700000,10448549300000,3162531900000,38148117100000,-33712174000000,3324484700000,-49232770200000,4309802600000,-36262519300000,30774334600000,116754911800000,-79103612800000,-20027698900000,-1994458600000,-1196400500000,10420101400000,-78289881800000,24361512300000,-8446430400000,31426335200000,-42010041000000,79674997500000,11010658300000,-27219350900000,84896840800000,-88119931200000,-16556381000000,62909464400000,11118877400000,-32271995900000,-45291815800000,3742626800000,-41412390900000,40875315300000,19202958800000,21812067700000,-13539241100000,25997854800000,-7079353800000,22491112500000,-2429133400000,18262510800000,8875502300000,-41475033600000,8162489900000,-106125343400000,92562069500000,-5300772900000,-33988791700000,29411402200000,23757126200000,-42742915400000,24193630100000,30838750600000,-26546352400000,-68548392100000,21644998700000,28674561900000,55065766400000,-31193497300000,34704423200000,15306183500000,-46222588100000,25731501400000,55768406600000,-72052945800000,-67451536800000,28704440100000,-43710029800000,63880846100000,58476806600000,10864037100000,-4983585600000,-10845513800000,-34285156000000,32579358100000,2031492400000,6870364700000,5255430500000,810804800000,-61272468500000,32232002400000,37845743300000,30479013500000,-119373484600000,4304765600000,-72994420200000,36413746300000,76994750300000,-57665360100000,41644743100000,-85265363700000,109640753500000,-125265438300000,29059233200000,96265379900000,22995547300000,-67275878800000,34397294300000,2060644800000,-61971314600000,-9794721700000,-45918125600000,12802154200000,29211073500000,21060698900000,56415365800000,-30848380800000,26354697100000,-13878843000000,8784828600000,-57111300000,-75644364500000,79663750400000,-43938928200000,54642029500000,-51561924700000,-34388961500000,13794660600000,29423259000000,41057138900000,-49626196700000,12584572400000,18106347100000,-18909181100000,22797449300000,16841924300000,-11260997500000,32938756300000,-13780276400000,30941623600000,-107124574500000,37251655700000,83898442100000,-98753958200000,-41371946900000,-8407991000000,-51447321300000,74383790900000,-34282630800000,48103584800000,71792993000000,22130398100000,-38983492200000,47032983500000,52071990200000,-13265797900000,-17444950000000,-118729485900000,126380213500000,-28613225500000,273997320100000,-291513789100000,105007218200000,-90677145300000,101403276800000,-21593884800000,-56123969600000,82958614900000,-60891496000000,-16497498000000,-73452987800000,184594909600000,-142783211600000,53028554400000,-11343429500000,84574631600000,127867369900000],"hashrate_average_7d":239800799738690.5,"hashrate_average_7d_count":168,"expected_blocks":0.58,"multipool":6},{"url":"https:\/\/lab.antpool.com","hashrate":12330000000000000,"miners":-1,"minpay":0.1,"id":11,"pool_id":"antpool.com","i":2136,"nethash":56680000000000000,"netdiff":4366865485,"feetype":"PPS","fee":3,"income":4.3024544e-15,"lastblock":719327,"lastblocktime":"1670732243","country":"WL|Global","hashrate_average_100_count":74,"hashrate_average_100":12251258709881758,"hashrate_average_1h":12280000000000000,"history_start":1670809423,"history_interval":3600,"history_addlast":true,"history":[14288000000000000,76500000000000,-744000000000000,756500000000000,30368420000000,136131580000000,-52000000000000,-29000000000000,-147500000000000,95000000000000,-79500000000000,-46000000000000,170500000000000,-84500000000000,-40500000000000,-22000000000000,219000000000000,-141000000000000,-96000000000000,-65000000000000,78500000000000,51500000000000,-178500000000000,38500000000000,-134000000000000,145500000000000,-43500000000000,-1500000000000,-131000000000000,466500000000000,18500000000000,-176000000000000,-201500000000000,193500000000000,-118000000000000,-4500000000000,102500000000000,77000000000000,-199500000000000,164500000000000,-7000000000000,-43000000000000,63000000000000,-147500000000000,-68000000000000,-142000000000000,118000000000000,77000000000000,189500000000000,-131000000000000,37500000000000,-85000000000000,43500000000000,-65500000000000,-24000000000000,157500000000000,110000000000000,-24500000000000,58000000000000,34000000000000,-124000000000000,37000000000000,-1500000000000,105000000000000,-99000000000000,-32500000000000,-34500000000000,-33500000000000,68000000000000,-65000000000000,-18500000000000,-178000000000000,120000000000000,-112000000000000,169500000000000,212000000000000,67000000000000,-96000000000000,38000000000000,4500000000000,-199000000000000,-2500000000000,98000000000000,-86500000000000,78500000000000,-125000000000000,-46000000000000,7000000000000,119000000000000,-125000000000000,123000000000000,-131000000000000,-3500000000000,103000000000000,16000000000000,198500000000000,-139000000000000,47000000000000,-98000000000000,-60500000000000,26500000000000,-31526320000000,133526320000000,-28500000000000,-78500000000000,-30500000000000,194500000000000,-151000000000000,24000000000000,25000000000000,-116500000000000,-61500000000000,138000000000000,-68000000000000,-2092500000000000,-96500000000000,234500000000000,-82500000000000,57500000000000,37500000000000,-243000000000000,252000000000000,-42000000000000,115000000000000,-86000000000000,-180500000000000,47000000000000,97000000000000,-92500000000000,7000000000000,-75500000000000,-34000000000000,-64500000000000,3000000000000,397000000000000,-438000000000000,5500000000000,-7500000000000,-104500000000000,244000000000000,170500000000000,-196500000000000,91000000000000,42000000000000,150500000000000,631000000000000,-242000000000000,6000000000000,0,0,-634500000000000,754000000000000,-653500000000000,-500000000000,-6026320000000,-1039473680000000,1113000000000000,-104500000000000,204131580000000,-103631580000000,-107500000000000,-164000000000000,193000000000000,-91000000000000,140000000000000,156500000000000,-283000000000000,97000000000000],"hashrate_average_7d":13680365758095244,"hashrate_average_7d_count":168,"expected_blocks":19.49,"multipool":16},{"url":"https:\/\/pool.btc.com","hashrate":3568000000000000,"miners":-1,"minpay":0.1,"id":4,"pool_id":"pool.btc.com","feetype":"PPS","i":14604,"workers":83,"income":4.4862122258374e-15,"i_blocks":14646,"json_blocks":{"err_no":0,"data":{"blocks":{"current_page":1,"data":[{"height":719623,"is_orphaned":0,"hash":"00000000000000007fd3b458ae2c5cfc371ff62e349e132b0f07803dd3fab4f9","rewards":"0.97385825","size":4640,"prev_hash":"000000000000000082df9febe46b4d8e66d2f7b871a6914b45f391346c5d7bff","bits":419479943,"version":9,"created_at":1670823994,"region_id":34,"region_name":"America"},{"height":719621,"is_orphaned":0,"hash":"000000000000000007a4cd1f5233b2955f372235388c901810d3f449e3b7909f","rewards":"0.97385825","size":2158,"prev_hash":"00000000000000004c28ed39afd6e4007a2398343c6c3c013f1954bc222400f2","bits":419479943,"version":9,"created_at":1670823337,"region_id":36,"region_name":"BitDeer"},{"height":719607,"is_orphaned":0,"hash":"00000000000000002565bcb135c25c236dcf254eef04dab72a41c254a551e7df","rewards":"0.97385825","size":21883,"prev_hash":"00000000000000001289b8ecf5abff4d5052c9ac2d02b44144b10900e521114d","bits":419479943,"version":9,"created_at":1670819532,"region_id":36,"region_name":"BitDeer"},{"height":719606,"is_orphaned":0,"hash":"00000000000000001289b8ecf5abff4d5052c9ac2d02b44144b10900e521114d","rewards":"0.97385825","size":6719,"prev_hash":"000000000000000062685b25dd5754441b0ba60802e281af5b2291254aff2268","bits":419479943,"version":9,"created_at":1670819131,"region_id":34,"region_name":"America"},{"height":719595,"is_orphaned":0,"hash":"00000000000000005ee466d61279b95cdc8b87bd204194fc3f247dd3d0631b87","rewards":"0.97385825","size":29683,"prev_hash":"00000000000000000d94430259f8b7142020636d1acc90d36103fd3ca432b815","bits":419479943,"version":9,"created_at":1670814468,"region_id":36,"region_name":"BitDeer"},{"height":719593,"is_orphaned":0,"hash":"0000000000000000af8a682caa01e997dd6bc51e1acdc978555fddbdf574d954","rewards":"0.97385825","size":39296,"prev_hash":"000000000000000068ee61fd358cf1c30e03004c47e7d71b49fe96d75bfc9a1d","bits":419479943,"version":9,"created_at":1670813944,"region_id":34,"region_name":"America"},{"height":719562,"is_orphaned":0,"hash":"00000000000000004d846bfb8a03cbb4e358c6c6fb560b8c62103ad950a78385","rewards":"0.97385825","size":36506,"prev_hash":"000000000000000049ca075c4565265a2e01076ded37304ef3eec84e3d915cdf","bits":419480081,"version":9,"created_at":1670806809,"region_id":36,"region_name":"BitDeer"},{"height":719552,"is_orphaned":0,"hash":"000000000000000074239eccccd432a24906807149bcac49b57e3397ae1f8d0b","rewards":"0.97385825","size":82425,"prev_hash":"00000000000000003e087a9a1bcddc2be634087767d5aeaf380a824ff762ce50","bits":419480081,"version":9,"created_at":1670802767,"region_id":36,"region_name":"BitDeer"},{"height":719547,"is_orphaned":0,"hash":"000000000000000000749338689d9149ce67e50065639fe6acc5d5dec0b37553","rewards":"0.97385825","size":18550,"prev_hash":"0000000000000000b817b1c810e396d6c236e2c1a6bc27459e947c3fc5a1a597","bits":419480081,"version":9,"created_at":1670800767,"region_id":36,"region_name":"BitDeer"},{"height":719503,"is_orphaned":0,"hash":"000000000000000054d50fc3159d7e7374bd9cc632b1d660e2844cc18fb02a49","rewards":"0.97385825","size":34781,"prev_hash":"00000000000000001090d6bcdc5785389e3df0e403f799864f4cd4e00cfb8f24","bits":419480081,"version":9,"created_at":1670786243,"region_id":34,"region_name":"America"}],"first_page_url":"https:\/\/eu-api.connectbtc.com\/\/public\/v1\/pool\/blocks\/merge?order_by=desc&page_size=10&page=1","from":1,"last_page":2281,"last_page_url":"https:\/\/eu-api.connectbtc.com\/\/public\/v1\/pool\/blocks\/merge?order_by=desc&page_size=10&page=2281","next_page_url":"https:\/\/eu-api.connectbtc.com\/\/public\/v1\/pool\/blocks\/merge?order_by=desc&page_size=10&page=2","path":"https:\/\/eu-api.connectbtc.com\/\/public\/v1\/pool\/blocks\/merge","per_page":10,"prev_page_url":null,"to":10,"total":22808},"blocks_count":22808,"rewards_count":"191174.31377628"},"trace_id":"f14a90d8-3c92-4892-aab1-ed4244ced5b1"},"blocks_nr":10,"lastblock":719623,"lastblocktime":"1670823992","country":"WL|CN , EU , US","hashrate_average_100_count":74,"hashrate_average_100":3614761217271959.5,"hashrate_average_1h":3553285714285714.5,"history_start":1670809423,"history_interval":3600,"history_addlast":true,"history":[3870000000000000,-32550000000000,27200000000000,-34650000000000,-1315789000000,49615789000000,46750000000000,-15300000000000,-47200000000000,29800000000000,24450000000000,-11300000000000,-9200000000000,-55300000000000,-175800000000000,25150000000000,45150000000000,-35550000000000,-11200000000000,-42700000000000,-7500000000000,-11950000000000,-44450000000000,5000000000000,-1350000000000,27500000000000,36900000000000,-9100000000000,-29900000000000,91850000000000,6700000000000,-30000000000000,-18300000000000,-43550000000000,57800000000000,60450000000000,-89100000000000,-41800000000000,30700000000000,36300000000000,33700000000000,-29200000000000,-3700000000000,-90700000000000,4950000000000,46500000000000,-37350000000000,-56400000000000,86750000000000,12850000000000,14050000000000,-150000000000,-17700000000000,-40900000000000,-9550000000000,6050000000000,-72350000000000,31900000000000,145300000000000,-15100000000000,-7200000000000,71900000000000,-27450000000000,-50000000000,-16000000000000,-22000000000000,16050000000000,15700000000000,-23550000000000,-12800000000000,36000000000000,-42950000000000,-12850000000000,-62850000000000,64700000000000,-31600000000000,-23450000000000,-20850000000000,-11200000000000,-36950000000000,47150000000000,77400000000000,4700000000000,-16450000000000,30300000000000,-23000000000000,-9300000000000,26050000000000,34850000000000,-27800000000000,-24350000000000,-10750000000000,-26000000000000,-43350000000000,-3850000000000,51400000000000,-26900000000000,-9250000000000,44200000000000,-58250000000000,24150000000000,550000000000,-33600000000000,37500000000000,28800000000000,61500000000000,22350000000000,-36950000000000,-23150000000000,-48500000000000,9700000000000,8250000000000,-2300000000000,100000000000,-18450000000000,1250000000000,-14850000000000,150000000000,14450000000000,-22550000000000,39950000000000,-23050000000000,-4050000000000,-58600000000000,22000000000000,21050000000000,15400000000000,-7350000000000,-2800000000000,60050000000000,-31450000000000,40900000000000,40050000000000,-32600000000000,44850000000000,-58800000000000,-2800000000000,8850000000000,-28850000000000,-27450000000000,-50350000000000,-44850000000000,50950000000000,-34250000000000,67900000000000,29050000000000,45900000000000,-40650000000000,-4850000000000,42428947000000,-34328947000000,-21950000000000,12050000000000,-4100000000000,74486842000000,-38436842000000,37300000000000,-32700000000000,-15163158000000,73563158000000,-6400000000000,-43950000000000,-5600000000000,24150000000000,-82650000000000,-56500000000000,9750000000000,8185714000000],"hashrate_average_7d":3651207277119047,"hashrate_average_7d_count":168,"expected_blocks":5.75,"multipool":7},{"url":"https:\/\/www.f2pool.com","hashrate":21434529542167080,"miners":-1,"minpay":0.1,"id":14,"pool_id":"f2pool.com","fee":3,"feetype":"PPS%3","i":2505,"income":3.7033291158859385e-15,"blocks_nr":8,"lastblock":721535,"lastblocktime":1671415039,"country":"WL|Global","blocks_1000":298,"blocks_count":36,"hashrate_average_100_count":74,"hashrate_average_100":20833794585593150,"hashrate_average_1h":21666255509211590,"history_start":1670809423,"history_interval":3600,"history_addlast":true,"history":[36326310770000000,-2411338690000000,-2287470870000000,-2018476560000000,4419819670000000,270808070000000,1211847720000000,-536874510000000,-1630791650000000,-3932221650000000,1948571090000000,2901111840000000,2545751770000000,14055970000000,557055870000000,59144980000000,-55788030000000,195684870000000,-20698000000000,-925353420000000,-3502257690000000,4805373280000000,-208529190000000,3392370000000,83576230000000,112865320000000,20752870000000,-374702420000000,454687910000000,-79923560000000,57109640000000,-76671800000000,-21351160000000,-18210060000000,-118564490000000,-52942650000000,173339260000000,-189395270000000,-103646610000000,-250437920000000,53474790000000,121316140000000,-61930870000000,-109479760000000,151225670000000,-618818480000000,199066120000000,-153298920000000,929069300000000,-156375160000000,-140053400000000,-34383750000000,228917640000000,188156550000000,164711830000000,300573740000000,261469120000000,-460210280000000,-152758680000000,-73047510000000,-56917870000000,25291420000000,13833360000000,-146696040000000,176688290000000,-209152410000000,210998780000000,-6322000000000,-8243450000000,-9954930000000,-204541580000000,591401790000000,-91728320000000,208097810000000,119275070000000,-132665550000000,-30749170000000,-176980980000000,441636550000000,111914720000000,-142135000000000,238663030000000,118449890000000,-52356900000000,296549470000000,155754350000000,-298392400000000,-327594100000000,-104074780000000,362265210000000,-202057090000000,-44377360000000,-190093580000000,30662790000000,325270910000000,32691460000000,-283221040000000,388518270000000,23048420000000,122399720000000,-644801560000000,-90493430000000,342933350000000,-127349330000000,-33297330000000,-146260590000000,-128295240000000,212410320000000,23811190000000,-252580970000000,87169440000000,120856930000000,42300640000000,54958930000000,-61861320000000,102819250000000,-538460630000000,642498720000000,234853710000000,2311550000000,46276600000000,88536690000000,67713890000000,-759466430000000,207847800000000,519956170000000,75997260000000,-18857910000000,-121761830000000,38269710000000,-31757970000000,91287040000000,-36729900000000,-192126290000000,-85685990000000,-113278690000000,-1135523990000000,892986660000000,-289198450000000,79978490000000,23241260000000,-4780370000000,284687930000000,-188427010000000,70966920000000,0,0,0,0,0,0,0,0,-1565259530000000,-30457909024000000,-6315488610900000,110512119900000,-33624048800000,385797981700000,14246057372100000,3637292690000000,1210345170000000,527072130000000,502858300000000,190220980000000,177039450000000,449933060000000,-10661900000000],"hashrate_average_7d":35858292115477390,"hashrate_average_7d_count":168,"hashrate_block":578716516266476.5,"expected_blocks":33.14,"luck":2.857588625698483,"multipool":33},{"url":"https:\/\/www.poolin.com","hashrate":34912000000000000,"miners":-1,"minpay":0.01,"id":3,"pool_id":"poolin.com","fee":3,"feetype":"PPS","i":13665,"json":{"err_no":0,"data":{"shares":{"shares_1m":32.634,"shares_5m":34.912,"shares_15m":35.133,"shares_1h":35.307,"shares_unit":"P"},"reject":{"1m":0,"5m":0,"15m":0.0031,"1h":0.0044},"workers":1546,"users":393,"total_blocks":149608,"total_rewards":105129363856472}},"workers":1546,"netdiff":4366865485.65471,"nethash":"62518481480353928","income":5.00511e-15,"blocks_nr":18,"lastblock":721534,"lastblocktime":"1671414976","country":"US|United States","blocks_1000":442,"blocks_count":54,"hashrate_average_100_count":74,"hashrate_average_100":35741494747677364,"hashrate_average_1h":35025000000000000,"history_start":1670809423,"history_interval":3600,"history_addlast":true,"history":[31418500000000000,-284750000000000,-825100000000000,-211500000000000,-316676320000000,534026320000000,-211400000000000,1350000000000,-3750000000000,-24950000000000,140850000000000,439050000000000,-14700000000000,-48700000000000,-112450000000000,37650000000000,50250000000000,-56350000000000,7750000000000,-750000000000,-116700000000000,39500000000000,67900000000000,-98800000000000,38550000000000,702150000000000,-540000000000000,639500000000000,-204250000000000,136650000000000,500300000000000,691350000000000,289700000000000,184200000000000,-162300000000000,442400000000000,-147150000000000,-7350000000000,1002250000000000,324000000000000,69100000000000,-102800000000000,-413000000000000,389150000000000,-13950000000000,84550000000000,357450000000000,148650000000000,-553100000000000,-251900000000000,-657350000000000,-475250000000000,-369050000000000,208050000000000,461600000000000,-286400000000000,138800000000000,46650000000000,174600000000000,-939300000000000,-95050000000000,45550000000000,115250000000000,-192850000000000,181850000000000,162450000000000,-92950000000000,-118000000000000,-28500000000000,-247800000000000,-361300000000000,-167950000000000,99700000000000,-107600000000000,-1212550000000000,-783850000000000,176750000000000,-65550000000000,-79100000000000,-534750000000000,-68750000000000,-145400000000000,-255900000000000,-9350000000000,264900000000000,-256250000000000,96250000000000,54350000000000,21150000000000,38800000000000,151350000000000,-102150000000000,17950000000000,-319950000000000,247050000000000,-18850000000000,21350000000000,237800000000000,-551250000000000,-267800000000000,-130000000000000,27305260000000,199394740000000,-334700000000000,591900000000000,275250000000000,146650000000000,43150000000000,549500000000000,8250000000000,-191000000000000,161350000000000,86350000000000,-16350000000000,120350000000000,119500000000000,-110600000000000,-344850000000000,83350000000000,353600000000000,-48300000000000,-144150000000000,33950000000000,-680900000000000,178600000000000,749950000000000,-957400000000000,2327000000000000,-430000000000000,-43000000000000,-105850000000000,177200000000000,-157400000000000,517800000000000,-218400000000000,308450000000000,44300000000000,-64050000000000,-91850000000000,25100000000000,-448300000000000,-135600000000000,452100000000000,8850000000000,-245100000000000,-1793550000000000,2346750000000000,-153100000000000,602700000000000,16300000000000,369450000000000,75950000000000,2674250000000000,541950000000000,211678950000000,235221050000000,130350000000000,-70200000000000,251734210000000,-35284210000000,396400000000000,-733400000000000,-89800000000000,112750000000000,129700000000000,-228650000000000,-448050000000000,-375350000000000],"hashrate_average_7d":31305119595833348,"hashrate_average_7d_count":168,"hashrate_block":661879532364395.6,"expected_blocks":56.86,"luck":-2.8575886256984973,"multipool":15}],"hashblock":{"hashrate_average_100":56575289333270510,"blocks_count":90,"pools":[[578716516266476.5,36,16075458785179.902,"https:\/\/www.f2pool.com"],[661879532364395.6,54,12257028377118.438,"https:\/\/www.poolin.com"]],"hashrate_block_all":628614325925227.9,"hashrate_block_min":12257028377118.438,"hashrate_block_max":16075458785179.902,"pool_hashblock_average":14166243581149.17,"hashrate_block":628614325925227.9},"time":1671415303,"hashrate":56680000000000000,"difficulty":4366865485.65471,"height":721535,"symbol":"DCR","maxhash":34912000000000000,"poolshash":72677528700134610,"nethash_estimat":62861432592522780,"poolsminers":1654,"supply":{"circulating":14591564.53955409,"total":21000000,"emission24":2102},"block_time_target":300,"block_height_ok":true,"algo":"Blake256R14","hashrate_from_diff":false,"hashrate_src":"https:\/\/lab.antpool.com","unit":"H\/s","block_time_average":357,"minerstat":[1.8696679640117e-16,19.676480528129,0.97407335,2178],"link":{"coingecko":"decred","cmc":"decred","whattomine":"152-dcr-blake (14r)","coin360":"decred-dcr","coinpaprika":"dcr-decred"},"latest_release":{"tag":"release-v1.7.5","name":"dcrd v1.7.5","t":1665429869},"price":19.66}