{"data":[{"url":"https:\/\/www.okx.com\/pool","hashrate":0,"miners":-1,"minpay":-1,"id":23,"pool_id":"okx.com","i":1660,"workers":0,"lastblock":630904,"feetype":"PPLNS","fee":2,"country":"HK|Hong Kong","hashrate_average_100_count":74,"hashrate_average_100":0,"hashrate_average_1h":0,"history_start":1669337023,"history_interval":3600,"history_addlast":true,"history":[0,0,0,0,0,0,0,0,0,0,0,0,0,0,0,0,0,0,0,0,0,0,0,0,0,0,0,0,0,0,0,0,0,0,0,0,0,0,0,0,0,0,0,0,0,0,0,0,0,0,0,0,0,0,0,0,0,0,0,0,0,0,0,0,0,0,0,0,0,0,0,0,0,0,0,0,0,0,0,0,0,0,0,0,0,0,0,0,0,0,0,0,0,0,0,0,0,0,0,0,0,0,0,0,0,0,0,0,0,0,0,0,0,0,0,0,0,0,0,0,0,0,0,0,0,0,0,0,0,0,0,0,0,0,0,0,0,0,0,0,0,0,0,0,0,0,0,0,0,0,0,0,0,0,0,0,0,0,0,0,0,0,0,0,0,0,0,0,0],"hashrate_average_7d":0,"hashrate_average_7d_count":169,"expected_blocks":0,"multipool":5},{"url":"https:\/\/www2.coinmine.pl\/dcr","hashrate":354695538882942,"miners":-1,"minpay":0.05,"id":5,"pool_id":"coinmine.pl","i":12491,"workers":26,"blocks_nr":5,"lastblock":716643,"lastblocktime":"1669936123","fee":1,"feetype":"PPLNS","height":716686,"country":"WL|EU , US , Asia","blocks_1000":4,"blocks_count":2,"hashrate_average_100_count":74,"hashrate_average_100":245985212791091.56,"hashrate_average_1h":292853609169496.2,"history_start":1669337023,"history_interval":3600,"history_addlast":true,"history":[157229357200000,42976146400000,30807731300000,-9297247800000,2554779500000,85404089700000,-45528368800000,-9971192100000,-18550482300000,-7578587700000,58366606000000,-71298040700000,52900609000000,-51407130300000,48562977400000,-77910553000000,48140424400000,-24825620900000,-61142640300000,103990667300000,-106689600000,-28347927600000,-10342407900000,-22075974100000,9766804900000,-64248192200000,75429586100000,40367772700000,24800555700000,-33238562800000,-34849486900000,2400984700000,-8180979200000,35828590000000,7758444500000,103227114500000,-78787982400000,-15178553100000,39857588800000,-25387716900000,32113833800000,-87450397700000,20645245700000,-58147050600000,-57453097700000,45697721500000,-8871256600000,62012026600000,-87608565100000,34290397900000,12384495900000,-33714043000000,32911763200000,65773747500000,-65695843600000,64863032300000,-44617210400000,104807893400000,-78270765400000,36193914000000,1460570100000,20133681600000,-85303155400000,57457514300000,-23386467600000,-4437668600000,-106343795100000,47742809300000,-22680686900000,-26215017700000,-27662747660000,5191617380000,41436877280000,62652761900000,-50574902700000,56271186100000,-59335487500000,66440280300000,-40795549000000,103250880600000,-43998499800000,-10049972000000,-30953307200000,-18767935600000,5450015800000,-12178091100000,-27650733200000,43210893700000,-17965991100000,56110652600000,-51714324000000,-8281823000000,-26399687600000,64778422100000,-32423343600000,56836416000000,-57046452100000,-8125378400000,11375856800000,-25738304600000,-15004243500000,41791324300000,-5237208100000,-12790235600000,33499661200000,-58813048600000,-13173100300000,63619818900000,-63746288000000,23696807400000,45503593600000,-28954201800000,573469400000,-19962551800000,-8485977100000,18924402600000,26169886900000,52046513800000,-61216290900000,65563501300000,-6471032000000,-80651708700000,60929895100000,-44809275300000,83196584100000,-109608676000000,63518205500000,-27659715800000,87329422500000,-47908274500000,56178331400000,59530241700000,-52682736500000,-41288705200000,14950402700000,-53178567700000,-27878542000000,42350283200000,33666092400000,20020700400000,-41207374500000,42359388300000,-30224315300000,89233458500000,-94935115900000,6818439500000,20957977100000,29195417500000,-36004366400000,-25370713200000,-1145440000000,12114956100000,-7530499800000,47292702100000,761464900000,-172865368950000,49441926650000,85900333100000,-51086900800000,81046553200000,6928049400000,-58216082000000,-20916884700000,31297489600000,3919973200000,62129736500000,-16915741400000,-60225672800000,82808010700000],"hashrate_average_7d":206857412143254.47,"hashrate_average_7d_count":169,"hashrate_block":122992606395545.78,"expected_blocks":0.34,"luck":1.657213277217509,"multipool":6},{"url":"https:\/\/lab.antpool.com","hashrate":14750000000000000,"miners":-1,"minpay":0.1,"id":11,"pool_id":"antpool.com","i":2111,"nethash":65920000000000000,"netdiff":4641437292,"feetype":"PPS","fee":3,"income":4.0884045e-15,"lastblock":712107,"lastblocktime":"1668580440","country":"WL|Global","hashrate_average_100_count":74,"hashrate_average_100":14058826013513514,"hashrate_average_1h":14013333333333334,"history_start":1669337023,"history_interval":3600,"history_addlast":true,"history":[14133000000000000,17500000000000,12500000000000,-47000000000000,32500000000000,129000000000000,-159500000000000,59000000000000,118000000000000,-68000000000000,-12500000000000,-5000000000000,46500000000000,-98500000000000,91000000000000,19500000000000,-169000000000000,186500000000000,67000000000000,-193500000000000,55000000000000,-84500000000000,-25500000000000,158000000000000,-80000000000000,-27000000000000,44500000000000,-79500000000000,32000000000000,26500000000000,-34500000000000,214500000000000,74500000000000,-194500000000000,-32500000000000,15500000000000,-87000000000000,141000000000000,-138000000000000,147500000000000,-311500000000000,223000000000000,-238000000000000,276500000000000,-90500000000000,164500000000000,-98500000000000,98000000000000,-169500000000000,43000000000000,-22500000000000,280500000000000,-275500000000000,189500000000000,-50500000000000,-51000000000000,110500000000000,-126500000000000,19500000000000,-1500000000000,98500000000000,-49000000000000,-67500000000000,47000000000000,-69000000000000,-134000000000000,172000000000000,-74000000000000,206000000000000,-164000000000000,123000000000000,12500000000000,-73500000000000,271500000000000,-190000000000000,-2063000000000000,1330500000000000,581500000000000,38500000000000,85500000000000,-35000000000000,-122000000000000,39500000000000,65500000000000,-153500000000000,-103500000000000,83000000000000,106000000000000,59000000000000,69500000000000,-110763160000000,180263160000000,-195000000000000,51500000000000,-257289470000000,192789470000000,-3500000000000,370000000000000,-303500000000000,82000000000000,-39000000000000,-103000000000000,170500000000000,-72500000000000,132500000000000,-87500000000000,-59000000000000,-35000000000000,-82000000000000,16000000000000,-46000000000000,18500000000000,-2674500000000000,2509000000000000,251500000000000,-265500000000000,153500000000000,-31000000000000,-31000000000000,39000000000000,-130500000000000,357500000000000,-99500000000000,77500000000000,34000000000000,-245500000000000,12105260000000,-47605260000000,79500000000000,126000000000000,-220000000000000,131500000000000,34500000000000,-10000000000000,-118000000000000,-22000000000000,-151500000000000,228500000000000,-141000000000000,49000000000000,41000000000000,500000000000,-98500000000000,102000000000000,-14500000000000,36500000000000,-26500000000000,31500000000000,109500000000000,-206000000000000,54000000000000,91000000000000,32000000000000,-100000000000000,102000000000000,13000000000000,-44500000000000,-41000000000000,153500000000000,-175000000000000,-139000000000000,-39558820000000,77558820000000,64500000000000,162500000000000,-18500000000000,-303000000000000,193000000000000,-105666670000000],"hashrate_average_7d":14168327379526622,"hashrate_average_7d_count":169,"expected_blocks":19.59,"multipool":16},{"url":"https:\/\/pool.btc.com","hashrate":4150000000000000.5,"miners":-1,"minpay":0.1,"id":4,"pool_id":"pool.btc.com","feetype":"PPS","i":14537,"workers":100,"income":4.263031230501e-15,"i_blocks":14579,"json_blocks":{"err_no":0,"data":{"blocks":{"current_page":1,"data":[{"height":716680,"is_orphaned":0,"hash":"000000000000000021514a9c93e129a08f8161841655b80ca65986f5efe7e017","rewards":"0.98359683","size":49427,"prev_hash":"0000000000000000ab0ea1a84ad8b20ac96e26445336bd3b4058c0be0ceeca49","bits":419491043,"version":9,"created_at":1669945314,"region_id":34,"region_name":"America"},{"height":716663,"is_orphaned":0,"hash":"0000000000000000bc35ca16f9cd42e14f00a63a9e07e0c73d76debf9a28d212","rewards":"0.98359683","size":33152,"prev_hash":"0000000000000000b61f10033a395e6568b1e4c0adc5401f75c1c7c07f88419c","bits":419491043,"version":9,"created_at":1669940271,"region_id":36,"region_name":"BitDeer"},{"height":716651,"is_orphaned":0,"hash":"0000000000000000507475349b6c2296b167d90e0695a7b27050c28a7e864bf3","rewards":"0.98359683","size":35689,"prev_hash":"00000000000000004b844050d754238d0ed32757aa45688c592276ec7776a8b9","bits":419491043,"version":9,"created_at":1669937472,"region_id":34,"region_name":"America"},{"height":716635,"is_orphaned":0,"hash":"00000000000000007c905b322be80164c7f46150b188fe759b30eea64d54349a","rewards":"0.98359683","size":3727,"prev_hash":"0000000000000000624d0610cd8644b8e7dca7468a5bd602d87ee3834da8d4bf","bits":419491043,"version":9,"created_at":1669933636,"region_id":34,"region_name":"America"},{"height":716609,"is_orphaned":0,"hash":"000000000000000011311d157744c5166d2965b9e00ffd615a79c780403d54eb","rewards":"0.98359683","size":3818,"prev_hash":"00000000000000007e5c843f3b16727192c48a87cb27d2720e79e80dcf817c84","bits":419491043,"version":9,"created_at":1669926302,"region_id":34,"region_name":"America"},{"height":716603,"is_orphaned":0,"hash":"000000000000000079fe6e4950cc6367c4f24b0ff2e4ac757af59bcca5e28012","rewards":"0.78687746","size":79360,"prev_hash":"00000000000000003d3857aa46f9e62ce2d359ae312e28d8774c6153730f6639","bits":419491043,"version":9,"created_at":1669924805,"region_id":36,"region_name":"BitDeer"},{"height":716599,"is_orphaned":0,"hash":"0000000000000000a9ac79e0e6056f1e9d4ec010d51ccdc2601b0fa346126cc0","rewards":"0.98359683","size":39439,"prev_hash":"00000000000000008e83f52c8de86a500f5046165472260d7ba734f7c78ec998","bits":419491043,"version":9,"created_at":1669923652,"region_id":36,"region_name":"BitDeer"},{"height":716598,"is_orphaned":0,"hash":"00000000000000008e83f52c8de86a500f5046165472260d7ba734f7c78ec998","rewards":"0.98359683","size":42566,"prev_hash":"00000000000000004ca7179b1c026548287ae548040835b73502887f9b8d2224","bits":419491043,"version":9,"created_at":1669923078,"region_id":36,"region_name":"BitDeer"},{"height":716595,"is_orphaned":0,"hash":"00000000000000004c45c8a34971ecebed134f58f3b3446445aa8e5ef36ddb80","rewards":"0.98359683","size":12646,"prev_hash":"0000000000000000c6ff9c357ba4be3ef009309a6ff3027ca22e1ea1d13412ae","bits":419491043,"version":9,"created_at":1669922402,"region_id":36,"region_name":"BitDeer"},{"height":716577,"is_orphaned":0,"hash":"0000000000000000c82c12515f86c1455ab094fa1e1e1f00934367198a4af61e","rewards":"0.98359683","size":4379,"prev_hash":"0000000000000000d0b8ed56643dae63b40f8eb726b9ad78abdb4ea500f4aaab","bits":419491043,"version":9,"created_at":1669916868,"region_id":34,"region_name":"America"}],"first_page_url":"https:\/\/eu-api.connectbtc.com\/\/public\/v1\/pool\/blocks\/merge?order_by=desc&page_size=10&page=1","from":1,"last_page":2263,"last_page_url":"https:\/\/eu-api.connectbtc.com\/\/public\/v1\/pool\/blocks\/merge?order_by=desc&page_size=10&page=2263","next_page_url":"https:\/\/eu-api.connectbtc.com\/\/public\/v1\/pool\/blocks\/merge?order_by=desc&page_size=10&page=2","path":"https:\/\/eu-api.connectbtc.com\/\/public\/v1\/pool\/blocks\/merge","per_page":10,"prev_page_url":null,"to":10,"total":22627},"blocks_count":22627,"rewards_count":"191000.55214448"},"trace_id":"9c25695a-daf6-4e6a-8723-d18f7bcae7a1"},"blocks_nr":10,"lastblock":716680,"lastblocktime":"1669945282","country":"WL|CN , EU , US","blocks_1000":60,"blocks_count":9,"hashrate_average_100_count":74,"hashrate_average_100":4185876689189189,"hashrate_average_1h":4139333333333333.5,"history_start":1669337023,"history_interval":3600,"history_addlast":true,"history":[4097800000000000,57550000000000,-19450000000000,37100000000000,28700000000000,26350000000000,27700000000000,-31250000000000,-35300000000000,-15150000000000,2150000000000,13500000000000,18950000000000,-3550000000000,-14700000000000,14400000000000,-2050000000000,19950000000000,-61650000000000,30200000000000,-29900000000000,4300000000000,-57850000000000,34550000000000,-26050000000000,40450000000000,36350000000000,-13700000000000,1400000000000,-79600000000000,56700000000000,-10400000000000,14300000000000,20850000000000,25000000000000,45350000000000,31800000000000,-28750000000000,-8200000000000,34000000000000,24250000000000,700000000000,-22350000000000,-41050000000000,-36850000000000,1950000000000,-28000000000000,-17550000000000,53150000000000,5200000000000,-31150000000000,-48550000000000,350000000000,-51300000000000,43450000000000,11750000000000,-31800000000000,-13350000000000,40650000000000,-54200000000000,2200000000000,46550000000000,74200000000000,23250000000000,-27600000000000,11700000000000,-15100000000000,-4700000000000,5500000000000,1450000000000,-38850000000000,13350000000000,-3400000000000,-14100000000000,28750000000000,-71050000000000,-2100000000000,43650000000000,52500000000000,48550000000000,-18600000000000,2900000000000,4900000000000,-14350000000000,10150000000000,-23150000000000,29100000000000,14000000000000,15000000000000,-30300000000000,4502632000000,-23252632000000,11450000000000,11200000000000,-37502632000000,-11997368000000,-44800000000000,13600000000000,-38700000000000,42050000000000,-18100000000000,-74400000000000,14900000000000,24350000000000,18700000000000,16400000000000,13250000000000,51750000000000,-12300000000000,-1000000000000,-76550000000000,26450000000000,-11750000000000,-6050000000000,-49300000000000,-41950000000000,19750000000000,-8300000000000,24550000000000,-24450000000000,47950000000000,-4300000000000,21850000000000,-26300000000000,41700000000000,-31000000000000,14628947000000,89321053000000,-60300000000000,-12150000000000,77300000000000,31400000000000,-63750000000000,-4700000000000,-4450000000000,60150000000000,-5000000000000,-16900000000000,-54100000000000,1600000000000,13400000000000,-44500000000000,31800000000000,-12500000000000,6650000000000,18050000000000,-40850000000000,-64850000000000,2700000000000,38750000000000,43550000000000,15950000000000,-6550000000000,26900000000000,13300000000000,-33450000000000,48950000000000,-64150000000000,24950000000000,64850000000000,-15150000000000,-2976471000000,-27923529000000,34150000000000,-2100000000000,-73500000000000,-28900000000000,43950000000000,-38166667000000],"hashrate_average_7d":4179882164550297,"hashrate_average_7d_count":169,"hashrate_block":465097409909909.9,"expected_blocks":5.83,"luck":3.166873138519203,"multipool":7},{"url":"https:\/\/www.f2pool.com","hashrate":22970684393493810,"miners":-1,"minpay":0.1,"id":14,"pool_id":"f2pool.com","fee":3,"feetype":"PPS%3","i":2480,"income":4.028503041807257e-15,"blocks_nr":6,"lastblock":716686,"lastblocktime":1669947230,"country":"WL|Global","blocks_1000":318,"blocks_count":30,"hashrate_average_100_count":74,"hashrate_average_100":23193710979791790,"hashrate_average_1h":23140492735096020,"history_start":1669337023,"history_interval":3600,"history_addlast":true,"history":[23740758520000000,-109285940000000,330720790000000,258630370000000,-152166390000000,-474049770000000,476356490000000,-27373940000000,-73736740000000,-225685670000000,80151610000000,69048140000000,23021710000000,108587940000000,-77526040000000,-16425900000000,-45078240000000,-26069590000000,-66848100000000,-97965900000000,54296520000000,38946170000000,249142490000000,-10519080000000,675279540000000,138922030000000,-177037950000000,-62146030000000,-341289840000000,-327242810000000,291854410000000,45511430000000,73728670000000,40248470000000,-223832970000000,-59602640000000,139854520000000,-119888150000000,-55065270000000,-65314550000000,-34026940000000,19306810000000,71817180000000,-121977290000000,-86331940000000,56728440000000,-68268360000000,62853600000000,-231752270000000,-162234860000000,289429900000000,6934430000000,-36850990000000,-113611800000000,-89663570000000,29229160000000,-238485930000000,50696350000000,153479670000000,-131402140000000,100806170000000,141307580000000,-146505080000000,-67873350000000,-63650530000000,13888380000000,-11139080000000,-2850430000000,-67380950000000,-203030310000000,209410680000000,-35233360000000,84641900000000,147607650000000,60816720000000,-62703050000000,-106507260000000,-103515170000000,40345210000000,-20409500000000,42563440000000,109405420000000,31104460000000,-301071240000000,184633310000000,58221070000000,-118121740000000,73343020000000,7769420000000,150005820000000,67888170000000,-6903730000000,-114978620000000,61655910000000,157656320000000,90805750000000,378012070000000,211280200000000,-107813260000000,-126514000000000,-132673870000000,-143715070000000,-49538090000000,90459330000000,-130074750000000,9171500000000,-55825640000000,-5463610000000,7993990000000,-98340790000000,-79023330000000,103528340000000,-61664610000000,-46730330000000,23220060000000,-22697180000000,-45196640000000,-6562920000000,-14129440000000,130248350000000,167428980000000,189903630000000,-51278710000000,-160918670000000,41006130000000,38335250000000,74213550000000,-12909630000000,-236057470000000,48979970000000,-228636010000000,111058210000000,100108140000000,40580130000000,-141339140000000,18240690000000,-66380690000000,-161090190000000,57161960000000,38277330000000,130921260000000,-86599400000000,38655430000000,34922500000000,497482930000000,100691380000000,-189003380000000,-50265480000000,-232486830000000,-116623830000000,37186070000000,19114960000000,68134190000000,-200792940000000,-16823170000000,-73487970000000,40641190000000,-84603240000000,18932440000000,-4136450000000,-56725620000000,16978360000000,13130820000000,-52639340000000,21191230000000,-146237410000000,-320649360000000,-35669300000000,245839170000000],"hashrate_average_7d":23732072746982240,"hashrate_average_7d_count":169,"hashrate_block":773123699326393.1,"expected_blocks":32.32,"luck":-2.321032982902288,"multipool":33},{"url":"https:\/\/www.poolin.com","hashrate":32195000000000000,"miners":-1,"minpay":0.01,"id":3,"pool_id":"poolin.com","fee":3,"feetype":"PPS","i":13598,"json":{"err_no":0,"data":{"shares":{"shares_1m":29.637,"shares_5m":32.195,"shares_15m":32.718,"shares_1h":33.153,"shares_unit":"P"},"reject":{"1m":0,"5m":0,"15m":0.0031,"1h":0.0037},"workers":1432,"users":373,"total_blocks":147452,"total_rewards":104919284713214}},"workers":1432,"netdiff":4641437292.7355175,"nethash":"66449404585249341","income":4.709030000000001e-15,"blocks_nr":17,"lastblock":716685,"lastblocktime":1669947196,"country":"US|United States","blocks_1000":510,"blocks_count":46,"hashrate_average_100_count":74,"hashrate_average_100":33616774493243250,"hashrate_average_1h":32794916666666668,"history_start":1669337023,"history_interval":3600,"history_addlast":true,"history":[34886250000000000,-18900000000000,-687450000000000,359500000000000,-96950000000000,-87200000000000,237300000000000,-133050000000000,-342900000000000,-31300000000000,-660800000000000,-387550000000000,-727160530000000,-204239470000000,76100000000000,83700000000000,-29950000000000,-77300000000000,56750000000000,-112150000000000,17000000000000,-92900000000000,-25600000000000,253400000000000,-544250000000000,-125600000000000,-3255650000000000,1973600000000000,1726000000000000,72750000000000,137400000000000,557150000000000,587450000000000,581950000000000,-66850000000000,-192150000000000,-491700000000000,632100000000000,-82750000000000,66400000000000,-278950000000000,99900000000000,241850000000000,-143150000000000,-35900000000000,78250000000000,-5900000000000,129650000000000,682500000000000,31500000000000,-197100000000000,97900000000000,146350000000000,-363700000000000,154300000000000,376650000000000,77850000000000,-112250000000000,-250500000000000,-251100000000000,440550000000000,-53650000000000,3550000000000,-25450000000000,-16500000000000,145050000000000,157750000000000,48800000000000,-146800000000000,-290100000000000,-6050000000000,-67150000000000,-191050000000000,265250000000000,217000000000000,-139400000000000,193550000000000,-505900000000000,-91100000000000,272500000000000,-11600000000000,75650000000000,-214700000000000,104800000000000,238100000000000,-225250000000000,-141950000000000,-134800000000000,39000000000000,-253700000000000,231052630000000,191747370000000,8650000000000,-78550000000000,-13847370000000,25097370000000,88100000000000,-375650000000000,118900000000000,-1141800000000000,-136150000000000,26200000000000,58100000000000,7250000000000,-78250000000000,-108200000000000,191800000000000,-164650000000000,-381300000000000,324100000000000,145850000000000,-177200000000000,526900000000000,315850000000000,-84500000000000,-341500000000000,317400000000000,-12450000000000,242250000000000,68700000000000,150300000000000,-74450000000000,38600000000000,-41000000000000,292450000000000,-633000000000000,-246273680000000,364773680000000,531950000000000,-409350000000000,424900000000000,342000000000000,-204800000000000,-231600000000000,-21400000000000,137550000000000,-1055100000000000,91550000000000,169100000000000,5800000000000,52200000000000,-421750000000000,-215200000000000,62250000000000,-547150000000000,225350000000000,68750000000000,794000000000000,746250000000000,-119050000000000,452700000000000,-996650000000000,-312950000000000,178950000000000,320700000000000,-179900000000000,293900000000000,2350000000000,-83100000000000,219600000000000,-62350000000000,194729410000000,-198729410000000,69500000000000,-271100000000000,110400000000000,132400000000000,-923850000000000,-218233330000000],"hashrate_average_7d":33684452764082850,"hashrate_average_7d_count":169,"hashrate_block":730799445505288,"expected_blocks":46.85,"luck":-0.8458401556169193,"multipool":15}],"hashblock":{"hashrate_average_100":60996362162224220,"blocks_count":85,"pools":[[122992606395545.78,2,61496303197772.89,"https:\/\/www2.coinmine.pl\/dcr"],[465097409909909.9,9,51677489989989.984,"https:\/\/pool.btc.com"],[773123699326393.1,30,25770789977546.438,"https:\/\/www.f2pool.com"],[730799445505288,46,15886944467506.262,"https:\/\/www.poolin.com"]],"hashrate_block_all":703935027299026.6,"hashrate_block_min":15886944467506.262,"hashrate_block_max":61496303197772.89,"pool_hashblock_average":38707881908203.89,"hashrate_block":717604260732049.8},"time":1669947403,"hashrate":65920000000000000,"difficulty":4641437292.7355175,"height":716686,"symbol":"DCR","maxhash":32195000000000000,"poolshash":74420379932376750,"nethash_estimat":71760426073204980,"poolsminers":1558,"supply":{"circulating":14549061.55192228,"total":21000000,"emission24":2587},"block_time_target":300,"block_height_ok":true,"algo":"Blake256R14","hashrate_from_diff":false,"hashrate_src":"https:\/\/lab.antpool.com","unit":"H\/s","block_time_average":294.9,"minerstat":[1.8031697097796e-16,20.979275562197,0.99849628,1636],"link":{"coingecko":"decred","cmc":"decred","whattomine":"152-dcr-blake (14r)","coin360":"decred-dcr","coinpaprika":"dcr-decred"},"latest_release":{"tag":"release-v1.7.5","name":"dcrd v1.7.5","t":1665429869},"price":20.93}