{"data":[{"url":"https:\/\/www.okx.com\/pool","hashrate":0,"miners":-1,"minpay":-1,"id":23,"pool_id":"okx.com","i":1660,"workers":0,"lastblock":630904,"feetype":"PPLNS","fee":2,"country":"HK|Hong Kong","hashrate_average_100_count":75,"hashrate_average_100":0,"hashrate_average_1h":0,"history_start":1670118224,"history_interval":3600,"history_addlast":true,"history":[0,0,0,0,0,0,0,0,0,0,0,0,0,0,0,0,0,0,0,0,0,0,0,0,0,0,0,0,0,0,0,0,0,0,0,0,0,0,0,0,0,0,0,0,0,0,0,0,0,0,0,0,0,0,0,0,0,0,0,0,0,0,0,0,0,0,0,0,0,0,0,0,0,0,0,0,0,0,0,0,0,0,0,0,0,0,0,0,0,0,0,0,0,0,0,0,0,0,0,0,0,0,0,0,0,0,0,0,0,0,0,0,0,0,0,0,0,0,0,0,0,0,0,0,0,0,0,0,0,0,0,0,0,0,0,0,0,0,0,0,0,0,0,0,0,0,0,0,0,0,0,0,0,0,0,0,0,0,0,0,0,0,0,0,0,0,0,0],"hashrate_average_7d":0,"hashrate_average_7d_count":168,"expected_blocks":0,"multipool":5},{"url":"https:\/\/www2.coinmine.pl\/dcr","hashrate":0,"miners":-1,"minpay":0.05,"id":5,"pool_id":"coinmine.pl","i":12527,"workers":0,"blocks_nr":5,"lastblock":718783,"lastblocktime":"1670587866","fee":1,"feetype":"PPLNS","height":719297,"country":"WL|EU , US , Asia","blocks_1000":4,"hashrate_average_100_count":75,"hashrate_average_100":203752689362754.4,"hashrate_average_1h":203696154787347.06,"history_start":1670118224,"history_interval":3600,"history_addlast":true,"history":[196080093500000,16793424100000,29986352900000,-47169703900000,45778699800000,-22535767400000,-67189408900000,7262494900000,79326702200000,-2375106900000,13225062400000,-60059592300000,24829627900000,-30473053400000,-31388802200000,87543896000000,-102989835400000,-757629600000,26153067900000,-9821556600000,-6650199400000,23120874400000,-15756858100000,-41614018000000,45508561700000,6223551500000,-20261976300000,56099852900000,27294362100000,-3729724100000,-16884000600000,-22371269000000,27965751100000,-12360145100000,31235297700000,-49176931200000,-8466785900000,22578322100000,40809994000000,-60094984100000,40809273100000,-257752100000,-29493781300000,64683105200000,-53924109600000,-3664377800000,49216030600000,-66258691000000,63307544100000,12236265600000,-66902438400000,66914574700000,-35973148100000,-5490427500000,-19151004600000,31026107200000,-8022277100000,-32224713000000,-18352397800000,5831483200000,-17984616200000,31058567900000,-23223908400000,-8182834200000,-5764337000000,22681247700000,-25771875400000,11906320800000,24700203400000,-4901372900000,13983266400000,-85233851100000,14720958700000,63667432500000,-19534081400000,-43443439300000,16040773700000,17885665200000,-23460335700000,-16733480200000,24524789900000,-28989229600000,-468355400000,74558942000000,-22187953700000,-43807787300000,13240112000000,18541171900000,-33355193900000,12008963700000,15389641700000,-28813412600000,5389476200000,4983155400000,-8397912700000,55950318700000,-38684260500000,-2856977900000,-46590111410000,66043424710000,-28300651900000,42080696400000,-30134762400000,11604862800000,-20383953600000,3774615700000,-623949200000,24273857400000,-37341152700000,20655677000000,-37239971070000,-1451268560000,12894814330000,13801160100000,1708383400000,6383905100000,17736134200000,-69548464060000,19906247140000,8587782720000,30146972700000,-26008439500000,18719044700000,4857668800000,73005323800000,-51784328500000,-1684685900000,-2398098200000,34916477000000,-49808853100000,22800365800000,13168996600000,-3710040300000,1967532200000,-23506911100000,-36492156200000,50113977100000,9002148000000,32526795200000,50298073600000,-34006183600000,-41190874600000,29384521400000,-2474359000000,-20465278400000,47023194900000,-17767573300000,-8627773600000,18994622000000,-44615486200000,-45475120600000,69417353900000,35269365200000,-14067906500000,-32147189100000,1201889600000,1309143000000,30035491600000,16246427100000,-12804548300000,-28592496100000,14313489100000,-1688582600000,-64031718700000,33721659900000,55211576400000,-1818664200000,-32059661800000],"hashrate_average_7d":171621129256607.16,"hashrate_average_7d_count":168,"expected_blocks":0.26,"multipool":6},{"url":"https:\/\/lab.antpool.com","hashrate":14510000000000000,"miners":-1,"minpay":0.1,"id":11,"pool_id":"antpool.com","i":2136,"nethash":56680000000000000,"netdiff":5518816551,"feetype":"PPS","fee":3,"income":3.4043993e-15,"lastblock":712107,"lastblocktime":"1668580440","country":"WL|Global","hashrate_average_100_count":75,"hashrate_average_100":14838438541666666,"hashrate_average_1h":14816923076923076,"history_start":1670118224,"history_interval":3600,"history_addlast":true,"history":[14765500000000000,62000000000000,-60500000000000,64000000000000,31500000000000,80131580000000,-6131580000000,-6500000000000,57000000000000,-244500000000000,164500000000000,102000000000000,-175500000000000,86000000000000,-149500000000000,-78500000000000,-6279000000000000,6484000000000000,39500000000000,32000000000000,-163500000000000,154000000000000,-103000000000000,270500000000000,-103500000000000,-210000000000000,-811500000000000,878000000000000,174000000000000,48500000000000,-91500000000000,-17500000000000,-158000000000000,124000000000000,-174000000000000,52000000000000,207500000000000,-144000000000000,-164500000000000,-127000000000000,229000000000000,26000000000000,126000000000000,-142500000000000,-5500000000000,-60500000000000,-115000000000000,300500000000000,-283000000000000,207500000000000,-110000000000000,-3926500000000000,3618000000000000,381000000000000,72500000000000,-378000000000000,516500000000000,-423000000000000,-29000000000000,234000000000000,126000000000000,-195500000000000,209000000000000,-244500000000000,176500000000000,-113500000000000,76000000000000,-152500000000000,146500000000000,-22000000000000,-160000000000000,206000000000000,-133000000000000,77000000000000,-49500000000000,35500000000000,36500000000000,-540789470000000,-242210530000000,165000000000000,75500000000000,-116000000000000,61000000000000,-7000000000000,146000000000000,-231500000000000,143500000000000,-171500000000000,-34500000000000,57000000000000,-4500000000000,-2000000000000,77000000000000,134000000000000,-127000000000000,63500000000000,-107000000000000,109500000000000,-2000000000000,-23000000000000,-108500000000000,136500000000000,-5500000000000,-186000000000000,262500000000000,-197500000000000,-6000000000000,-84000000000000,-16000000000000,344000000000000,-209000000000000,-56500000000000,39500000000000,33000000000000,166000000000000,-181000000000000,299500000000000,358000000000000,-109000000000000,-13000000000000,153500000000000,-87000000000000,136000000000000,-75500000000000,25500000000000,-9500000000000,260500000000000,-151500000000000,16500000000000,-26500000000000,4500000000000,263000000000000,-469500000000000,4500000000000,155000000000000,-450000000000000,192000000000000,150500000000000,75000000000000,-18000000000000,30000000000000,79000000000000,-187000000000000,150500000000000,84000000000000,-161000000000000,-81000000000000,265000000000000,-84000000000000,-172000000000000,129000000000000,-14000000000000,-117000000000000,207000000000000,-201000000000000,26000000000000,87500000000000,-222000000000000,216500000000000,-194500000000000,158500000000000,-36000000000000,38500000000000,25500000000000,-17500000000000,-218500000000000,59000000000000,62423080000000],"hashrate_average_7d":14654936102321436,"hashrate_average_7d_count":168,"expected_blocks":18.92,"multipool":16},{"url":"https:\/\/pool.btc.com","hashrate":3865000000000000,"miners":-1,"minpay":0.1,"id":4,"pool_id":"pool.btc.com","feetype":"PPS","i":14573,"workers":94,"income":3.5497982490716e-15,"i_blocks":14615,"json_blocks":{"err_no":0,"data":{"blocks":{"current_page":1,"data":[{"height":719268,"is_orphaned":0,"hash":"00000000000000006739d3aa27a3574683986913782e5c42b98d67b0522afccb","rewards":"0.97385825","size":7612,"prev_hash":"0000000000000000cef25bde8d24e4956d9353c8b58d1c9f26231fdd2d849a1d","bits":419485284,"version":9,"created_at":1670716587,"region_id":36,"region_name":"BitDeer"},{"height":719249,"is_orphaned":0,"hash":"00000000000000000b96f8c1f4c67e3b3cce14ed381bd64d61a63eff8beec811","rewards":"0.97385825","size":2739,"prev_hash":"0000000000000000a1bd586382408a95d1c59dbb082447b9f60df42830d5cddf","bits":419485284,"version":9,"created_at":1670711196,"region_id":34,"region_name":"America"},{"height":719221,"is_orphaned":0,"hash":"0000000000000000d1c046425b3c4cb45cee7f5815c7586ca652b70649f168b7","rewards":"0.97385825","size":7852,"prev_hash":"00000000000000005054ba76d874e162d82ca514cec403aa02112a282d2d6a54","bits":419485284,"version":9,"created_at":1670704681,"region_id":34,"region_name":"America"},{"height":719219,"is_orphaned":0,"hash":"00000000000000007c3a9bec86d4e775f28552d410f574bd0bb5c872c2b25888","rewards":"0.97385825","size":65480,"prev_hash":"0000000000000000ad8c0f1ffea7e9b507a5093ab78dd4e849db2c8734045506","bits":419485284,"version":9,"created_at":1670703807,"region_id":34,"region_name":"America"},{"height":719177,"is_orphaned":0,"hash":"00000000000000005564631b4ed7125851cbbbdbe7a10c16d67e71944926a738","rewards":"0.97385825","size":36831,"prev_hash":"0000000000000000aea1a58218fd614e3d071b6a025a699384a6c1eae71d3f9e","bits":419485284,"version":9,"created_at":1670689718,"region_id":36,"region_name":"BitDeer"},{"height":719150,"is_orphaned":0,"hash":"0000000000000000456a7e779597cde63b842dd4e0982ef145cb999307be04dc","rewards":"0.97385825","size":4474,"prev_hash":"0000000000000000cda3bc3a74210d69426c0443d154d229674f3121475c04b9","bits":419485284,"version":9,"created_at":1670682419,"region_id":34,"region_name":"America"},{"height":719138,"is_orphaned":0,"hash":"0000000000000000929b8be1c5ab189dcdc677fa25af4501643efe86550abdcd","rewards":"0.97385825","size":51098,"prev_hash":"00000000000000008f3b661bc639b83fa458ba4b1e6cd9c4f23fe56f9dfe2bd0","bits":419485284,"version":9,"created_at":1670678072,"region_id":34,"region_name":"America"},{"height":719132,"is_orphaned":0,"hash":"00000000000000008290bea075871ba13b41378828cdb25c85719b0bcb0d99a8","rewards":"0.97385825","size":22460,"prev_hash":"000000000000000027e5d119cbefe5f0ac41b8338ee27de82025a937b29a629a","bits":419492826,"version":9,"created_at":1670676575,"region_id":34,"region_name":"America"},{"height":719128,"is_orphaned":0,"hash":"0000000000000000b9aab8491d29f64850e3fad942eaf56a59b97ce0a535158e","rewards":"0.97385825","size":3498,"prev_hash":"0000000000000000461f2dcc016df1e2c1014e038f3ca35d5b7397ba4f886c2a","bits":419492826,"version":9,"created_at":1670675354,"region_id":36,"region_name":"BitDeer"},{"height":719114,"is_orphaned":0,"hash":"0000000000000000890172030e90a47e30b5a3beb2a0c4184f5c0e38d1866c75","rewards":"0.97385825","size":2706,"prev_hash":"0000000000000000eaa470082a2d66b66da90ba00ee80270e5b40c78b19c1029","bits":419492826,"version":9,"created_at":1670673791,"region_id":36,"region_name":"BitDeer"}],"first_page_url":"https:\/\/eu-api.connectbtc.com\/\/public\/v1\/pool\/blocks\/merge?order_by=desc&page_size=10&page=1","from":1,"last_page":2278,"last_page_url":"https:\/\/eu-api.connectbtc.com\/\/public\/v1\/pool\/blocks\/merge?order_by=desc&page_size=10&page=2278","next_page_url":"https:\/\/eu-api.connectbtc.com\/\/public\/v1\/pool\/blocks\/merge?order_by=desc&page_size=10&page=2","path":"https:\/\/eu-api.connectbtc.com\/\/public\/v1\/pool\/blocks\/merge","per_page":10,"prev_page_url":null,"to":10,"total":22780},"blocks_count":22780,"rewards_count":"191147.24051693"},"trace_id":"df267dd6-84d8-4dc4-8be9-6aae1202903d"},"blocks_nr":10,"lastblock":719268,"lastblocktime":"1670716543","country":"WL|CN , EU , US","blocks_1000":58,"blocks_count":4,"hashrate_average_100_count":75,"hashrate_average_100":3952093854166666,"hashrate_average_1h":3846230769230769,"history_start":1670118224,"history_interval":3600,"history_addlast":true,"history":[4135450000000000,12700000000000,31400000000000,-54400000000000,-9600000000000,-25707895000000,41557895000000,27600000000000,21600000000000,4150000000000,-22450000000000,-20000000000000,-73150000000000,113100000000000,-5934211000000,17034211000000,-75750000000000,-19700000000000,-22300000000000,14350000000000,51950000000000,36600000000000,-32500000000000,-38850000000000,2200000000000,34750000000000,11050000000000,30300000000000,71450000000000,23050000000000,-62750000000000,-63400000000000,-33750000000000,23250000000000,-1400000000000,-14550000000000,-15600000000000,59000000000000,17100000000000,16700000000000,19250000000000,-34450000000000,-23200000000000,-49050000000000,-29750000000000,-3450000000000,-30100000000000,-34700000000000,-358050000000000,-58500000000000,19700000000000,300000000000,265350000000000,185500000000000,24400000000000,-85100000000000,15450000000000,79300000000000,-16150000000000,9750000000000,3950000000000,27250000000000,-42250000000000,-51300000000000,9000000000000,-41400000000000,150000000000,39450000000000,-48900000000000,-32350000000000,-37850000000000,-14850000000000,-73300000000000,51000000000000,15050000000000,-20000000000000,-26250000000000,8650000000000,200000000000,-3000000000000,9050000000000,36550000000000,39150000000000,-32450000000000,5350000000000,23650000000000,66500000000000,39100000000000,13950000000000,-41600000000000,-39900000000000,15700000000000,-28600000000000,-12950000000000,48800000000000,-35000000000000,52050000000000,-60950000000000,41750000000000,23500000000000,-450000000000,56400000000000,7600000000000,8750000000000,-6250000000000,-3650000000000,32250000000000,4500000000000,-3150000000000,17050000000000,22250000000000,-54850000000000,-24100000000000,-45400000000000,41350000000000,19950000000000,-24700000000000,-36250000000000,37600000000000,5950000000000,-4200000000000,-38350000000000,-34650000000000,27600000000000,-3050000000000,26900000000000,-10150000000000,11050000000000,-203050000000000,224750000000000,29350000000000,31950000000000,-21800000000000,-57600000000000,23450000000000,-55200000000000,-4000000000000,-79950000000000,5800000000000,12850000000000,-3800000000000,23300000000000,-74700000000000,17500000000000,800000000000,-10900000000000,-13800000000000,18050000000000,36800000000000,-48800000000000,33100000000000,-11250000000000,4550000000000,30700000000000,6350000000000,-17950000000000,-30000000000000,69200000000000,13350000000000,-36800000000000,-13500000000000,7900000000000,11050000000000,7550000000000,-4750000000000,-51500000000000,-16300000000000,-64419231000000],"hashrate_average_7d":4034143682517858.5,"hashrate_average_7d_count":168,"hashrate_block":988023463541666.5,"expected_blocks":5.04,"luck":-1.0387954628156306,"multipool":7},{"url":"https:\/\/www.f2pool.com","hashrate":27345284125383976,"miners":-1,"minpay":0.1,"id":14,"pool_id":"f2pool.com","fee":3,"feetype":"PPS%3","i":2505,"income":3.7033291158859385e-15,"blocks_nr":9,"lastblock":719296,"lastblocktime":1670723838,"country":"WL|Global","blocks_1000":323,"blocks_count":46,"hashrate_average_100_count":75,"hashrate_average_100":36519476600160136,"hashrate_average_1h":27367094519561636,"history_start":1670118224,"history_interval":3600,"history_addlast":true,"history":[23117597790000000,-73738540000000,12476570000000,21805000000000,129517870000000,-104775390000000,-5263690000000,372212220000000,-167852270000000,34774990000000,513585310000000,-145575000000000,-88124540000000,-103840560000000,43733630000000,-129287350000000,148328830000000,-76732720000000,46199950000000,4072370000000,85238320000000,10567330000000,-165600240000000,90471520000000,70748910000000,183181530000000,-139851490000000,-109243090000000,37211300000000,193134090000000,-146678890000000,-196580140000000,36611360000000,-111098700000000,-334620080000000,170235720000000,-118453850000000,125202390000000,-24743760000000,92064680000000,-29049240000000,3469390000000,149055240000000,29894140000000,-109866940000000,180127440000000,214031210000000,-53153720000000,58268040000000,26076240000000,-88058080000000,-167249000000000,-5635720000000,-71634540000000,73958630000000,-92303570000000,-330778100000000,-108552660000000,231679720000000,111803680000000,-40828160000000,-75302180000000,-161883200000000,-185518980000000,-34023490000000,-32805830000000,17724910000000,-18399830000000,17296210000000,60843760000000,-1542656690000000,215627330000000,1322147160000000,217650190000000,247213720000000,35770130000000,-150187120000000,530155480000000,6799760000000,-49543060000000,-142924850000000,106086720000000,-217253470000000,155414250000000,39321310000000,-113076180000000,84285340000000,-45284920000000,120795310000000,-384602930000000,-31917940000000,-124104380000000,-39854310000000,74032270000000,-8351290000000,209587160000000,8449010000000,71248430000000,-134585400000000,393778640000000,-712825120000000,767893030000000,-40717970000000,-82308030000000,-14406450000000,74107880000000,-96450720000000,-2554454590000000,-3856214180000000,6261959870000000,-270738590000000,27762830000000,-61816240000000,42140370000000,69898800000000,-118918670000000,-78688840000000,-57648900000000,-3806070000000,-36008280000000,18575670000000,63955560000000,41710250000000,129133150000000,-29976100000000,-6957160000000,-84565460000000,158433860000000,108080390000000,-122796360000000,-17747010000000,130326470000000,4822260000000,-49557220000000,-184289910000000,227482100000000,-187190480000000,33757520000000,79261890000000,-83496430000000,-145210150000000,132327700000000,127169200000000,341963730000000,-3996680000000,-199272420000000,-52227350000000,94794420000000,-63036590000000,-49398000000000,54409660000000,115321930000000,28426240000000,2178107240000000,8245279700000000,2354374710000000,966520110000000,18842080000000,-1721046050000000,1548518390000000,219666230000000,-72002340000000,-215928150000000,32091860000000,-22270750000000,-10008960000000,-1308657790000000,-8435502990000000],"hashrate_average_7d":24353253318750000,"hashrate_average_7d_count":168,"hashrate_block":793901665220872.5,"expected_blocks":46.56,"luck":-0.5611849787634995,"multipool":33},{"url":"https:\/\/www.poolin.com","hashrate":33200000000000004,"miners":-1,"minpay":0.01,"id":3,"pool_id":"poolin.com","fee":3,"feetype":"PPS","i":13634,"json":{"err_no":0,"data":{"shares":{"shares_1m":31.023,"shares_5m":33.2,"shares_15m":33.561,"shares_1h":33.338,"shares_unit":"P"},"reject":{"1m":0,"5m":0,"15m":0.004,"1h":0.0029},"workers":1408,"users":374,"total_blocks":148662,"total_rewards":105037587454992}},"workers":1408,"netdiff":5518816551.181522,"nethash":"79010455330561720","income":3.9603900000000004e-15,"blocks_nr":18,"lastblock":719298,"lastblocktime":1670724999,"country":"US|United States","blocks_1000":468,"blocks_count":42,"hashrate_average_100_count":75,"hashrate_average_100":32941988437500000,"hashrate_average_1h":33069307692307692,"history_start":1670118224,"history_interval":3600,"history_addlast":true,"history":[32123500000000000,52400000000000,-94100000000000,157300000000000,-147350000000000,3460530000000,-817910530000000,-2087900000000000,301950000000000,48000000000000,-36950000000000,227100000000000,-60950000000000,-107900000000000,246086840000000,-192936840000000,86000000000000,-57750000000000,-164750000000000,116100000000000,-180600000000000,32400000000000,4850000000000,175550000000000,134500000000000,-11400000000000,211300000000000,553400000000000,76100000000000,42450000000000,92200000000000,24800000000000,-18000000000000,234550000000000,-74450000000000,59200000000000,84300000000000,482250000000000,-203750000000000,198800000000000,-50350000000000,122950000000000,-39200000000000,-240300000000000,-205200000000000,-439400000000000,-71850000000000,327000000000000,6150000000000,117000000000000,1250000000000,-213300000000000,-436600000000000,279105260000000,5344740000000,35950000000000,711700000000000,483850000000000,393650000000000,-869800000000000,636700000000000,59150000000000,-44800000000000,11250000000000,157300000000000,-10300000000000,-598150000000000,325900000000000,240900000000000,-360000000000000,4700000000000,47600000000000,140800000000000,-203450000000000,-114450000000000,95400000000000,-64550000000000,221900000000000,201950000000000,-173650000000000,-28400000000000,-8600000000000,-967600000000000,-75950000000000,88800000000000,103550000000000,-124900000000000,105700000000000,182500000000000,-130800000000000,-9600000000000,103300000000000,-87950000000000,-301500000000000,325100000000000,101100000000000,-302800000000000,-172400000000000,201650000000000,89600000000000,14100000000000,-98636840000000,-66863160000000,-90550000000000,145500000000000,-573800000000000,628150000000000,-10350000000000,-76750000000000,58750000000000,-107700000000000,-177500000000000,344250000000000,-1057250000000000,-7250000000000,-4200000000000,-20850000000000,763250000000000,801750000000000,-473850000000000,45450000000000,158900000000000,-40350000000000,122950000000000,-11200000000000,-52550000000000,310800000000000,96450000000000,152000000000000,190500000000000,76650000000000,-1201100000000000,1582550000000000,378900000000000,212400000000000,-14350000000000,-175300000000000,89350000000000,82300000000000,-43800000000000,-296800000000000,-839400000000000,159600000000000,74850000000000,-22050000000000,266700000000000,389650000000000,284100000000000,-534250000000000,344600000000000,65200000000000,-97050000000000,132650000000000,848300000000000,-655900000000000,104700000000000,-590450000000000,410400000000000,24150000000000,6750000000000,-108950000000000,-118100000000000,185100000000000,-197950000000000,4650000000000,23800000000000,88100000000000,71357690000000],"hashrate_average_7d":31429389127857140,"hashrate_average_7d_count":168,"hashrate_block":784333058035714.2,"expected_blocks":42,"luck":0,"multipool":15}],"hashblock":{"hashrate_average_100":32941988437500000,"blocks_count":42,"pools":[[988023463541666.5,4,247005865885416.62,"https:\/\/pool.btc.com"],[793901665220872.5,46,17258731852627.662,"https:\/\/www.f2pool.com"],[784333058035714.2,42,18674596619897.957,"https:\/\/www.poolin.com"]],"hashrate_block_all":797973466215508.8,"hashrate_block_min":17258731852627.662,"hashrate_block_max":247005865885416.62,"pool_hashblock_average":94313064785980.75,"hashrate_block":784333058035714.2},"time":1670725183,"hashrate":56680000000000000,"difficulty":5518816551.181522,"height":719298,"symbol":"DCR","maxhash":33200000000000004,"poolshash":78920284125383980,"nethash_estimat":78433305803571420,"poolsminers":1502,"supply":{"circulating":14572038.48686994,"total":21000000,"emission24":2764},"block_time_target":300,"block_height_ok":true,"algo":"Blake256R14","hashrate_from_diff":false,"hashrate_src":"https:\/\/lab.antpool.com","unit":"H\/s","block_time_average":272.6,"minerstat":[1.4790826037798e-16,21.796685246354,0.97385825,3617],"link":{"coingecko":"decred","cmc":"decred","whattomine":"152-dcr-blake (14r)","coin360":"decred-dcr","coinpaprika":"dcr-decred"},"latest_release":{"tag":"release-v1.7.5","name":"dcrd v1.7.5","t":1665429869},"price":21.91}