{"data":[{"url":"https:\/\/www.okx.com\/pool","hashrate":0,"miners":-1,"minpay":-1,"id":23,"pool_id":"okx.com","i":1660,"workers":0,"lastblock":630904,"feetype":"PPLNS","fee":2,"country":"HK|Hong Kong","hashrate_average_100_count":76,"hashrate_average_100":0,"hashrate_average_1h":0,"history_start":1670546623,"history_interval":3600,"history_addlast":true,"history":[0,0,0,0,0,0,0,0,0,0,0,0,0,0,0,0,0,0,0,0,0,0,0,0,0,0,0,0,0,0,0,0,0,0,0,0,0,0,0,0,0,0,0,0,0,0,0,0,0,0,0,0,0,0,0,0,0,0,0,0,0,0,0,0,0,0,0,0,0,0,0,0,0,0,0,0,0,0,0,0,0,0,0,0,0,0,0,0,0,0,0,0,0,0,0,0,0,0,0,0,0,0,0,0,0,0,0,0,0,0,0,0,0,0,0,0,0,0,0,0,0,0,0,0,0,0,0,0,0,0,0,0,0,0,0,0,0,0,0,0,0,0,0,0,0,0,0,0,0,0,0,0,0,0,0,0,0,0,0,0,0,0,0,0,0,0,0,0,0],"hashrate_average_7d":0,"hashrate_average_7d_count":169,"expected_blocks":0,"multipool":5},{"url":"https:\/\/www2.coinmine.pl\/dcr","hashrate":290401185599324,"miners":-1,"minpay":0.05,"id":5,"pool_id":"coinmine.pl","i":12538,"workers":24,"blocks_nr":5,"lastblock":720520,"lastblocktime":"1671092439","fee":1,"feetype":"PPLNS","height":720721,"country":"WL|EU , US , Asia","blocks_1000":6,"hashrate_average_100_count":76,"hashrate_average_100":205030949600247.53,"hashrate_average_1h":258712069835762.38,"history_start":1670546623,"history_interval":3600,"history_addlast":true,"history":[107270974600000,30146972700000,-26008439500000,18719044700000,4857668800000,73005323800000,-51784328500000,-1684685900000,-2398098200000,34916477000000,-49808853100000,22800365800000,13168996600000,-3710040300000,1967532200000,-23506911100000,-36492156200000,50113977100000,9002148000000,32526795200000,50298073600000,-34006183600000,-41190874600000,29384521400000,-2474359000000,-20465278400000,47023194900000,-17767573300000,-8627773600000,18994622000000,-44615486200000,-45475120600000,69417353900000,35269365200000,-14067906500000,-32147189100000,1201889600000,1309143000000,30035491600000,16246427100000,-12804548300000,-28592496100000,14313489100000,-1688582600000,-64031718700000,33721659900000,55211576400000,-1818664200000,-41227649300000,62797491400000,-58896777400000,-3616752600000,58329566200000,894586400000,-83945649900000,104696084000000,-56699179200000,-15103843800000,66237373400000,-16786425500000,-53728834500000,-24786030400000,16600968200000,-12115726500000,-9491700300000,35716043100000,-23076732800000,30662065800000,-12846205800000,38589416600000,-35491232000000,89917128400000,-104104601900000,20598802500000,10448549300000,3162531900000,38148117100000,-33712174000000,3324484700000,-49232770200000,4309802600000,-36262519300000,30774334600000,116754911800000,-79103612800000,-20027698900000,-1994458600000,-1196400500000,10420101400000,-78289881800000,24361512300000,-8446430400000,31426335200000,-42010041000000,79674997500000,11010658300000,-27219350900000,84896840800000,-88119931200000,-16556381000000,62909464400000,11118877400000,-32271995900000,-45291815800000,3742626800000,-41412390900000,40875315300000,19202958800000,21812067700000,-13539241100000,25997854800000,-7079353800000,22491112500000,-2429133400000,18262510800000,8875502300000,-41475033600000,8162489900000,-106125343400000,92562069500000,-5300772900000,-33988791700000,29411402200000,23757126200000,-42742915400000,24193630100000,30838750600000,-26546352400000,-68548392100000,21644998700000,28674561900000,55065766400000,-31193497300000,34704423200000,15306183500000,-46222588100000,25731501400000,55768406600000,-72052945800000,-67451536800000,28704440100000,-43710029800000,63880846100000,58476806600000,10864037100000,-4983585600000,-10845513800000,-34285156000000,32579358100000,2031492400000,6870364700000,5255430500000,810804800000,-61272468500000,32232002400000,37845743300000,30479013500000,-119373484600000,4304765600000,-72994420200000,36413746300000,76994750300000,-57665360100000,41644743100000,-85265363700000,109640753500000,-125265438300000,29059233200000,93427530600000],"hashrate_average_7d":208612026625443.8,"hashrate_average_7d_count":169,"expected_blocks":0.26,"multipool":6},{"url":"https:\/\/lab.antpool.com","hashrate":14800000000000000,"miners":-1,"minpay":0.1,"id":11,"pool_id":"antpool.com","i":2136,"nethash":56680000000000000,"netdiff":5552566119,"feetype":"PPS","fee":3,"income":3.3192235999999997e-15,"lastblock":719327,"lastblocktime":"1670732243","country":"WL|Global","hashrate_average_100_count":76,"hashrate_average_100":14338042763157894,"hashrate_average_1h":14495000000000000,"history_start":1670546623,"history_interval":3600,"history_addlast":true,"history":[14755000000000000,153500000000000,-87000000000000,136000000000000,-75500000000000,25500000000000,-9500000000000,260500000000000,-151500000000000,16500000000000,-26500000000000,4500000000000,263000000000000,-469500000000000,4500000000000,155000000000000,-450000000000000,192000000000000,150500000000000,75000000000000,-18000000000000,30000000000000,79000000000000,-187000000000000,150500000000000,84000000000000,-161000000000000,-81000000000000,265000000000000,-84000000000000,-172000000000000,129000000000000,-14000000000000,-117000000000000,207000000000000,-201000000000000,26000000000000,87500000000000,-222000000000000,216500000000000,-194500000000000,158500000000000,-36000000000000,38500000000000,25500000000000,-17500000000000,-218500000000000,59000000000000,-36500000000000,91000000000000,11500000000000,142500000000000,-101500000000000,250500000000000,-400500000000000,267500000000000,-313000000000000,-383000000000000,43500000000000,-44500000000000,84000000000000,153000000000000,-263500000000000,194000000000000,-46500000000000,-35000000000000,137000000000000,-225000000000000,24500000000000,-98500000000000,327000000000000,-87500000000000,-6500000000000,-151000000000000,76500000000000,-744000000000000,756500000000000,30368420000000,136131580000000,-52000000000000,-29000000000000,-147500000000000,95000000000000,-79500000000000,-46000000000000,170500000000000,-84500000000000,-40500000000000,-22000000000000,219000000000000,-141000000000000,-96000000000000,-65000000000000,78500000000000,51500000000000,-178500000000000,38500000000000,-134000000000000,145500000000000,-43500000000000,-1500000000000,-131000000000000,466500000000000,18500000000000,-176000000000000,-201500000000000,193500000000000,-118000000000000,-4500000000000,102500000000000,77000000000000,-199500000000000,164500000000000,-7000000000000,-43000000000000,63000000000000,-147500000000000,-68000000000000,-142000000000000,118000000000000,77000000000000,189500000000000,-131000000000000,37500000000000,-85000000000000,43500000000000,-65500000000000,-24000000000000,157500000000000,110000000000000,-24500000000000,58000000000000,34000000000000,-124000000000000,37000000000000,-1500000000000,105000000000000,-99000000000000,-32500000000000,-34500000000000,-33500000000000,68000000000000,-65000000000000,-18500000000000,-178000000000000,120000000000000,-112000000000000,169500000000000,212000000000000,67000000000000,-96000000000000,38000000000000,4500000000000,-199000000000000,-2500000000000,98000000000000,-86500000000000,78500000000000,-125000000000000,-46000000000000,7000000000000,119000000000000,-125000000000000,123000000000000,-131000000000000,-3500000000000,103000000000000,16000000000000,118500000000000],"hashrate_average_7d":14525803955147930,"hashrate_average_7d_count":169,"expected_blocks":18.05,"multipool":16},{"url":"https:\/\/pool.btc.com","hashrate":3613000000000000,"miners":-1,"minpay":0.1,"id":4,"pool_id":"pool.btc.com","feetype":"PPS","i":14584,"workers":84,"income":3.4609871717449e-15,"i_blocks":14626,"json_blocks":{"err_no":0,"data":{"blocks":{"current_page":1,"data":[{"height":719623,"is_orphaned":0,"hash":"00000000000000007fd3b458ae2c5cfc371ff62e349e132b0f07803dd3fab4f9","rewards":"0.97385825","size":4640,"prev_hash":"000000000000000082df9febe46b4d8e66d2f7b871a6914b45f391346c5d7bff","bits":419479943,"version":9,"created_at":1670823994,"region_id":34,"region_name":"America"},{"height":719621,"is_orphaned":0,"hash":"000000000000000007a4cd1f5233b2955f372235388c901810d3f449e3b7909f","rewards":"0.97385825","size":2158,"prev_hash":"00000000000000004c28ed39afd6e4007a2398343c6c3c013f1954bc222400f2","bits":419479943,"version":9,"created_at":1670823337,"region_id":36,"region_name":"BitDeer"},{"height":719607,"is_orphaned":0,"hash":"00000000000000002565bcb135c25c236dcf254eef04dab72a41c254a551e7df","rewards":"0.97385825","size":21883,"prev_hash":"00000000000000001289b8ecf5abff4d5052c9ac2d02b44144b10900e521114d","bits":419479943,"version":9,"created_at":1670819532,"region_id":36,"region_name":"BitDeer"},{"height":719606,"is_orphaned":0,"hash":"00000000000000001289b8ecf5abff4d5052c9ac2d02b44144b10900e521114d","rewards":"0.97385825","size":6719,"prev_hash":"000000000000000062685b25dd5754441b0ba60802e281af5b2291254aff2268","bits":419479943,"version":9,"created_at":1670819131,"region_id":34,"region_name":"America"},{"height":719595,"is_orphaned":0,"hash":"00000000000000005ee466d61279b95cdc8b87bd204194fc3f247dd3d0631b87","rewards":"0.97385825","size":29683,"prev_hash":"00000000000000000d94430259f8b7142020636d1acc90d36103fd3ca432b815","bits":419479943,"version":9,"created_at":1670814468,"region_id":36,"region_name":"BitDeer"},{"height":719593,"is_orphaned":0,"hash":"0000000000000000af8a682caa01e997dd6bc51e1acdc978555fddbdf574d954","rewards":"0.97385825","size":39296,"prev_hash":"000000000000000068ee61fd358cf1c30e03004c47e7d71b49fe96d75bfc9a1d","bits":419479943,"version":9,"created_at":1670813944,"region_id":34,"region_name":"America"},{"height":719562,"is_orphaned":0,"hash":"00000000000000004d846bfb8a03cbb4e358c6c6fb560b8c62103ad950a78385","rewards":"0.97385825","size":36506,"prev_hash":"000000000000000049ca075c4565265a2e01076ded37304ef3eec84e3d915cdf","bits":419480081,"version":9,"created_at":1670806809,"region_id":36,"region_name":"BitDeer"},{"height":719552,"is_orphaned":0,"hash":"000000000000000074239eccccd432a24906807149bcac49b57e3397ae1f8d0b","rewards":"0.97385825","size":82425,"prev_hash":"00000000000000003e087a9a1bcddc2be634087767d5aeaf380a824ff762ce50","bits":419480081,"version":9,"created_at":1670802767,"region_id":36,"region_name":"BitDeer"},{"height":719547,"is_orphaned":0,"hash":"000000000000000000749338689d9149ce67e50065639fe6acc5d5dec0b37553","rewards":"0.97385825","size":18550,"prev_hash":"0000000000000000b817b1c810e396d6c236e2c1a6bc27459e947c3fc5a1a597","bits":419480081,"version":9,"created_at":1670800767,"region_id":36,"region_name":"BitDeer"},{"height":719503,"is_orphaned":0,"hash":"000000000000000054d50fc3159d7e7374bd9cc632b1d660e2844cc18fb02a49","rewards":"0.97385825","size":34781,"prev_hash":"00000000000000001090d6bcdc5785389e3df0e403f799864f4cd4e00cfb8f24","bits":419480081,"version":9,"created_at":1670786243,"region_id":34,"region_name":"America"}],"first_page_url":"https:\/\/eu-api.connectbtc.com\/\/public\/v1\/pool\/blocks\/merge?order_by=desc&page_size=10&page=1","from":1,"last_page":2281,"last_page_url":"https:\/\/eu-api.connectbtc.com\/\/public\/v1\/pool\/blocks\/merge?order_by=desc&page_size=10&page=2281","next_page_url":"https:\/\/eu-api.connectbtc.com\/\/public\/v1\/pool\/blocks\/merge?order_by=desc&page_size=10&page=2","path":"https:\/\/eu-api.connectbtc.com\/\/public\/v1\/pool\/blocks\/merge","per_page":10,"prev_page_url":null,"to":10,"total":22808},"blocks_count":22808,"rewards_count":"191174.31377628"},"trace_id":"97504e11-4835-4d8e-a725-f5653d5850c3"},"blocks_nr":10,"lastblock":719623,"lastblocktime":"1670823992","country":"WL|CN , EU , US","hashrate_average_100_count":76,"hashrate_average_100":3628715563322368.5,"hashrate_average_1h":3600750000000000,"history_start":1670546623,"history_interval":3600,"history_addlast":true,"history":[4082800000000000,-4200000000000,-38350000000000,-34650000000000,27600000000000,-3050000000000,26900000000000,-10150000000000,11050000000000,-203050000000000,224750000000000,29350000000000,31950000000000,-21800000000000,-57600000000000,23450000000000,-55200000000000,-4000000000000,-79950000000000,5800000000000,12850000000000,-3800000000000,23300000000000,-74700000000000,17500000000000,800000000000,-10900000000000,-13800000000000,18050000000000,36800000000000,-48800000000000,33100000000000,-11250000000000,4550000000000,30700000000000,6350000000000,-17950000000000,-30000000000000,69200000000000,13350000000000,-36800000000000,-13500000000000,7900000000000,11050000000000,7550000000000,-4750000000000,-51500000000000,-16300000000000,-52900000000000,47750000000000,-21650000000000,42600000000000,26450000000000,-60950000000000,26600000000000,-26450000000000,-33100000000000,-22000000000000,10550000000000,29700000000000,-20600000000000,6900000000000,-6900000000000,-36300000000000,27200000000000,67900000000000,-19850000000000,-25200000000000,28400000000000,11400000000000,-45450000000000,7700000000000,-70000000000000,67550000000000,-32550000000000,27200000000000,-34650000000000,-1315789000000,49615789000000,46750000000000,-15300000000000,-47200000000000,29800000000000,24450000000000,-11300000000000,-9200000000000,-55300000000000,-175800000000000,25150000000000,45150000000000,-35550000000000,-11200000000000,-42700000000000,-7500000000000,-11950000000000,-44450000000000,5000000000000,-1350000000000,27500000000000,36900000000000,-9100000000000,-29900000000000,91850000000000,6700000000000,-30000000000000,-18300000000000,-43550000000000,57800000000000,60450000000000,-89100000000000,-41800000000000,30700000000000,36300000000000,33700000000000,-29200000000000,-3700000000000,-90700000000000,4950000000000,46500000000000,-37350000000000,-56400000000000,86750000000000,12850000000000,14050000000000,-150000000000,-17700000000000,-40900000000000,-9550000000000,6050000000000,-72350000000000,31900000000000,145300000000000,-15100000000000,-7200000000000,71900000000000,-27450000000000,-50000000000,-16000000000000,-22000000000000,16050000000000,15700000000000,-23550000000000,-12800000000000,36000000000000,-42950000000000,-12850000000000,-62850000000000,64700000000000,-31600000000000,-23450000000000,-20850000000000,-11200000000000,-36950000000000,47150000000000,77400000000000,4700000000000,-16450000000000,30300000000000,-23000000000000,-9300000000000,26050000000000,34850000000000,-27800000000000,-24350000000000,-10750000000000,-26000000000000,-43350000000000,-3850000000000,31350000000000],"hashrate_average_7d":3795693989414202.5,"hashrate_average_7d_count":169,"expected_blocks":4.57,"multipool":7},{"url":"https:\/\/www.f2pool.com","hashrate":38954220619440090,"miners":-1,"minpay":0.1,"id":14,"pool_id":"f2pool.com","fee":3,"feetype":"PPS%3","i":2505,"income":3.7033291158859385e-15,"blocks_nr":13,"lastblock":720720,"lastblocktime":1671155650,"country":"WL|Global","blocks_1000":471,"blocks_count":47,"hashrate_average_100_count":76,"hashrate_average_100":38809105943051760,"hashrate_average_1h":39036274354793250,"history_start":1670546623,"history_interval":3600,"history_addlast":true,"history":[22978876550000000,18575670000000,63955560000000,41710250000000,129133150000000,-29976100000000,-6957160000000,-84565460000000,158433860000000,108080390000000,-122796360000000,-17747010000000,130326470000000,4822260000000,-49557220000000,-184289910000000,227482100000000,-187190480000000,33757520000000,79261890000000,-83496430000000,-145210150000000,132327700000000,127169200000000,341963730000000,-3996680000000,-199272420000000,-52227350000000,94794420000000,-63036590000000,-49398000000000,54409660000000,115321930000000,28426240000000,2178107240000000,8245279700000000,2354374710000000,966520110000000,18842080000000,-1721046050000000,1548518390000000,219666230000000,-72002340000000,-215928150000000,32091860000000,-22270750000000,-10008960000000,-1308657790000000,-8473807720000000,-1269526630000000,-1137101640000000,222392000000000,1544031150000000,895899730000000,1010158910000000,1231345330000000,824230220000000,397786610000000,-520342210000000,1319372790000000,922966260000000,1111658420000000,1238111930000000,1417637000000000,211555750000000,-249905360000000,-19199070000000,187357700000000,57244860000000,-218683730000000,-91134850000000,161081870000000,165306430000000,-414722490000000,-2411338690000000,-2287470870000000,-2018476560000000,4419819670000000,270808070000000,1211847720000000,-536874510000000,-1630791650000000,-3932221650000000,1948571090000000,2901111840000000,2545751770000000,14055970000000,557055870000000,59144980000000,-55788030000000,195684870000000,-20698000000000,-925353420000000,-3502257690000000,4805373280000000,-208529190000000,3392370000000,83576230000000,112865320000000,20752870000000,-374702420000000,454687910000000,-79923560000000,57109640000000,-76671800000000,-21351160000000,-18210060000000,-118564490000000,-52942650000000,173339260000000,-189395270000000,-103646610000000,-250437920000000,53474790000000,121316140000000,-61930870000000,-109479760000000,151225670000000,-618818480000000,199066120000000,-153298920000000,929069300000000,-156375160000000,-140053400000000,-34383750000000,228917640000000,188156550000000,164711830000000,300573740000000,261469120000000,-460210280000000,-152758680000000,-73047510000000,-56917870000000,25291420000000,13833360000000,-146696040000000,176688290000000,-209152410000000,210998780000000,-6322000000000,-8243450000000,-9954930000000,-204541580000000,591401790000000,-91728320000000,208097810000000,119275070000000,-132665550000000,-30749170000000,-176980980000000,441636550000000,111914720000000,-142135000000000,238663030000000,118449890000000,-52356900000000,296549470000000,155754350000000,-298392400000000,-327594100000000,-104074780000000,362265210000000,-202057090000000,-44377360000000,-190093580000000,30662790000000,325270910000000,61317030000000],"hashrate_average_7d":33672982960236668,"hashrate_average_7d_count":169,"hashrate_block":825725658362803.4,"expected_blocks":48.87,"luck":-1.8661065825301364,"multipool":33},{"url":"https:\/\/www.poolin.com","hashrate":28861000000000000,"miners":-1,"minpay":0.01,"id":3,"pool_id":"poolin.com","fee":3,"feetype":"PPS","i":13645,"json":{"err_no":0,"data":{"shares":{"shares_1m":27.959,"shares_5m":28.861,"shares_15m":28.963,"shares_1h":28.916,"shares_unit":"P"},"reject":{"1m":0,"5m":0,"15m":0.0029,"1h":0.0039},"workers":1375,"users":386,"total_blocks":149230,"total_rewards":105092727309107}},"workers":1375,"netdiff":5552566119.769588,"nethash":"79493632966608814","income":3.93632e-15,"blocks_nr":16,"lastblock":720721,"lastblocktime":1671156077,"country":"US|United States","blocks_1000":386,"blocks_count":38,"hashrate_average_100_count":76,"hashrate_average_100":28697274979440788,"hashrate_average_1h":28674500000000000,"history_start":1670546623,"history_interval":3600,"history_addlast":true,"history":[31085000000000000,45450000000000,158900000000000,-40350000000000,122950000000000,-11200000000000,-52550000000000,310800000000000,96450000000000,152000000000000,190500000000000,76650000000000,-1201100000000000,1582550000000000,378900000000000,212400000000000,-14350000000000,-175300000000000,89350000000000,82300000000000,-43800000000000,-296800000000000,-839400000000000,159600000000000,74850000000000,-22050000000000,266700000000000,389650000000000,284100000000000,-534250000000000,344600000000000,65200000000000,-97050000000000,132650000000000,848300000000000,-655900000000000,104700000000000,-590450000000000,410400000000000,24150000000000,6750000000000,-108950000000000,-118100000000000,185100000000000,-197950000000000,4650000000000,23800000000000,88100000000000,129650000000000,21100000000000,-76250000000000,144300000000000,-134800000000000,-73850000000000,298250000000000,-44800000000000,346250000000000,34900000000000,-8900000000000,-182300000000000,58500000000000,159950000000000,-217600000000000,281500000000000,61600000000000,39900000000000,-194200000000000,-57150000000000,55400000000000,-536600000000000,-793850000000000,94700000000000,194900000000000,-1180050000000000,-284750000000000,-825100000000000,-211500000000000,-316676320000000,534026320000000,-211400000000000,1350000000000,-3750000000000,-24950000000000,140850000000000,439050000000000,-14700000000000,-48700000000000,-112450000000000,37650000000000,50250000000000,-56350000000000,7750000000000,-750000000000,-116700000000000,39500000000000,67900000000000,-98800000000000,38550000000000,702150000000000,-540000000000000,639500000000000,-204250000000000,136650000000000,500300000000000,691350000000000,289700000000000,184200000000000,-162300000000000,442400000000000,-147150000000000,-7350000000000,1002250000000000,324000000000000,69100000000000,-102800000000000,-413000000000000,389150000000000,-13950000000000,84550000000000,357450000000000,148650000000000,-553100000000000,-251900000000000,-657350000000000,-475250000000000,-369050000000000,208050000000000,461600000000000,-286400000000000,138800000000000,46650000000000,174600000000000,-939300000000000,-95050000000000,45550000000000,115250000000000,-192850000000000,181850000000000,162450000000000,-92950000000000,-118000000000000,-28500000000000,-247800000000000,-361300000000000,-167950000000000,99700000000000,-107600000000000,-1212550000000000,-783850000000000,176750000000000,-65550000000000,-79100000000000,-534750000000000,-68750000000000,-145400000000000,-255900000000000,-9350000000000,264900000000000,-256250000000000,96250000000000,54350000000000,21150000000000,38800000000000,151350000000000,-102150000000000,17950000000000,-319950000000000,247050000000000,-70050000000000],"hashrate_average_7d":31931287418224850,"hashrate_average_7d_count":169,"hashrate_block":755191446827389.1,"expected_blocks":36.13,"luck":1.8661065825301293,"multipool":15}],"hashblock":{"hashrate_average_100":67506380922492540,"blocks_count":85,"pools":[[825725658362803.4,47,17568631028995.816,"https:\/\/www.f2pool.com"],[755191446827389.1,38,19873459127036.555,"https:\/\/www.poolin.com"]],"hashrate_block_all":794192716735206.4,"hashrate_block_min":17568631028995.816,"hashrate_block_max":19873459127036.555,"pool_hashblock_average":18721045078016.188,"hashrate_block":794192716735206.4},"time":1671156284,"hashrate":56680000000000000,"difficulty":5552566119.769588,"height":720721,"symbol":"DCR","maxhash":38954220619440090,"poolshash":86518621805039410,"nethash_estimat":79419271673520640,"poolsminers":1483,"supply":{"circulating":14584465.11291159,"total":21000000,"emission24":2349},"block_time_target":300,"block_height_ok":true,"algo":"Blake256R14","hashrate_from_diff":false,"hashrate_src":"https:\/\/lab.antpool.com","unit":"H\/s","block_time_average":321,"minerstat":[1.442122115721e-16,22.335318411485,0.97388805,3077],"link":{"coingecko":"decred","cmc":"decred","whattomine":"152-dcr-blake (14r)","coin360":"decred-dcr","coinpaprika":"dcr-decred"},"latest_release":{"tag":"release-v1.7.5","name":"dcrd v1.7.5","t":1665429869},"price":22.22}