{"data":[{"url":"https:\/\/www.okx.com\/pool","hashrate":0,"miners":-1,"minpay":-1,"id":23,"pool_id":"okx.com","i":1660,"workers":0,"lastblock":630904,"feetype":"PPLNS","fee":2,"country":"HK|Hong Kong","hashrate_average_100_count":72,"hashrate_average_100":0,"hashrate_average_1h":0,"history_start":1669945425,"history_interval":3600,"history_addlast":true,"history":[0,0,0,0,0,0,0,0,0,0,0,0,0,0,0,0,0,0,0,0,0,0,0,0,0,0,0,0,0,0,0,0,0,0,0,0,0,0,0,0,0,0,0,0,0,0,0,0,0,0,0,0,0,0,0,0,0,0,0,0,0,0,0,0,0,0,0,0,0,0,0,0,0,0,0,0,0,0,0,0,0,0,0,0,0,0,0,0,0,0,0,0,0,0,0,0,0,0,0,0,0,0,0,0,0,0,0,0,0,0,0,0,0,0,0,0,0,0,0,0,0,0,0,0,0,0,0,0,0,0,0,0,0,0,0,0,0,0,0,0,0,0,0,0,0,0,0,0,0,0,0,0,0,0,0,0,0,0,0,0,0,0,0,0,0,0,0,0],"hashrate_average_7d":0,"hashrate_average_7d_count":168,"expected_blocks":0,"multipool":5},{"url":"https:\/\/www2.coinmine.pl\/dcr","hashrate":69761638275045,"miners":-1,"minpay":0.05,"id":5,"pool_id":"coinmine.pl","i":12527,"workers":17,"blocks_nr":5,"lastblock":718478,"lastblocktime":"1670496386","fee":1,"feetype":"PPLNS","height":718649,"country":"WL|EU , US , Asia","blocks_1000":3,"hashrate_average_100_count":72,"hashrate_average_100":97022923122205.47,"hashrate_average_1h":84931398305690.27,"history_start":1669945425,"history_interval":3600,"history_addlast":true,"history":[270741438400000,-54314911800000,34040514100000,24559350500000,-87892053100000,85600633100000,-2895775900000,-7709752200000,-53935078600000,-14612993500000,46492861600000,-51122812000000,73875736100000,-88947083800000,-4724206400000,43092721100000,-65661893100000,19499428700000,-12366622400000,-28407543900000,24532595700000,59775396600000,-36874803000000,-11709863300000,8546533200000,30523976400000,57584622000000,-16922088500000,-10269301600000,-43293968600000,16497723500000,-9120828900000,35469367100000,-36102891800000,59957033000000,-30382521200000,25173912200000,-29559984700000,-54888625000000,-12477105400000,47642249300000,24859246600000,-31776984600000,-8180010800000,5806034400000,31981901500000,-21544057600000,53972834200000,-58452254100000,16793424100000,29986352900000,-47169703900000,45778699800000,-22535767400000,-67189408900000,7262494900000,79326702200000,-2375106900000,13225062400000,-60059592300000,24829627900000,-30473053400000,-31388802200000,87543896000000,-102989835400000,-757629600000,26153067900000,-9821556600000,-6650199400000,23120874400000,-15756858100000,-41614018000000,45508561700000,6223551500000,-20261976300000,56099852900000,27294362100000,-3729724100000,-16884000600000,-22371269000000,27965751100000,-12360145100000,31235297700000,-49176931200000,-8466785900000,22578322100000,40809994000000,-60094984100000,40809273100000,-257752100000,-29493781300000,64683105200000,-53924109600000,-3664377800000,49216030600000,-66258691000000,63307544100000,12236265600000,-66902438400000,66914574700000,-35973148100000,-5490427500000,-19151004600000,31026107200000,-8022277100000,-32224713000000,-18352397800000,5831483200000,-17984616200000,31058567900000,-23223908400000,-8182834200000,-5764337000000,22681247700000,-25771875400000,11906320800000,24700203400000,-4901372900000,13983266400000,-85233851100000,14720958700000,63667432500000,-19534081400000,-43443439300000,16040773700000,17885665200000,-23460335700000,-16733480200000,24524789900000,-28989229600000,-468355400000,74558942000000,-22187953700000,-43807787300000,13240112000000,18541171900000,-33355193900000,12008963700000,15389641700000,-28813412600000,5389476200000,4983155400000,-8397912700000,55950318700000,-38684260500000,-2856977900000,-46590111410000,66043424710000,-28300651900000,42080696400000,-30134762400000,11604862800000,-20383953600000,3774615700000,-623949200000,24273857400000,-37341152700000,20655677000000,-37239971070000,-1451268560000,12894814330000,13801160100000,1708383400000,6383905100000,17736134200000,-69548464060000,19906247140000,-13751793570000],"hashrate_average_7d":177327688303690.56,"hashrate_average_7d_count":168,"expected_blocks":0.14,"multipool":6},{"url":"https:\/\/lab.antpool.com","hashrate":15200000000000000,"miners":-1,"minpay":0.1,"id":11,"pool_id":"antpool.com","i":2136,"nethash":56680000000000000,"netdiff":4171728323,"feetype":"PPS","fee":3,"income":4.548747099999999e-15,"lastblock":712107,"lastblocktime":"1668580440","country":"WL|Global","hashrate_average_100_count":72,"hashrate_average_100":14450434027777778,"hashrate_average_1h":14629090909090910,"history_start":1669945425,"history_interval":3600,"history_addlast":true,"history":[14138000000000000,28500000000000,151000000000000,70500000000000,-197000000000000,-108500000000000,-53500000000000,132000000000000,209000000000000,-257000000000000,168000000000000,-86500000000000,96500000000000,76500000000000,-117500000000000,-232000000000000,-21000000000000,145500000000000,165394740000000,-113394740000000,69500000000000,-254000000000000,-2000000000000,104500000000000,-591500000000000,630500000000000,103500000000000,-7500000000000,78500000000000,-107500000000000,40500000000000,69000000000000,-39000000000000,-60000000000000,21500000000000,38000000000000,-40000000000000,13500000000000,101500000000000,-256000000000000,106500000000000,-204500000000000,121500000000000,-3500000000000,-44500000000000,212500000000000,213944440000000,209555560000000,46500000000000,62000000000000,-60500000000000,64000000000000,31500000000000,80131580000000,-6131580000000,-6500000000000,57000000000000,-244500000000000,164500000000000,102000000000000,-175500000000000,86000000000000,-149500000000000,-78500000000000,-6279000000000000,6484000000000000,39500000000000,32000000000000,-163500000000000,154000000000000,-103000000000000,270500000000000,-103500000000000,-210000000000000,-811500000000000,878000000000000,174000000000000,48500000000000,-91500000000000,-17500000000000,-158000000000000,124000000000000,-174000000000000,52000000000000,207500000000000,-144000000000000,-164500000000000,-127000000000000,229000000000000,26000000000000,126000000000000,-142500000000000,-5500000000000,-60500000000000,-115000000000000,300500000000000,-283000000000000,207500000000000,-110000000000000,-3926500000000000,3618000000000000,381000000000000,72500000000000,-378000000000000,516500000000000,-423000000000000,-29000000000000,234000000000000,126000000000000,-195500000000000,209000000000000,-244500000000000,176500000000000,-113500000000000,76000000000000,-152500000000000,146500000000000,-22000000000000,-160000000000000,206000000000000,-133000000000000,77000000000000,-49500000000000,35500000000000,36500000000000,-540789470000000,-242210530000000,165000000000000,75500000000000,-116000000000000,61000000000000,-7000000000000,146000000000000,-231500000000000,143500000000000,-171500000000000,-34500000000000,57000000000000,-4500000000000,-2000000000000,77000000000000,134000000000000,-127000000000000,63500000000000,-107000000000000,109500000000000,-2000000000000,-23000000000000,-108500000000000,136500000000000,-5500000000000,-186000000000000,262500000000000,-197500000000000,-6000000000000,-84000000000000,-16000000000000,344000000000000,-209000000000000,-56500000000000,39500000000000,33000000000000,166000000000000,-181000000000000,299500000000000,358000000000000,-109000000000000,-138909090000000],"hashrate_average_7d":14455093882142856,"hashrate_average_7d_count":168,"expected_blocks":21.01,"multipool":16},{"url":"https:\/\/pool.btc.com","hashrate":4113000000000000.5,"miners":-1,"minpay":0.1,"id":4,"pool_id":"pool.btc.com","feetype":"PPS","i":14573,"workers":96,"income":4.7430203016527e-15,"i_blocks":14615,"json_blocks":{"err_no":0,"data":{"blocks":{"current_page":1,"data":[{"height":718647,"is_orphaned":0,"hash":"0000000000000000c1b895484b8d350a26631091fc02c158a0495ec33098318d","rewards":"0.98359683","size":4610,"prev_hash":"00000000000000001b0b5da032fcba3857f6a6866b0187a1f5c9cc5171a33f8d","bits":419497871,"version":9,"created_at":1670551061,"region_id":34,"region_name":"America"},{"height":718630,"is_orphaned":0,"hash":"00000000000000008dda28a06dc709e50706f8c8c953beec3821f42011500062","rewards":"0.98359683","size":19051,"prev_hash":"000000000000000022a0c0bb59489396d087f98559396b01ee9d339dda2b5e4f","bits":419497871,"version":9,"created_at":1670546621,"region_id":34,"region_name":"America"},{"height":718623,"is_orphaned":0,"hash":"0000000000000000678ff396b222f76465b2909292e7ee5a056817a497bf154d","rewards":"0.98359683","size":37815,"prev_hash":"0000000000000000adeb63cfb3ebda7a70e09507f3bf072a1c18c0b55ffe8e2d","bits":419497871,"version":9,"created_at":1670543538,"region_id":36,"region_name":"BitDeer"},{"height":718615,"is_orphaned":0,"hash":"0000000000000000fcd93a0e6d6cf87ae54a079d500af3c06b3e04aab32c993b","rewards":"0.98359683","size":5712,"prev_hash":"0000000000000000e5cb08c1f4fa9c7047d48215a0c68579fbc28507a51d11c9","bits":419497871,"version":9,"created_at":1670540491,"region_id":34,"region_name":"America"},{"height":718580,"is_orphaned":0,"hash":"0000000000000000152d75653c3545c66387eea566a7a4e7d467ceeb33a069a3","rewards":"0.98359683","size":6107,"prev_hash":"0000000000000000e978f78fc21e3337389dd114d08becc52557988f89e3ab85","bits":419497871,"version":9,"created_at":1670530933,"region_id":34,"region_name":"America"},{"height":718558,"is_orphaned":0,"hash":"00000000000000007dffd91b1bd60fc2e99665a6892b95c43b3d176a3eb5ee8f","rewards":"0.98359683","size":2408,"prev_hash":"000000000000000016da16ac95240e7391077bcfe019439e108804ff7850edc6","bits":419488642,"version":9,"created_at":1670524244,"region_id":34,"region_name":"America"},{"height":718547,"is_orphaned":0,"hash":"00000000000000009e839fdbec29037c305d1e3aff52b60344d6a330814906d6","rewards":"0.98359683","size":27592,"prev_hash":"0000000000000000af920933364c5655e27bcf86f5acb43ee65d5f5a501f13e3","bits":419488642,"version":9,"created_at":1670522421,"region_id":34,"region_name":"America"},{"height":718541,"is_orphaned":0,"hash":"00000000000000006fe8b5cd7904ec7c0f7a0525e3e286c6078edb19cfb5e9df","rewards":"0.98359683","size":25802,"prev_hash":"0000000000000000e35282754e8b3fb433b5c65a9dc2228745f71a521096ef97","bits":419488642,"version":9,"created_at":1670519382,"region_id":34,"region_name":"America"},{"height":718532,"is_orphaned":0,"hash":"000000000000000080d309ef31c0a768e3afff3af06b0a6ab75882a016a7d521","rewards":"0.98359683","size":57719,"prev_hash":"0000000000000000d525318f6209188662fe764fa74ba53feeb19504509fe83f","bits":419488642,"version":9,"created_at":1670516250,"region_id":34,"region_name":"America"},{"height":718531,"is_orphaned":0,"hash":"0000000000000000d525318f6209188662fe764fa74ba53feeb19504509fe83f","rewards":"0.98359683","size":2671,"prev_hash":"00000000000000008d0e6ef1c9a90a8e4b997bb1c5f51544d02a4366b2b80cb8","bits":419488642,"version":9,"created_at":1670515305,"region_id":36,"region_name":"BitDeer"}],"first_page_url":"https:\/\/eu-api.connectbtc.com\/\/public\/v1\/pool\/blocks\/merge?order_by=desc&page_size=10&page=1","from":1,"last_page":2275,"last_page_url":"https:\/\/eu-api.connectbtc.com\/\/public\/v1\/pool\/blocks\/merge?order_by=desc&page_size=10&page=2275","next_page_url":"https:\/\/eu-api.connectbtc.com\/\/public\/v1\/pool\/blocks\/merge?order_by=desc&page_size=10&page=2","path":"https:\/\/eu-api.connectbtc.com\/\/public\/v1\/pool\/blocks\/merge","per_page":10,"prev_page_url":null,"to":10,"total":22746},"blocks_count":22746,"rewards_count":"191114.25593802"},"trace_id":"12f093ad-8914-4533-95ce-5d7bf95d551d"},"blocks_nr":10,"lastblock":718647,"lastblocktime":"1670551061","country":"WL|CN , EU , US","blocks_1000":71,"blocks_count":6,"hashrate_average_100_count":72,"hashrate_average_100":4074731336805555.5,"hashrate_average_1h":4097363636363636.5,"history_start":1669945425,"history_interval":3600,"history_addlast":true,"history":[4040950000000000,-26200000000000,-5550000000000,-26900000000000,37850000000000,70350000000000,-63100000000000,7950000000000,29350000000000,15300000000000,-21400000000000,17250000000000,13850000000000,13050000000000,70000000000000,-22100000000000,24150000000000,-21550000000000,-82460526000000,4160526000000,44700000000000,-27500000000000,29050000000000,-131750000000000,-61250000000000,-44700000000000,113350000000000,-16800000000000,2200000000000,76650000000000,17500000000000,-48550000000000,39400000000000,1050000000000,-5750000000000,8850000000000,-27450000000000,17400000000000,-42150000000000,-11050000000000,-36000000000000,139800000000000,-17450000000000,-22000000000000,45850000000000,5200000000000,35505556000000,-26055556000000,2450000000000,12700000000000,31400000000000,-54400000000000,-9600000000000,-25707895000000,41557895000000,27600000000000,21600000000000,4150000000000,-22450000000000,-20000000000000,-73150000000000,113100000000000,-5934211000000,17034211000000,-75750000000000,-19700000000000,-22300000000000,14350000000000,51950000000000,36600000000000,-32500000000000,-38850000000000,2200000000000,34750000000000,11050000000000,30300000000000,71450000000000,23050000000000,-62750000000000,-63400000000000,-33750000000000,23250000000000,-1400000000000,-14550000000000,-15600000000000,59000000000000,17100000000000,16700000000000,19250000000000,-34450000000000,-23200000000000,-49050000000000,-29750000000000,-3450000000000,-30100000000000,-34700000000000,-358050000000000,-58500000000000,19700000000000,300000000000,265350000000000,185500000000000,24400000000000,-85100000000000,15450000000000,79300000000000,-16150000000000,9750000000000,3950000000000,27250000000000,-42250000000000,-51300000000000,9000000000000,-41400000000000,150000000000,39450000000000,-48900000000000,-32350000000000,-37850000000000,-14850000000000,-73300000000000,51000000000000,15050000000000,-20000000000000,-26250000000000,8650000000000,200000000000,-3000000000000,9050000000000,36550000000000,39150000000000,-32450000000000,5350000000000,23650000000000,66500000000000,39100000000000,13950000000000,-41600000000000,-39900000000000,15700000000000,-28600000000000,-12950000000000,48800000000000,-35000000000000,52050000000000,-60950000000000,41750000000000,23500000000000,-450000000000,56400000000000,7600000000000,8750000000000,-6250000000000,-3650000000000,32250000000000,4500000000000,-3150000000000,17050000000000,22250000000000,-54850000000000,-24100000000000,-45400000000000,41350000000000,19950000000000,-24700000000000,-36250000000000,37600000000000,20513636000000],"hashrate_average_7d":4056617658095240,"hashrate_average_7d_count":168,"hashrate_block":679121889467592.6,"expected_blocks":5.92,"luck":0.07546420331568893,"multipool":7},{"url":"https:\/\/www.f2pool.com","hashrate":22821684816654200,"miners":-1,"minpay":0.1,"id":14,"pool_id":"f2pool.com","fee":3,"feetype":"PPS%3","i":2505,"income":3.7033291158859385e-15,"blocks_nr":6,"lastblock":718645,"lastblocktime":1670550515,"country":"WL|Global","blocks_1000":345,"blocks_count":35,"hashrate_average_100_count":72,"hashrate_average_100":23120993873846684,"hashrate_average_1h":22949770441074756,"history_start":1669945425,"history_interval":3600,"history_addlast":true,"history":[23125082030000000,87116370000000,-187582190000000,187842520000000,-138664610000000,-111732400000000,-28804910000000,12541710000000,-83326150000000,234480710000000,-8496480000000,39241590000000,-56991740000000,34179890000000,-129382470000000,-1710336930000000,133723860000000,1662622240000000,-119558280000000,-66399060000000,-260826320000000,93639000000000,-109514160000000,384672340000000,129559380000000,53842010000000,-38165870000000,46667430000000,45938980000000,-12289640000000,-14390950000000,-91863290000000,-18607300000000,-12188550000000,-180327510000000,54955060000000,27962650000000,119269670000000,77203230000000,-38450160000000,4910450000000,-141700180000000,-51200930000000,74335350000000,-99739210000000,97758810000000,-11160310000000,8183010000000,103569100000000,-73738540000000,12476570000000,21805000000000,129517870000000,-104775390000000,-5263690000000,372212220000000,-167852270000000,34774990000000,513585310000000,-145575000000000,-88124540000000,-103840560000000,43733630000000,-129287350000000,148328830000000,-76732720000000,46199950000000,4072370000000,85238320000000,10567330000000,-165600240000000,90471520000000,70748910000000,183181530000000,-139851490000000,-109243090000000,37211300000000,193134090000000,-146678890000000,-196580140000000,36611360000000,-111098700000000,-334620080000000,170235720000000,-118453850000000,125202390000000,-24743760000000,92064680000000,-29049240000000,3469390000000,149055240000000,29894140000000,-109866940000000,180127440000000,214031210000000,-53153720000000,58268040000000,26076240000000,-88058080000000,-167249000000000,-5635720000000,-71634540000000,73958630000000,-92303570000000,-330778100000000,-108552660000000,231679720000000,111803680000000,-40828160000000,-75302180000000,-161883200000000,-185518980000000,-34023490000000,-32805830000000,17724910000000,-18399830000000,17296210000000,60843760000000,-1542656690000000,215627330000000,1322147160000000,217650190000000,247213720000000,35770130000000,-150187120000000,530155480000000,6799760000000,-49543060000000,-142924850000000,106086720000000,-217253470000000,155414250000000,39321310000000,-113076180000000,84285340000000,-45284920000000,120795310000000,-384602930000000,-31917940000000,-124104380000000,-39854310000000,74032270000000,-8351290000000,209587160000000,8449010000000,71248430000000,-134585400000000,393778640000000,-712825120000000,767893030000000,-40717970000000,-82308030000000,-14406450000000,74107880000000,-96450720000000,-2554454590000000,-3856214180000000,6261959870000000,-270738590000000,27762830000000,-61816240000000,42140370000000,69898800000000,-118918670000000,-78688840000000,-57648900000000,-3806070000000,-65114390000000],"hashrate_average_7d":23179103370357140,"hashrate_average_7d_count":168,"hashrate_block":660599824967048.1,"expected_blocks":33.62,"luck":1.3827760561235678,"multipool":33},{"url":"https:\/\/www.poolin.com","hashrate":31357000000000000,"miners":-1,"minpay":0.01,"id":3,"pool_id":"poolin.com","fee":3,"feetype":"PPS","i":13634,"json":{"err_no":0,"data":{"shares":{"shares_1m":30.216,"shares_5m":31.357,"shares_15m":31.407,"shares_1h":31.517,"shares_unit":"P"},"reject":{"1m":0,"5m":0,"15m":0.0051,"1h":0.004},"workers":1320,"users":357,"total_blocks":148363,"total_rewards":105008496945687}},"workers":1320,"netdiff":4171728323.922278,"nethash":"59724789050273082","income":5.23923e-15,"blocks_nr":18,"lastblock":718649,"lastblocktime":"1670551420","country":"US|United States","blocks_1000":459,"blocks_count":43,"hashrate_average_100_count":72,"hashrate_average_100":30577144097222224,"hashrate_average_1h":31065909090909092,"history_start":1669945425,"history_interval":3600,"history_addlast":true,"history":[32359600000000000,-449450000000000,-317450000000000,481300000000000,323050000000000,52700000000000,-2377000000000000,1718300000000000,1399750000000000,1599850000000000,110650000000000,-28650000000000,-18300000000000,100950000000000,-148850000000000,-274500000000000,-1526650000000000,556500000000000,-24168420000000,-180281580000000,-76700000000000,-59950000000000,-610400000000000,-252250000000000,26750000000000,1122750000000000,-441450000000000,144800000000000,-22950000000000,42900000000000,-379400000000000,-260150000000000,748650000000000,-1436950000000000,-841850000000000,99450000000000,148850000000000,-24800000000000,227550000000000,74500000000000,79850000000000,-197700000000000,783650000000000,113050000000000,-79450000000000,-332850000000000,159305560000000,-30155560000000,41100000000000,52400000000000,-94100000000000,157300000000000,-147350000000000,3460530000000,-817910530000000,-2087900000000000,301950000000000,48000000000000,-36950000000000,227100000000000,-60950000000000,-107900000000000,246086840000000,-192936840000000,86000000000000,-57750000000000,-164750000000000,116100000000000,-180600000000000,32400000000000,4850000000000,175550000000000,134500000000000,-11400000000000,211300000000000,553400000000000,76100000000000,42450000000000,92200000000000,24800000000000,-18000000000000,234550000000000,-74450000000000,59200000000000,84300000000000,482250000000000,-203750000000000,198800000000000,-50350000000000,122950000000000,-39200000000000,-240300000000000,-205200000000000,-439400000000000,-71850000000000,327000000000000,6150000000000,117000000000000,1250000000000,-213300000000000,-436600000000000,279105260000000,5344740000000,35950000000000,711700000000000,483850000000000,393650000000000,-869800000000000,636700000000000,59150000000000,-44800000000000,11250000000000,157300000000000,-10300000000000,-598150000000000,325900000000000,240900000000000,-360000000000000,4700000000000,47600000000000,140800000000000,-203450000000000,-114450000000000,95400000000000,-64550000000000,221900000000000,201950000000000,-173650000000000,-28400000000000,-8600000000000,-967600000000000,-75950000000000,88800000000000,103550000000000,-124900000000000,105700000000000,182500000000000,-130800000000000,-9600000000000,103300000000000,-87950000000000,-301500000000000,325100000000000,101100000000000,-302800000000000,-172400000000000,201650000000000,89600000000000,14100000000000,-98636840000000,-66863160000000,-90550000000000,145500000000000,-573800000000000,628150000000000,-10350000000000,-76750000000000,58750000000000,-107700000000000,-177500000000000,344250000000000,-1057250000000000,-7250000000000,-4200000000000,-20850000000000,763250000000000,801750000000000,-492940910000000],"hashrate_average_7d":31481547690595250,"hashrate_average_7d_count":168,"hashrate_block":711096374354005.2,"expected_blocks":44.46,"luck":-1.4582402594392505,"multipool":15}],"hashblock":{"hashrate_average_100":57772869307874460,"blocks_count":84,"pools":[[679121889467592.6,6,113186981577932.11,"https:\/\/pool.btc.com"],[660599824967048.1,35,18874280713344.23,"https:\/\/www.f2pool.com"],[711096374354005.2,43,16537124984976.867,"https:\/\/www.poolin.com"]],"hashrate_block_all":687772253665172.2,"hashrate_block_min":16537124984976.867,"hashrate_block_max":113186981577932.11,"pool_hashblock_average":49532795758751.07,"hashrate_block":687772253665172.2},"time":1670552026,"hashrate":56680000000000000,"difficulty":4171728323.922278,"height":718649,"symbol":"DCR","maxhash":31357000000000000,"poolshash":73561446454929250,"nethash_estimat":68777225366517224,"poolsminers":1433,"supply":{"circulating":14566362.62674262,"total":21000000,"emission24":2185},"block_time_target":300,"block_height_ok":true,"algo":"Blake256R14","hashrate_from_diff":false,"hashrate_src":"https:\/\/lab.antpool.com","unit":"H\/s","block_time_average":348,"minerstat":[2.0072513989557e-16,21.041086733612,0.99902222,1816],"link":{"coingecko":"decred","cmc":"decred","whattomine":"152-dcr-blake (14r)","coin360":"decred-dcr","coinpaprika":"dcr-decred"},"latest_release":{"tag":"release-v1.7.5","name":"dcrd v1.7.5","t":1665429869},"price":21.08}