{"data":[{"url":"https:\/\/www.okx.com\/pool","hashrate":0,"miners":-1,"minpay":-1,"id":23,"pool_id":"okx.com","i":1709,"workers":0,"lastblock":630904,"feetype":"PPLNS","fee":2,"country":"HK|Hong Kong","hashrate_average_100_count":76,"hashrate_average_100":0,"hashrate_average_1h":0,"history_start":1671151418,"history_interval":3600,"history_addlast":true,"history":[0,0,0,0,0,0,0,0,0,0,0,0,0,0,0,0,0,0,0,0,0,0,0,0,0,0,0,0,0,0,0,0,0,0,0,0,0,0,0,0,0,0,0,0,0,0,0,0,0,0,0,0,0,0,0,0,0,0,0,0,0,0,0,0,0,0,0,0,0,0,0,0,0,0,0,0,0,0,0,0,0,0,0,0,0,0,0,0,0,0,0,0,0,0,0,0,0,0,0,0,0,0,0,0,0,0,0,0,0,0,0,0,0,0,0,0,0,0,0,0,0,0,0,0,0,0,0,0,0,0,0,0,0,0,0,0,0,0,0,0,0,0,0,0,0,0,0,0,0,0,0,0,0,0,0,0,0,0,0,0,0,0,0,0,0,0,0,0,0],"hashrate_average_7d":0,"hashrate_average_7d_count":169,"expected_blocks":0,"multipool":5},{"url":"https:\/\/www2.coinmine.pl\/dcr","hashrate":256614942617395,"miners":-1,"minpay":0.05,"id":5,"pool_id":"coinmine.pl","i":12607,"workers":27,"blocks_nr":5,"lastblock":722554,"lastblocktime":"1671708616","fee":1,"feetype":"PPLNS","height":722754,"country":"WL|EU , US , Asia","blocks_1000":5,"hashrate_average_100_count":76,"hashrate_average_100":336306363529944,"hashrate_average_1h":369093100724714.9,"history_start":1671151418,"history_interval":3600,"history_addlast":true,"history":[261549919100000,22995547300000,-67275878800000,34397294300000,2060644800000,-61971314600000,-9794721700000,-45918125600000,12802154200000,29211073500000,21060698900000,56415365800000,-30848380800000,26354697100000,-13878843000000,8784828600000,-57111300000,-75644364500000,79663750400000,-43938928200000,54642029500000,-51561924700000,-34388961500000,13794660600000,29423259000000,41057138900000,-49626196700000,12584572400000,18106347100000,-18909181100000,22797449300000,16841924300000,-11260997500000,32938756300000,-13780276400000,30941623600000,-107124574500000,37251655700000,83898442100000,-98753958200000,-41371946900000,-8407991000000,-51447321300000,74383790900000,-34282630800000,48103584800000,71792993000000,22130398100000,-38983492200000,47032983500000,52071990200000,-13265797900000,-17444950000000,-118729485900000,126380213500000,-28613225500000,273997320100000,-291513789100000,105007218200000,-90677145300000,101403276800000,-21593884800000,-56123969600000,82958614900000,-60891496000000,-16497498000000,-73452987800000,184594909600000,-142783211600000,53028554400000,-11343429500000,84574631600000,19030839000000,28567198600000,-56820645200000,-16640320300000,60617426900000,-35930320200000,-14659894500000,-3275552800000,-30369516000000,-37176149100000,14039384700000,45318525500000,-53587937600000,-49021834400000,114772874800000,-91888201800000,13104697700000,-8043697300000,49214709000000,-8128582900000,-160771656600000,144671284500000,-57370680500000,56296017000000,-69659107500000,60403603400000,-26297415100000,-40611301400000,92946801700000,-20082537400000,33525857000000,25892448400000,-74745551300000,-29616582700000,4111110500000,-46398154100000,97349518800000,4564767500000,-3504374200000,-94042835600000,17958345100000,24144624000000,-116468021400000,145236429200000,21652977000000,23335980000000,-12605220900000,-1583600000000,50187807600000,-124428159200000,76930686200000,-18036721100000,60274562900000,-62437493300000,8472242300000,-34082497700000,-88974708400000,2358562200000,-27901773000000,134150739600000,-4431059900000,53398131800000,-45824050000000,-109554907800000,16107995300000,124975826800000,40764318700000,-95929677300000,-74603902700000,34899421500000,94578528500000,-59536444600000,-46817061100000,30541457900000,125073861900000,-129830067300000,19118340000000,-11284019900000,-69660851700000,101886225500000,-30918013200000,-25512712400000,12647530900000,60663115500000,39530539500000,-101077318100000,48017107200000,-26112754300000,-26216567800000,43003600500000,41965683600000,-123088662000000,1628452300000,85957189500000,-15672581200000,91539366700000,-39978239300000],"hashrate_average_7d":302924494634911.3,"hashrate_average_7d_count":169,"expected_blocks":0.43,"multipool":5},{"url":"https:\/\/lab.antpool.com","hashrate":10630000000000000,"miners":-1,"minpay":0.1,"id":11,"pool_id":"antpool.com","i":2185,"nethash":56680000000000000,"netdiff":6012275327,"feetype":"PPS","fee":3,"income":3.1249811e-15,"lastblock":719327,"lastblocktime":"1670732243","country":"WL|Global","hashrate_average_100_count":76,"hashrate_average_100":10974460834703948,"hashrate_average_1h":11026666666666666,"history_start":1671151418,"history_interval":3600,"history_addlast":true,"history":[14575000000000000,-139000000000000,47000000000000,-98000000000000,-60500000000000,26500000000000,-31526320000000,133526320000000,-28500000000000,-78500000000000,-30500000000000,194500000000000,-151000000000000,24000000000000,25000000000000,-116500000000000,-61500000000000,138000000000000,-68000000000000,-2092500000000000,-96500000000000,234500000000000,-82500000000000,57500000000000,37500000000000,-243000000000000,252000000000000,-42000000000000,115000000000000,-86000000000000,-180500000000000,47000000000000,97000000000000,-92500000000000,7000000000000,-75500000000000,-34000000000000,-64500000000000,3000000000000,397000000000000,-438000000000000,5500000000000,-7500000000000,-104500000000000,244000000000000,170500000000000,-196500000000000,91000000000000,42000000000000,150500000000000,631000000000000,-242000000000000,6000000000000,0,0,-634500000000000,754000000000000,-653500000000000,-500000000000,-6026320000000,-1039473680000000,1113000000000000,-104500000000000,204131580000000,-103631580000000,-107500000000000,-164000000000000,193000000000000,-91000000000000,140000000000000,156500000000000,-283000000000000,89500000000000,-106000000000000,31000000000000,199500000000000,0,-257000000000000,23000000000000,-7500000000000,197000000000000,39500000000000,113500000000000,-111000000000000,30000000000000,146500000000000,-97500000000000,105000000000000,-324000000000000,-63500000000000,138000000000000,75000000000000,-232500000000000,152000000000000,123500000000000,-44500000000000,-52500000000000,25500000000000,76500000000000,-18500000000000,-2500000000000,-121500000000000,41026320000000,15473680000000,-36000000000000,93500000000000,-92500000000000,91500000000000,-161500000000000,-31000000000000,51500000000000,2000000000000,10500000000000,-110500000000000,14000000000000,56000000000000,-64000000000000,5500000000000,25500000000000,93500000000000,18000000000000,149500000000000,97000000000000,-22500000000000,-181500000000000,171000000000000,-1378657890000000,38157890000000,-121000000000000,69000000000000,4000000000000,-46000000000000,-83500000000000,-7500000000000,-46000000000000,180000000000000,-104000000000000,46000000000000,15500000000000,-47000000000000,-5500000000000,-128000000000000,73000000000000,139000000000000,-9500000000000,-64500000000000,136000000000000,-121500000000000,-6500000000000,27000000000000,131500000000000,-264500000000000,37500000000000,-65000000000000,70500000000000,13500000000000,-56500000000000,47500000000000,-47500000000000,4000000000000,41500000000000,26000000000000,61000000000000,-193000000000000,59500000000000,-93000000000000,97000000000000,27000000000000,25666670000000],"hashrate_average_7d":12225840911479288,"hashrate_average_7d_count":169,"expected_blocks":13.95,"multipool":17},{"url":"https:\/\/pool.btc.com","hashrate":3535000000000000,"miners":-1,"minpay":0.1,"id":4,"pool_id":"pool.btc.com","feetype":"PPS","i":14653,"workers":79,"income":3.2584478026065e-15,"i_blocks":14695,"json_blocks":{"err_no":0,"data":{"blocks":{"current_page":1,"data":[{"height":719623,"is_orphaned":0,"hash":"00000000000000007fd3b458ae2c5cfc371ff62e349e132b0f07803dd3fab4f9","rewards":"0.97385825","size":4640,"prev_hash":"000000000000000082df9febe46b4d8e66d2f7b871a6914b45f391346c5d7bff","bits":419479943,"version":9,"created_at":1670823994,"region_id":34,"region_name":"America"},{"height":719621,"is_orphaned":0,"hash":"000000000000000007a4cd1f5233b2955f372235388c901810d3f449e3b7909f","rewards":"0.97385825","size":2158,"prev_hash":"00000000000000004c28ed39afd6e4007a2398343c6c3c013f1954bc222400f2","bits":419479943,"version":9,"created_at":1670823337,"region_id":36,"region_name":"BitDeer"},{"height":719607,"is_orphaned":0,"hash":"00000000000000002565bcb135c25c236dcf254eef04dab72a41c254a551e7df","rewards":"0.97385825","size":21883,"prev_hash":"00000000000000001289b8ecf5abff4d5052c9ac2d02b44144b10900e521114d","bits":419479943,"version":9,"created_at":1670819532,"region_id":36,"region_name":"BitDeer"},{"height":719606,"is_orphaned":0,"hash":"00000000000000001289b8ecf5abff4d5052c9ac2d02b44144b10900e521114d","rewards":"0.97385825","size":6719,"prev_hash":"000000000000000062685b25dd5754441b0ba60802e281af5b2291254aff2268","bits":419479943,"version":9,"created_at":1670819131,"region_id":34,"region_name":"America"},{"height":719595,"is_orphaned":0,"hash":"00000000000000005ee466d61279b95cdc8b87bd204194fc3f247dd3d0631b87","rewards":"0.97385825","size":29683,"prev_hash":"00000000000000000d94430259f8b7142020636d1acc90d36103fd3ca432b815","bits":419479943,"version":9,"created_at":1670814468,"region_id":36,"region_name":"BitDeer"},{"height":719593,"is_orphaned":0,"hash":"0000000000000000af8a682caa01e997dd6bc51e1acdc978555fddbdf574d954","rewards":"0.97385825","size":39296,"prev_hash":"000000000000000068ee61fd358cf1c30e03004c47e7d71b49fe96d75bfc9a1d","bits":419479943,"version":9,"created_at":1670813944,"region_id":34,"region_name":"America"},{"height":719562,"is_orphaned":0,"hash":"00000000000000004d846bfb8a03cbb4e358c6c6fb560b8c62103ad950a78385","rewards":"0.97385825","size":36506,"prev_hash":"000000000000000049ca075c4565265a2e01076ded37304ef3eec84e3d915cdf","bits":419480081,"version":9,"created_at":1670806809,"region_id":36,"region_name":"BitDeer"},{"height":719552,"is_orphaned":0,"hash":"000000000000000074239eccccd432a24906807149bcac49b57e3397ae1f8d0b","rewards":"0.97385825","size":82425,"prev_hash":"00000000000000003e087a9a1bcddc2be634087767d5aeaf380a824ff762ce50","bits":419480081,"version":9,"created_at":1670802767,"region_id":36,"region_name":"BitDeer"},{"height":719547,"is_orphaned":0,"hash":"000000000000000000749338689d9149ce67e50065639fe6acc5d5dec0b37553","rewards":"0.97385825","size":18550,"prev_hash":"0000000000000000b817b1c810e396d6c236e2c1a6bc27459e947c3fc5a1a597","bits":419480081,"version":9,"created_at":1670800767,"region_id":36,"region_name":"BitDeer"},{"height":719503,"is_orphaned":0,"hash":"000000000000000054d50fc3159d7e7374bd9cc632b1d660e2844cc18fb02a49","rewards":"0.97385825","size":34781,"prev_hash":"00000000000000001090d6bcdc5785389e3df0e403f799864f4cd4e00cfb8f24","bits":419480081,"version":9,"created_at":1670786243,"region_id":34,"region_name":"America"}],"first_page_url":"https:\/\/eu-api.connectbtc.com\/\/public\/v1\/pool\/blocks\/merge?order_by=desc&page_size=10&page=1","from":1,"last_page":2281,"last_page_url":"https:\/\/eu-api.connectbtc.com\/\/public\/v1\/pool\/blocks\/merge?order_by=desc&page_size=10&page=2281","next_page_url":"https:\/\/eu-api.connectbtc.com\/\/public\/v1\/pool\/blocks\/merge?order_by=desc&page_size=10&page=2","path":"https:\/\/eu-api.connectbtc.com\/\/public\/v1\/pool\/blocks\/merge","per_page":10,"prev_page_url":null,"to":10,"total":22808},"blocks_count":22808,"rewards_count":"191174.31377628"},"trace_id":"8f8ddf59-b374-4fdf-8b58-5684da4501af"},"blocks_nr":10,"lastblock":719623,"lastblocktime":"1670823992","country":"WL|CN , EU , US","hashrate_average_100_count":76,"hashrate_average_100":3480840460526316,"hashrate_average_1h":3509777777777778,"history_start":1671151418,"history_interval":3600,"history_addlast":true,"history":[3620800000000000,-26900000000000,-9250000000000,44200000000000,-58250000000000,24150000000000,550000000000,-33600000000000,37500000000000,28800000000000,61500000000000,22350000000000,-36950000000000,-23150000000000,-48500000000000,9700000000000,8250000000000,-2300000000000,100000000000,-18450000000000,1250000000000,-14850000000000,150000000000,14450000000000,-22550000000000,39950000000000,-23050000000000,-4050000000000,-58600000000000,22000000000000,21050000000000,15400000000000,-7350000000000,-2800000000000,60050000000000,-31450000000000,40900000000000,40050000000000,-32600000000000,44850000000000,-58800000000000,-2800000000000,8850000000000,-28850000000000,-27450000000000,-50350000000000,-44850000000000,50950000000000,-34250000000000,67900000000000,29050000000000,45900000000000,-40650000000000,-4850000000000,42428947000000,-34328947000000,-21950000000000,12050000000000,-4100000000000,74486842000000,-38436842000000,37300000000000,-32700000000000,-15163158000000,73563158000000,-6400000000000,-43950000000000,-5600000000000,24150000000000,-82650000000000,-56500000000000,9750000000000,45550000000000,14750000000000,-58250000000000,27650000000000,-25950000000000,25350000000000,-11750000000000,66900000000000,4650000000000,-72000000000000,-40450000000000,25550000000000,-5300000000000,-750000000000,-10200000000000,-1950000000000,38050000000000,-65950000000000,-11200000000000,8600000000000,-78000000000000,67850000000000,-17150000000000,-22100000000000,-41450000000000,23250000000000,-7900000000000,32550000000000,32250000000000,-45050000000000,11050000000000,72900000000000,-4600000000000,-9100000000000,82300000000000,-43250000000000,-60500000000000,24950000000000,-93800000000000,42950000000000,2250000000000,-48500000000000,13500000000000,-5850000000000,74300000000000,15400000000000,-52650000000000,22400000000000,-19300000000000,8950000000000,-16400000000000,51100000000000,-49400000000000,9700000000000,17000000000000,14850000000000,-8000000000000,-3150000000000,28200000000000,-24750000000000,8900000000000,20700000000000,-116500000000000,-239400000000000,282400000000000,110850000000000,-29450000000000,4100000000000,-55850000000000,20550000000000,17550000000000,-52450000000000,-11600000000000,46050000000000,-62650000000000,25700000000000,1800000000000,13250000000000,-25450000000000,-2700000000000,16450000000000,15500000000000,26000000000000,-2800000000000,3800000000000,33900000000000,-28250000000000,-31600000000000,-10050000000000,-9600000000000,-42500000000000,91450000000000,-44600000000000,15600000000000,25400000000000,-53050000000000,53127778000000],"hashrate_average_7d":3545458168100592.5,"hashrate_average_7d_count":169,"expected_blocks":4.43,"multipool":7},{"url":"https:\/\/www.f2pool.com","hashrate":42160943291171180,"miners":-1,"minpay":0.1,"id":14,"pool_id":"f2pool.com","fee":3,"feetype":"PPS%3","i":2554,"income":3.7033291158859385e-15,"blocks_nr":13,"lastblock":722755,"lastblocktime":1671761062,"country":"WL|Global","blocks_1000":511,"blocks_count":50,"hashrate_average_100_count":76,"hashrate_average_100":41909748452765700,"hashrate_average_1h":42329412530823780,"history_start":1671151418,"history_interval":3600,"history_addlast":true,"history":[39007648780000000,-283221040000000,388518270000000,23048420000000,122399720000000,-644801560000000,-90493430000000,342933350000000,-127349330000000,-33297330000000,-146260590000000,-128295240000000,212410320000000,23811190000000,-252580970000000,87169440000000,120856930000000,42300640000000,54958930000000,-61861320000000,102819250000000,-538460630000000,642498720000000,234853710000000,2311550000000,46276600000000,88536690000000,67713890000000,-759466430000000,207847800000000,519956170000000,75997260000000,-18857910000000,-121761830000000,38269710000000,-31757970000000,91287040000000,-36729900000000,-192126290000000,-85685990000000,-113278690000000,-1135523990000000,892986660000000,-289198450000000,79978490000000,23241260000000,-4780370000000,284687930000000,-188427010000000,70966920000000,0,0,0,0,0,0,0,0,-1565259530000000,-30457909024000000,-6315488610900000,110512119900000,-33624048800000,385797981700000,14246057372100000,3637292690000000,1210345170000000,527072130000000,502858300000000,190220980000000,177039450000000,449933060000000,1556022520000000,11637539000000000,-4925259140000000,-7167385260000000,2147479340000000,9520002320000000,2944787310000000,492530510000000,2014296730000000,1332296660000000,-57467430000000,-458039930000000,443291540000000,95328260000000,55513370000000,-51429710000000,-12362040000000,42473190000000,-12393300000000,-268687460000000,264061920000000,146197000000000,163428280000000,58093790000000,-26706210000000,-66694670000000,215574840000000,-170993300000000,43243270000000,74826220000000,-488078000000000,345345220000000,28621760000000,-13210880000000,-21579340000000,112512760000000,-112299190000000,192002110000000,-213845270000000,-50806920000000,30333120000000,-168165110000000,-73876440000000,-18761690000000,52713240000000,32187700000000,20807760000000,116692990000000,258101310000000,10184710000000,-115514860000000,103128380000000,7857130000000,-117433890000000,-67692220000000,58675550000000,-93405490000000,330911860000000,-102889310000000,155398480000000,-149646030000000,-83024430000000,-96288600000000,-55820400000000,-360454050000000,106746320000000,135721240000000,185122310000000,60682870000000,4186390000000,134900980000000,87669400000000,341007940000000,233184080000000,-4774160000000,-12654340000000,-65090530000000,-222277170000000,-769285830000000,938625460000000,63873450000000,-129397900000000,-17658830000000,93612140000000,-135921270000000,-28550970000000,177449370000000,-438945460000000,-145274670000000,14368150000000,135868420000000,-74651850000000,-2037300000000,-12031730000000,225847150000000,-77522150000000,367454030000000],"hashrate_average_7d":37905059260415384,"hashrate_average_7d_count":169,"hashrate_block":838194969055313.9,"expected_blocks":53.29,"luck":-3.2909169543132464,"multipool":33},{"url":"https:\/\/www.poolin.com","hashrate":30203000000000000,"miners":-1,"minpay":0.01,"id":3,"pool_id":"poolin.com","fee":3,"feetype":"PPS","i":13714,"json":{"err_no":0,"data":{"shares":{"shares_1m":28.994,"shares_5m":30.203,"shares_15m":30.624,"shares_1h":30.858,"shares_unit":"P"},"reject":{"1m":0,"5m":0,"15m":0.0046,"1h":0.0035},"workers":1331,"users":370,"total_blocks":150098,"total_rewards":105176810230412}},"workers":1331,"netdiff":6012275327.737526,"nethash":"86075086346709019","income":3.63534e-15,"blocks_nr":16,"lastblock":722754,"lastblocktime":"1671760984","country":"US|United States","blocks_1000":388,"blocks_count":43,"hashrate_average_100_count":76,"hashrate_average_100":31228542814555924,"hashrate_average_1h":30658000000000000,"history_start":1671151418,"history_interval":3600,"history_addlast":true,"history":[28725700000000000,21350000000000,237800000000000,-551250000000000,-267800000000000,-130000000000000,27305260000000,199394740000000,-334700000000000,591900000000000,275250000000000,146650000000000,43150000000000,549500000000000,8250000000000,-191000000000000,161350000000000,86350000000000,-16350000000000,120350000000000,119500000000000,-110600000000000,-344850000000000,83350000000000,353600000000000,-48300000000000,-144150000000000,33950000000000,-680900000000000,178600000000000,749950000000000,-957400000000000,2327000000000000,-430000000000000,-43000000000000,-105850000000000,177200000000000,-157400000000000,517800000000000,-218400000000000,308450000000000,44300000000000,-64050000000000,-91850000000000,25100000000000,-448300000000000,-135600000000000,452100000000000,8850000000000,-245100000000000,-1793550000000000,2346750000000000,-153100000000000,602700000000000,16300000000000,369450000000000,75950000000000,2674250000000000,541950000000000,211678950000000,235221050000000,130350000000000,-70200000000000,251734210000000,-35284210000000,396400000000000,-733400000000000,-89800000000000,112750000000000,129700000000000,-228650000000000,-448050000000000,-253600000000000,118050000000000,500800000000000,-102000000000000,-835350000000000,708400000000000,-271300000000000,60000000000000,-2122050000000000,-350150000000000,-281000000000000,-513250000000000,-29350000000000,28850000000000,-3880300000000000,-1456700000000000,-73450000000000,133450000000000,-88450000000000,56150000000000,277500000000000,-15900000000000,-220700000000000,30000000000000,940700000000000,3932100000000000,793150000000000,-326000000000000,206150000000000,-424750000000000,-703450000000000,594500000000000,861600000000000,121900000000000,-296750000000000,340350000000000,-557800000000000,159900000000000,585900000000000,201750000000000,-78300000000000,-29550000000000,257150000000000,-132100000000000,-22100000000000,-433350000000000,-4870400000000000,192950000000000,344650000000000,2841400000000000,139750000000000,-308250000000000,-1632800000000000,451850000000000,1450060530000000,1783139470000000,-125950000000000,-375150000000000,-35550000000000,-348800000000000,-4500000000000,492000000000000,141450000000000,-1289050000000000,-108800000000000,1557750000000000,-47750000000000,-134000000000000,-180700000000000,136600000000000,216350000000000,-36650000000000,-92400000000000,457350000000000,-179300000000000,-206500000000000,159450000000000,145300000000000,-229500000000000,-106250000000000,144100000000000,-130750000000000,566700000000000,36500000000000,-752250000000000,-273700000000000,-1229900000000000,107400000000000,84200000000000,-10900000000000,-371950000000000,507850000000000,49450000000000,-164850000000000,-1003100000000000,736200000000000,-645750000000000],"hashrate_average_7d":31611056384319530,"hashrate_average_7d_count":169,"hashrate_block":726245181733858.8,"expected_blocks":39.71,"luck":3.2909169543132393,"multipool":15}],"hashblock":{"hashrate_average_100":73138291267321620,"blocks_count":93,"pools":[[838194969055313.9,50,16763899381106.277,"https:\/\/www.f2pool.com"],[726245181733858.8,43,16889422831019.97,"https:\/\/www.poolin.com"]],"hashrate_block_all":786433239433565.8,"hashrate_block_min":16763899381106.277,"hashrate_block_max":16889422831019.97,"pool_hashblock_average":16826661106063.125,"hashrate_block":786433239433565.8},"time":1671761266,"hashrate":56680000000000000,"difficulty":6012275327.737526,"height":722755,"symbol":"DCR","maxhash":42160943291171180,"poolshash":86785558233788580,"nethash_estimat":78643323943356580,"poolsminers":1437,"supply":{"circulating":14602187.38534509,"total":21000000,"emission24":2927},"block_time_target":300,"block_height_ok":true,"algo":"Blake256R14","hashrate_from_diff":false,"hashrate_src":"https:\/\/lab.antpool.com","unit":"H\/s","block_time_average":257.9,"minerstat":[1.358669586628e-16,19.370927042822,0.97456335,1457],"link":{"coingecko":"decred","cmc":"decred","whattomine":"152-dcr-blake (14r)","coin360":"decred-dcr","coinpaprika":"dcr-decred"},"latest_release":{"tag":"release-v1.7.5","name":"dcrd v1.7.5","t":1665429869},"price":19.4}