{"data":[{"url":"https:\/\/www.okx.com\/pool","hashrate":0,"miners":-1,"minpay":-1,"id":23,"pool_id":"okx.com","i":1660,"workers":0,"lastblock":630904,"feetype":"PPLNS","fee":2,"country":"HK|Hong Kong","hashrate_average_100_count":82,"hashrate_average_100":0,"hashrate_average_1h":0,"history_start":1669427023,"history_interval":3600,"history_addlast":true,"history":[0,0,0,0,0,0,0,0,0,0,0,0,0,0,0,0,0,0,0,0,0,0,0,0,0,0,0,0,0,0,0,0,0,0,0,0,0,0,0,0,0,0,0,0,0,0,0,0,0,0,0,0,0,0,0,0,0,0,0,0,0,0,0,0,0,0,0,0,0,0,0,0,0,0,0,0,0,0,0,0,0,0,0,0,0,0,0,0,0,0,0,0,0,0,0,0,0,0,0,0,0,0,0,0,0,0,0,0,0,0,0,0,0,0,0,0,0,0,0,0,0,0,0,0,0,0,0,0,0,0,0,0,0,0,0,0,0,0,0,0,0,0,0,0,0,0,0,0,0,0,0,0,0,0,0,0,0,0,0,0,0,0,0,0,0,0,0,0],"hashrate_average_7d":0,"hashrate_average_7d_count":168,"expected_blocks":0,"multipool":5},{"url":"https:\/\/www2.coinmine.pl\/dcr","hashrate":247349094097005,"miners":-1,"minpay":0.05,"id":5,"pool_id":"coinmine.pl","i":12502,"workers":22,"blocks_nr":5,"lastblock":716643,"lastblocktime":"1669936123","fee":1,"feetype":"PPLNS","height":716959,"country":"WL|EU , US , Asia","blocks_1000":4,"hashrate_average_100_count":82,"hashrate_average_100":167532740014344.38,"hashrate_average_1h":149103279740026.88,"history_start":1669427023,"history_interval":3600,"history_addlast":true,"history":[138069137800000,75429586100000,40367772700000,24800555700000,-33238562800000,-34849486900000,2400984700000,-8180979200000,35828590000000,7758444500000,103227114500000,-78787982400000,-15178553100000,39857588800000,-25387716900000,32113833800000,-87450397700000,20645245700000,-58147050600000,-57453097700000,45697721500000,-8871256600000,62012026600000,-87608565100000,34290397900000,12384495900000,-33714043000000,32911763200000,65773747500000,-65695843600000,64863032300000,-44617210400000,104807893400000,-78270765400000,36193914000000,1460570100000,20133681600000,-85303155400000,57457514300000,-23386467600000,-4437668600000,-106343795100000,47742809300000,-22680686900000,-26215017700000,-27662747660000,5191617380000,41436877280000,62652761900000,-50574902700000,56271186100000,-59335487500000,66440280300000,-40795549000000,103250880600000,-43998499800000,-10049972000000,-30953307200000,-18767935600000,5450015800000,-12178091100000,-27650733200000,43210893700000,-17965991100000,56110652600000,-51714324000000,-8281823000000,-26399687600000,64778422100000,-32423343600000,56836416000000,-57046452100000,-8125378400000,11375856800000,-25738304600000,-15004243500000,41791324300000,-5237208100000,-12790235600000,33499661200000,-58813048600000,-13173100300000,63619818900000,-63746288000000,23696807400000,45503593600000,-28954201800000,573469400000,-19962551800000,-8485977100000,18924402600000,26169886900000,52046513800000,-61216290900000,65563501300000,-6471032000000,-80651708700000,60929895100000,-44809275300000,83196584100000,-109608676000000,63518205500000,-27659715800000,87329422500000,-47908274500000,56178331400000,59530241700000,-52682736500000,-41288705200000,14950402700000,-53178567700000,-27878542000000,42350283200000,33666092400000,20020700400000,-41207374500000,42359388300000,-30224315300000,89233458500000,-94935115900000,6818439500000,20957977100000,29195417500000,-36004366400000,-25370713200000,-1145440000000,12114956100000,-7530499800000,47292702100000,761464900000,-172865368950000,49441926650000,85900333100000,-51086900800000,81046553200000,6928049400000,-58216082000000,-20916884700000,31297489600000,3919973200000,62129736500000,-16915741400000,-60225672800000,51450720000000,9245119900000,-54314911800000,34040514100000,24559350500000,-87892053100000,85600633100000,-2895775900000,-7709752200000,-53935078600000,-14612993500000,46492861600000,-51122812000000,73875736100000,-88947083800000,-4724206400000,43092721100000,-65661893100000,19499428700000,-12366622400000,-28407543900000,24532595700000,59775396600000,-36874803000000,-23641866500000],"hashrate_average_7d":203289738867916.53,"hashrate_average_7d_count":168,"expected_blocks":0.22,"multipool":6},{"url":"https:\/\/lab.antpool.com","hashrate":13550000000000000,"miners":-1,"minpay":0.1,"id":11,"pool_id":"antpool.com","i":2111,"nethash":64310000000000000,"netdiff":4793274781,"feetype":"PPS","fee":3,"income":3.9588998000000005e-15,"lastblock":712107,"lastblocktime":"1668580440","country":"WL|Global","hashrate_average_100_count":82,"hashrate_average_100":14171986947408536,"hashrate_average_1h":14235555555555556,"history_start":1669427023,"history_interval":3600,"history_addlast":true,"history":[14155000000000000,44500000000000,-79500000000000,32000000000000,26500000000000,-34500000000000,214500000000000,74500000000000,-194500000000000,-32500000000000,15500000000000,-87000000000000,141000000000000,-138000000000000,147500000000000,-311500000000000,223000000000000,-238000000000000,276500000000000,-90500000000000,164500000000000,-98500000000000,98000000000000,-169500000000000,43000000000000,-22500000000000,280500000000000,-275500000000000,189500000000000,-50500000000000,-51000000000000,110500000000000,-126500000000000,19500000000000,-1500000000000,98500000000000,-49000000000000,-67500000000000,47000000000000,-69000000000000,-134000000000000,172000000000000,-74000000000000,206000000000000,-164000000000000,123000000000000,12500000000000,-73500000000000,271500000000000,-190000000000000,-2063000000000000,1330500000000000,581500000000000,38500000000000,85500000000000,-35000000000000,-122000000000000,39500000000000,65500000000000,-153500000000000,-103500000000000,83000000000000,106000000000000,59000000000000,69500000000000,-110763160000000,180263160000000,-195000000000000,51500000000000,-257289470000000,192789470000000,-3500000000000,370000000000000,-303500000000000,82000000000000,-39000000000000,-103000000000000,170500000000000,-72500000000000,132500000000000,-87500000000000,-59000000000000,-35000000000000,-82000000000000,16000000000000,-46000000000000,18500000000000,-2674500000000000,2509000000000000,251500000000000,-265500000000000,153500000000000,-31000000000000,-31000000000000,39000000000000,-130500000000000,357500000000000,-99500000000000,77500000000000,34000000000000,-245500000000000,12105260000000,-47605260000000,79500000000000,126000000000000,-220000000000000,131500000000000,34500000000000,-10000000000000,-118000000000000,-22000000000000,-151500000000000,228500000000000,-141000000000000,49000000000000,41000000000000,500000000000,-98500000000000,102000000000000,-14500000000000,36500000000000,-26500000000000,31500000000000,109500000000000,-206000000000000,54000000000000,91000000000000,32000000000000,-100000000000000,102000000000000,13000000000000,-44500000000000,-41000000000000,153500000000000,-175000000000000,-139000000000000,-39558820000000,77558820000000,64500000000000,162500000000000,-18500000000000,-303000000000000,193000000000000,-98000000000000,117000000000000,28500000000000,151000000000000,70500000000000,-197000000000000,-108500000000000,-53500000000000,132000000000000,209000000000000,-257000000000000,168000000000000,-86500000000000,96500000000000,76500000000000,-117500000000000,-232000000000000,-21000000000000,145500000000000,165394740000000,-113394740000000,69500000000000,-254000000000000,-2000000000000,227555560000000],"hashrate_average_7d":14166821095892854,"hashrate_average_7d_count":168,"expected_blocks":18.61,"multipool":16},{"url":"https:\/\/pool.btc.com","hashrate":4006000000000000,"miners":-1,"minpay":0.1,"id":4,"pool_id":"pool.btc.com","feetype":"PPS","i":14548,"workers":98,"i_blocks":14590,"json_blocks":{"err_no":0,"data":{"blocks":{"current_page":1,"data":[{"height":716932,"is_orphaned":0,"hash":"00000000000000008bc882813cbc7c1ae4f8bb141753eaba982a346d199a5766","rewards":"0.98359683","size":29295,"prev_hash":"0000000000000000b60dedc9f78c00e3429369872bb0cb1e5c5a7e326a2c0dcb","bits":419489122,"version":9,"created_at":1670022522,"region_id":34,"region_name":"America"},{"height":716916,"is_orphaned":0,"hash":"000000000000000050fff0c4ee8bfbd5b957be559d327c066633279323a3c41c","rewards":"0.98359683","size":2766,"prev_hash":"0000000000000000d47444d1e51d6db09055ad7bc295c26a154ee7e95e0bb6df","bits":419489122,"version":9,"created_at":1670017521,"region_id":34,"region_name":"America"},{"height":716857,"is_orphaned":0,"hash":"000000000000000011ca005fcfc563d96cbad9c959e67797cb61f90013966e08","rewards":"0.98359683","size":14655,"prev_hash":"0000000000000000b78f520ef5de4dc1f489aff9ac38861091d088458d162606","bits":419489122,"version":9,"created_at":1669997242,"region_id":34,"region_name":"America"},{"height":716830,"is_orphaned":0,"hash":"000000000000000038666c2a4793f61f668fe0453db1c69f30996d00cf5f3b6c","rewards":"0.98359683","size":7466,"prev_hash":"0000000000000000b10032ea6b3ccdcf55d615b711d55a54773729ae3f7f18f1","bits":419489671,"version":9,"created_at":1669990668,"region_id":34,"region_name":"America"},{"height":716809,"is_orphaned":0,"hash":"00000000000000000595bbc05d0f4a0b60abfd3c530151a229ea8f751f24cecc","rewards":"0.98359683","size":20815,"prev_hash":"00000000000000008d39974d60bdf5cdc4f388d66e0b32907dc75b2053dd8aee","bits":419489671,"version":9,"created_at":1669982940,"region_id":34,"region_name":"America"},{"height":716808,"is_orphaned":0,"hash":"00000000000000008d39974d60bdf5cdc4f388d66e0b32907dc75b2053dd8aee","rewards":"0.98359683","size":9911,"prev_hash":"0000000000000000d1f16e7a9583ed8d90dc6ac425bdf3165d4836f45b5da8ec","bits":419489671,"version":9,"created_at":1669982251,"region_id":34,"region_name":"America"},{"height":716802,"is_orphaned":0,"hash":"00000000000000002172c30c0348819272a2cdd3e415a517bf09db99e4c7dd84","rewards":"0.98359683","size":46850,"prev_hash":"000000000000000003faf406be7fbb7ffe8277e5a5069a596d74af1e1b392a2e","bits":419489671,"version":9,"created_at":1669980193,"region_id":36,"region_name":"BitDeer"},{"height":716795,"is_orphaned":0,"hash":"00000000000000001506f39a98a04329fc0bf7c2bfffde9fa66f9cd61dd72914","rewards":"0.98359683","size":2254,"prev_hash":"000000000000000042818e3e148e51086c05dc574c1dd456beef67d2593327c4","bits":419489671,"version":9,"created_at":1669978233,"region_id":36,"region_name":"BitDeer"},{"height":716739,"is_orphaned":0,"hash":"0000000000000000b5a31de76a46041bb0eb71fe7d6fd9be7f3c5f09edbf4c5e","rewards":"0.98359683","size":43456,"prev_hash":"00000000000000008e0844733cf0561426cdadbed6393b3b1abb7674da3add02","bits":419489671,"version":9,"created_at":1669961657,"region_id":34,"region_name":"America"},{"height":716709,"is_orphaned":1,"hash":"0000000000000000775f0064735b79fcaa831e4bb86abf48d7650ff7adee2ad8","rewards":0,"size":33230,"prev_hash":"fa6e070b00000000467e30b4899149629f3320616c674a02172cdf48753dee4d","bits":419489671,"version":9,"created_at":1669955064,"region_id":34,"region_name":"America"}],"first_page_url":"https:\/\/eu-api.connectbtc.com\/\/public\/v1\/pool\/blocks\/merge?order_by=desc&page_size=10&page=1","from":1,"last_page":2264,"last_page_url":"https:\/\/eu-api.connectbtc.com\/\/public\/v1\/pool\/blocks\/merge?order_by=desc&page_size=10&page=2264","next_page_url":"https:\/\/eu-api.connectbtc.com\/\/public\/v1\/pool\/blocks\/merge?order_by=desc&page_size=10&page=2","path":"https:\/\/eu-api.connectbtc.com\/\/public\/v1\/pool\/blocks\/merge","per_page":10,"prev_page_url":null,"to":10,"total":22638},"blocks_count":22638,"rewards_count":"191010.38811278"},"trace_id":"ede0ddda-ebe5-4d16-bef3-c9b75056f194"},"blocks_nr":9,"lastblock":716932,"lastblocktime":"1670022491","country":"WL|CN , EU , US","blocks_1000":52,"blocks_count":2,"hashrate_average_100_count":82,"hashrate_average_100":4120818109279725.5,"hashrate_average_1h":4030333333333333.5,"history_start":1669427023,"history_interval":3600,"history_addlast":true,"history":[4156750000000000,36350000000000,-13700000000000,1400000000000,-79600000000000,56700000000000,-10400000000000,14300000000000,20850000000000,25000000000000,45350000000000,31800000000000,-28750000000000,-8200000000000,34000000000000,24250000000000,700000000000,-22350000000000,-41050000000000,-36850000000000,1950000000000,-28000000000000,-17550000000000,53150000000000,5200000000000,-31150000000000,-48550000000000,350000000000,-51300000000000,43450000000000,11750000000000,-31800000000000,-13350000000000,40650000000000,-54200000000000,2200000000000,46550000000000,74200000000000,23250000000000,-27600000000000,11700000000000,-15100000000000,-4700000000000,5500000000000,1450000000000,-38850000000000,13350000000000,-3400000000000,-14100000000000,28750000000000,-71050000000000,-2100000000000,43650000000000,52500000000000,48550000000000,-18600000000000,2900000000000,4900000000000,-14350000000000,10150000000000,-23150000000000,29100000000000,14000000000000,15000000000000,-30300000000000,4502632000000,-23252632000000,11450000000000,11200000000000,-37502632000000,-11997368000000,-44800000000000,13600000000000,-38700000000000,42050000000000,-18100000000000,-74400000000000,14900000000000,24350000000000,18700000000000,16400000000000,13250000000000,51750000000000,-12300000000000,-1000000000000,-76550000000000,26450000000000,-11750000000000,-6050000000000,-49300000000000,-41950000000000,19750000000000,-8300000000000,24550000000000,-24450000000000,47950000000000,-4300000000000,21850000000000,-26300000000000,41700000000000,-31000000000000,14628947000000,89321053000000,-60300000000000,-12150000000000,77300000000000,31400000000000,-63750000000000,-4700000000000,-4450000000000,60150000000000,-5000000000000,-16900000000000,-54100000000000,1600000000000,13400000000000,-44500000000000,31800000000000,-12500000000000,6650000000000,18050000000000,-40850000000000,-64850000000000,2700000000000,38750000000000,43550000000000,15950000000000,-6550000000000,26900000000000,13300000000000,-33450000000000,48950000000000,-64150000000000,24950000000000,64850000000000,-15150000000000,-2976471000000,-27923529000000,34150000000000,-2100000000000,-73500000000000,-28900000000000,43950000000000,-45850000000000,-90700000000000,-26200000000000,-5550000000000,-26900000000000,37850000000000,70350000000000,-63100000000000,7950000000000,29350000000000,15300000000000,-21400000000000,17250000000000,13850000000000,13050000000000,70000000000000,-22100000000000,24150000000000,-21550000000000,-82460526000000,4160526000000,44700000000000,-27500000000000,29050000000000,-90866667000000],"hashrate_average_7d":4165260567160715.5,"hashrate_average_7d_count":168,"hashrate_block":2060409054639862.8,"expected_blocks":5.41,"luck":-3.4114163543304974,"multipool":7},{"url":"https:\/\/www.f2pool.com","hashrate":22927051718937572,"miners":-1,"minpay":0.1,"id":14,"pool_id":"f2pool.com","fee":3,"feetype":"PPS%3","i":2480,"income":3.9008913744538644e-15,"blocks_nr":6,"lastblock":716958,"lastblocktime":1670031677,"country":"WL|Global","blocks_1000":323,"blocks_count":39,"hashrate_average_100_count":82,"hashrate_average_100":22539035737166024,"hashrate_average_1h":22958715752466410,"history_start":1669427023,"history_interval":3600,"history_addlast":true,"history":[24841131020000000,-177037950000000,-62146030000000,-341289840000000,-327242810000000,291854410000000,45511430000000,73728670000000,40248470000000,-223832970000000,-59602640000000,139854520000000,-119888150000000,-55065270000000,-65314550000000,-34026940000000,19306810000000,71817180000000,-121977290000000,-86331940000000,56728440000000,-68268360000000,62853600000000,-231752270000000,-162234860000000,289429900000000,6934430000000,-36850990000000,-113611800000000,-89663570000000,29229160000000,-238485930000000,50696350000000,153479670000000,-131402140000000,100806170000000,141307580000000,-146505080000000,-67873350000000,-63650530000000,13888380000000,-11139080000000,-2850430000000,-67380950000000,-203030310000000,209410680000000,-35233360000000,84641900000000,147607650000000,60816720000000,-62703050000000,-106507260000000,-103515170000000,40345210000000,-20409500000000,42563440000000,109405420000000,31104460000000,-301071240000000,184633310000000,58221070000000,-118121740000000,73343020000000,7769420000000,150005820000000,67888170000000,-6903730000000,-114978620000000,61655910000000,157656320000000,90805750000000,378012070000000,211280200000000,-107813260000000,-126514000000000,-132673870000000,-143715070000000,-49538090000000,90459330000000,-130074750000000,9171500000000,-55825640000000,-5463610000000,7993990000000,-98340790000000,-79023330000000,103528340000000,-61664610000000,-46730330000000,23220060000000,-22697180000000,-45196640000000,-6562920000000,-14129440000000,130248350000000,167428980000000,189903630000000,-51278710000000,-160918670000000,41006130000000,38335250000000,74213550000000,-12909630000000,-236057470000000,48979970000000,-228636010000000,111058210000000,100108140000000,40580130000000,-141339140000000,18240690000000,-66380690000000,-161090190000000,57161960000000,38277330000000,130921260000000,-86599400000000,38655430000000,34922500000000,497482930000000,100691380000000,-189003380000000,-50265480000000,-232486830000000,-116623830000000,37186070000000,19114960000000,68134190000000,-200792940000000,-16823170000000,-73487970000000,40641190000000,-84603240000000,18932440000000,-4136450000000,-56725620000000,16978360000000,13130820000000,-52639340000000,21191230000000,-146237410000000,-320649360000000,-35669300000000,195192350000000,35236110000000,87116370000000,-187582190000000,187842520000000,-138664610000000,-111732400000000,-28804910000000,12541710000000,-83326150000000,234480710000000,-8496480000000,39241590000000,-56991740000000,34179890000000,-129382470000000,-1710336930000000,133723860000000,1662622240000000,-119558280000000,-66399060000000,-260826320000000,93639000000000,-109514160000000,359861530000000],"hashrate_average_7d":23576110430059524,"hashrate_average_7d_count":168,"hashrate_block":577923993260667.2,"expected_blocks":29.6,"luck":9.401967918875588,"multipool":33},{"url":"https:\/\/www.poolin.com","hashrate":32900000000000000,"miners":-1,"minpay":0.01,"id":3,"pool_id":"poolin.com","fee":3,"feetype":"PPS","i":13609,"json":{"err_no":0,"data":{"shares":{"shares_1m":30.924,"shares_5m":32.9,"shares_15m":32.917,"shares_1h":32.76,"shares_unit":"P"},"reject":{"1m":0,"5m":0,"15m":0.0006,"1h":0.0025},"workers":1403,"users":365,"total_blocks":147589,"total_rewards":104932700973974}},"workers":1403,"netdiff":4793274781.910698,"nethash":"68623194750455207","income":4.55986e-15,"blocks_nr":20,"lastblock":716959,"lastblocktime":1670032220,"country":"US|United States","blocks_1000":511,"blocks_count":44,"hashrate_average_100_count":82,"hashrate_average_100":33506199659394056,"hashrate_average_1h":32550444444444444,"history_start":1669427023,"history_interval":3600,"history_addlast":true,"history":[31584750000000000,-3255650000000000,1973600000000000,1726000000000000,72750000000000,137400000000000,557150000000000,587450000000000,581950000000000,-66850000000000,-192150000000000,-491700000000000,632100000000000,-82750000000000,66400000000000,-278950000000000,99900000000000,241850000000000,-143150000000000,-35900000000000,78250000000000,-5900000000000,129650000000000,682500000000000,31500000000000,-197100000000000,97900000000000,146350000000000,-363700000000000,154300000000000,376650000000000,77850000000000,-112250000000000,-250500000000000,-251100000000000,440550000000000,-53650000000000,3550000000000,-25450000000000,-16500000000000,145050000000000,157750000000000,48800000000000,-146800000000000,-290100000000000,-6050000000000,-67150000000000,-191050000000000,265250000000000,217000000000000,-139400000000000,193550000000000,-505900000000000,-91100000000000,272500000000000,-11600000000000,75650000000000,-214700000000000,104800000000000,238100000000000,-225250000000000,-141950000000000,-134800000000000,39000000000000,-253700000000000,231052630000000,191747370000000,8650000000000,-78550000000000,-13847370000000,25097370000000,88100000000000,-375650000000000,118900000000000,-1141800000000000,-136150000000000,26200000000000,58100000000000,7250000000000,-78250000000000,-108200000000000,191800000000000,-164650000000000,-381300000000000,324100000000000,145850000000000,-177200000000000,526900000000000,315850000000000,-84500000000000,-341500000000000,317400000000000,-12450000000000,242250000000000,68700000000000,150300000000000,-74450000000000,38600000000000,-41000000000000,292450000000000,-633000000000000,-246273680000000,364773680000000,531950000000000,-409350000000000,424900000000000,342000000000000,-204800000000000,-231600000000000,-21400000000000,137550000000000,-1055100000000000,91550000000000,169100000000000,5800000000000,52200000000000,-421750000000000,-215200000000000,62250000000000,-547150000000000,225350000000000,68750000000000,794000000000000,746250000000000,-119050000000000,452700000000000,-996650000000000,-312950000000000,178950000000000,320700000000000,-179900000000000,293900000000000,2350000000000,-83100000000000,219600000000000,-62350000000000,194729410000000,-198729410000000,69500000000000,-271100000000000,110400000000000,132400000000000,-923850000000000,-381050000000000,-272500000000000,-449450000000000,-317450000000000,481300000000000,323050000000000,52700000000000,-2377000000000000,1718300000000000,1399750000000000,1599850000000000,110650000000000,-28650000000000,-18300000000000,100950000000000,-148850000000000,-274500000000000,-1526650000000000,556500000000000,-24168420000000,-180281580000000,-76700000000000,-59950000000000,-610400000000000,-59855560000000],"hashrate_average_7d":33693525815535704,"hashrate_average_7d_count":168,"hashrate_block":761504537713501.2,"expected_blocks":44,"luck":0,"multipool":15}],"hashblock":{"hashrate_average_100":33506199659394056,"blocks_count":44,"pools":[[2060409054639862.8,2,1030204527319931.4,"https:\/\/pool.btc.com"],[577923993260667.2,39,14818563929760.7,"https:\/\/www.f2pool.com"],[761504537713501.2,44,17306921311670.482,"https:\/\/www.poolin.com"]],"hashrate_block_all":707835923598115.4,"hashrate_block_min":14818563929760.7,"hashrate_block_max":1030204527319931.4,"pool_hashblock_average":354110004187120.9,"hashrate_block":761504537713501.2},"time":1670033264,"hashrate":64310000000000000,"difficulty":4793274781.910698,"height":716959,"symbol":"DCR","maxhash":32900000000000000,"poolshash":73630400813034580,"nethash_estimat":76150453771350130,"poolsminers":1523,"supply":{"circulating":14551464.08554192,"total":21000000,"emission24":2438},"block_time_target":300,"block_height_ok":true,"algo":"Blake256R14","hashrate_from_diff":false,"hashrate_src":"https:\/\/lab.antpool.com","unit":"H\/s","block_time_average":312,"minerstat":[1.7213239343797e-16,21.979495789135,0.98435623,3617],"link":{"coingecko":"decred","cmc":"decred","whattomine":"152-dcr-blake (14r)","coin360":"decred-dcr","coinpaprika":"dcr-decred"},"latest_release":{"tag":"release-v1.7.5","name":"dcrd v1.7.5","t":1665429869},"price":21.95}