{"data":[{"url":"https:\/\/www.okx.com\/pool","hashrate":0,"miners":-1,"minpay":-1,"id":23,"pool_id":"okx.com","i":1660,"workers":0,"lastblock":630904,"feetype":"PPLNS","fee":2,"country":"HK|Hong Kong","hashrate_average_100_count":71,"hashrate_average_100":0,"hashrate_average_1h":0,"history_start":1669686223,"history_interval":3600,"history_addlast":true,"history":[0,0,0,0,0,0,0,0,0,0,0,0,0,0,0,0,0,0,0,0,0,0,0,0,0,0,0,0,0,0,0,0,0,0,0,0,0,0,0,0,0,0,0,0,0,0,0,0,0,0,0,0,0,0,0,0,0,0,0,0,0,0,0,0,0,0,0,0,0,0,0,0,0,0,0,0,0,0,0,0,0,0,0,0,0,0,0,0,0,0,0,0,0,0,0,0,0,0,0,0,0,0,0,0,0,0,0,0,0,0,0,0,0,0,0,0,0,0,0,0,0,0,0,0,0,0,0,0,0,0,0,0,0,0,0,0,0,0,0,0,0,0,0,0,0,0,0,0,0,0,0,0,0,0,0,0,0,0,0,0,0,0,0,0,0,0,0,0],"hashrate_average_7d":0,"hashrate_average_7d_count":168,"expected_blocks":0,"multipool":5},{"url":"https:\/\/www2.coinmine.pl\/dcr","hashrate":167746637883856,"miners":-1,"minpay":0.05,"id":5,"pool_id":"coinmine.pl","i":12527,"workers":22,"blocks_nr":5,"lastblock":717665,"lastblocktime":"1670253522","fee":1,"feetype":"PPLNS","height":717825,"country":"WL|EU , US , Asia","blocks_1000":3,"hashrate_average_100_count":71,"hashrate_average_100":213503287766053.28,"hashrate_average_1h":214587641408039.72,"history_start":1669686223,"history_interval":3600,"history_addlast":true,"history":[158115897400000,11375856800000,-25738304600000,-15004243500000,41791324300000,-5237208100000,-12790235600000,33499661200000,-58813048600000,-13173100300000,63619818900000,-63746288000000,23696807400000,45503593600000,-28954201800000,573469400000,-19962551800000,-8485977100000,18924402600000,26169886900000,52046513800000,-61216290900000,65563501300000,-6471032000000,-80651708700000,60929895100000,-44809275300000,83196584100000,-109608676000000,63518205500000,-27659715800000,87329422500000,-47908274500000,56178331400000,59530241700000,-52682736500000,-41288705200000,14950402700000,-53178567700000,-27878542000000,42350283200000,33666092400000,20020700400000,-41207374500000,42359388300000,-30224315300000,89233458500000,-94935115900000,6818439500000,20957977100000,29195417500000,-36004366400000,-25370713200000,-1145440000000,12114956100000,-7530499800000,47292702100000,761464900000,-172865368950000,49441926650000,85900333100000,-51086900800000,81046553200000,6928049400000,-58216082000000,-20916884700000,31297489600000,3919973200000,62129736500000,-16915741400000,-60225672800000,51450720000000,9245119900000,-54314911800000,34040514100000,24559350500000,-87892053100000,85600633100000,-2895775900000,-7709752200000,-53935078600000,-14612993500000,46492861600000,-51122812000000,73875736100000,-88947083800000,-4724206400000,43092721100000,-65661893100000,19499428700000,-12366622400000,-28407543900000,24532595700000,59775396600000,-36874803000000,-11709863300000,8546533200000,30523976400000,57584622000000,-16922088500000,-10269301600000,-43293968600000,16497723500000,-9120828900000,35469367100000,-36102891800000,59957033000000,-30382521200000,25173912200000,-29559984700000,-54888625000000,-12477105400000,47642249300000,24859246600000,-31776984600000,-8180010800000,5806034400000,31981901500000,-21544057600000,53972834200000,-58452254100000,16793424100000,29986352900000,-47169703900000,45778699800000,-22535767400000,-67189408900000,7262494900000,79326702200000,-2375106900000,13225062400000,-60059592300000,24829627900000,-30473053400000,-31388802200000,87543896000000,-102989835400000,-757629600000,26153067900000,-9821556600000,-6650199400000,23120874400000,-15756858100000,-41614018000000,45508561700000,6223551500000,-20261976300000,56099852900000,27294362100000,-3729724100000,-16884000600000,-22371269000000,27965751100000,-12360145100000,31235297700000,-49176931200000,-8466785900000,22578322100000,40809994000000,-60094984100000,40809273100000,-257752100000,-29493781300000,64683105200000,-53924109600000,-3664377800000,49216030600000,-28469387400000],"hashrate_average_7d":201903389238392.8,"hashrate_average_7d_count":168,"expected_blocks":0.32,"multipool":6},{"url":"https:\/\/lab.antpool.com","hashrate":15420000000000000,"miners":-1,"minpay":0.1,"id":11,"pool_id":"antpool.com","i":2136,"nethash":74040000000000000,"netdiff":4091262562,"feetype":"PPS","fee":3,"income":4.6382102e-15,"lastblock":712107,"lastblocktime":"1668580440","country":"WL|Global","hashrate_average_100_count":71,"hashrate_average_100":14833239436619718,"hashrate_average_1h":14996363636363636,"history_start":1669686223,"history_interval":3600,"history_addlast":true,"history":[14573500000000000,-303500000000000,82000000000000,-39000000000000,-103000000000000,170500000000000,-72500000000000,132500000000000,-87500000000000,-59000000000000,-35000000000000,-82000000000000,16000000000000,-46000000000000,18500000000000,-2674500000000000,2509000000000000,251500000000000,-265500000000000,153500000000000,-31000000000000,-31000000000000,39000000000000,-130500000000000,357500000000000,-99500000000000,77500000000000,34000000000000,-245500000000000,12105260000000,-47605260000000,79500000000000,126000000000000,-220000000000000,131500000000000,34500000000000,-10000000000000,-118000000000000,-22000000000000,-151500000000000,228500000000000,-141000000000000,49000000000000,41000000000000,500000000000,-98500000000000,102000000000000,-14500000000000,36500000000000,-26500000000000,31500000000000,109500000000000,-206000000000000,54000000000000,91000000000000,32000000000000,-100000000000000,102000000000000,13000000000000,-44500000000000,-41000000000000,153500000000000,-175000000000000,-139000000000000,-39558820000000,77558820000000,64500000000000,162500000000000,-18500000000000,-303000000000000,193000000000000,-98000000000000,117000000000000,28500000000000,151000000000000,70500000000000,-197000000000000,-108500000000000,-53500000000000,132000000000000,209000000000000,-257000000000000,168000000000000,-86500000000000,96500000000000,76500000000000,-117500000000000,-232000000000000,-21000000000000,145500000000000,165394740000000,-113394740000000,69500000000000,-254000000000000,-2000000000000,104500000000000,-591500000000000,630500000000000,103500000000000,-7500000000000,78500000000000,-107500000000000,40500000000000,69000000000000,-39000000000000,-60000000000000,21500000000000,38000000000000,-40000000000000,13500000000000,101500000000000,-256000000000000,106500000000000,-204500000000000,121500000000000,-3500000000000,-44500000000000,212500000000000,213944440000000,209555560000000,46500000000000,62000000000000,-60500000000000,64000000000000,31500000000000,80131580000000,-6131580000000,-6500000000000,57000000000000,-244500000000000,164500000000000,102000000000000,-175500000000000,86000000000000,-149500000000000,-78500000000000,-6279000000000000,6484000000000000,39500000000000,32000000000000,-163500000000000,154000000000000,-103000000000000,270500000000000,-103500000000000,-210000000000000,-811500000000000,878000000000000,174000000000000,48500000000000,-91500000000000,-17500000000000,-158000000000000,124000000000000,-174000000000000,52000000000000,207500000000000,-144000000000000,-164500000000000,-127000000000000,229000000000000,26000000000000,126000000000000,-142500000000000,-5500000000000,-60500000000000,-115000000000000,330363640000000],"hashrate_average_7d":14321011195476184,"hashrate_average_7d_count":168,"expected_blocks":21.99,"multipool":16},{"url":"https:\/\/pool.btc.com","hashrate":4077000000000000,"miners":-1,"minpay":0.1,"id":4,"pool_id":"pool.btc.com","feetype":"PPS","i":14573,"workers":98,"income":4.8363046451529e-15,"i_blocks":14615,"json_blocks":{"err_no":0,"data":{"blocks":{"current_page":1,"data":[{"height":717823,"is_orphaned":0,"hash":"0000000000000000b11952b7c563bc14c69282ccf4f0000b002925ad543db805","rewards":"0.98359683","size":78730,"prev_hash":"00000000000000001de90f77c7b97dec79c403634acaa4f96a5137fc551c91f5","bits":419499198,"version":9,"created_at":1670291869,"region_id":34,"region_name":"America"},{"height":717794,"is_orphaned":0,"hash":"000000000000000109724ed34b8cd588d199525753b3bbef89d2a9a64152a797","rewards":"0.98359683","size":56994,"prev_hash":"0000000000000000cf59ba8fbed88f7d2a851b3a25497ce8cdcc2c7fbbcb6b01","bits":419499198,"version":9,"created_at":1670284365,"region_id":36,"region_name":"BitDeer"},{"height":717793,"is_orphaned":0,"hash":"0000000000000000cf59ba8fbed88f7d2a851b3a25497ce8cdcc2c7fbbcb6b01","rewards":"0.98359683","size":8059,"prev_hash":"0000000000000000879c9c2217a2906b4f422079a34dd351ae7d12c3977e6f3e","bits":419499198,"version":9,"created_at":1670284128,"region_id":34,"region_name":"America"},{"height":717791,"is_orphaned":0,"hash":"0000000000000000283aef429778023730ccffb40a80bebd0db4e31f046d8606","rewards":"0.98359683","size":3296,"prev_hash":"0000000000000000fd6b0aede48fc1b451094a8e12d4547fd73752db8ef6e6ab","bits":419499198,"version":9,"created_at":1670284017,"region_id":36,"region_name":"BitDeer"},{"height":717790,"is_orphaned":0,"hash":"0000000000000000fd6b0aede48fc1b451094a8e12d4547fd73752db8ef6e6ab","rewards":"0.98359683","size":2253,"prev_hash":"0000000000000000a9891c6300a4c2d50558255ef94e8a53efe1203bc6faee2d","bits":419499198,"version":9,"created_at":1670283931,"region_id":34,"region_name":"America"},{"height":717762,"is_orphaned":0,"hash":"00000000000000007993c4ab094c064f4d8405efb0a38352ba2839f9a1ed22bc","rewards":"0.98359683","size":2407,"prev_hash":"0000000000000000b2716be2a648b59a712f0fd4e79d112aa2f709ea1616d5f9","bits":419499198,"version":9,"created_at":1670279207,"region_id":36,"region_name":"BitDeer"},{"height":717756,"is_orphaned":0,"hash":"00000000000000009bf4ce0ce97e22c4db453424c592068b9fa01e1ef8ed7035","rewards":"0.98359683","size":4248,"prev_hash":"000000000000000005140105f19bb7f394d37fb503709fba0e9ddfa012a40555","bits":419499198,"version":9,"created_at":1670278191,"region_id":34,"region_name":"America"},{"height":717731,"is_orphaned":0,"hash":"0000000000000000b5be4b5f53cd7aa3295945cc78c80a3483e6ea1d4e28b1d2","rewards":"0.98359683","size":13155,"prev_hash":"0000000000000000ed116854393d282b6e73971c8ec2aae36c6b1b269e715e53","bits":419499198,"version":9,"created_at":1670270279,"region_id":34,"region_name":"America"},{"height":717718,"is_orphaned":0,"hash":"000000000000000107277103b1fe2e8d9b5128479d7771a859b91e40751b1af2","rewards":"0.98359683","size":44693,"prev_hash":"00000000000000000d003780aba52e5d3d5a3ab6de01c6dbecaa5d6158515abe","bits":419499198,"version":9,"created_at":1670266435,"region_id":34,"region_name":"America"},{"height":717702,"is_orphaned":1,"hash":"0000000000000000fc30f28f4da77bfdf1d2261f68921a912ceaa16b767b5074","rewards":0,"size":69502,"prev_hash":"fa6e070b0000000086d2e6225deadf60f0c61cd7d8a78988172df6ac08383f09","bits":419499198,"version":9,"created_at":1670262257,"region_id":34,"region_name":"America"}],"first_page_url":"https:\/\/eu-api.connectbtc.com\/\/public\/v1\/pool\/blocks\/merge?order_by=desc&page_size=10&page=1","from":1,"last_page":2269,"last_page_url":"https:\/\/eu-api.connectbtc.com\/\/public\/v1\/pool\/blocks\/merge?order_by=desc&page_size=10&page=2269","next_page_url":"https:\/\/eu-api.connectbtc.com\/\/public\/v1\/pool\/blocks\/merge?order_by=desc&page_size=10&page=2","path":"https:\/\/eu-api.connectbtc.com\/\/public\/v1\/pool\/blocks\/merge","per_page":10,"prev_page_url":null,"to":10,"total":22686},"blocks_count":22686,"rewards_count":"191056.22372505"},"trace_id":"2b1635aa-fdd1-4c94-84b5-98ccf71f59a2"},"blocks_nr":9,"lastblock":717823,"lastblocktime":"1670291849","country":"WL|CN , EU , US","blocks_1000":51,"blocks_count":8,"hashrate_average_100_count":71,"hashrate_average_100":4108750000000000,"hashrate_average_1h":4052909090909091,"history_start":1669686223,"history_interval":3600,"history_addlast":true,"history":[4174750000000000,-38700000000000,42050000000000,-18100000000000,-74400000000000,14900000000000,24350000000000,18700000000000,16400000000000,13250000000000,51750000000000,-12300000000000,-1000000000000,-76550000000000,26450000000000,-11750000000000,-6050000000000,-49300000000000,-41950000000000,19750000000000,-8300000000000,24550000000000,-24450000000000,47950000000000,-4300000000000,21850000000000,-26300000000000,41700000000000,-31000000000000,14628947000000,89321053000000,-60300000000000,-12150000000000,77300000000000,31400000000000,-63750000000000,-4700000000000,-4450000000000,60150000000000,-5000000000000,-16900000000000,-54100000000000,1600000000000,13400000000000,-44500000000000,31800000000000,-12500000000000,6650000000000,18050000000000,-40850000000000,-64850000000000,2700000000000,38750000000000,43550000000000,15950000000000,-6550000000000,26900000000000,13300000000000,-33450000000000,48950000000000,-64150000000000,24950000000000,64850000000000,-15150000000000,-2976471000000,-27923529000000,34150000000000,-2100000000000,-73500000000000,-28900000000000,43950000000000,-45850000000000,-90700000000000,-26200000000000,-5550000000000,-26900000000000,37850000000000,70350000000000,-63100000000000,7950000000000,29350000000000,15300000000000,-21400000000000,17250000000000,13850000000000,13050000000000,70000000000000,-22100000000000,24150000000000,-21550000000000,-82460526000000,4160526000000,44700000000000,-27500000000000,29050000000000,-131750000000000,-61250000000000,-44700000000000,113350000000000,-16800000000000,2200000000000,76650000000000,17500000000000,-48550000000000,39400000000000,1050000000000,-5750000000000,8850000000000,-27450000000000,17400000000000,-42150000000000,-11050000000000,-36000000000000,139800000000000,-17450000000000,-22000000000000,45850000000000,5200000000000,35505556000000,-26055556000000,2450000000000,12700000000000,31400000000000,-54400000000000,-9600000000000,-25707895000000,41557895000000,27600000000000,21600000000000,4150000000000,-22450000000000,-20000000000000,-73150000000000,113100000000000,-5934211000000,17034211000000,-75750000000000,-19700000000000,-22300000000000,14350000000000,51950000000000,36600000000000,-32500000000000,-38850000000000,2200000000000,34750000000000,11050000000000,30300000000000,71450000000000,23050000000000,-62750000000000,-63400000000000,-33750000000000,23250000000000,-1400000000000,-14550000000000,-15600000000000,59000000000000,17100000000000,16700000000000,19250000000000,-34450000000000,-23200000000000,-49050000000000,-29750000000000,-3450000000000,-30100000000000,-890909000000],"hashrate_average_7d":4128104848160714.5,"hashrate_average_7d_count":168,"hashrate_block":513593750000000,"expected_blocks":6.09,"luck":1.908521514785292,"multipool":7},{"url":"https:\/\/www.f2pool.com","hashrate":23715016097255470,"miners":-1,"minpay":0.1,"id":14,"pool_id":"f2pool.com","fee":3,"feetype":"PPS%3","i":2505,"income":3.7033291158859385e-15,"blocks_nr":7,"lastblock":717825,"lastblocktime":1670292153,"country":"WL|Global","blocks_1000":350,"blocks_count":32,"hashrate_average_100_count":71,"hashrate_average_100":23473545701055964,"hashrate_average_1h":23637787342151664,"history_start":1669686223,"history_interval":3600,"history_addlast":true,"history":[24418073030000000,-107813260000000,-126514000000000,-132673870000000,-143715070000000,-49538090000000,90459330000000,-130074750000000,9171500000000,-55825640000000,-5463610000000,7993990000000,-98340790000000,-79023330000000,103528340000000,-61664610000000,-46730330000000,23220060000000,-22697180000000,-45196640000000,-6562920000000,-14129440000000,130248350000000,167428980000000,189903630000000,-51278710000000,-160918670000000,41006130000000,38335250000000,74213550000000,-12909630000000,-236057470000000,48979970000000,-228636010000000,111058210000000,100108140000000,40580130000000,-141339140000000,18240690000000,-66380690000000,-161090190000000,57161960000000,38277330000000,130921260000000,-86599400000000,38655430000000,34922500000000,497482930000000,100691380000000,-189003380000000,-50265480000000,-232486830000000,-116623830000000,37186070000000,19114960000000,68134190000000,-200792940000000,-16823170000000,-73487970000000,40641190000000,-84603240000000,18932440000000,-4136450000000,-56725620000000,16978360000000,13130820000000,-52639340000000,21191230000000,-146237410000000,-320649360000000,-35669300000000,195192350000000,35236110000000,87116370000000,-187582190000000,187842520000000,-138664610000000,-111732400000000,-28804910000000,12541710000000,-83326150000000,234480710000000,-8496480000000,39241590000000,-56991740000000,34179890000000,-129382470000000,-1710336930000000,133723860000000,1662622240000000,-119558280000000,-66399060000000,-260826320000000,93639000000000,-109514160000000,384672340000000,129559380000000,53842010000000,-38165870000000,46667430000000,45938980000000,-12289640000000,-14390950000000,-91863290000000,-18607300000000,-12188550000000,-180327510000000,54955060000000,27962650000000,119269670000000,77203230000000,-38450160000000,4910450000000,-141700180000000,-51200930000000,74335350000000,-99739210000000,97758810000000,-11160310000000,8183010000000,103569100000000,-73738540000000,12476570000000,21805000000000,129517870000000,-104775390000000,-5263690000000,372212220000000,-167852270000000,34774990000000,513585310000000,-145575000000000,-88124540000000,-103840560000000,43733630000000,-129287350000000,148328830000000,-76732720000000,46199950000000,4072370000000,85238320000000,10567330000000,-165600240000000,90471520000000,70748910000000,183181530000000,-139851490000000,-109243090000000,37211300000000,193134090000000,-146678890000000,-196580140000000,36611360000000,-111098700000000,-334620080000000,170235720000000,-118453850000000,125202390000000,-24743760000000,92064680000000,-29049240000000,3469390000000,149055240000000,29894140000000,-109866940000000,180127440000000,214031210000000,-96785280000000],"hashrate_average_7d":23405022294940490,"hashrate_average_7d_count":168,"hashrate_block":733548303157998.9,"expected_blocks":34.8,"luck":-2.8009975320198564,"multipool":33},{"url":"https:\/\/www.poolin.com","hashrate":30991000000000000,"miners":-1,"minpay":0.01,"id":3,"pool_id":"poolin.com","fee":3,"feetype":"PPS","i":13634,"json":{"err_no":0,"data":{"shares":{"shares_1m":29.55,"shares_5m":30.991,"shares_15m":30.999,"shares_1h":30.988,"shares_unit":"P"},"reject":{"1m":0,"5m":0,"15m":0.0022,"1h":0.0028},"workers":1371,"users":355,"total_blocks":147982,"total_rewards":104971100594212}},"workers":1371,"netdiff":4091262562.0419197,"nethash":"58572796343797241","income":5.34228e-15,"blocks_nr":18,"lastblock":717822,"lastblocktime":"1670291077","country":"US|United States","blocks_1000":454,"blocks_count":47,"hashrate_average_100_count":71,"hashrate_average_100":31099886443661972,"hashrate_average_1h":30806818181818180,"history_start":1669686223,"history_interval":3600,"history_addlast":true,"history":[34071600000000000,118900000000000,-1141800000000000,-136150000000000,26200000000000,58100000000000,7250000000000,-78250000000000,-108200000000000,191800000000000,-164650000000000,-381300000000000,324100000000000,145850000000000,-177200000000000,526900000000000,315850000000000,-84500000000000,-341500000000000,317400000000000,-12450000000000,242250000000000,68700000000000,150300000000000,-74450000000000,38600000000000,-41000000000000,292450000000000,-633000000000000,-246273680000000,364773680000000,531950000000000,-409350000000000,424900000000000,342000000000000,-204800000000000,-231600000000000,-21400000000000,137550000000000,-1055100000000000,91550000000000,169100000000000,5800000000000,52200000000000,-421750000000000,-215200000000000,62250000000000,-547150000000000,225350000000000,68750000000000,794000000000000,746250000000000,-119050000000000,452700000000000,-996650000000000,-312950000000000,178950000000000,320700000000000,-179900000000000,293900000000000,2350000000000,-83100000000000,219600000000000,-62350000000000,194729410000000,-198729410000000,69500000000000,-271100000000000,110400000000000,132400000000000,-923850000000000,-381050000000000,-272500000000000,-449450000000000,-317450000000000,481300000000000,323050000000000,52700000000000,-2377000000000000,1718300000000000,1399750000000000,1599850000000000,110650000000000,-28650000000000,-18300000000000,100950000000000,-148850000000000,-274500000000000,-1526650000000000,556500000000000,-24168420000000,-180281580000000,-76700000000000,-59950000000000,-610400000000000,-252250000000000,26750000000000,1122750000000000,-441450000000000,144800000000000,-22950000000000,42900000000000,-379400000000000,-260150000000000,748650000000000,-1436950000000000,-841850000000000,99450000000000,148850000000000,-24800000000000,227550000000000,74500000000000,79850000000000,-197700000000000,783650000000000,113050000000000,-79450000000000,-332850000000000,159305560000000,-30155560000000,41100000000000,52400000000000,-94100000000000,157300000000000,-147350000000000,3460530000000,-817910530000000,-2087900000000000,301950000000000,48000000000000,-36950000000000,227100000000000,-60950000000000,-107900000000000,246086840000000,-192936840000000,86000000000000,-57750000000000,-164750000000000,116100000000000,-180600000000000,32400000000000,4850000000000,175550000000000,134500000000000,-11400000000000,211300000000000,553400000000000,76100000000000,42450000000000,92200000000000,24800000000000,-18000000000000,234550000000000,-74450000000000,59200000000000,84300000000000,482250000000000,-203750000000000,198800000000000,-50350000000000,122950000000000,-39200000000000,-240300000000000,-205200000000000,-439400000000000,-71850000000000,218318180000000],"hashrate_average_7d":32435869097738096,"hashrate_average_7d_count":168,"hashrate_block":661699711567276,"expected_blocks":46.11,"luck":0.8924760172345714,"multipool":15}],"hashblock":{"hashrate_average_100":58682182144717940,"blocks_count":87,"pools":[[513593750000000,8,64199218750000,"https:\/\/pool.btc.com"],[733548303157998.9,32,22923384473687.465,"https:\/\/www.f2pool.com"],[661699711567276,47,14078717267388.852,"https:\/\/www.poolin.com"]],"hashrate_block_all":674507840743884.4,"hashrate_block_min":14078717267388.852,"hashrate_block_max":64199218750000,"pool_hashblock_average":33733773497025.438,"hashrate_block":674507840743884.4},"time":1670292822,"hashrate":74040000000000000,"difficulty":4091262562.0419197,"height":717825,"symbol":"DCR","maxhash":30991000000000000,"poolshash":74370762735139330,"nethash_estimat":67450784074388440,"poolsminers":1491,"supply":{"circulating":14559091.288809,"total":21000000,"emission24":2640},"block_time_target":300,"block_height_ok":true,"algo":"Blake256R14","hashrate_from_diff":false,"hashrate_src":"https:\/\/lab.antpool.com","unit":"H\/s","block_time_average":288,"minerstat":[2.0157097999179e-16,21.547907832111,0.98388133,1099],"link":{"coingecko":"decred","cmc":"decred","whattomine":"152-dcr-blake (14r)","coin360":"decred-dcr","coinpaprika":"dcr-decred"},"latest_release":{"tag":"release-v1.7.5","name":"dcrd v1.7.5","t":1665429869},"price":21.59}