{"data":[{"url":"https:\/\/www.okx.com\/pool","hashrate":0,"miners":-1,"minpay":-1,"id":23,"pool_id":"okx.com","i":1709,"workers":0,"lastblock":630904,"feetype":"PPLNS","fee":2,"country":"HK|Hong Kong","hashrate_average_100_count":79,"hashrate_average_100":0,"hashrate_average_1h":0,"history_start":1671241424,"history_interval":3600,"history_addlast":true,"history":[0,0,0,0,0,0,0,0,0,0,0,0,0,0,0,0,0,0,0,0,0,0,0,0,0,0,0,0,0,0,0,0,0,0,0,0,0,0,0,0,0,0,0,0,0,0,0,0,0,0,0,0,0,0,0,0,0,0,0,0,0,0,0,0,0,0,0,0,0,0,0,0,0,0,0,0,0,0,0,0,0,0,0,0,0,0,0,0,0,0,0,0,0,0,0,0,0,0,0,0,0,0,0,0,0,0,0,0,0,0,0,0,0,0,0,0,0,0,0,0,0,0,0,0,0,0,0,0,0,0,0,0,0,0,0,0,0,0,0,0,0,0,0,0,0,0,0,0,0,0,0,0,0,0,0,0,0,0,0,0,0,0,0,0,0,0,0,0],"hashrate_average_7d":0,"hashrate_average_7d_count":168,"expected_blocks":0,"multipool":5},{"url":"https:\/\/www2.coinmine.pl\/dcr","hashrate":429699064502682,"miners":-1,"minpay":0.05,"id":5,"pool_id":"coinmine.pl","i":12607,"workers":26,"blocks_nr":5,"lastblock":722554,"lastblocktime":"1671708616","fee":1,"feetype":"PPLNS","height":723021,"country":"WL|EU , US , Asia","blocks_1000":2,"hashrate_average_100_count":79,"hashrate_average_100":326783505791914.6,"hashrate_average_1h":389710193965575,"history_start":1671241424,"history_interval":3600,"history_addlast":true,"history":[258934507300000,-49626196700000,12584572400000,18106347100000,-18909181100000,22797449300000,16841924300000,-11260997500000,32938756300000,-13780276400000,30941623600000,-107124574500000,37251655700000,83898442100000,-98753958200000,-41371946900000,-8407991000000,-51447321300000,74383790900000,-34282630800000,48103584800000,71792993000000,22130398100000,-38983492200000,47032983500000,52071990200000,-13265797900000,-17444950000000,-118729485900000,126380213500000,-28613225500000,273997320100000,-291513789100000,105007218200000,-90677145300000,101403276800000,-21593884800000,-56123969600000,82958614900000,-60891496000000,-16497498000000,-73452987800000,184594909600000,-142783211600000,53028554400000,-11343429500000,84574631600000,19030839000000,28567198600000,-56820645200000,-16640320300000,60617426900000,-35930320200000,-14659894500000,-3275552800000,-30369516000000,-37176149100000,14039384700000,45318525500000,-53587937600000,-49021834400000,114772874800000,-91888201800000,13104697700000,-8043697300000,49214709000000,-8128582900000,-160771656600000,144671284500000,-57370680500000,56296017000000,-69659107500000,60403603400000,-26297415100000,-40611301400000,92946801700000,-20082537400000,33525857000000,25892448400000,-74745551300000,-29616582700000,4111110500000,-46398154100000,97349518800000,4564767500000,-3504374200000,-94042835600000,17958345100000,24144624000000,-116468021400000,145236429200000,21652977000000,23335980000000,-12605220900000,-1583600000000,50187807600000,-124428159200000,76930686200000,-18036721100000,60274562900000,-62437493300000,8472242300000,-34082497700000,-88974708400000,2358562200000,-27901773000000,134150739600000,-4431059900000,53398131800000,-45824050000000,-109554907800000,16107995300000,124975826800000,40764318700000,-95929677300000,-74603902700000,34899421500000,94578528500000,-59536444600000,-46817061100000,30541457900000,125073861900000,-129830067300000,19118340000000,-11284019900000,-69660851700000,101886225500000,-30918013200000,-25512712400000,12647530900000,60663115500000,39530539500000,-101077318100000,48017107200000,-26112754300000,-26216567800000,43003600500000,41965683600000,-123088662000000,1628452300000,85957189500000,-15672581200000,91539366700000,-96004324900000,4600609100000,7337894700000,15302274900000,40170123200000,-5677672800000,-58977941600000,-26518129500000,107276119100000,-99055371700000,90748723700000,-81002680500000,7452011400000,-40857070300000,52554900800000,20968110700000,51209247800000,-151813266500000,-30642069800000,156548877100000,-69518058100000,18794160500000,11387661000000,55938916200000,415809500000],"hashrate_average_7d":319427435764285.6,"hashrate_average_7d_count":168,"expected_blocks":0.37,"multipool":5},{"url":"https:\/\/lab.antpool.com","hashrate":10790000000000000,"miners":-1,"minpay":0.1,"id":11,"pool_id":"antpool.com","i":2185,"nethash":56680000000000000,"netdiff":5843520215,"feetype":"PPS","fee":3,"income":3.2152202e-15,"lastblock":719327,"lastblocktime":"1670732243","country":"WL|Global","hashrate_average_100_count":79,"hashrate_average_100":11116505142405064,"hashrate_average_1h":11075000000000000,"history_start":1671241424,"history_interval":3600,"history_addlast":true,"history":[12115000000000000,252000000000000,-42000000000000,115000000000000,-86000000000000,-180500000000000,47000000000000,97000000000000,-92500000000000,7000000000000,-75500000000000,-34000000000000,-64500000000000,3000000000000,397000000000000,-438000000000000,5500000000000,-7500000000000,-104500000000000,244000000000000,170500000000000,-196500000000000,91000000000000,42000000000000,150500000000000,631000000000000,-242000000000000,6000000000000,0,0,-634500000000000,754000000000000,-653500000000000,-500000000000,-6026320000000,-1039473680000000,1113000000000000,-104500000000000,204131580000000,-103631580000000,-107500000000000,-164000000000000,193000000000000,-91000000000000,140000000000000,156500000000000,-283000000000000,89500000000000,-106000000000000,31000000000000,199500000000000,0,-257000000000000,23000000000000,-7500000000000,197000000000000,39500000000000,113500000000000,-111000000000000,30000000000000,146500000000000,-97500000000000,105000000000000,-324000000000000,-63500000000000,138000000000000,75000000000000,-232500000000000,152000000000000,123500000000000,-44500000000000,-52500000000000,25500000000000,76500000000000,-18500000000000,-2500000000000,-121500000000000,41026320000000,15473680000000,-36000000000000,93500000000000,-92500000000000,91500000000000,-161500000000000,-31000000000000,51500000000000,2000000000000,10500000000000,-110500000000000,14000000000000,56000000000000,-64000000000000,5500000000000,25500000000000,93500000000000,18000000000000,149500000000000,97000000000000,-22500000000000,-181500000000000,171000000000000,-1378657890000000,38157890000000,-121000000000000,69000000000000,4000000000000,-46000000000000,-83500000000000,-7500000000000,-46000000000000,180000000000000,-104000000000000,46000000000000,15500000000000,-47000000000000,-5500000000000,-128000000000000,73000000000000,139000000000000,-9500000000000,-64500000000000,136000000000000,-121500000000000,-6500000000000,27000000000000,131500000000000,-264500000000000,37500000000000,-65000000000000,70500000000000,13500000000000,-56500000000000,47500000000000,-47500000000000,4000000000000,41500000000000,26000000000000,61000000000000,-193000000000000,59500000000000,-93000000000000,97000000000000,27000000000000,82000000000000,-20000000000000,115500000000000,-151000000000000,126500000000000,-33000000000000,-62500000000000,86000000000000,6500000000000,-66500000000000,-111000000000000,46500000000000,216500000000000,-279500000000000,196500000000000,2000000000000,-77500000000000,-44000000000000,65000000000000,-1500000000000,65000000000000,-137000000000000,244000000000000,-127000000000000,-67500000000000],"hashrate_average_7d":11820342105297616,"hashrate_average_7d_count":168,"expected_blocks":12.67,"multipool":17},{"url":"https:\/\/pool.btc.com","hashrate":3622000000000000,"miners":-1,"minpay":0.1,"id":4,"pool_id":"pool.btc.com","feetype":"PPS","i":14669,"workers":83,"income":3.3525485679244e-15,"i_blocks":14711,"json_blocks":{"err_no":0,"data":{"blocks":{"current_page":1,"data":[{"height":719623,"is_orphaned":0,"hash":"00000000000000007fd3b458ae2c5cfc371ff62e349e132b0f07803dd3fab4f9","rewards":"0.97385825","size":4640,"prev_hash":"000000000000000082df9febe46b4d8e66d2f7b871a6914b45f391346c5d7bff","bits":419479943,"version":9,"created_at":1670823994,"region_id":34,"region_name":"America"},{"height":719621,"is_orphaned":0,"hash":"000000000000000007a4cd1f5233b2955f372235388c901810d3f449e3b7909f","rewards":"0.97385825","size":2158,"prev_hash":"00000000000000004c28ed39afd6e4007a2398343c6c3c013f1954bc222400f2","bits":419479943,"version":9,"created_at":1670823337,"region_id":36,"region_name":"BitDeer"},{"height":719607,"is_orphaned":0,"hash":"00000000000000002565bcb135c25c236dcf254eef04dab72a41c254a551e7df","rewards":"0.97385825","size":21883,"prev_hash":"00000000000000001289b8ecf5abff4d5052c9ac2d02b44144b10900e521114d","bits":419479943,"version":9,"created_at":1670819532,"region_id":36,"region_name":"BitDeer"},{"height":719606,"is_orphaned":0,"hash":"00000000000000001289b8ecf5abff4d5052c9ac2d02b44144b10900e521114d","rewards":"0.97385825","size":6719,"prev_hash":"000000000000000062685b25dd5754441b0ba60802e281af5b2291254aff2268","bits":419479943,"version":9,"created_at":1670819131,"region_id":34,"region_name":"America"},{"height":719595,"is_orphaned":0,"hash":"00000000000000005ee466d61279b95cdc8b87bd204194fc3f247dd3d0631b87","rewards":"0.97385825","size":29683,"prev_hash":"00000000000000000d94430259f8b7142020636d1acc90d36103fd3ca432b815","bits":419479943,"version":9,"created_at":1670814468,"region_id":36,"region_name":"BitDeer"},{"height":719593,"is_orphaned":0,"hash":"0000000000000000af8a682caa01e997dd6bc51e1acdc978555fddbdf574d954","rewards":"0.97385825","size":39296,"prev_hash":"000000000000000068ee61fd358cf1c30e03004c47e7d71b49fe96d75bfc9a1d","bits":419479943,"version":9,"created_at":1670813944,"region_id":34,"region_name":"America"},{"height":719562,"is_orphaned":0,"hash":"00000000000000004d846bfb8a03cbb4e358c6c6fb560b8c62103ad950a78385","rewards":"0.97385825","size":36506,"prev_hash":"000000000000000049ca075c4565265a2e01076ded37304ef3eec84e3d915cdf","bits":419480081,"version":9,"created_at":1670806809,"region_id":36,"region_name":"BitDeer"},{"height":719552,"is_orphaned":0,"hash":"000000000000000074239eccccd432a24906807149bcac49b57e3397ae1f8d0b","rewards":"0.97385825","size":82425,"prev_hash":"00000000000000003e087a9a1bcddc2be634087767d5aeaf380a824ff762ce50","bits":419480081,"version":9,"created_at":1670802767,"region_id":36,"region_name":"BitDeer"},{"height":719547,"is_orphaned":0,"hash":"000000000000000000749338689d9149ce67e50065639fe6acc5d5dec0b37553","rewards":"0.97385825","size":18550,"prev_hash":"0000000000000000b817b1c810e396d6c236e2c1a6bc27459e947c3fc5a1a597","bits":419480081,"version":9,"created_at":1670800767,"region_id":36,"region_name":"BitDeer"},{"height":719503,"is_orphaned":0,"hash":"000000000000000054d50fc3159d7e7374bd9cc632b1d660e2844cc18fb02a49","rewards":"0.97385825","size":34781,"prev_hash":"00000000000000001090d6bcdc5785389e3df0e403f799864f4cd4e00cfb8f24","bits":419480081,"version":9,"created_at":1670786243,"region_id":34,"region_name":"America"}],"first_page_url":"https:\/\/eu-api.connectbtc.com\/\/public\/v1\/pool\/blocks\/merge?order_by=desc&page_size=10&page=1","from":1,"last_page":2281,"last_page_url":"https:\/\/eu-api.connectbtc.com\/\/public\/v1\/pool\/blocks\/merge?order_by=desc&page_size=10&page=2281","next_page_url":"https:\/\/eu-api.connectbtc.com\/\/public\/v1\/pool\/blocks\/merge?order_by=desc&page_size=10&page=2","path":"https:\/\/eu-api.connectbtc.com\/\/public\/v1\/pool\/blocks\/merge","per_page":10,"prev_page_url":null,"to":10,"total":22808},"blocks_count":22808,"rewards_count":"191174.31377628"},"trace_id":"56e4fcf8-418c-4387-b048-b59020bc133e"},"blocks_nr":10,"lastblock":719623,"lastblocktime":"1670823992","country":"WL|CN , EU , US","hashrate_average_100_count":79,"hashrate_average_100":3568448378164557,"hashrate_average_1h":3632333333333333.5,"history_start":1671241424,"history_interval":3600,"history_addlast":true,"history":[3618950000000000,-23050000000000,-4050000000000,-58600000000000,22000000000000,21050000000000,15400000000000,-7350000000000,-2800000000000,60050000000000,-31450000000000,40900000000000,40050000000000,-32600000000000,44850000000000,-58800000000000,-2800000000000,8850000000000,-28850000000000,-27450000000000,-50350000000000,-44850000000000,50950000000000,-34250000000000,67900000000000,29050000000000,45900000000000,-40650000000000,-4850000000000,42428947000000,-34328947000000,-21950000000000,12050000000000,-4100000000000,74486842000000,-38436842000000,37300000000000,-32700000000000,-15163158000000,73563158000000,-6400000000000,-43950000000000,-5600000000000,24150000000000,-82650000000000,-56500000000000,9750000000000,45550000000000,14750000000000,-58250000000000,27650000000000,-25950000000000,25350000000000,-11750000000000,66900000000000,4650000000000,-72000000000000,-40450000000000,25550000000000,-5300000000000,-750000000000,-10200000000000,-1950000000000,38050000000000,-65950000000000,-11200000000000,8600000000000,-78000000000000,67850000000000,-17150000000000,-22100000000000,-41450000000000,23250000000000,-7900000000000,32550000000000,32250000000000,-45050000000000,11050000000000,72900000000000,-4600000000000,-9100000000000,82300000000000,-43250000000000,-60500000000000,24950000000000,-93800000000000,42950000000000,2250000000000,-48500000000000,13500000000000,-5850000000000,74300000000000,15400000000000,-52650000000000,22400000000000,-19300000000000,8950000000000,-16400000000000,51100000000000,-49400000000000,9700000000000,17000000000000,14850000000000,-8000000000000,-3150000000000,28200000000000,-24750000000000,8900000000000,20700000000000,-116500000000000,-239400000000000,282400000000000,110850000000000,-29450000000000,4100000000000,-55850000000000,20550000000000,17550000000000,-52450000000000,-11600000000000,46050000000000,-62650000000000,25700000000000,1800000000000,13250000000000,-25450000000000,-2700000000000,16450000000000,15500000000000,26000000000000,-2800000000000,3800000000000,33900000000000,-28250000000000,-31600000000000,-10050000000000,-9600000000000,-42500000000000,91450000000000,-44600000000000,15600000000000,25400000000000,-53050000000000,44600000000000,-13850000000000,75150000000000,-69550000000000,-5000000000000,74850000000000,-28050000000000,23100000000000,61300000000000,12500000000000,-69650000000000,-34050000000000,-21450000000000,14400000000000,-13150000000000,78850000000000,68950000000000,-14750000000000,-82300000000000,-91750000000000,60000000000000,39100000000000,16200000000000,45400000000000,4833333000000],"hashrate_average_7d":3537153190261904,"hashrate_average_7d_count":168,"expected_blocks":4.07,"multipool":7},{"url":"https:\/\/www.f2pool.com","hashrate":43530498721984510,"miners":-1,"minpay":0.1,"id":14,"pool_id":"f2pool.com","fee":3,"feetype":"PPS%3","i":2554,"income":3.7033291158859385e-15,"blocks_nr":13,"lastblock":723020,"lastblocktime":1671846676,"country":"WL|Global","blocks_1000":518,"blocks_count":50,"hashrate_average_100_count":79,"hashrate_average_100":43508076876524530,"hashrate_average_1h":43592374009068840,"history_start":1671241424,"history_interval":3600,"history_addlast":true,"history":[39148194380000000,88536690000000,67713890000000,-759466430000000,207847800000000,519956170000000,75997260000000,-18857910000000,-121761830000000,38269710000000,-31757970000000,91287040000000,-36729900000000,-192126290000000,-85685990000000,-113278690000000,-1135523990000000,892986660000000,-289198450000000,79978490000000,23241260000000,-4780370000000,284687930000000,-188427010000000,70966920000000,0,0,0,0,0,0,0,0,-1565259530000000,-30457909024000000,-6315488610900000,110512119900000,-33624048800000,385797981700000,14246057372100000,3637292690000000,1210345170000000,527072130000000,502858300000000,190220980000000,177039450000000,449933060000000,1556022520000000,11637539000000000,-4925259140000000,-7167385260000000,2147479340000000,9520002320000000,2944787310000000,492530510000000,2014296730000000,1332296660000000,-57467430000000,-458039930000000,443291540000000,95328260000000,55513370000000,-51429710000000,-12362040000000,42473190000000,-12393300000000,-268687460000000,264061920000000,146197000000000,163428280000000,58093790000000,-26706210000000,-66694670000000,215574840000000,-170993300000000,43243270000000,74826220000000,-488078000000000,345345220000000,28621760000000,-13210880000000,-21579340000000,112512760000000,-112299190000000,192002110000000,-213845270000000,-50806920000000,30333120000000,-168165110000000,-73876440000000,-18761690000000,52713240000000,32187700000000,20807760000000,116692990000000,258101310000000,10184710000000,-115514860000000,103128380000000,7857130000000,-117433890000000,-67692220000000,58675550000000,-93405490000000,330911860000000,-102889310000000,155398480000000,-149646030000000,-83024430000000,-96288600000000,-55820400000000,-360454050000000,106746320000000,135721240000000,185122310000000,60682870000000,4186390000000,134900980000000,87669400000000,341007940000000,233184080000000,-4774160000000,-12654340000000,-65090530000000,-222277170000000,-769285830000000,938625460000000,63873450000000,-129397900000000,-17658830000000,93612140000000,-135921270000000,-28550970000000,177449370000000,-438945460000000,-145274670000000,14368150000000,135868420000000,-74651850000000,-2037300000000,-12031730000000,225847150000000,-77522150000000,325444070000000,53104070000000,-1738656920000000,1832754170000000,363925880000000,529533840000000,721323840000000,-78324250000000,-268871830000000,-79848920000000,93159220000000,-120527130000000,-151607300000000,204226680000000,-69860610000000,-20918510000000,-55158720000000,-16420830000000,-11485060000000,181815360000000,-208736020000000,11905080000000,-48101990000000,7524000000000,174217390000000],"hashrate_average_7d":38554307797858340,"hashrate_average_7d_count":168,"hashrate_block":870161537530490.5,"expected_blocks":49.58,"luck":0.41874944189060415,"multipool":33},{"url":"https:\/\/www.poolin.com","hashrate":32195999999999996,"miners":-1,"minpay":0.01,"id":3,"pool_id":"poolin.com","fee":3,"feetype":"PPS","i":13730,"json":{"err_no":0,"data":{"shares":{"shares_1m":33.072,"shares_5m":32.196,"shares_15m":32.283,"shares_1h":32.367,"shares_unit":"P"},"reject":{"1m":0,"5m":0,"15m":0.0065,"1h":0.0057},"workers":1360,"users":371,"total_blocks":150193,"total_rewards":105186042406622}},"workers":1360,"netdiff":5843520215.56552,"nethash":"83659094056466295","income":3.74032e-15,"blocks_nr":15,"lastblock":723021,"lastblocktime":1671846878,"country":"US|United States","blocks_1000":378,"blocks_count":38,"hashrate_average_100_count":79,"hashrate_average_100":33712862935126580,"hashrate_average_1h":31889000000000000,"history_start":1671241424,"history_interval":3600,"history_addlast":true,"history":[29755900000000000,-144150000000000,33950000000000,-680900000000000,178600000000000,749950000000000,-957400000000000,2327000000000000,-430000000000000,-43000000000000,-105850000000000,177200000000000,-157400000000000,517800000000000,-218400000000000,308450000000000,44300000000000,-64050000000000,-91850000000000,25100000000000,-448300000000000,-135600000000000,452100000000000,8850000000000,-245100000000000,-1793550000000000,2346750000000000,-153100000000000,602700000000000,16300000000000,369450000000000,75950000000000,2674250000000000,541950000000000,211678950000000,235221050000000,130350000000000,-70200000000000,251734210000000,-35284210000000,396400000000000,-733400000000000,-89800000000000,112750000000000,129700000000000,-228650000000000,-448050000000000,-253600000000000,118050000000000,500800000000000,-102000000000000,-835350000000000,708400000000000,-271300000000000,60000000000000,-2122050000000000,-350150000000000,-281000000000000,-513250000000000,-29350000000000,28850000000000,-3880300000000000,-1456700000000000,-73450000000000,133450000000000,-88450000000000,56150000000000,277500000000000,-15900000000000,-220700000000000,30000000000000,940700000000000,3932100000000000,793150000000000,-326000000000000,206150000000000,-424750000000000,-703450000000000,594500000000000,861600000000000,121900000000000,-296750000000000,340350000000000,-557800000000000,159900000000000,585900000000000,201750000000000,-78300000000000,-29550000000000,257150000000000,-132100000000000,-22100000000000,-433350000000000,-4870400000000000,192950000000000,344650000000000,2841400000000000,139750000000000,-308250000000000,-1632800000000000,451850000000000,1450060530000000,1783139470000000,-125950000000000,-375150000000000,-35550000000000,-348800000000000,-4500000000000,492000000000000,141450000000000,-1289050000000000,-108800000000000,1557750000000000,-47750000000000,-134000000000000,-180700000000000,136600000000000,216350000000000,-36650000000000,-92400000000000,457350000000000,-179300000000000,-206500000000000,159450000000000,145300000000000,-229500000000000,-106250000000000,144100000000000,-130750000000000,566700000000000,36500000000000,-752250000000000,-273700000000000,-1229900000000000,107400000000000,84200000000000,-10900000000000,-371950000000000,507850000000000,49450000000000,-164850000000000,-1003100000000000,736200000000000,-1017300000000000,-1975400000000000,-21900000000000,-152700000000000,28700000000000,-91500000000000,1881750000000000,1912050000000000,541300000000000,803450000000000,429800000000000,222300000000000,-106750000000000,-65650000000000,-338700000000000,-178600000000000,1174700000000000,7500000000000,-157000000000000,188500000000000,-103850000000000,-406000000000000,-624550000000000,-982400000000000,-382500000000000],"hashrate_average_7d":32077981391011920,"hashrate_average_7d_count":168,"hashrate_block":887180603555962.6,"expected_blocks":38.42,"luck":-0.41874944189060415,"multipool":15}],"hashblock":{"hashrate_average_100":77220939811651100,"blocks_count":88,"pools":[[870161537530490.5,50,17403230750609.81,"https:\/\/www.f2pool.com"],[887180603555962.6,38,23346857988314.805,"https:\/\/www.poolin.com"]],"hashrate_block_all":877510679677853.5,"hashrate_block_min":17403230750609.81,"hashrate_block_max":23346857988314.805,"pool_hashblock_average":20375044369462.31,"hashrate_block":877510679677853.5},"time":1671847122,"hashrate":56680000000000000,"difficulty":5843520215.56552,"height":723021,"symbol":"DCR","maxhash":43530498721984510,"poolshash":90568197786487180,"nethash_estimat":87751067967785340,"poolsminers":1469,"supply":{"circulating":14604506.53138164,"total":21000000,"emission24":2319},"block_time_target":300,"block_height_ok":true,"algo":"Blake256R14","hashrate_from_diff":false,"hashrate_src":"https:\/\/lab.antpool.com","unit":"H\/s","block_time_average":324,"minerstat":[1.4195387187477e-16,19.432082883278,0.98964436,1277],"link":{"coingecko":"decred","cmc":"decred","whattomine":"152-dcr-blake (14r)","coin360":"decred-dcr","coinpaprika":"dcr-decred"},"latest_release":{"tag":"release-v1.7.5","name":"dcrd v1.7.5","t":1665429869},"price":19.4}