{"data":[{"url":"https:\/\/www.okx.com\/pool","hashrate":0,"miners":-1,"minpay":-1,"id":23,"pool_id":"okx.com","i":1709,"workers":0,"lastblock":630904,"feetype":"PPLNS","fee":2,"country":"HK|Hong Kong","hashrate_average_100_count":66,"hashrate_average_100":0,"hashrate_average_1h":0,"history_start":1671842623,"history_interval":3600,"history_addlast":true,"history":[0,0,0,0,0,0,0,0,0,0,0,0,0,0,0,0,0,0,0,0,0,0,0,0,0,0,0,0,0,0,0,0,0,0,0,0,0,0,0,0,0,0,0,0,0,0,0,0,0,0,0,0,0,0,0,0,0,0,0,0,0,0,0,0,0,0,0,0,0,0,0,0,0,0,0,0,0,0,0,0,0,0,0,0,0,0,0,0,0,0,0,0,0,0,0,0,0,0,0,0,0,0,0,0,0,0,0,0,0,0,0,0,0,0,0,0,0,0,0,0,0,0,0,0,0,0,0,0,0,0,0,0,0,0,0,0,0,0,0,0,0,0,0,0,0,0,0,0,0,0,0,0,0,0,0,0,0,0,0,0,0,0,0,0,0,0,0,0,0],"hashrate_average_7d":0,"hashrate_average_7d_count":169,"expected_blocks":0,"multipool":5},{"url":"https:\/\/www2.coinmine.pl\/dcr","hashrate":362301519020482,"miners":-1,"minpay":0.05,"id":5,"pool_id":"coinmine.pl","i":12618,"workers":30,"blocks_nr":5,"lastblock":724797,"lastblocktime":"1672390970","fee":1,"feetype":"PPLNS","height":725046,"country":"WL|EU , US , Asia","blocks_1000":6,"hashrate_average_100_count":66,"hashrate_average_100":249710766010013.94,"hashrate_average_1h":257321437951989.62,"history_start":1671842623,"history_interval":3600,"history_addlast":true,"history":[303022600800000,59121563600000,-56749259400000,25393001300000,30643924400000,-68561893400000,-108047294800000,-43367831700000,55034849700000,-48571520500000,38789171200000,327275000000,29487805400000,-33861388700000,-29345515600000,-21054425500000,53579677100000,-33319583700000,24822794900000,-8530363900000,106292008900000,29650543500000,91450702900000,-72437324900000,31272899500000,-7530826100000,21304588100000,1611525000000,-14588482600000,-3569362500000,-94889093000000,45706751800000,-4946130100000,46613580000000,-63193755500000,42799960900000,-34273620800000,13839671300000,-27222881100000,117166959900000,13104439000000,-100465527500000,15611349900000,29994188000000,-19928517500000,-12938816900000,-24970661300000,93301658300000,18586153500000,-3956155500000,-71243685700000,62154325800000,-746582400000,-66746578500000,-45446413100000,-102565500000,50082145800000,-3284210300000,-17910074000000,54112508800000,-61714568100000,17634402900000,-46164176500000,49965215000000,-17212638300000,-34095599400000,40649582700000,-26519301800000,57456800700000,-71133842700000,-63533080700000,8527660800000,3562476600000,20243408700000,-25868575700000,30477371000000,274827000000,-54426414400000,17014743000000,11472000500000,-40299771900000,31684073500000,-25550760200000,8975242900000,-1093087900000,4842064900000,33280071400000,-4320678100000,1236927500000,20478091600000,-8100916000000,-1519831900000,632712600000,-6608857900000,16103049300000,-3542973100000,-67780442100000,-13406950500000,45532630900000,31474569400000,-7591836400000,-11796020000000,21700064300000,-9907344100000,-36445320600000,-37552337600000,21473638300000,26918383700000,29243611700000,109323407700000,-2957596100000,-78067868700000,-7207563100000,40876418000000,25689501700000,18300591600000,-100272162700000,50909812100000,8420727200000,-47301213000000,-30030539700000,5208688400000,76722742100000,2477927300000,-87318881000000,76689365400000,-19687376300000,-29734010300000,-41148654600000,26433649400000,88793132200000,-41021298600000,-32756436000000,22315239800000,55857870200000,-55261751400000,-25160304700000,36058400500000,-72023055800000,71412860200000,-8865887900000,73329573300000,-47786407400000,-52752545000000,54614812800000,7805537000000,-39251991300000,10781201600000,-18195334800000,30210307700000,34494989300000,62087507900000,-127215807100000,-45005939400000,51441477300000,90046795000000,-118123706700000,106015395100000,-127392760700000,136294542200000,-90337840400000,-20511806000000,13463169100000,-71612932800000,-5856541100000,99006717400000,34379188900000,28676629500000,-85705104600000],"hashrate_average_7d":272472318538461.4,"hashrate_average_7d_count":169,"expected_blocks":0.36,"multipool":5},{"url":"https:\/\/lab.antpool.com","hashrate":1930000000000000,"miners":-1,"minpay":0.1,"id":11,"pool_id":"antpool.com","i":2185,"nethash":56680000000000000,"netdiff":5385040497,"feetype":"PPS","fee":3,"income":3.9942369e-15,"lastblock":724226,"lastblocktime":"1672218694","country":"WL|Global","blocks_1000":1,"hashrate_average_100_count":66,"hashrate_average_100":1931392045454545.5,"hashrate_average_1h":1948750000000000,"history_start":1671842623,"history_interval":3600,"history_addlast":true,"history":[10991500000000000,140500000000000,28000000000000,-41000000000000,98500000000000,-749500000000000,519500000000000,255000000000000,-151500000000000,47000000000000,-160000000000000,56000000000000,80500000000000,134000000000000,-31500000000000,-98500000000000,42000000000000,-147500000000000,122500000000000,-15000000000000,9000000000000,-29500000000000,102500000000000,-130000000000000,-11500000000000,-150000000000000,171000000000000,117000000000000,-171500000000000,68500000000000,-111000000000000,62500000000000,30000000000000,-36500000000000,120000000000000,-12500000000000,-9000000000000,148500000000000,-49500000000000,-76000000000000,-70500000000000,56500000000000,94000000000000,-138500000000000,-64000000000000,55500000000000,46500000000000,-50000000000000,-111000000000000,247000000000000,-60000000000000,-43500000000000,-78000000000000,7000000000000,12289470000000,-72289470000000,225500000000000,-302000000000000,89500000000000,84000000000000,98000000000000,500000000000,-29500000000000,-134000000000000,127500000000000,34500000000000,-15500000000000,-159500000000000,102000000000000,-59000000000000,95000000000000,-53500000000000,-70000000000000,174500000000000,-14000000000000,-60500000000000,114000000000000,31500000000000,-33552630000000,-44947370000000,44500000000000,-175500000000000,-62000000000000,-15500000000000,-86500000000000,226500000000000,-160000000000000,60000000000000,8000000000000,-24000000000000,66500000000000,-55000000000000,18500000000000,46000000000000,-50000000000000,48000000000000,-500000000000,-25000000000000,-53000000000000,-243000000000000,375000000000000,139500000000000,-11500000000000,-32000000000000,21500000000000,-81500000000000,-102000000000000,92000000000000,-159500000000000,92000000000000,40500000000000,500000000000,-201500000000000,11000000000000,20000000000000,114500000000000,-135000000000000,112000000000000,-92000000000000,115000000000000,261500000000000,-116500000000000,84000000000000,-113500000000000,11000000000000,21500000000000,-56394740000000,-51605260000000,45500000000000,47000000000000,-106500000000000,59500000000000,-110500000000000,-77500000000000,119000000000000,73000000000000,-100000000000000,21000000000000,222000000000000,-173000000000000,23000000000000,38000000000000,-92000000000000,-66000000000000,53500000000000,-87500000000000,122500000000000,-4639500000000000,-4526000000000000,45000000000000,-24684211000000,64184211000000,-89500000000000,-26500000000000,81500000000000,-23500000000000,16000000000000,-35500000000000,-2500000000000,25500000000000,-110000000000000,41000000000000,-5500000000000,-7500000000000,15000000000000,-6500000000000,24000000000000,16500000000000,-14250000000000],"hashrate_average_7d":9941150342538464,"hashrate_average_7d_count":169,"expected_blocks":2.76,"multipool":17},{"url":"https:\/\/pool.btc.com","hashrate":3654000000000000,"miners":-1,"minpay":0.1,"id":4,"pool_id":"pool.btc.com","feetype":"PPS","i":14680,"workers":87,"income":3.6019632864756e-15,"i_blocks":14722,"json_blocks":{"err_no":0,"data":{"blocks":{"current_page":1,"data":[{"height":719623,"is_orphaned":0,"hash":"00000000000000007fd3b458ae2c5cfc371ff62e349e132b0f07803dd3fab4f9","rewards":"0.97385825","size":4640,"prev_hash":"000000000000000082df9febe46b4d8e66d2f7b871a6914b45f391346c5d7bff","bits":419479943,"version":9,"created_at":1670823994,"region_id":34,"region_name":"America"},{"height":719621,"is_orphaned":0,"hash":"000000000000000007a4cd1f5233b2955f372235388c901810d3f449e3b7909f","rewards":"0.97385825","size":2158,"prev_hash":"00000000000000004c28ed39afd6e4007a2398343c6c3c013f1954bc222400f2","bits":419479943,"version":9,"created_at":1670823337,"region_id":36,"region_name":"BitDeer"},{"height":719607,"is_orphaned":0,"hash":"00000000000000002565bcb135c25c236dcf254eef04dab72a41c254a551e7df","rewards":"0.97385825","size":21883,"prev_hash":"00000000000000001289b8ecf5abff4d5052c9ac2d02b44144b10900e521114d","bits":419479943,"version":9,"created_at":1670819532,"region_id":36,"region_name":"BitDeer"},{"height":719606,"is_orphaned":0,"hash":"00000000000000001289b8ecf5abff4d5052c9ac2d02b44144b10900e521114d","rewards":"0.97385825","size":6719,"prev_hash":"000000000000000062685b25dd5754441b0ba60802e281af5b2291254aff2268","bits":419479943,"version":9,"created_at":1670819131,"region_id":34,"region_name":"America"},{"height":719595,"is_orphaned":0,"hash":"00000000000000005ee466d61279b95cdc8b87bd204194fc3f247dd3d0631b87","rewards":"0.97385825","size":29683,"prev_hash":"00000000000000000d94430259f8b7142020636d1acc90d36103fd3ca432b815","bits":419479943,"version":9,"created_at":1670814468,"region_id":36,"region_name":"BitDeer"},{"height":719593,"is_orphaned":0,"hash":"0000000000000000af8a682caa01e997dd6bc51e1acdc978555fddbdf574d954","rewards":"0.97385825","size":39296,"prev_hash":"000000000000000068ee61fd358cf1c30e03004c47e7d71b49fe96d75bfc9a1d","bits":419479943,"version":9,"created_at":1670813944,"region_id":34,"region_name":"America"},{"height":719562,"is_orphaned":0,"hash":"00000000000000004d846bfb8a03cbb4e358c6c6fb560b8c62103ad950a78385","rewards":"0.97385825","size":36506,"prev_hash":"000000000000000049ca075c4565265a2e01076ded37304ef3eec84e3d915cdf","bits":419480081,"version":9,"created_at":1670806809,"region_id":36,"region_name":"BitDeer"},{"height":719552,"is_orphaned":0,"hash":"000000000000000074239eccccd432a24906807149bcac49b57e3397ae1f8d0b","rewards":"0.97385825","size":82425,"prev_hash":"00000000000000003e087a9a1bcddc2be634087767d5aeaf380a824ff762ce50","bits":419480081,"version":9,"created_at":1670802767,"region_id":36,"region_name":"BitDeer"},{"height":719547,"is_orphaned":0,"hash":"000000000000000000749338689d9149ce67e50065639fe6acc5d5dec0b37553","rewards":"0.97385825","size":18550,"prev_hash":"0000000000000000b817b1c810e396d6c236e2c1a6bc27459e947c3fc5a1a597","bits":419480081,"version":9,"created_at":1670800767,"region_id":36,"region_name":"BitDeer"},{"height":719503,"is_orphaned":0,"hash":"000000000000000054d50fc3159d7e7374bd9cc632b1d660e2844cc18fb02a49","rewards":"0.97385825","size":34781,"prev_hash":"00000000000000001090d6bcdc5785389e3df0e403f799864f4cd4e00cfb8f24","bits":419480081,"version":9,"created_at":1670786243,"region_id":34,"region_name":"America"}],"first_page_url":"https:\/\/eu-api.connectbtc.com\/\/public\/v1\/pool\/blocks\/merge?order_by=desc&page_size=10&page=1","from":1,"last_page":2281,"last_page_url":"https:\/\/eu-api.connectbtc.com\/\/public\/v1\/pool\/blocks\/merge?order_by=desc&page_size=10&page=2281","next_page_url":"https:\/\/eu-api.connectbtc.com\/\/public\/v1\/pool\/blocks\/merge?order_by=desc&page_size=10&page=2","path":"https:\/\/eu-api.connectbtc.com\/\/public\/v1\/pool\/blocks\/merge","per_page":10,"prev_page_url":null,"to":10,"total":22808},"blocks_count":22808,"rewards_count":"191174.31377628"},"trace_id":"a65072b8-203d-4222-b5a6-0618f4499c64"},"blocks_nr":10,"lastblock":719623,"lastblocktime":"1670823992","country":"WL|CN , EU , US","hashrate_average_100_count":66,"hashrate_average_100":3677077651515151.5,"hashrate_average_1h":3681375000000000,"history_start":1671842623,"history_interval":3600,"history_addlast":true,"history":[3593000000000000,-78750000000000,-5400000000000,15800000000000,27200000000000,-86950000000000,-13400000000000,5050000000000,16000000000000,92150000000000,-34700000000000,23450000000000,19100000000000,55300000000000,14400000000000,-4400000000000,50200000000000,-25300000000000,16350000000000,-70450000000000,24200000000000,10550000000000,-63100000000000,57350000000000,-74000000000000,17400000000000,-30650000000000,-63500000000000,54150000000000,40100000000000,-37450000000000,-5150000000000,20900000000000,48000000000000,-26100000000000,-56250000000000,33450000000000,33750000000000,4750000000000,49050000000000,5550000000000,-28400000000000,56400000000000,-107100000000000,-750000000000,17950000000000,0,15750000000000,-10250000000000,28150000000000,-29650000000000,-74850000000000,-64050000000000,70650000000000,53552632000000,33197368000000,17300000000000,-1800000000000,1250000000000,17400000000000,-52350000000000,21300000000000,42750000000000,-20850000000000,11950000000000,-21200000000000,-23250000000000,40800000000000,-4500000000000,-45450000000000,19350000000000,-16250000000000,3650000000000,26050000000000,-5500000000000,-24200000000000,-19850000000000,37700000000000,8600000000000,31650000000000,58150000000000,-37650000000000,-31450000000000,19950000000000,19800000000000,40250000000000,600000000000,17600000000000,9300000000000,-39300000000000,-14800000000000,-31800000000000,27000000000000,20700000000000,-59600000000000,-15200000000000,-2800000000000,11000000000000,-40150000000000,58700000000000,-27600000000000,-28050000000000,51950000000000,21450000000000,14700000000000,17650000000000,-31750000000000,2250000000000,-21850000000000,-57100000000000,34250000000000,31050000000000,-8050000000000,-5450000000000,-143100000000000,-805150000000000,-137950000000000,14450000000000,-36700000000000,-32400000000000,12450000000000,-12900000000000,-33400000000000,-15600000000000,-27350000000000,33050000000000,32997368000000,35352632000000,-4450000000000,-29050000000000,43200000000000,-6250000000000,28750000000000,3150000000000,-24700000000000,9150000000000,8650000000000,-16800000000000,332600000000000,794300000000000,-47500000000000,14650000000000,-51700000000000,105750000000000,-16550000000000,21200000000000,-46250000000000,-24050000000000,-37500000000000,2300000000000,-57050000000000,-23200000000000,9800000000000,50550000000000,-13750000000000,18650000000000,32650000000000,38200000000000,-21450000000000,40050000000000,-4800000000000,-13050000000000,51300000000000,-30050000000000,-1600000000000,5950000000000,-58500000000000,18300000000000,36175000000000],"hashrate_average_7d":3468766124260354,"hashrate_average_7d_count":169,"expected_blocks":5.25,"multipool":7},{"url":"https:\/\/www.poolin.com","hashrate":31997000000000000,"miners":-1,"minpay":0.01,"id":3,"pool_id":"poolin.com","fee":3,"feetype":"PPS","i":13741,"json":{"err_no":0,"data":{"shares":{"shares_1m":30.69,"shares_5m":31.997,"shares_15m":31.783,"shares_1h":34.301,"shares_unit":"P"},"reject":{"1m":0,"5m":0,"15m":0.0053,"1h":0.0039},"workers":1400,"users":369,"total_blocks":151172,"total_rewards":105281064937990}},"workers":1400,"netdiff":5385040497.10842,"nethash":"77095242740835287","income":4.0587699999999995e-15,"blocks_nr":17,"lastblock":725045,"lastblocktime":"1672451844","country":"US|United States","blocks_1000":512,"blocks_count":50,"hashrate_average_100_count":66,"hashrate_average_100":36642719696969700,"hashrate_average_1h":31309500000000000,"history_start":1671842623,"history_interval":3600,"history_addlast":true,"history":[33016600000000000,494100000000000,389950000000000,357850000000000,134100000000000,-99850000000000,134100000000000,128900000000000,250000000000,-147600000000000,65400000000000,598000000000000,-26250000000000,-130700000000000,150150000000000,69700000000000,-29500000000000,202700000000000,51200000000000,-53650000000000,-77850000000000,75800000000000,-729400000000000,-202850000000000,-130100000000000,292100000000000,-48350000000000,139050000000000,-200400000000000,-1497950000000000,-422950000000000,406200000000000,17750000000000,40550000000000,155100000000000,60150000000000,266150000000000,165250000000000,-183700000000000,31000000000000,18900000000000,-87050000000000,88950000000000,-191300000000000,5950000000000,-141100000000000,-478250000000000,-802800000000000,-317650000000000,-248950000000000,132000000000000,83150000000000,-244300000000000,523650000000000,-242800000000000,-572150000000000,75000000000000,488250000000000,292500000000000,398500000000000,187200000000000,248500000000000,-347700000000000,317250000000000,127650000000000,-98550000000000,150350000000000,26300000000000,-10350000000000,-103550000000000,-402400000000000,-1366650000000000,1021250000000000,-172550000000000,-117300000000000,254950000000000,325950000000000,-270950000000000,-807163160000000,343813160000000,1020450000000000,143500000000000,122100000000000,187400000000000,180400000000000,-4500000000000,97450000000000,-42250000000000,113400000000000,-114450000000000,-159800000000000,160450000000000,-212350000000000,372300000000000,-545600000000000,-570300000000000,31150000000000,346250000000000,12300000000000,453400000000000,1444500000000000,-261300000000000,58500000000000,74450000000000,-47150000000000,-215050000000000,433600000000000,703400000000000,-214700000000000,144850000000000,131300000000000,59400000000000,28450000000000,-7050000000000,-36200000000000,84900000000000,20900000000000,-236450000000000,155200000000000,924100000000000,-57750000000000,213600000000000,-1231800000000000,-657350000000000,-350900000000000,952550000000000,1096150000000000,88750000000000,-305100000000000,485000000000000,475150000000000,-77000000000000,241700000000000,-376150000000000,47900000000000,79800000000000,247700000000000,-127550000000000,-70350000000000,169600000000000,130450000000000,-79250000000000,-841300000000000,-232800000000000,168050000000000,20350000000000,-64050000000000,-1250000000000,2300000000000,-595550000000000,57950000000000,735300000000000,88750000000000,54250000000000,-284750000000000,580500000000000,-101300000000000,501400000000000,-16500000000000,-172900000000000,-261100000000000,208550000000000,-117900000000000,263550000000000,-68250000000000,210500000000000,-514500000000000,-846000000000000,-4743450000000000],"hashrate_average_7d":34354129212071004,"hashrate_average_7d_count":169,"hashrate_block":732854393939393.9,"expected_blocks":52.36,"luck":-2.360019350051978,"multipool":15},{"url":"https:\/\/www.f2pool.com","hashrate":28456102766703292,"miners":-1,"minpay":0.1,"id":14,"pool_id":"f2pool.com","fee":3,"feetype":"PPS%3","i":2554,"income":3.7033291158859385e-15,"blocks_nr":13,"lastblock":725046,"lastblocktime":1672451847,"country":"WL|Global","blocks_1000":380,"blocks_count":43,"hashrate_average_100_count":66,"hashrate_average_100":28440772901372880,"hashrate_average_1h":28490794763396070,"history_start":1671842623,"history_interval":3600,"history_addlast":true,"history":[43361773080000000,-26048590000000,220593170000000,-190579890000000,-79300620000000,-36632300000000,-1492343000000000,76385780000000,-83740860000000,850676770000000,599656730000000,-90537170000000,-1232646490000000,998601580000000,228421290000000,33209330000000,-99757030000000,107093530000000,-247924690000000,-26152980000000,-297623850000000,1797830000000,-519442470000000,-899776220000000,-276634900000000,-10640258000000000,10490688640000000,2056297940000000,-132964960000000,179640470000000,-275033160000000,-211924290000000,14687440000000,-104629960000000,-90295030000000,-80902490000000,16821040000000,212777410000000,-12564870000000,-58615150000000,285704840000000,175334630000000,-250732490000000,183605760000000,-337136080000000,174365840000000,111782040000000,109223660000000,-154341700000000,98118810000000,-206792610000000,-72495850000000,-3669428480000000,-2901037200000000,-106828230000000,-266521390000000,-164035610000000,63446050000000,-142626700000000,14735450000000,153017850000000,207270540000000,-115039100000000,-66798630000000,104440060000000,-104917770000000,190356680000000,-18661260000000,72615560000000,45559500000000,125898460000000,-119286780000000,66108240000000,-388044910000000,446556740000000,-1122223130000000,-13128050590000000,-234386560000000,174510560000000,-29972710000000,2083195120000000,4189281430000000,96809840000000,-125496480000000,78414310000000,-94373540000000,257943710000000,-65106240000000,99723020000000,-183407930000000,150854790000000,150296500000000,-14089810000000,-35538610000000,195928880000000,81186940000000,-206785140000000,132734820000000,-14838210000000,-64468560000000,-26331220000000,-18934680000000,-2515950000000,102441320000000,-91744730000000,-79335510000000,-77759980000000,60793820000000,-109535300000000,232423110000000,-129891400000000,-98161220000000,24690370000000,21696800000000,74349860000000,-45888450000000,-35202930000000,36906670000000,-162216820000000,274266380000000,-59019780000000,-32379850000000,145678730000000,-66757500000000,75822580000000,446742960000000,146513680000000,-75883980000000,29074700000000,19804650000000,-27622500000000,-118329490000000,108959720000000,-41097300000000,-32249480000000,-24294760000000,7097320000000,-89864580000000,98668420000000,-37096890000000,181629250000000,-61973580000000,64099200000000,103518280000000,-203075710000000,-203987710000000,332821440000000,3629480000000,39452460000000,-127444050000000,-71291550000000,194502200000000,57375790000000,60714030000000,-391642730000000,49408990000000,-215966600000000,-42374380000000,24242150000000,-174773200000000,146637490000000,127458040000000,-106767670000000,-115797700000000,223803770000000,15730020000000,13223690000000,60827190000000,-75352010000000],"hashrate_average_7d":33456294928816580,"hashrate_average_7d_count":169,"hashrate_block":661413323287741.4,"expected_blocks":40.64,"luck":2.360019350051971,"multipool":33}],"hashblock":{"hashrate_average_100":65083492598342580,"blocks_count":93,"pools":[[732854393939393.9,50,14657087878787.877,"https:\/\/www.poolin.com"],[661413323287741.4,43,15381705192738.172,"https:\/\/www.f2pool.com"]],"hashrate_block_all":699822501057447,"hashrate_block_min":14657087878787.877,"hashrate_block_max":15381705192738.172,"pool_hashblock_average":15019396535763.023,"hashrate_block":699822501057447},"time":1672452284,"hashrate":56680000000000000,"difficulty":5385040497.10842,"height":725046,"symbol":"DCR","maxhash":31997000000000000,"poolshash":66399404285723780,"nethash_estimat":69982250105744700,"poolsminers":1517,"supply":{"circulating":14622182.06440379,"total":21000000,"emission24":2944},"block_time_target":300,"block_height_ok":true,"algo":"Blake256R14","hashrate_from_diff":false,"hashrate_src":"https:\/\/lab.antpool.com","unit":"H\/s","block_time_average":256.4,"minerstat":[1.5021947746761e-16,18.408594457807,0.96510059,916],"link":{"coingecko":"decred","cmc":"decred","whattomine":"152-dcr-blake (14r)","coin360":"decred-dcr","coinpaprika":"dcr-decred"},"latest_release":{"tag":"release-v1.7.5","name":"dcrd v1.7.5","t":1665429869},"price":18.4}