{"data":[{"url":"https:\/\/www.okx.com\/pool","hashrate":0,"miners":-1,"minpay":-1,"id":23,"pool_id":"okx.com","i":1660,"workers":0,"lastblock":630904,"feetype":"PPLNS","fee":2,"country":"HK|Hong Kong","hashrate_average_100_count":82,"hashrate_average_100":0,"hashrate_average_1h":0,"history_start":1669509814,"history_interval":3600,"history_addlast":true,"history":[0,0,0,0,0,0,0,0,0,0,0,0,0,0,0,0,0,0,0,0,0,0,0,0,0,0,0,0,0,0,0,0,0,0,0,0,0,0,0,0,0,0,0,0,0,0,0,0,0,0,0,0,0,0,0,0,0,0,0,0,0,0,0,0,0,0,0,0,0,0,0,0,0,0,0,0,0,0,0,0,0,0,0,0,0,0,0,0,0,0,0,0,0,0,0,0,0,0,0,0,0,0,0,0,0,0,0,0,0,0,0,0,0,0,0,0,0,0,0,0,0,0,0,0,0,0,0,0,0,0,0,0,0,0,0,0,0,0,0,0,0,0,0,0,0,0,0,0,0,0,0,0,0,0,0,0,0,0,0,0,0,0,0,0,0,0,0,0,0],"hashrate_average_7d":0,"hashrate_average_7d_count":169,"expected_blocks":0,"multipool":5},{"url":"https:\/\/www2.coinmine.pl\/dcr","hashrate":196071787209537,"miners":-1,"minpay":0.05,"id":5,"pool_id":"coinmine.pl","i":12527,"workers":21,"blocks_nr":5,"lastblock":717050,"lastblocktime":"1670053830","fee":1,"feetype":"PPLNS","height":717258,"country":"WL|EU , US , Asia","blocks_1000":6,"hashrate_average_100_count":82,"hashrate_average_100":191088836294349.94,"hashrate_average_1h":236582850988646.47,"history_start":1669509814,"history_interval":3600,"history_addlast":true,"history":[133054953400000,34290397900000,12384495900000,-33714043000000,32911763200000,65773747500000,-65695843600000,64863032300000,-44617210400000,104807893400000,-78270765400000,36193914000000,1460570100000,20133681600000,-85303155400000,57457514300000,-23386467600000,-4437668600000,-106343795100000,47742809300000,-22680686900000,-26215017700000,-27662747660000,5191617380000,41436877280000,62652761900000,-50574902700000,56271186100000,-59335487500000,66440280300000,-40795549000000,103250880600000,-43998499800000,-10049972000000,-30953307200000,-18767935600000,5450015800000,-12178091100000,-27650733200000,43210893700000,-17965991100000,56110652600000,-51714324000000,-8281823000000,-26399687600000,64778422100000,-32423343600000,56836416000000,-57046452100000,-8125378400000,11375856800000,-25738304600000,-15004243500000,41791324300000,-5237208100000,-12790235600000,33499661200000,-58813048600000,-13173100300000,63619818900000,-63746288000000,23696807400000,45503593600000,-28954201800000,573469400000,-19962551800000,-8485977100000,18924402600000,26169886900000,52046513800000,-61216290900000,65563501300000,-6471032000000,-80651708700000,60929895100000,-44809275300000,83196584100000,-109608676000000,63518205500000,-27659715800000,87329422500000,-47908274500000,56178331400000,59530241700000,-52682736500000,-41288705200000,14950402700000,-53178567700000,-27878542000000,42350283200000,33666092400000,20020700400000,-41207374500000,42359388300000,-30224315300000,89233458500000,-94935115900000,6818439500000,20957977100000,29195417500000,-36004366400000,-25370713200000,-1145440000000,12114956100000,-7530499800000,47292702100000,761464900000,-172865368950000,49441926650000,85900333100000,-51086900800000,81046553200000,6928049400000,-58216082000000,-20916884700000,31297489600000,3919973200000,62129736500000,-16915741400000,-60225672800000,51450720000000,9245119900000,-54314911800000,34040514100000,24559350500000,-87892053100000,85600633100000,-2895775900000,-7709752200000,-53935078600000,-14612993500000,46492861600000,-51122812000000,73875736100000,-88947083800000,-4724206400000,43092721100000,-65661893100000,19499428700000,-12366622400000,-28407543900000,24532595700000,59775396600000,-36874803000000,-11709863300000,8546533200000,30523976400000,57584622000000,-16922088500000,-10269301600000,-43293968600000,16497723500000,-9120828900000,35469367100000,-36102891800000,59957033000000,-30382521200000,25173912200000,-29559984700000,-54888625000000,-12477105400000,47642249300000,24859246600000,-31776984600000,-8180010800000,5806034400000,31981901500000,-21544057600000,36023337600000],"hashrate_average_7d":200466898710710,"hashrate_average_7d_count":169,"expected_blocks":0.26,"multipool":6},{"url":"https:\/\/lab.antpool.com","hashrate":15230000000000000,"miners":-1,"minpay":0.1,"id":11,"pool_id":"antpool.com","i":2136,"nethash":62940000000000000,"netdiff":5048982595,"feetype":"PPS","fee":3,"income":3.7584007999999996e-15,"lastblock":712107,"lastblocktime":"1668580440","country":"WL|Global","hashrate_average_100_count":82,"hashrate_average_100":14264384051067074,"hashrate_average_1h":14748181818181818,"history_start":1669509814,"history_interval":3600,"history_addlast":true,"history":[14139000000000000,43000000000000,-22500000000000,280500000000000,-275500000000000,189500000000000,-50500000000000,-51000000000000,110500000000000,-126500000000000,19500000000000,-1500000000000,98500000000000,-49000000000000,-67500000000000,47000000000000,-69000000000000,-134000000000000,172000000000000,-74000000000000,206000000000000,-164000000000000,123000000000000,12500000000000,-73500000000000,271500000000000,-190000000000000,-2063000000000000,1330500000000000,581500000000000,38500000000000,85500000000000,-35000000000000,-122000000000000,39500000000000,65500000000000,-153500000000000,-103500000000000,83000000000000,106000000000000,59000000000000,69500000000000,-110763160000000,180263160000000,-195000000000000,51500000000000,-257289470000000,192789470000000,-3500000000000,370000000000000,-303500000000000,82000000000000,-39000000000000,-103000000000000,170500000000000,-72500000000000,132500000000000,-87500000000000,-59000000000000,-35000000000000,-82000000000000,16000000000000,-46000000000000,18500000000000,-2674500000000000,2509000000000000,251500000000000,-265500000000000,153500000000000,-31000000000000,-31000000000000,39000000000000,-130500000000000,357500000000000,-99500000000000,77500000000000,34000000000000,-245500000000000,12105260000000,-47605260000000,79500000000000,126000000000000,-220000000000000,131500000000000,34500000000000,-10000000000000,-118000000000000,-22000000000000,-151500000000000,228500000000000,-141000000000000,49000000000000,41000000000000,500000000000,-98500000000000,102000000000000,-14500000000000,36500000000000,-26500000000000,31500000000000,109500000000000,-206000000000000,54000000000000,91000000000000,32000000000000,-100000000000000,102000000000000,13000000000000,-44500000000000,-41000000000000,153500000000000,-175000000000000,-139000000000000,-39558820000000,77558820000000,64500000000000,162500000000000,-18500000000000,-303000000000000,193000000000000,-98000000000000,117000000000000,28500000000000,151000000000000,70500000000000,-197000000000000,-108500000000000,-53500000000000,132000000000000,209000000000000,-257000000000000,168000000000000,-86500000000000,96500000000000,76500000000000,-117500000000000,-232000000000000,-21000000000000,145500000000000,165394740000000,-113394740000000,69500000000000,-254000000000000,-2000000000000,104500000000000,-591500000000000,630500000000000,103500000000000,-7500000000000,78500000000000,-107500000000000,40500000000000,69000000000000,-39000000000000,-60000000000000,21500000000000,38000000000000,-40000000000000,13500000000000,101500000000000,-256000000000000,106500000000000,-204500000000000,121500000000000,-3500000000000,-44500000000000,212500000000000,213944440000000,238737380000000],"hashrate_average_7d":14170361034378696,"hashrate_average_7d_count":169,"expected_blocks":19.09,"multipool":16},{"url":"https:\/\/pool.btc.com","hashrate":4147000000000000,"miners":-1,"minpay":0.1,"id":4,"pool_id":"pool.btc.com","feetype":"PPS","i":14573,"workers":97,"income":3.9189265873714e-15,"i_blocks":14615,"json_blocks":{"err_no":0,"data":{"blocks":{"current_page":1,"data":[{"height":717258,"is_orphaned":0,"hash":"000000000000000050533fff106a4e10257e3d3be9d10d7d221bb0c38e01e0ca","rewards":"0.98359683","size":7400,"prev_hash":"000000000000000006061f443195fee0882cc52232e0a40f629d5e22679f3298","bits":419486148,"version":9,"created_at":1670119498,"region_id":36,"region_name":"BitDeer"},{"height":717254,"is_orphaned":0,"hash":"0000000000000000bda29acc64db4f92ef969634dca225bef7d6eb591b78b9dd","rewards":"0.78687746","size":10083,"prev_hash":"00000000000000007696d2c64a2557d1d6bd5fa17cbb1197d3acabf0fceeb419","bits":419486148,"version":9,"created_at":1670117298,"region_id":34,"region_name":"America"},{"height":717226,"is_orphaned":0,"hash":"00000000000000005677749b24bf6e833cb3e5cd2eb36c5a9188b98b6525670a","rewards":"0.98359683","size":7406,"prev_hash":"00000000000000009301d29df666e356e2a4bc5fbadf8df5956def9c024f34a1","bits":419486148,"version":9,"created_at":1670110092,"region_id":34,"region_name":"America"},{"height":717197,"is_orphaned":0,"hash":"0000000000000000b70f6145713793d14dc53c577b84014167ae3f84a140830e","rewards":"0.98359683","size":31491,"prev_hash":"0000000000000000075d5adfea2d151d6222be2ea2f61f987e8b4bc32cef0c5b","bits":419486148,"version":9,"created_at":1670099443,"region_id":34,"region_name":"America"},{"height":717190,"is_orphaned":0,"hash":"0000000000000000c6831d84db45e16126e71723ed07077a0b76f23b5d76a6e3","rewards":"0.98359683","size":2755,"prev_hash":"0000000000000000c7c936c9c84e8858e736e3631ab4f213903a8b8ec4605db5","bits":419486148,"version":9,"created_at":1670096739,"region_id":34,"region_name":"America"},{"height":717176,"is_orphaned":0,"hash":"0000000000000000d597a728d74abbc3d5029c3937681ae8c27228debbd6d697","rewards":"0.98359683","size":5012,"prev_hash":"0000000000000000cb8a32ae665041d3fbd2c2f168f737b168af180a58390f70","bits":419486148,"version":9,"created_at":1670089987,"region_id":36,"region_name":"BitDeer"},{"height":717172,"is_orphaned":0,"hash":"000000000000000040b30fb9bb234761eb1020ac240b527650ea7b0ead292728","rewards":"0.98359683","size":41169,"prev_hash":"00000000000000007fab23e7e579fbb3d844cd2dac838e36c8f9a06e3755aa5c","bits":419486148,"version":9,"created_at":1670089194,"region_id":34,"region_name":"America"},{"height":717154,"is_orphaned":0,"hash":"000000000000000093a73b2c2711d51e471b0bf13f4289f9289228f0a21791ab","rewards":"0.98359683","size":2893,"prev_hash":"000000000000000064ecc2c7b41b9209f9f81bb08d2be4cec9c2bc01a56efdb8","bits":419486148,"version":9,"created_at":1670082733,"region_id":34,"region_name":"America"},{"height":717147,"is_orphaned":0,"hash":"00000000000000005e82b4015c5262ee9db99a2b99c27837b490f29ed6ca7c7d","rewards":"0.98359683","size":5731,"prev_hash":"0000000000000000d7bb460178a5d27d461de731a942e1fddbee9ee13b8ba3e3","bits":419486148,"version":9,"created_at":1670080031,"region_id":36,"region_name":"BitDeer"},{"height":717144,"is_orphaned":0,"hash":"00000000000000002689552c9735af4d908351aa1082b2b232bfac99d82fefbc","rewards":"0.98359683","size":19389,"prev_hash":"0000000000000000aa476c3628edf5dc92ba25b0fbf51bf5a035df9fc408922e","bits":419486148,"version":9,"created_at":1670079635,"region_id":36,"region_name":"BitDeer"}],"first_page_url":"https:\/\/eu-api.connectbtc.com\/\/public\/v1\/pool\/blocks\/merge?order_by=desc&page_size=10&page=1","from":1,"last_page":2266,"last_page_url":"https:\/\/eu-api.connectbtc.com\/\/public\/v1\/pool\/blocks\/merge?order_by=desc&page_size=10&page=2266","next_page_url":"https:\/\/eu-api.connectbtc.com\/\/public\/v1\/pool\/blocks\/merge?order_by=desc&page_size=10&page=2","path":"https:\/\/eu-api.connectbtc.com\/\/public\/v1\/pool\/blocks\/merge","per_page":10,"prev_page_url":null,"to":10,"total":22659},"blocks_count":22659,"rewards_count":"191030.84692684"},"trace_id":"a5825e6c-a51d-45de-a672-435701e9ebf2"},"blocks_nr":10,"lastblock":717258,"lastblocktime":"1670119466","country":"WL|CN , EU , US","blocks_1000":57,"blocks_count":7,"hashrate_average_100_count":82,"hashrate_average_100":4084464272103658,"hashrate_average_1h":4123818181818182,"history_start":1669509814,"history_interval":3600,"history_addlast":true,"history":[4216100000000000,5200000000000,-31150000000000,-48550000000000,350000000000,-51300000000000,43450000000000,11750000000000,-31800000000000,-13350000000000,40650000000000,-54200000000000,2200000000000,46550000000000,74200000000000,23250000000000,-27600000000000,11700000000000,-15100000000000,-4700000000000,5500000000000,1450000000000,-38850000000000,13350000000000,-3400000000000,-14100000000000,28750000000000,-71050000000000,-2100000000000,43650000000000,52500000000000,48550000000000,-18600000000000,2900000000000,4900000000000,-14350000000000,10150000000000,-23150000000000,29100000000000,14000000000000,15000000000000,-30300000000000,4502632000000,-23252632000000,11450000000000,11200000000000,-37502632000000,-11997368000000,-44800000000000,13600000000000,-38700000000000,42050000000000,-18100000000000,-74400000000000,14900000000000,24350000000000,18700000000000,16400000000000,13250000000000,51750000000000,-12300000000000,-1000000000000,-76550000000000,26450000000000,-11750000000000,-6050000000000,-49300000000000,-41950000000000,19750000000000,-8300000000000,24550000000000,-24450000000000,47950000000000,-4300000000000,21850000000000,-26300000000000,41700000000000,-31000000000000,14628947000000,89321053000000,-60300000000000,-12150000000000,77300000000000,31400000000000,-63750000000000,-4700000000000,-4450000000000,60150000000000,-5000000000000,-16900000000000,-54100000000000,1600000000000,13400000000000,-44500000000000,31800000000000,-12500000000000,6650000000000,18050000000000,-40850000000000,-64850000000000,2700000000000,38750000000000,43550000000000,15950000000000,-6550000000000,26900000000000,13300000000000,-33450000000000,48950000000000,-64150000000000,24950000000000,64850000000000,-15150000000000,-2976471000000,-27923529000000,34150000000000,-2100000000000,-73500000000000,-28900000000000,43950000000000,-45850000000000,-90700000000000,-26200000000000,-5550000000000,-26900000000000,37850000000000,70350000000000,-63100000000000,7950000000000,29350000000000,15300000000000,-21400000000000,17250000000000,13850000000000,13050000000000,70000000000000,-22100000000000,24150000000000,-21550000000000,-82460526000000,4160526000000,44700000000000,-27500000000000,29050000000000,-131750000000000,-61250000000000,-44700000000000,113350000000000,-16800000000000,2200000000000,76650000000000,17500000000000,-48550000000000,39400000000000,1050000000000,-5750000000000,8850000000000,-27450000000000,17400000000000,-42150000000000,-11050000000000,-36000000000000,139800000000000,-17450000000000,-22000000000000,45850000000000,5200000000000,35505556000000,-35237374000000],"hashrate_average_7d":4141676720047335,"hashrate_average_7d_count":169,"hashrate_block":583494896014808.2,"expected_blocks":5.47,"luck":1.5329624687513892,"multipool":7},{"url":"https:\/\/www.f2pool.com","hashrate":22982994589762520,"miners":-1,"minpay":0.1,"id":14,"pool_id":"f2pool.com","fee":3,"feetype":"PPS%3","i":2505,"income":3.7033291158859385e-15,"blocks_nr":4,"lastblock":717253,"lastblocktime":1670117236,"country":"WL|Global","blocks_1000":336,"blocks_count":33,"hashrate_average_100_count":82,"hashrate_average_100":23032735632977290,"hashrate_average_1h":23033634490032650,"history_start":1669509814,"history_interval":3600,"history_addlast":true,"history":[23669257540000000,-162234860000000,289429900000000,6934430000000,-36850990000000,-113611800000000,-89663570000000,29229160000000,-238485930000000,50696350000000,153479670000000,-131402140000000,100806170000000,141307580000000,-146505080000000,-67873350000000,-63650530000000,13888380000000,-11139080000000,-2850430000000,-67380950000000,-203030310000000,209410680000000,-35233360000000,84641900000000,147607650000000,60816720000000,-62703050000000,-106507260000000,-103515170000000,40345210000000,-20409500000000,42563440000000,109405420000000,31104460000000,-301071240000000,184633310000000,58221070000000,-118121740000000,73343020000000,7769420000000,150005820000000,67888170000000,-6903730000000,-114978620000000,61655910000000,157656320000000,90805750000000,378012070000000,211280200000000,-107813260000000,-126514000000000,-132673870000000,-143715070000000,-49538090000000,90459330000000,-130074750000000,9171500000000,-55825640000000,-5463610000000,7993990000000,-98340790000000,-79023330000000,103528340000000,-61664610000000,-46730330000000,23220060000000,-22697180000000,-45196640000000,-6562920000000,-14129440000000,130248350000000,167428980000000,189903630000000,-51278710000000,-160918670000000,41006130000000,38335250000000,74213550000000,-12909630000000,-236057470000000,48979970000000,-228636010000000,111058210000000,100108140000000,40580130000000,-141339140000000,18240690000000,-66380690000000,-161090190000000,57161960000000,38277330000000,130921260000000,-86599400000000,38655430000000,34922500000000,497482930000000,100691380000000,-189003380000000,-50265480000000,-232486830000000,-116623830000000,37186070000000,19114960000000,68134190000000,-200792940000000,-16823170000000,-73487970000000,40641190000000,-84603240000000,18932440000000,-4136450000000,-56725620000000,16978360000000,13130820000000,-52639340000000,21191230000000,-146237410000000,-320649360000000,-35669300000000,195192350000000,35236110000000,87116370000000,-187582190000000,187842520000000,-138664610000000,-111732400000000,-28804910000000,12541710000000,-83326150000000,234480710000000,-8496480000000,39241590000000,-56991740000000,34179890000000,-129382470000000,-1710336930000000,133723860000000,1662622240000000,-119558280000000,-66399060000000,-260826320000000,93639000000000,-109514160000000,384672340000000,129559380000000,53842010000000,-38165870000000,46667430000000,45938980000000,-12289640000000,-14390950000000,-91863290000000,-18607300000000,-12188550000000,-180327510000000,54955060000000,27962650000000,119269670000000,77203230000000,-38450160000000,4910450000000,-141700180000000,-51200930000000,74335350000000,-99739210000000,97758810000000,-11160310000000,27788810000000],"hashrate_average_7d":23425457743195280,"hashrate_average_7d_count":169,"hashrate_block":697961685847796.6,"expected_blocks":30.83,"luck":2.1707842781643585,"multipool":33},{"url":"https:\/\/www.poolin.com","hashrate":31952000000000000,"miners":-1,"minpay":0.01,"id":3,"pool_id":"poolin.com","fee":3,"feetype":"PPS","i":13634,"json":{"err_no":0,"data":{"shares":{"shares_1m":30.948,"shares_5m":31.952,"shares_15m":32.365,"shares_1h":32.409,"shares_unit":"P"},"reject":{"1m":0,"5m":0,"15m":0.0015,"1h":0.0034},"workers":1390,"users":361,"total_blocks":147721,"total_rewards":104945566420508}},"workers":1390,"netdiff":5048982595.669083,"nethash":"72284050411994043","income":4.32892e-15,"blocks_nr":19,"lastblock":717257,"lastblocktime":1670118897,"country":"US|United States","blocks_1000":473,"blocks_count":39,"hashrate_average_100_count":82,"hashrate_average_100":31904285799352132,"hashrate_average_1h":32091454545454544,"history_start":1669509814,"history_interval":3600,"history_addlast":true,"history":[34598700000000000,31500000000000,-197100000000000,97900000000000,146350000000000,-363700000000000,154300000000000,376650000000000,77850000000000,-112250000000000,-250500000000000,-251100000000000,440550000000000,-53650000000000,3550000000000,-25450000000000,-16500000000000,145050000000000,157750000000000,48800000000000,-146800000000000,-290100000000000,-6050000000000,-67150000000000,-191050000000000,265250000000000,217000000000000,-139400000000000,193550000000000,-505900000000000,-91100000000000,272500000000000,-11600000000000,75650000000000,-214700000000000,104800000000000,238100000000000,-225250000000000,-141950000000000,-134800000000000,39000000000000,-253700000000000,231052630000000,191747370000000,8650000000000,-78550000000000,-13847370000000,25097370000000,88100000000000,-375650000000000,118900000000000,-1141800000000000,-136150000000000,26200000000000,58100000000000,7250000000000,-78250000000000,-108200000000000,191800000000000,-164650000000000,-381300000000000,324100000000000,145850000000000,-177200000000000,526900000000000,315850000000000,-84500000000000,-341500000000000,317400000000000,-12450000000000,242250000000000,68700000000000,150300000000000,-74450000000000,38600000000000,-41000000000000,292450000000000,-633000000000000,-246273680000000,364773680000000,531950000000000,-409350000000000,424900000000000,342000000000000,-204800000000000,-231600000000000,-21400000000000,137550000000000,-1055100000000000,91550000000000,169100000000000,5800000000000,52200000000000,-421750000000000,-215200000000000,62250000000000,-547150000000000,225350000000000,68750000000000,794000000000000,746250000000000,-119050000000000,452700000000000,-996650000000000,-312950000000000,178950000000000,320700000000000,-179900000000000,293900000000000,2350000000000,-83100000000000,219600000000000,-62350000000000,194729410000000,-198729410000000,69500000000000,-271100000000000,110400000000000,132400000000000,-923850000000000,-381050000000000,-272500000000000,-449450000000000,-317450000000000,481300000000000,323050000000000,52700000000000,-2377000000000000,1718300000000000,1399750000000000,1599850000000000,110650000000000,-28650000000000,-18300000000000,100950000000000,-148850000000000,-274500000000000,-1526650000000000,556500000000000,-24168420000000,-180281580000000,-76700000000000,-59950000000000,-610400000000000,-252250000000000,26750000000000,1122750000000000,-441450000000000,144800000000000,-22950000000000,42900000000000,-379400000000000,-260150000000000,748650000000000,-1436950000000000,-841850000000000,99450000000000,148850000000000,-24800000000000,227550000000000,74500000000000,79850000000000,-197700000000000,783650000000000,113050000000000,-79450000000000,-332850000000000,159305560000000,-21101010000000],"hashrate_average_7d":33577860075029584,"hashrate_average_7d_count":169,"hashrate_block":818058610239798.2,"expected_blocks":42.7,"luck":-3.703746746915755,"multipool":15}],"hashblock":{"hashrate_average_100":59021485704433070,"blocks_count":79,"pools":[[583494896014808.2,7,83356413716401.17,"https:\/\/pool.btc.com"],[697961685847796.6,33,21150354116599.9,"https:\/\/www.f2pool.com"],[818058610239798.2,39,20975861801020.47,"https:\/\/www.poolin.com"]],"hashrate_block_all":747107413980165.5,"hashrate_block_min":20975861801020.47,"hashrate_block_max":83356413716401.17,"pool_hashblock_average":41827543211340.51,"hashrate_block":747107413980165.5},"time":1670120013,"hashrate":62940000000000000,"difficulty":5048982595.669083,"height":717258,"symbol":"DCR","maxhash":31952000000000000,"poolshash":74508066376972060,"nethash_estimat":74710741398016540,"poolsminers":1508,"supply":{"circulating":14554096.78082004,"total":21000000,"emission24":2624},"block_time_target":300,"block_height_ok":true,"algo":"Blake256R14","hashrate_from_diff":false,"hashrate_src":"https:\/\/lab.antpool.com","unit":"H\/s","block_time_average":289.9,"minerstat":[1.6330839640493e-16,20.896983028067,0.98371603,2896],"link":{"coingecko":"decred","cmc":"decred","whattomine":"152-dcr-blake (14r)","coin360":"decred-dcr","coinpaprika":"dcr-decred"},"latest_release":{"tag":"release-v1.7.5","name":"dcrd v1.7.5","t":1665429869},"price":21.01}