{"data":[{"url":"https:\/\/www.okx.com\/pool","hashrate":0,"miners":-1,"minpay":-1,"id":23,"pool_id":"okx.com","i":1660,"workers":0,"lastblock":630904,"feetype":"PPLNS","fee":2,"country":"HK|Hong Kong","hashrate_average_100_count":74,"hashrate_average_100":0,"hashrate_average_1h":0,"history_start":1669772626,"history_interval":3600,"history_addlast":true,"history":[0,0,0,0,0,0,0,0,0,0,0,0,0,0,0,0,0,0,0,0,0,0,0,0,0,0,0,0,0,0,0,0,0,0,0,0,0,0,0,0,0,0,0,0,0,0,0,0,0,0,0,0,0,0,0,0,0,0,0,0,0,0,0,0,0,0,0,0,0,0,0,0,0,0,0,0,0,0,0,0,0,0,0,0,0,0,0,0,0,0,0,0,0,0,0,0,0,0,0,0,0,0,0,0,0,0,0,0,0,0,0,0,0,0,0,0,0,0,0,0,0,0,0,0,0,0,0,0,0,0,0,0,0,0,0,0,0,0,0,0,0,0,0,0,0,0,0,0,0,0,0,0,0,0,0,0,0,0,0,0,0,0,0,0,0,0,0,0],"hashrate_average_7d":0,"hashrate_average_7d_count":168,"expected_blocks":0,"multipool":5},{"url":"https:\/\/www2.coinmine.pl\/dcr","hashrate":211590068623988,"miners":-1,"minpay":0.05,"id":5,"pool_id":"coinmine.pl","i":12527,"workers":10,"blocks_nr":5,"lastblock":717665,"lastblocktime":"1670253522","fee":1,"feetype":"PPLNS","height":718152,"country":"WL|EU , US , Asia","blocks_1000":1,"hashrate_average_100_count":74,"hashrate_average_100":155232742358832.8,"hashrate_average_1h":138370918067430.08,"history_start":1669772626,"history_interval":3600,"history_addlast":true,"history":[140636542600000,60929895100000,-44809275300000,83196584100000,-109608676000000,63518205500000,-27659715800000,87329422500000,-47908274500000,56178331400000,59530241700000,-52682736500000,-41288705200000,14950402700000,-53178567700000,-27878542000000,42350283200000,33666092400000,20020700400000,-41207374500000,42359388300000,-30224315300000,89233458500000,-94935115900000,6818439500000,20957977100000,29195417500000,-36004366400000,-25370713200000,-1145440000000,12114956100000,-7530499800000,47292702100000,761464900000,-172865368950000,49441926650000,85900333100000,-51086900800000,81046553200000,6928049400000,-58216082000000,-20916884700000,31297489600000,3919973200000,62129736500000,-16915741400000,-60225672800000,51450720000000,9245119900000,-54314911800000,34040514100000,24559350500000,-87892053100000,85600633100000,-2895775900000,-7709752200000,-53935078600000,-14612993500000,46492861600000,-51122812000000,73875736100000,-88947083800000,-4724206400000,43092721100000,-65661893100000,19499428700000,-12366622400000,-28407543900000,24532595700000,59775396600000,-36874803000000,-11709863300000,8546533200000,30523976400000,57584622000000,-16922088500000,-10269301600000,-43293968600000,16497723500000,-9120828900000,35469367100000,-36102891800000,59957033000000,-30382521200000,25173912200000,-29559984700000,-54888625000000,-12477105400000,47642249300000,24859246600000,-31776984600000,-8180010800000,5806034400000,31981901500000,-21544057600000,53972834200000,-58452254100000,16793424100000,29986352900000,-47169703900000,45778699800000,-22535767400000,-67189408900000,7262494900000,79326702200000,-2375106900000,13225062400000,-60059592300000,24829627900000,-30473053400000,-31388802200000,87543896000000,-102989835400000,-757629600000,26153067900000,-9821556600000,-6650199400000,23120874400000,-15756858100000,-41614018000000,45508561700000,6223551500000,-20261976300000,56099852900000,27294362100000,-3729724100000,-16884000600000,-22371269000000,27965751100000,-12360145100000,31235297700000,-49176931200000,-8466785900000,22578322100000,40809994000000,-60094984100000,40809273100000,-257752100000,-29493781300000,64683105200000,-53924109600000,-3664377800000,49216030600000,-66258691000000,63307544100000,12236265600000,-66902438400000,66914574700000,-35973148100000,-5490427500000,-19151004600000,31026107200000,-8022277100000,-32224713000000,-18352397800000,5831483200000,-17984616200000,31058567900000,-23223908400000,-8182834200000,-5764337000000,22681247700000,-25771875400000,11906320800000,24700203400000,-4901372900000,13983266400000,-50127650100000],"hashrate_average_7d":205212938570535.7,"hashrate_average_7d_count":168,"expected_blocks":0.23,"multipool":6},{"url":"https:\/\/lab.antpool.com","hashrate":15240000000000000,"miners":-1,"minpay":0.1,"id":11,"pool_id":"antpool.com","i":2136,"nethash":76210000000000000,"netdiff":5527161153,"feetype":"PPS","fee":3,"income":3.4332471e-15,"lastblock":712107,"lastblocktime":"1668580440","country":"WL|Global","hashrate_average_100_count":74,"hashrate_average_100":14838795133023648,"hashrate_average_1h":14930000000000000,"history_start":1669772626,"history_interval":3600,"history_addlast":true,"history":[14343500000000000,-99500000000000,77500000000000,34000000000000,-245500000000000,12105260000000,-47605260000000,79500000000000,126000000000000,-220000000000000,131500000000000,34500000000000,-10000000000000,-118000000000000,-22000000000000,-151500000000000,228500000000000,-141000000000000,49000000000000,41000000000000,500000000000,-98500000000000,102000000000000,-14500000000000,36500000000000,-26500000000000,31500000000000,109500000000000,-206000000000000,54000000000000,91000000000000,32000000000000,-100000000000000,102000000000000,13000000000000,-44500000000000,-41000000000000,153500000000000,-175000000000000,-139000000000000,-39558820000000,77558820000000,64500000000000,162500000000000,-18500000000000,-303000000000000,193000000000000,-98000000000000,117000000000000,28500000000000,151000000000000,70500000000000,-197000000000000,-108500000000000,-53500000000000,132000000000000,209000000000000,-257000000000000,168000000000000,-86500000000000,96500000000000,76500000000000,-117500000000000,-232000000000000,-21000000000000,145500000000000,165394740000000,-113394740000000,69500000000000,-254000000000000,-2000000000000,104500000000000,-591500000000000,630500000000000,103500000000000,-7500000000000,78500000000000,-107500000000000,40500000000000,69000000000000,-39000000000000,-60000000000000,21500000000000,38000000000000,-40000000000000,13500000000000,101500000000000,-256000000000000,106500000000000,-204500000000000,121500000000000,-3500000000000,-44500000000000,212500000000000,213944440000000,209555560000000,46500000000000,62000000000000,-60500000000000,64000000000000,31500000000000,80131580000000,-6131580000000,-6500000000000,57000000000000,-244500000000000,164500000000000,102000000000000,-175500000000000,86000000000000,-149500000000000,-78500000000000,-6279000000000000,6484000000000000,39500000000000,32000000000000,-163500000000000,154000000000000,-103000000000000,270500000000000,-103500000000000,-210000000000000,-811500000000000,878000000000000,174000000000000,48500000000000,-91500000000000,-17500000000000,-158000000000000,124000000000000,-174000000000000,52000000000000,207500000000000,-144000000000000,-164500000000000,-127000000000000,229000000000000,26000000000000,126000000000000,-142500000000000,-5500000000000,-60500000000000,-115000000000000,300500000000000,-283000000000000,207500000000000,-110000000000000,-3926500000000000,3618000000000000,381000000000000,72500000000000,-378000000000000,516500000000000,-423000000000000,-29000000000000,234000000000000,126000000000000,-195500000000000,209000000000000,-244500000000000,176500000000000,-113500000000000,76000000000000,-152500000000000,146500000000000,-22000000000000,-160000000000000,237500000000000],"hashrate_average_7d":14396666769047612,"hashrate_average_7d_count":168,"expected_blocks":22.33,"multipool":16},{"url":"https:\/\/pool.btc.com","hashrate":3897000000000000,"miners":-1,"minpay":0.1,"id":4,"pool_id":"pool.btc.com","feetype":"PPS","i":14573,"workers":94,"income":3.5798833404228e-15,"i_blocks":14615,"json_blocks":{"err_no":0,"data":{"blocks":{"current_page":1,"data":[{"height":718106,"is_orphaned":0,"hash":"0000000000000000957ab5dedb79f7ebb1328a7ac0cf28eca188d72d7513048d","rewards":"0.98359683","size":2548,"prev_hash":"00000000000000008feda90d061aca5241ffceb8d0683fccd91ad23917f5ea8a","bits":419490854,"version":9,"created_at":1670361301,"region_id":36,"region_name":"BitDeer"},{"height":718101,"is_orphaned":0,"hash":"000000000000000056b69b4de17e2fc7de2b1369ecdcffc77c508dbcee19fd60","rewards":"0.98359683","size":29862,"prev_hash":"000000000000000055349f8163355f91fe0730c2ac4bb0fdae4436646e1dbf35","bits":419490854,"version":9,"created_at":1670360913,"region_id":36,"region_name":"BitDeer"},{"height":718100,"is_orphaned":0,"hash":"000000000000000055349f8163355f91fe0730c2ac4bb0fdae4436646e1dbf35","rewards":"0.98359683","size":8965,"prev_hash":"00000000000000007ed1dfc061f19f0ef75d4cccc1fcdcdee283a1f80259de9c","bits":419490854,"version":9,"created_at":1670360802,"region_id":34,"region_name":"America"},{"height":718093,"is_orphaned":1,"hash":"0000000000000000beea1ef3543e3c49459cb4c6c1ed62561e79450e17d6081e","rewards":"0.98359683","size":33895,"prev_hash":"00000000000000004d90ff5a3646ca624c65dba331d6070f189a24626c7a1801","bits":419490854,"version":9,"created_at":1670359686,"region_id":34,"region_name":"America"},{"height":718093,"is_orphaned":1,"hash":"000000000000000030c1c7d683cec3169056d5c39c3f4c94a0e5ed6d21388a89","rewards":0,"size":18288,"prev_hash":"fa6e070b000000003dee88c30a542d38d70ed9924e34d422172e4f2a7e706b5e","bits":419490854,"version":9,"created_at":1670359558,"region_id":34,"region_name":"America"},{"height":718085,"is_orphaned":0,"hash":"00000000000000002c914b66606cd57f3e7304fd2855dbbd26c75e7d2fa3c175","rewards":"0.98359683","size":6130,"prev_hash":"00000000000000000a24f10904ad8072da1880a48d93cf5be30b18a96864569e","bits":419490854,"version":9,"created_at":1670358486,"region_id":34,"region_name":"America"},{"height":718059,"is_orphaned":0,"hash":"0000000000000000e2bdbbc3a3a484b9a7ad71c52c121ff1128205dfa132eab7","rewards":"0.98359683","size":3337,"prev_hash":"00000000000000008eb96bca759da303682713978afea872b6ddd6c40783eca3","bits":419490854,"version":9,"created_at":1670352935,"region_id":34,"region_name":"America"},{"height":718022,"is_orphaned":0,"hash":"00000000000000005d595273414587b7d351d2b0acf3481fa09b581922edfb6c","rewards":"0.98359683","size":7829,"prev_hash":"000000000000000015083d23665cb1bcf0df15e49176e898a68bc37ffb45bcdc","bits":419490854,"version":9,"created_at":1670342333,"region_id":34,"region_name":"America"},{"height":718009,"is_orphaned":0,"hash":"0000000000000000b3b1d06fcf28aed9b24556cc5c416df026911be34697b9b3","rewards":"0.98359683","size":3590,"prev_hash":"000000000000000093d1ba5ea6194b782e471d149a37790429825b02ae8eb0d0","bits":419490854,"version":9,"created_at":1670339215,"region_id":34,"region_name":"America"},{"height":718008,"is_orphaned":0,"hash":"000000000000000093d1ba5ea6194b782e471d149a37790429825b02ae8eb0d0","rewards":"0.98359683","size":2453,"prev_hash":"000000000000000047be98249d1fb422980a53d71b67b879fd86b95f680e74c3","bits":419490854,"version":9,"created_at":1670339109,"region_id":36,"region_name":"BitDeer"}],"first_page_url":"https:\/\/eu-api.connectbtc.com\/\/public\/v1\/pool\/blocks\/merge?order_by=desc&page_size=10&page=1","from":1,"last_page":2271,"last_page_url":"https:\/\/eu-api.connectbtc.com\/\/public\/v1\/pool\/blocks\/merge?order_by=desc&page_size=10&page=2271","next_page_url":"https:\/\/eu-api.connectbtc.com\/\/public\/v1\/pool\/blocks\/merge?order_by=desc&page_size=10&page=2","path":"https:\/\/eu-api.connectbtc.com\/\/public\/v1\/pool\/blocks\/merge","per_page":10,"prev_page_url":null,"to":10,"total":22709},"blocks_count":22709,"rewards_count":"191077.86285531"},"trace_id":"2656fc01-a0ae-4fd3-be2e-8cfa4715b0f3"},"blocks_nr":8,"lastblock":718106,"lastblocktime":"1670361286","country":"WL|CN , EU , US","blocks_1000":55,"blocks_count":5,"hashrate_average_100_count":74,"hashrate_average_100":4003276664115287.5,"hashrate_average_1h":3925384615384615.5,"history_start":1669772626,"history_interval":3600,"history_addlast":true,"history":[4107700000000000,21850000000000,-26300000000000,41700000000000,-31000000000000,14628947000000,89321053000000,-60300000000000,-12150000000000,77300000000000,31400000000000,-63750000000000,-4700000000000,-4450000000000,60150000000000,-5000000000000,-16900000000000,-54100000000000,1600000000000,13400000000000,-44500000000000,31800000000000,-12500000000000,6650000000000,18050000000000,-40850000000000,-64850000000000,2700000000000,38750000000000,43550000000000,15950000000000,-6550000000000,26900000000000,13300000000000,-33450000000000,48950000000000,-64150000000000,24950000000000,64850000000000,-15150000000000,-2976471000000,-27923529000000,34150000000000,-2100000000000,-73500000000000,-28900000000000,43950000000000,-45850000000000,-90700000000000,-26200000000000,-5550000000000,-26900000000000,37850000000000,70350000000000,-63100000000000,7950000000000,29350000000000,15300000000000,-21400000000000,17250000000000,13850000000000,13050000000000,70000000000000,-22100000000000,24150000000000,-21550000000000,-82460526000000,4160526000000,44700000000000,-27500000000000,29050000000000,-131750000000000,-61250000000000,-44700000000000,113350000000000,-16800000000000,2200000000000,76650000000000,17500000000000,-48550000000000,39400000000000,1050000000000,-5750000000000,8850000000000,-27450000000000,17400000000000,-42150000000000,-11050000000000,-36000000000000,139800000000000,-17450000000000,-22000000000000,45850000000000,5200000000000,35505556000000,-26055556000000,2450000000000,12700000000000,31400000000000,-54400000000000,-9600000000000,-25707895000000,41557895000000,27600000000000,21600000000000,4150000000000,-22450000000000,-20000000000000,-73150000000000,113100000000000,-5934211000000,17034211000000,-75750000000000,-19700000000000,-22300000000000,14350000000000,51950000000000,36600000000000,-32500000000000,-38850000000000,2200000000000,34750000000000,11050000000000,30300000000000,71450000000000,23050000000000,-62750000000000,-63400000000000,-33750000000000,23250000000000,-1400000000000,-14550000000000,-15600000000000,59000000000000,17100000000000,16700000000000,19250000000000,-34450000000000,-23200000000000,-49050000000000,-29750000000000,-3450000000000,-30100000000000,-34700000000000,-358050000000000,-58500000000000,19700000000000,300000000000,265350000000000,185500000000000,24400000000000,-85100000000000,15450000000000,79300000000000,-16150000000000,9750000000000,3950000000000,27250000000000,-42250000000000,-51300000000000,9000000000000,-41400000000000,150000000000,39450000000000,-48900000000000,-32350000000000,-37850000000000,-1415385000000],"hashrate_average_7d":4103918988184524,"hashrate_average_7d_count":168,"hashrate_block":800655332823057.5,"expected_blocks":6.02,"luck":-1.0234466206048713,"multipool":7},{"url":"https:\/\/www.f2pool.com","hashrate":22756183506819936,"miners":-1,"minpay":0.1,"id":14,"pool_id":"f2pool.com","fee":3,"feetype":"PPS%3","i":2505,"income":3.7033291158859385e-15,"blocks_nr":8,"lastblock":718152,"lastblocktime":1670378913,"country":"WL|Global","blocks_1000":363,"blocks_count":35,"hashrate_average_100_count":74,"hashrate_average_100":22581347829250144,"hashrate_average_1h":20913904616549736,"history_start":1669772626,"history_interval":3600,"history_addlast":true,"history":[24014063680000000,-51278710000000,-160918670000000,41006130000000,38335250000000,74213550000000,-12909630000000,-236057470000000,48979970000000,-228636010000000,111058210000000,100108140000000,40580130000000,-141339140000000,18240690000000,-66380690000000,-161090190000000,57161960000000,38277330000000,130921260000000,-86599400000000,38655430000000,34922500000000,497482930000000,100691380000000,-189003380000000,-50265480000000,-232486830000000,-116623830000000,37186070000000,19114960000000,68134190000000,-200792940000000,-16823170000000,-73487970000000,40641190000000,-84603240000000,18932440000000,-4136450000000,-56725620000000,16978360000000,13130820000000,-52639340000000,21191230000000,-146237410000000,-320649360000000,-35669300000000,195192350000000,35236110000000,87116370000000,-187582190000000,187842520000000,-138664610000000,-111732400000000,-28804910000000,12541710000000,-83326150000000,234480710000000,-8496480000000,39241590000000,-56991740000000,34179890000000,-129382470000000,-1710336930000000,133723860000000,1662622240000000,-119558280000000,-66399060000000,-260826320000000,93639000000000,-109514160000000,384672340000000,129559380000000,53842010000000,-38165870000000,46667430000000,45938980000000,-12289640000000,-14390950000000,-91863290000000,-18607300000000,-12188550000000,-180327510000000,54955060000000,27962650000000,119269670000000,77203230000000,-38450160000000,4910450000000,-141700180000000,-51200930000000,74335350000000,-99739210000000,97758810000000,-11160310000000,8183010000000,103569100000000,-73738540000000,12476570000000,21805000000000,129517870000000,-104775390000000,-5263690000000,372212220000000,-167852270000000,34774990000000,513585310000000,-145575000000000,-88124540000000,-103840560000000,43733630000000,-129287350000000,148328830000000,-76732720000000,46199950000000,4072370000000,85238320000000,10567330000000,-165600240000000,90471520000000,70748910000000,183181530000000,-139851490000000,-109243090000000,37211300000000,193134090000000,-146678890000000,-196580140000000,36611360000000,-111098700000000,-334620080000000,170235720000000,-118453850000000,125202390000000,-24743760000000,92064680000000,-29049240000000,3469390000000,149055240000000,29894140000000,-109866940000000,180127440000000,214031210000000,-53153720000000,58268040000000,26076240000000,-88058080000000,-167249000000000,-5635720000000,-71634540000000,73958630000000,-92303570000000,-330778100000000,-108552660000000,231679720000000,111803680000000,-40828160000000,-75302180000000,-161883200000000,-185518980000000,-34023490000000,-32805830000000,17724910000000,-18399830000000,17296210000000,60843760000000,-1542656690000000,-409535440000000],"hashrate_average_7d":23295105111547628,"hashrate_average_7d_count":168,"hashrate_block":645181366550004.1,"expected_blocks":33.98,"luck":1.0234466206048722,"multipool":33},{"url":"https:\/\/www.poolin.com","hashrate":31736000000000000,"miners":-1,"minpay":0.01,"id":3,"pool_id":"poolin.com","fee":3,"feetype":"PPS","i":13634,"json":{"err_no":0,"data":{"shares":{"shares_1m":30.831,"shares_5m":31.736,"shares_15m":32.129,"shares_1h":32.097,"shares_unit":"P"},"reject":{"1m":0,"5m":0,"15m":0.0015,"1h":0.0022},"workers":1348,"users":358,"total_blocks":148126,"total_rewards":104985225044690}},"workers":1348,"netdiff":5527161153.526952,"nethash":"79129921306188840","income":3.95441e-15,"blocks_nr":17,"lastblock":718150,"lastblocktime":1670377739,"country":"US|United States","blocks_1000":445,"blocks_count":46,"hashrate_average_100_count":74,"hashrate_average_100":32039385893950588,"hashrate_average_1h":31850230769230770,"history_start":1669772626,"history_interval":3600,"history_addlast":true,"history":[33864750000000000,38600000000000,-41000000000000,292450000000000,-633000000000000,-246273680000000,364773680000000,531950000000000,-409350000000000,424900000000000,342000000000000,-204800000000000,-231600000000000,-21400000000000,137550000000000,-1055100000000000,91550000000000,169100000000000,5800000000000,52200000000000,-421750000000000,-215200000000000,62250000000000,-547150000000000,225350000000000,68750000000000,794000000000000,746250000000000,-119050000000000,452700000000000,-996650000000000,-312950000000000,178950000000000,320700000000000,-179900000000000,293900000000000,2350000000000,-83100000000000,219600000000000,-62350000000000,194729410000000,-198729410000000,69500000000000,-271100000000000,110400000000000,132400000000000,-923850000000000,-381050000000000,-272500000000000,-449450000000000,-317450000000000,481300000000000,323050000000000,52700000000000,-2377000000000000,1718300000000000,1399750000000000,1599850000000000,110650000000000,-28650000000000,-18300000000000,100950000000000,-148850000000000,-274500000000000,-1526650000000000,556500000000000,-24168420000000,-180281580000000,-76700000000000,-59950000000000,-610400000000000,-252250000000000,26750000000000,1122750000000000,-441450000000000,144800000000000,-22950000000000,42900000000000,-379400000000000,-260150000000000,748650000000000,-1436950000000000,-841850000000000,99450000000000,148850000000000,-24800000000000,227550000000000,74500000000000,79850000000000,-197700000000000,783650000000000,113050000000000,-79450000000000,-332850000000000,159305560000000,-30155560000000,41100000000000,52400000000000,-94100000000000,157300000000000,-147350000000000,3460530000000,-817910530000000,-2087900000000000,301950000000000,48000000000000,-36950000000000,227100000000000,-60950000000000,-107900000000000,246086840000000,-192936840000000,86000000000000,-57750000000000,-164750000000000,116100000000000,-180600000000000,32400000000000,4850000000000,175550000000000,134500000000000,-11400000000000,211300000000000,553400000000000,76100000000000,42450000000000,92200000000000,24800000000000,-18000000000000,234550000000000,-74450000000000,59200000000000,84300000000000,482250000000000,-203750000000000,198800000000000,-50350000000000,122950000000000,-39200000000000,-240300000000000,-205200000000000,-439400000000000,-71850000000000,327000000000000,6150000000000,117000000000000,1250000000000,-213300000000000,-436600000000000,279105260000000,5344740000000,35950000000000,711700000000000,483850000000000,393650000000000,-869800000000000,636700000000000,59150000000000,-44800000000000,11250000000000,157300000000000,-10300000000000,-598150000000000,325900000000000,240900000000000,-360000000000000,4700000000000,-2219230000000],"hashrate_average_7d":32197586763511920,"hashrate_average_7d_count":168,"hashrate_block":696508388998925.9,"expected_blocks":48.21,"luck":-2.2073928137619134,"multipool":15}],"hashblock":{"hashrate_average_100":26584624493365430,"blocks_count":40,"pools":[[800655332823057.5,5,160131066564611.5,"https:\/\/pool.btc.com"],[645181366550004.1,35,18433753330000.117,"https:\/\/www.f2pool.com"],[696508388998925.9,46,15141486717367.953,"https:\/\/www.poolin.com"]],"hashrate_block_all":681674539387395.5,"hashrate_block_min":15141486717367.953,"hashrate_block_max":160131066564611.5,"pool_hashblock_average":64568768870659.85,"hashrate_block":664615612334135.8},"time":1670379586,"hashrate":76210000000000000,"difficulty":5527161153.526952,"height":718152,"symbol":"DCR","maxhash":31736000000000000,"poolshash":73840773575443920,"nethash_estimat":66461561233413576,"poolsminers":1452,"supply":{"circulating":14561978.93238576,"total":21000000,"emission24":2896},"block_time_target":300,"block_height_ok":true,"algo":"Blake256R14","hashrate_from_diff":false,"hashrate_src":"https:\/\/lab.antpool.com","unit":"H\/s","block_time_average":263.4,"minerstat":[1.4920699735298e-16,21.339010303558,0.98389483,3257],"link":{"coingecko":"decred","cmc":"decred","whattomine":"152-dcr-blake (14r)","coin360":"decred-dcr","coinpaprika":"dcr-decred"},"latest_release":{"tag":"release-v1.7.5","name":"dcrd v1.7.5","t":1665429869},"price":21.3}