{"data":[{"url":"https:\/\/www.okx.com\/pool","hashrate":0,"miners":-1,"minpay":-1,"id":23,"pool_id":"okx.com","i":1660,"workers":0,"lastblock":630904,"feetype":"PPLNS","fee":2,"country":"HK|Hong Kong","hashrate_average_100_count":75,"hashrate_average_100":0,"hashrate_average_1h":0,"history_start":1669599824,"history_interval":3600,"history_addlast":true,"history":[0,0,0,0,0,0,0,0,0,0,0,0,0,0,0,0,0,0,0,0,0,0,0,0,0,0,0,0,0,0,0,0,0,0,0,0,0,0,0,0,0,0,0,0,0,0,0,0,0,0,0,0,0,0,0,0,0,0,0,0,0,0,0,0,0,0,0,0,0,0,0,0,0,0,0,0,0,0,0,0,0,0,0,0,0,0,0,0,0,0,0,0,0,0,0,0,0,0,0,0,0,0,0,0,0,0,0,0,0,0,0,0,0,0,0,0,0,0,0,0,0,0,0,0,0,0,0,0,0,0,0,0,0,0,0,0,0,0,0,0,0,0,0,0,0,0,0,0,0,0,0,0,0,0,0,0,0,0,0,0,0,0,0,0,0,0,0,0],"hashrate_average_7d":0,"hashrate_average_7d_count":168,"expected_blocks":0,"multipool":5},{"url":"https:\/\/www2.coinmine.pl\/dcr","hashrate":118846717036244,"miners":-1,"minpay":0.05,"id":5,"pool_id":"coinmine.pl","i":12527,"workers":1,"blocks_nr":5,"lastblock":717050,"lastblocktime":"1670053830","fee":1,"feetype":"PPLNS","height":717525,"country":"WL|EU , US , Asia","blocks_1000":4,"hashrate_average_100_count":75,"hashrate_average_100":156509827925130.88,"hashrate_average_1h":95527937233608.7,"history_start":1669599824,"history_interval":3600,"history_addlast":true,"history":[202028628100000,-50574902700000,56271186100000,-59335487500000,66440280300000,-40795549000000,103250880600000,-43998499800000,-10049972000000,-30953307200000,-18767935600000,5450015800000,-12178091100000,-27650733200000,43210893700000,-17965991100000,56110652600000,-51714324000000,-8281823000000,-26399687600000,64778422100000,-32423343600000,56836416000000,-57046452100000,-8125378400000,11375856800000,-25738304600000,-15004243500000,41791324300000,-5237208100000,-12790235600000,33499661200000,-58813048600000,-13173100300000,63619818900000,-63746288000000,23696807400000,45503593600000,-28954201800000,573469400000,-19962551800000,-8485977100000,18924402600000,26169886900000,52046513800000,-61216290900000,65563501300000,-6471032000000,-80651708700000,60929895100000,-44809275300000,83196584100000,-109608676000000,63518205500000,-27659715800000,87329422500000,-47908274500000,56178331400000,59530241700000,-52682736500000,-41288705200000,14950402700000,-53178567700000,-27878542000000,42350283200000,33666092400000,20020700400000,-41207374500000,42359388300000,-30224315300000,89233458500000,-94935115900000,6818439500000,20957977100000,29195417500000,-36004366400000,-25370713200000,-1145440000000,12114956100000,-7530499800000,47292702100000,761464900000,-172865368950000,49441926650000,85900333100000,-51086900800000,81046553200000,6928049400000,-58216082000000,-20916884700000,31297489600000,3919973200000,62129736500000,-16915741400000,-60225672800000,51450720000000,9245119900000,-54314911800000,34040514100000,24559350500000,-87892053100000,85600633100000,-2895775900000,-7709752200000,-53935078600000,-14612993500000,46492861600000,-51122812000000,73875736100000,-88947083800000,-4724206400000,43092721100000,-65661893100000,19499428700000,-12366622400000,-28407543900000,24532595700000,59775396600000,-36874803000000,-11709863300000,8546533200000,30523976400000,57584622000000,-16922088500000,-10269301600000,-43293968600000,16497723500000,-9120828900000,35469367100000,-36102891800000,59957033000000,-30382521200000,25173912200000,-29559984700000,-54888625000000,-12477105400000,47642249300000,24859246600000,-31776984600000,-8180010800000,5806034400000,31981901500000,-21544057600000,53972834200000,-58452254100000,16793424100000,29986352900000,-47169703900000,45778699800000,-22535767400000,-67189408900000,7262494900000,79326702200000,-2375106900000,13225062400000,-60059592300000,24829627900000,-30473053400000,-31388802200000,87543896000000,-102989835400000,-757629600000,26153067900000,-9821556600000,-6650199400000,23120874400000,-15756858100000,-57404844670000],"hashrate_average_7d":199725035077857.3,"hashrate_average_7d_count":168,"expected_blocks":0.22,"multipool":6},{"url":"https:\/\/lab.antpool.com","hashrate":15500000000000000,"miners":-1,"minpay":0.1,"id":11,"pool_id":"antpool.com","i":2136,"nethash":64569999999999990,"netdiff":4517263388,"feetype":"PPS","fee":3,"income":4.2007983999999994e-15,"lastblock":712107,"lastblocktime":"1668580440","country":"WL|Global","hashrate_average_100_count":75,"hashrate_average_100":14134641666666666,"hashrate_average_1h":14951000000000000,"history_start":1669599824,"history_interval":3600,"history_addlast":true,"history":[14554000000000000,-190000000000000,-2063000000000000,1330500000000000,581500000000000,38500000000000,85500000000000,-35000000000000,-122000000000000,39500000000000,65500000000000,-153500000000000,-103500000000000,83000000000000,106000000000000,59000000000000,69500000000000,-110763160000000,180263160000000,-195000000000000,51500000000000,-257289470000000,192789470000000,-3500000000000,370000000000000,-303500000000000,82000000000000,-39000000000000,-103000000000000,170500000000000,-72500000000000,132500000000000,-87500000000000,-59000000000000,-35000000000000,-82000000000000,16000000000000,-46000000000000,18500000000000,-2674500000000000,2509000000000000,251500000000000,-265500000000000,153500000000000,-31000000000000,-31000000000000,39000000000000,-130500000000000,357500000000000,-99500000000000,77500000000000,34000000000000,-245500000000000,12105260000000,-47605260000000,79500000000000,126000000000000,-220000000000000,131500000000000,34500000000000,-10000000000000,-118000000000000,-22000000000000,-151500000000000,228500000000000,-141000000000000,49000000000000,41000000000000,500000000000,-98500000000000,102000000000000,-14500000000000,36500000000000,-26500000000000,31500000000000,109500000000000,-206000000000000,54000000000000,91000000000000,32000000000000,-100000000000000,102000000000000,13000000000000,-44500000000000,-41000000000000,153500000000000,-175000000000000,-139000000000000,-39558820000000,77558820000000,64500000000000,162500000000000,-18500000000000,-303000000000000,193000000000000,-98000000000000,117000000000000,28500000000000,151000000000000,70500000000000,-197000000000000,-108500000000000,-53500000000000,132000000000000,209000000000000,-257000000000000,168000000000000,-86500000000000,96500000000000,76500000000000,-117500000000000,-232000000000000,-21000000000000,145500000000000,165394740000000,-113394740000000,69500000000000,-254000000000000,-2000000000000,104500000000000,-591500000000000,630500000000000,103500000000000,-7500000000000,78500000000000,-107500000000000,40500000000000,69000000000000,-39000000000000,-60000000000000,21500000000000,38000000000000,-40000000000000,13500000000000,101500000000000,-256000000000000,106500000000000,-204500000000000,121500000000000,-3500000000000,-44500000000000,212500000000000,213944440000000,209555560000000,46500000000000,62000000000000,-60500000000000,64000000000000,31500000000000,80131580000000,-6131580000000,-6500000000000,57000000000000,-244500000000000,164500000000000,102000000000000,-175500000000000,86000000000000,-149500000000000,-78500000000000,-6279000000000000,6484000000000000,39500000000000,32000000000000,-163500000000000,154000000000000,-103000000000000,95500000000000],"hashrate_average_7d":14218285503392856,"hashrate_average_7d_count":168,"expected_blocks":19.63,"multipool":16},{"url":"https:\/\/pool.btc.com","hashrate":4088000000000000,"miners":-1,"minpay":0.1,"id":4,"pool_id":"pool.btc.com","feetype":"PPS","i":14573,"workers":100,"income":3.5041732714043e-15,"i_blocks":14615,"json_blocks":{"err_no":0,"data":{"blocks":{"current_page":1,"data":[{"height":717495,"is_orphaned":0,"hash":"00000000000000009d4df23557073689ffb53dedce4af8c9441f5145adb16558","rewards":"0.98359683","size":34989,"prev_hash":"0000000000000000b4381404c854ba8559734972e24826a4a18fad2d5072d852","bits":419492710,"version":9,"created_at":1670198120,"region_id":34,"region_name":"America"},{"height":717491,"is_orphaned":0,"hash":"00000000000000007b2ffa51117cab04a8b1a035d0fb0c5d6f906351a9465f17","rewards":"0.98359683","size":3535,"prev_hash":"0000000000000000d488670facc27d9ebc1b01915eda1b25c61bb2c796c45b9e","bits":419492710,"version":9,"created_at":1670196275,"region_id":34,"region_name":"America"},{"height":717468,"is_orphaned":0,"hash":"0000000000000000403dd70394ad84545b3728b79de7dba7c1b2e3201ee3f077","rewards":"0.98359683","size":41401,"prev_hash":"00000000000000001a48cced4f3c8904a550ac0b68be90653bd2d381900aaa47","bits":419492710,"version":9,"created_at":1670188678,"region_id":34,"region_name":"America"},{"height":717395,"is_orphaned":0,"hash":"000000000000000067e3395936db65d0a82affdf604e890b843ab278e626fccc","rewards":"0.98359683","size":30108,"prev_hash":"00000000000000000707688b53ed599596543ac8ebaeaffe7f835aeed3302fb0","bits":419487370,"version":9,"created_at":1670167252,"region_id":34,"region_name":"America"},{"height":717315,"is_orphaned":0,"hash":"000000000000000064d63b6f0393dc37126728b1dd4d5deafcc332198ae00265","rewards":"0.98359683","size":2299,"prev_hash":"0000000000000000abcf100e44abd2536d32df0479f175fc2af16ae43a3aac6b","bits":419487370,"version":9,"created_at":1670136440,"region_id":34,"region_name":"America"},{"height":717309,"is_orphaned":0,"hash":"00000000000000005944ba86f52d87f3b845e1d9f5adc3b94d65fca36a3fc6c9","rewards":"0.78687746","size":66049,"prev_hash":"000000000000000000f46ce4381e2a6894a5fa0341cf70ca2b3cc241be75a66a","bits":419487370,"version":9,"created_at":1670134640,"region_id":34,"region_name":"America"},{"height":717279,"is_orphaned":0,"hash":"00000000000000005b1e2724460674619646fc88dc8d402ce08b8c1c7503b763","rewards":"0.98359683","size":2765,"prev_hash":"0000000000000000c56ac36f5dfe3d3e2d391299850ff1073adced4881c64e56","bits":419487370,"version":9,"created_at":1670124531,"region_id":34,"region_name":"America"},{"height":717261,"is_orphaned":0,"hash":"00000000000000001e61c0fd4d07d18ae8b7b9e43fe674d550b8c65e80cc0f42","rewards":"0.98359683","size":2813,"prev_hash":"000000000000000063b58565883b4a47078f1552284d192e97a0e5fb86368fe1","bits":419486148,"version":9,"created_at":1670120226,"region_id":34,"region_name":"America"},{"height":717258,"is_orphaned":0,"hash":"000000000000000050533fff106a4e10257e3d3be9d10d7d221bb0c38e01e0ca","rewards":"0.98359683","size":7400,"prev_hash":"000000000000000006061f443195fee0882cc52232e0a40f629d5e22679f3298","bits":419486148,"version":9,"created_at":1670119498,"region_id":36,"region_name":"BitDeer"},{"height":717254,"is_orphaned":0,"hash":"0000000000000000bda29acc64db4f92ef969634dca225bef7d6eb591b78b9dd","rewards":"0.78687746","size":10083,"prev_hash":"00000000000000007696d2c64a2557d1d6bd5fa17cbb1197d3acabf0fceeb419","bits":419486148,"version":9,"created_at":1670117298,"region_id":34,"region_name":"America"}],"first_page_url":"https:\/\/eu-api.connectbtc.com\/\/public\/v1\/pool\/blocks\/merge?order_by=desc&page_size=10&page=1","from":1,"last_page":2267,"last_page_url":"https:\/\/eu-api.connectbtc.com\/\/public\/v1\/pool\/blocks\/merge?order_by=desc&page_size=10&page=2267","next_page_url":"https:\/\/eu-api.connectbtc.com\/\/public\/v1\/pool\/blocks\/merge?order_by=desc&page_size=10&page=2","path":"https:\/\/eu-api.connectbtc.com\/\/public\/v1\/pool\/blocks\/merge","per_page":10,"prev_page_url":null,"to":10,"total":22667},"blocks_count":22667,"rewards_count":"191038.51898211"},"trace_id":"a0013f26-ba23-41db-9c4d-bb28083ecceb"},"blocks_nr":10,"lastblock":717495,"lastblocktime":"1670198120","country":"WL|CN , EU , US","blocks_1000":51,"blocks_count":3,"hashrate_average_100_count":75,"hashrate_average_100":4121529166666666.5,"hashrate_average_1h":4106700000000000,"history_start":1669599824,"history_interval":3600,"history_addlast":true,"history":[4161600000000000,28750000000000,-71050000000000,-2100000000000,43650000000000,52500000000000,48550000000000,-18600000000000,2900000000000,4900000000000,-14350000000000,10150000000000,-23150000000000,29100000000000,14000000000000,15000000000000,-30300000000000,4502632000000,-23252632000000,11450000000000,11200000000000,-37502632000000,-11997368000000,-44800000000000,13600000000000,-38700000000000,42050000000000,-18100000000000,-74400000000000,14900000000000,24350000000000,18700000000000,16400000000000,13250000000000,51750000000000,-12300000000000,-1000000000000,-76550000000000,26450000000000,-11750000000000,-6050000000000,-49300000000000,-41950000000000,19750000000000,-8300000000000,24550000000000,-24450000000000,47950000000000,-4300000000000,21850000000000,-26300000000000,41700000000000,-31000000000000,14628947000000,89321053000000,-60300000000000,-12150000000000,77300000000000,31400000000000,-63750000000000,-4700000000000,-4450000000000,60150000000000,-5000000000000,-16900000000000,-54100000000000,1600000000000,13400000000000,-44500000000000,31800000000000,-12500000000000,6650000000000,18050000000000,-40850000000000,-64850000000000,2700000000000,38750000000000,43550000000000,15950000000000,-6550000000000,26900000000000,13300000000000,-33450000000000,48950000000000,-64150000000000,24950000000000,64850000000000,-15150000000000,-2976471000000,-27923529000000,34150000000000,-2100000000000,-73500000000000,-28900000000000,43950000000000,-45850000000000,-90700000000000,-26200000000000,-5550000000000,-26900000000000,37850000000000,70350000000000,-63100000000000,7950000000000,29350000000000,15300000000000,-21400000000000,17250000000000,13850000000000,13050000000000,70000000000000,-22100000000000,24150000000000,-21550000000000,-82460526000000,4160526000000,44700000000000,-27500000000000,29050000000000,-131750000000000,-61250000000000,-44700000000000,113350000000000,-16800000000000,2200000000000,76650000000000,17500000000000,-48550000000000,39400000000000,1050000000000,-5750000000000,8850000000000,-27450000000000,17400000000000,-42150000000000,-11050000000000,-36000000000000,139800000000000,-17450000000000,-22000000000000,45850000000000,5200000000000,35505556000000,-26055556000000,2450000000000,12700000000000,31400000000000,-54400000000000,-9600000000000,-25707895000000,41557895000000,27600000000000,21600000000000,4150000000000,-22450000000000,-20000000000000,-73150000000000,113100000000000,-5934211000000,17034211000000,-75750000000000,-19700000000000,-22300000000000,14350000000000,51950000000000,36600000000000,-32500000000000,-39300000000000],"hashrate_average_7d":4137718186904764,"hashrate_average_7d_count":168,"hashrate_block":1373843055555555.5,"expected_blocks":5.72,"luck":-2.724984921674441,"multipool":7},{"url":"https:\/\/www.f2pool.com","hashrate":23562340906016444,"miners":-1,"minpay":0.1,"id":14,"pool_id":"f2pool.com","fee":3,"feetype":"PPS%3","i":2505,"income":3.7033291158859385e-15,"blocks_nr":10,"lastblock":717526,"lastblocktime":1670206014,"country":"WL|Global","blocks_1000":345,"blocks_count":45,"hashrate_average_100_count":75,"hashrate_average_100":23540190946377516,"hashrate_average_1h":23587155546497320,"history_start":1669599824,"history_interval":3600,"history_addlast":true,"history":[23526777030000000,60816720000000,-62703050000000,-106507260000000,-103515170000000,40345210000000,-20409500000000,42563440000000,109405420000000,31104460000000,-301071240000000,184633310000000,58221070000000,-118121740000000,73343020000000,7769420000000,150005820000000,67888170000000,-6903730000000,-114978620000000,61655910000000,157656320000000,90805750000000,378012070000000,211280200000000,-107813260000000,-126514000000000,-132673870000000,-143715070000000,-49538090000000,90459330000000,-130074750000000,9171500000000,-55825640000000,-5463610000000,7993990000000,-98340790000000,-79023330000000,103528340000000,-61664610000000,-46730330000000,23220060000000,-22697180000000,-45196640000000,-6562920000000,-14129440000000,130248350000000,167428980000000,189903630000000,-51278710000000,-160918670000000,41006130000000,38335250000000,74213550000000,-12909630000000,-236057470000000,48979970000000,-228636010000000,111058210000000,100108140000000,40580130000000,-141339140000000,18240690000000,-66380690000000,-161090190000000,57161960000000,38277330000000,130921260000000,-86599400000000,38655430000000,34922500000000,497482930000000,100691380000000,-189003380000000,-50265480000000,-232486830000000,-116623830000000,37186070000000,19114960000000,68134190000000,-200792940000000,-16823170000000,-73487970000000,40641190000000,-84603240000000,18932440000000,-4136450000000,-56725620000000,16978360000000,13130820000000,-52639340000000,21191230000000,-146237410000000,-320649360000000,-35669300000000,195192350000000,35236110000000,87116370000000,-187582190000000,187842520000000,-138664610000000,-111732400000000,-28804910000000,12541710000000,-83326150000000,234480710000000,-8496480000000,39241590000000,-56991740000000,34179890000000,-129382470000000,-1710336930000000,133723860000000,1662622240000000,-119558280000000,-66399060000000,-260826320000000,93639000000000,-109514160000000,384672340000000,129559380000000,53842010000000,-38165870000000,46667430000000,45938980000000,-12289640000000,-14390950000000,-91863290000000,-18607300000000,-12188550000000,-180327510000000,54955060000000,27962650000000,119269670000000,77203230000000,-38450160000000,4910450000000,-141700180000000,-51200930000000,74335350000000,-99739210000000,97758810000000,-11160310000000,8183010000000,103569100000000,-73738540000000,12476570000000,21805000000000,129517870000000,-104775390000000,-5263690000000,372212220000000,-167852270000000,34774990000000,513585310000000,-145575000000000,-88124540000000,-103840560000000,43733630000000,-129287350000000,148328830000000,-76732720000000,46199950000000,4072370000000,85238320000000,10567330000000,-165600240000000,107835670000000],"hashrate_average_7d":23414181653988108,"hashrate_average_7d_count":168,"hashrate_block":523115354363944.8,"expected_blocks":32.7,"luck":12.301641509347121,"multipool":33},{"url":"https:\/\/www.poolin.com","hashrate":29819000000000000,"miners":-1,"minpay":0.01,"id":3,"pool_id":"poolin.com","fee":3,"feetype":"PPS","i":13634,"json":{"err_no":0,"data":{"shares":{"shares_1m":29.767,"shares_5m":29.819,"shares_15m":29.923,"shares_1h":29.792,"shares_unit":"P"},"reject":{"1m":0,"5m":0,"15m":0.0045,"1h":0.0042},"workers":1339,"users":354,"total_blocks":147851,"total_rewards":104958313835424}},"workers":1339,"netdiff":4517263388.595089,"nethash":"64671661729593862","income":4.83847e-15,"blocks_nr":18,"lastblock":717525,"lastblocktime":"1670205896","country":"US|United States","blocks_1000":470,"blocks_count":41,"hashrate_average_100_count":75,"hashrate_average_100":29516705833333332,"hashrate_average_1h":29553800000000000,"history_start":1669599824,"history_interval":3600,"history_addlast":true,"history":[34572800000000000,217000000000000,-139400000000000,193550000000000,-505900000000000,-91100000000000,272500000000000,-11600000000000,75650000000000,-214700000000000,104800000000000,238100000000000,-225250000000000,-141950000000000,-134800000000000,39000000000000,-253700000000000,231052630000000,191747370000000,8650000000000,-78550000000000,-13847370000000,25097370000000,88100000000000,-375650000000000,118900000000000,-1141800000000000,-136150000000000,26200000000000,58100000000000,7250000000000,-78250000000000,-108200000000000,191800000000000,-164650000000000,-381300000000000,324100000000000,145850000000000,-177200000000000,526900000000000,315850000000000,-84500000000000,-341500000000000,317400000000000,-12450000000000,242250000000000,68700000000000,150300000000000,-74450000000000,38600000000000,-41000000000000,292450000000000,-633000000000000,-246273680000000,364773680000000,531950000000000,-409350000000000,424900000000000,342000000000000,-204800000000000,-231600000000000,-21400000000000,137550000000000,-1055100000000000,91550000000000,169100000000000,5800000000000,52200000000000,-421750000000000,-215200000000000,62250000000000,-547150000000000,225350000000000,68750000000000,794000000000000,746250000000000,-119050000000000,452700000000000,-996650000000000,-312950000000000,178950000000000,320700000000000,-179900000000000,293900000000000,2350000000000,-83100000000000,219600000000000,-62350000000000,194729410000000,-198729410000000,69500000000000,-271100000000000,110400000000000,132400000000000,-923850000000000,-381050000000000,-272500000000000,-449450000000000,-317450000000000,481300000000000,323050000000000,52700000000000,-2377000000000000,1718300000000000,1399750000000000,1599850000000000,110650000000000,-28650000000000,-18300000000000,100950000000000,-148850000000000,-274500000000000,-1526650000000000,556500000000000,-24168420000000,-180281580000000,-76700000000000,-59950000000000,-610400000000000,-252250000000000,26750000000000,1122750000000000,-441450000000000,144800000000000,-22950000000000,42900000000000,-379400000000000,-260150000000000,748650000000000,-1436950000000000,-841850000000000,99450000000000,148850000000000,-24800000000000,227550000000000,74500000000000,79850000000000,-197700000000000,783650000000000,113050000000000,-79450000000000,-332850000000000,159305560000000,-30155560000000,41100000000000,52400000000000,-94100000000000,157300000000000,-147350000000000,3460530000000,-817910530000000,-2087900000000000,301950000000000,48000000000000,-36950000000000,227100000000000,-60950000000000,-107900000000000,246086840000000,-192936840000000,86000000000000,-57750000000000,-164750000000000,116100000000000,-180600000000000,32400000000000,4850000000000,103750000000000],"hashrate_average_7d":32946200866071428,"hashrate_average_7d_count":168,"hashrate_block":719919654471544.6,"expected_blocks":41,"luck":0,"multipool":15}],"hashblock":{"hashrate_average_100":29516705833333330,"blocks_count":41,"pools":[[1373843055555555.5,3,457947685185185.2,"https:\/\/pool.btc.com"],[523115354363944.8,45,11624785652532.107,"https:\/\/www.f2pool.com"],[719919654471544.6,41,17559015962720.602,"https:\/\/www.poolin.com"]],"hashrate_block_all":642454224116601.4,"hashrate_block_min":11624785652532.107,"hashrate_block_max":457947685185185.2,"pool_hashblock_average":162377162266812.66,"hashrate_block":719919654471544.6},"time":1670206243,"hashrate":64569999999999990,"difficulty":4517263388.595089,"height":717526,"symbol":"DCR","maxhash":29819000000000000,"poolshash":73088187623052690,"nethash_estimat":71991965447154460,"poolsminers":1440,"supply":{"circulating":14556460.36400518,"total":21000000,"emission24":2337},"block_time_target":300,"block_height_ok":true,"algo":"Blake256R14","hashrate_from_diff":false,"hashrate_src":"https:\/\/lab.antpool.com","unit":"H\/s","block_time_average":326,"minerstat":[1.8250902548007e-16,21.620798411143,0.98359683,1999],"link":{"coingecko":"decred","cmc":"decred","whattomine":"152-dcr-blake (14r)","coin360":"decred-dcr","coinpaprika":"dcr-decred"},"latest_release":{"tag":"release-v1.7.5","name":"dcrd v1.7.5","t":1665429869},"price":21.73}