{"data":[{"url":"https:\/\/www.okx.com\/pool","hashrate":0,"miners":-1,"minpay":-1,"id":23,"pool_id":"okx.com","i":1629,"workers":0,"lastblock":630904,"feetype":"PPLNS","fee":2,"country":"HK|Hong Kong","hashrate_average_100_count":70,"hashrate_average_100":0,"hashrate_average_1h":0,"history_start":1669077821,"history_interval":3600,"history_addlast":true,"history":[0,0,0,0,0,0,0,0,0,0,0,0,0,0,0,0,0,0,0,0,0,0,0,0,0,0,0,0,0,0,0,0,0,0,0,0,0,0,0,0,0,0,0,0,0,0,0,0,0,0,0,0,0,0,0,0,0,0,0,0,0,0,0,0,0,0,0,0,0,0,0,0,0,0,0,0,0,0,0,0,0,0,0,0,0,0,0,0,0,0,0,0,0,0,0,0,0,0,0,0,0,0,0,0,0,0,0,0,0,0,0,0,0,0,0,0,0,0,0,0,0,0,0,0,0,0,0,0,0,0,0,0,0,0,0,0,0,0,0,0,0,0,0,0,0,0,0,0,0,0,0,0,0,0,0,0,0,0,0,0,0,0,0,0,0,0,0,0,0],"hashrate_average_7d":0,"hashrate_average_7d_count":169,"expected_blocks":0,"multipool":5},{"url":"https:\/\/www2.coinmine.pl\/dcr","hashrate":271095604532565,"miners":-1,"minpay":0.05,"id":5,"pool_id":"coinmine.pl","i":12460,"workers":20,"blocks_nr":5,"lastblock":715523,"lastblocktime":"1669600358","fee":1,"feetype":"PPLNS","height":715859,"country":"WL|EU , US , Asia","blocks_1000":8,"hashrate_average_100_count":70,"hashrate_average_100":169084027996760.97,"hashrate_average_1h":173650099679489.44,"history_start":1669077821,"history_interval":3600,"history_addlast":true,"history":[214243577000000,5278832600000,10337353000000,6384521000000,61757638900000,-50611534800000,32371008900000,-30715596300000,-54888497900000,-1029349700000,3652682700000,-17132639500000,-24755257500000,9153226400000,68020450800000,16145201300000,-65281933000000,55023360400000,-34755522100000,-36055645700000,-18941345800000,25803939000000,-19610784900000,53259156700000,-4720210700000,-88623678500000,22902775200000,64546856300000,29447947800000,1932928200000,451873700000,18338094900000,5769165000000,-71218044500000,47409799700000,-64309579500000,35574196500000,-17828345400000,-6406132000000,-32752850300000,-6097369900000,142071629900000,-138824852900000,-41848158800000,3422884600000,109880257600000,-6338898600000,-20926635100000,43246805500000,-11959336000000,-4931809700000,81291013000000,-41457612600000,37430935700000,-105444673100000,12721319200000,13508188600000,-20271635700000,-77032555200000,-12918777400000,52210251000000,-10206318600000,2494640400000,-7634984300000,56815032400000,-54304760600000,34345812300000,64268475700000,-88260882500000,61129133200000,-65069400800000,32402618700000,-24648616700000,42976146400000,30807731300000,-9297247800000,2554779500000,85404089700000,-45528368800000,-9971192100000,-18550482300000,-7578587700000,58366606000000,-71298040700000,52900609000000,-51407130300000,48562977400000,-77910553000000,48140424400000,-24825620900000,-61142640300000,103990667300000,-106689600000,-28347927600000,-10342407900000,-22075974100000,9766804900000,-64248192200000,75429586100000,40367772700000,24800555700000,-33238562800000,-34849486900000,2400984700000,-8180979200000,35828590000000,7758444500000,103227114500000,-78787982400000,-15178553100000,39857588800000,-25387716900000,32113833800000,-87450397700000,20645245700000,-58147050600000,-57453097700000,45697721500000,-8871256600000,62012026600000,-87608565100000,34290397900000,12384495900000,-33714043000000,32911763200000,65773747500000,-65695843600000,64863032300000,-44617210400000,104807893400000,-78270765400000,36193914000000,1460570100000,20133681600000,-85303155400000,57457514300000,-23386467600000,-4437668600000,-106343795100000,47742809300000,-22680686900000,-26215017700000,-27662747660000,5191617380000,41436877280000,62652761900000,-50574902700000,56271186100000,-59335487500000,66440280300000,-40795549000000,103250880600000,-43998499800000,-10049972000000,-30953307200000,-18767935600000,5450015800000,-12178091100000,-27650733200000,43210893700000,-17965991100000,56110652600000,-51714324000000,-8281823000000,-26399687600000,64778422100000,-32423343600000,56836416000000,-49637628200000],"hashrate_average_7d":203916639761893.44,"hashrate_average_7d_count":169,"expected_blocks":0.24,"multipool":6},{"url":"https:\/\/lab.antpool.com","hashrate":14490000000000000,"miners":-1,"minpay":0.1,"id":11,"pool_id":"antpool.com","i":2080,"nethash":89670000000000000,"netdiff":5470548894,"feetype":"PPS","fee":3,"income":3.5084221e-15,"lastblock":712107,"lastblocktime":"1668580440","country":"WL|Global","hashrate_average_100_count":70,"hashrate_average_100":14234593750000000,"hashrate_average_1h":14255714285714286,"history_start":1669077821,"history_interval":3600,"history_addlast":true,"history":[13706000000000000,-181000000000000,130500000000000,16000000000000,-103500000000000,99368420000000,25409360000000,96722220000000,472500000000000,-120500000000000,37500000000000,178368420000000,-166315790000000,64947370000000,72500000000000,-50722220000000,-39356730000000,124078950000000,-180500000000000,246500000000000,-123500000000000,49500000000000,25000000000000,-119000000000000,91500000000000,-148000000000000,162000000000000,-108500000000000,182000000000000,-40500000000000,63000000000000,10500000000000,34500000000000,-145500000000000,-211500000000000,-59000000000000,42500000000000,73000000000000,-76000000000000,103000000000000,-157000000000000,227944440000000,-94444440000000,-205000000000000,145500000000000,-85500000000000,193000000000000,-81000000000000,-184500000000000,500500000000000,-132500000000000,13000000000000,-158000000000000,89500000000000,-170000000000000,-6500000000000,62000000000000,-146815790000000,189315790000000,-24500000000000,251000000000000,-319500000000000,24000000000000,203500000000000,-242500000000000,169000000000000,-215500000000000,21000000000000,-45500000000000,83000000000000,-103500000000000,112500000000000,-13000000000000,17500000000000,12500000000000,-47000000000000,32500000000000,129000000000000,-159500000000000,59000000000000,118000000000000,-68000000000000,-12500000000000,-5000000000000,46500000000000,-98500000000000,91000000000000,19500000000000,-169000000000000,186500000000000,67000000000000,-193500000000000,55000000000000,-84500000000000,-25500000000000,158000000000000,-80000000000000,-27000000000000,44500000000000,-79500000000000,32000000000000,26500000000000,-34500000000000,214500000000000,74500000000000,-194500000000000,-32500000000000,15500000000000,-87000000000000,141000000000000,-138000000000000,147500000000000,-311500000000000,223000000000000,-238000000000000,276500000000000,-90500000000000,164500000000000,-98500000000000,98000000000000,-169500000000000,43000000000000,-22500000000000,280500000000000,-275500000000000,189500000000000,-50500000000000,-51000000000000,110500000000000,-126500000000000,19500000000000,-1500000000000,98500000000000,-49000000000000,-67500000000000,47000000000000,-69000000000000,-134000000000000,172000000000000,-74000000000000,206000000000000,-164000000000000,123000000000000,12500000000000,-73500000000000,271500000000000,-190000000000000,-2063000000000000,1330500000000000,581500000000000,38500000000000,85500000000000,-35000000000000,-122000000000000,39500000000000,65500000000000,-153500000000000,-103500000000000,83000000000000,106000000000000,59000000000000,69500000000000,-110763160000000,180263160000000,-195000000000000,51500000000000,-257289470000000,192789470000000,48714290000000],"hashrate_average_7d":14189660096982254,"hashrate_average_7d_count":169,"expected_blocks":19.89,"multipool":16},{"url":"https:\/\/pool.btc.com","hashrate":4163999999999999.5,"miners":-1,"minpay":0.1,"id":4,"pool_id":"pool.btc.com","feetype":"PPS","i":14506,"workers":101,"income":3.61692994858e-15,"i_blocks":14548,"json_blocks":{"err_no":0,"data":{"blocks":{"current_page":1,"data":[{"height":715825,"is_orphaned":0,"hash":"00000000000000001f07b9fa2b96a59302ee802c18b405c11ae58edb23d73229","rewards":"0.98359683","size":2252,"prev_hash":"000000000000000034031f38dd4c2acfde311333c2b7a5f3f6e8151a160e8f04","bits":419481852,"version":9,"created_at":1669679208,"region_id":36,"region_name":"BitDeer"},{"height":715816,"is_orphaned":0,"hash":"0000000000000000922c8592c1284e4d5003d962a55096d107afebf42f37d7fe","rewards":"0.98359683","size":8546,"prev_hash":"00000000000000007e592d910a7f72227b7564e0bc5b9504eb67eccb605d67bc","bits":419486149,"version":9,"created_at":1669678299,"region_id":34,"region_name":"America"},{"height":715814,"is_orphaned":0,"hash":"0000000000000000512a4896efffed89bba1d8cde328a8bc021d6c2edab66a9f","rewards":"0.98359683","size":2882,"prev_hash":"0000000000000000cc4e707ac01ead389ed35e56b84556de962878ae4d998551","bits":419486149,"version":9,"created_at":1669677302,"region_id":36,"region_name":"BitDeer"},{"height":715805,"is_orphaned":0,"hash":"000000000000000042ee3eee4157d747278343f7b51d7995478be2e8b7e9d4ff","rewards":"0.98359683","size":19290,"prev_hash":"0000000000000000b1ce6c38ab0b289c34abf4a3decb4174926e22f660245fe2","bits":419486149,"version":9,"created_at":1669675754,"region_id":34,"region_name":"America"},{"height":715783,"is_orphaned":0,"hash":"0000000000000000c6c36cd812326e628b64673f37d9776eb39bcd5668a1951f","rewards":"0.98359683","size":43161,"prev_hash":"00000000000000002c5c76c7168365a4cc8bd6e464e6faf9638869ddbdd1edf2","bits":419486149,"version":9,"created_at":1669671131,"region_id":36,"region_name":"BitDeer"},{"height":715779,"is_orphaned":0,"hash":"00000000000000004be4222a7b0c5fe6ccd0a02c3c5527d6ae701f32a505577d","rewards":"0.98359683","size":2552,"prev_hash":"00000000000000009706eb80fe128884c7d5fd19cf578c35a6dcaf4e398595f5","bits":419486149,"version":9,"created_at":1669669860,"region_id":34,"region_name":"America"},{"height":715774,"is_orphaned":0,"hash":"0000000000000000824037b2e7b54f5c7329b6e41167103146722696910dcb5b","rewards":"0.98359683","size":57479,"prev_hash":"0000000000000000c0e17700375cdf35e1f8138665a9b39503fb67fd177f9e2e","bits":419486149,"version":9,"created_at":1669667963,"region_id":34,"region_name":"America"},{"height":715765,"is_orphaned":0,"hash":"00000000000000009cdc0f8d4750e42b62b4827ae9387e2d820808b88f5a0004","rewards":"0.98359683","size":7045,"prev_hash":"0000000000000000901a635c26c325b42d03f55f40099597f8936928aa046527","bits":419486149,"version":9,"created_at":1669664702,"region_id":36,"region_name":"BitDeer"},{"height":715759,"is_orphaned":0,"hash":"0000000000000000bb2408493a972ae591f25f1fe34fab3bd3d4c2e5c0e59960","rewards":"0.98359683","size":7831,"prev_hash":"00000000000000001c3fc2cff36855ae6d78324ff022785fbe29c81e82dccbf6","bits":419486149,"version":9,"created_at":1669663333,"region_id":36,"region_name":"BitDeer"},{"height":715753,"is_orphaned":0,"hash":"000000000000000019bdbc368d36cabca106240e21cf65c05b225da14a6a084f","rewards":"0.98359683","size":38241,"prev_hash":"00000000000000000dd158089c6e0358f5d527cf24061874d0338eb73e9f270c","bits":419486149,"version":9,"created_at":1669660731,"region_id":34,"region_name":"America"}],"first_page_url":"https:\/\/eu-api.connectbtc.com\/\/public\/v1\/pool\/blocks\/merge?order_by=desc&page_size=10&page=1","from":1,"last_page":2258,"last_page_url":"https:\/\/eu-api.connectbtc.com\/\/public\/v1\/pool\/blocks\/merge?order_by=desc&page_size=10&page=2258","next_page_url":"https:\/\/eu-api.connectbtc.com\/\/public\/v1\/pool\/blocks\/merge?order_by=desc&page_size=10&page=2","path":"https:\/\/eu-api.connectbtc.com\/\/public\/v1\/pool\/blocks\/merge","per_page":10,"prev_page_url":null,"to":10,"total":22580},"blocks_count":22580,"rewards_count":"190955.50340967"},"trace_id":"54dd8ab2-748a-41da-926f-3e1d9ba5c38a"},"blocks_nr":10,"lastblock":715825,"lastblocktime":"1669679205","country":"WL|CN , EU , US","blocks_1000":69,"blocks_count":8,"hashrate_average_100_count":70,"hashrate_average_100":4229706696428571.5,"hashrate_average_1h":4147000000000000,"history_start":1669077821,"history_interval":3600,"history_addlast":true,"history":[4050150000000000,65650000000000,-119450000000000,71700000000000,-25800000000000,61960526000000,-13488304000000,-7772222000000,-32300000000000,-200000000000,30700000000000,77271053000000,78684210000000,5594737000000,-100500000000000,-20977778000000,37146199000000,17931579000000,-38250000000000,50000000000,2650000000000,-6850000000000,17900000000000,88500000000000,-26400000000000,-9700000000000,42200000000000,-11850000000000,-48200000000000,-24050000000000,-26850000000000,6500000000000,-47700000000000,85750000000000,4950000000000,-56650000000000,4300000000000,41250000000000,-18100000000000,-22300000000000,-5200000000000,34027778000000,-57427778000000,11250000000000,62050000000000,-67400000000000,-36100000000000,82100000000000,-18600000000000,-40100000000000,3500000000000,-56800000000000,9050000000000,-32250000000000,21450000000000,-550000000000,19950000000000,26600000000000,-18000000000000,62450000000000,-38950000000000,41850000000000,-38200000000000,-62950000000000,59250000000000,-39200000000000,4350000000000,-38750000000000,-38400000000000,51850000000000,-55900000000000,71450000000000,47950000000000,57550000000000,-19450000000000,37100000000000,28700000000000,26350000000000,27700000000000,-31250000000000,-35300000000000,-15150000000000,2150000000000,13500000000000,18950000000000,-3550000000000,-14700000000000,14400000000000,-2050000000000,19950000000000,-61650000000000,30200000000000,-29900000000000,4300000000000,-57850000000000,34550000000000,-26050000000000,40450000000000,36350000000000,-13700000000000,1400000000000,-79600000000000,56700000000000,-10400000000000,14300000000000,20850000000000,25000000000000,45350000000000,31800000000000,-28750000000000,-8200000000000,34000000000000,24250000000000,700000000000,-22350000000000,-41050000000000,-36850000000000,1950000000000,-28000000000000,-17550000000000,53150000000000,5200000000000,-31150000000000,-48550000000000,350000000000,-51300000000000,43450000000000,11750000000000,-31800000000000,-13350000000000,40650000000000,-54200000000000,2200000000000,46550000000000,74200000000000,23250000000000,-27600000000000,11700000000000,-15100000000000,-4700000000000,5500000000000,1450000000000,-38850000000000,13350000000000,-3400000000000,-14100000000000,28750000000000,-71050000000000,-2100000000000,43650000000000,52500000000000,48550000000000,-18600000000000,2900000000000,4900000000000,-14350000000000,10150000000000,-23150000000000,29100000000000,14000000000000,15000000000000,-30300000000000,4502632000000,-23252632000000,11450000000000,11200000000000,-37502632000000,-11997368000000,-58950000000000],"hashrate_average_7d":4159725606420118.5,"hashrate_average_7d_count":169,"hashrate_block":528713337053571.44,"expected_blocks":5.91,"luck":2.0911135104208443,"multipool":7},{"url":"https:\/\/www.f2pool.com","hashrate":24506816869801944,"miners":-1,"minpay":0.1,"id":14,"pool_id":"f2pool.com","fee":3,"feetype":"PPS%3","i":2449,"income":3.4179466468853283e-15,"blocks_nr":8,"lastblock":715858,"lastblocktime":1669687672,"country":"WL|Global","blocks_1000":315,"blocks_count":25,"hashrate_average_100_count":70,"hashrate_average_100":23690704574568200,"hashrate_average_1h":24037898597611516,"history_start":1669077821,"history_interval":3600,"history_addlast":true,"history":[23659059250000000,-62908720000000,96921140000000,158625160000000,-14197340000000,-9728940000000,24851380000000,57249830000000,-124017520000000,-99054970000000,-5491420000000,-133352650000000,161693810000000,-36058940000000,-90386300000000,-112397430000000,-35170550000000,138669330000000,-48218390000000,-88908260000000,-51060690000000,123213900000000,-155238270000000,183282740000000,280727680000000,67818540000000,19851010000000,-88646680000000,-165373900000000,35077030000000,-69885720000000,-190380670000000,226019430000000,-129763950000000,41532040000000,-150598400000000,-170951030000000,89135590000000,-15957940000000,-128988140000000,256774500000000,-114562460000000,118743040000000,-14714760000000,-256689600000000,239096090000000,70374250000000,1166740000000,-111028280000000,64654440000000,39946990000000,-129474670000000,354028110000000,-633972600000000,786634810000000,233208800000000,-114059150000000,-55734680000000,-75160640000000,76205510000000,-40526660000000,148503750000000,287565530000000,-73047570000000,89833840000000,-169475750000000,-280685280000000,16421730000000,-89549850000000,-107672000000000,14954500000000,47523400000000,-25514600000000,-109285940000000,330720790000000,258630370000000,-152166390000000,-474049770000000,476356490000000,-27373940000000,-73736740000000,-225685670000000,80151610000000,69048140000000,23021710000000,108587940000000,-77526040000000,-16425900000000,-45078240000000,-26069590000000,-66848100000000,-97965900000000,54296520000000,38946170000000,249142490000000,-10519080000000,675279540000000,138922030000000,-177037950000000,-62146030000000,-341289840000000,-327242810000000,291854410000000,45511430000000,73728670000000,40248470000000,-223832970000000,-59602640000000,139854520000000,-119888150000000,-55065270000000,-65314550000000,-34026940000000,19306810000000,71817180000000,-121977290000000,-86331940000000,56728440000000,-68268360000000,62853600000000,-231752270000000,-162234860000000,289429900000000,6934430000000,-36850990000000,-113611800000000,-89663570000000,29229160000000,-238485930000000,50696350000000,153479670000000,-131402140000000,100806170000000,141307580000000,-146505080000000,-67873350000000,-63650530000000,13888380000000,-11139080000000,-2850430000000,-67380950000000,-203030310000000,209410680000000,-35233360000000,84641900000000,147607650000000,60816720000000,-62703050000000,-106507260000000,-103515170000000,40345210000000,-20409500000000,42563440000000,109405420000000,31104460000000,-301071240000000,184633310000000,58221070000000,-118121740000000,73343020000000,7769420000000,150005820000000,67888170000000,-6903730000000,-114978620000000,61655910000000,157656320000000,90805750000000,209117840000000],"hashrate_average_7d":23719058897988164,"hashrate_average_7d_count":169,"hashrate_block":947628182982728,"expected_blocks":33.1,"luck":-8.095837190667744,"multipool":33},{"url":"https:\/\/www.poolin.com","hashrate":34857999999999996,"miners":-1,"minpay":0.01,"id":3,"pool_id":"poolin.com","fee":3,"feetype":"PPS","i":13567,"json":{"err_no":0,"data":{"shares":{"shares_1m":34.912,"shares_5m":34.858,"shares_15m":34.896,"shares_1h":34.631,"shares_unit":"P"},"reject":{"1m":0,"5m":0,"15m":0.002,"1h":0.0041},"workers":1411,"users":368,"total_blocks":147023,"total_rewards":104877147425018}},"workers":1411,"netdiff":5470548894.95763,"nethash":"78319428636329902","income":3.99533e-15,"blocks_nr":18,"lastblock":715856,"lastblocktime":"1669686770","country":"US|United States","blocks_1000":487,"blocks_count":54,"hashrate_average_100_count":70,"hashrate_average_100":34356040178571424,"hashrate_average_1h":34500357142857144,"history_start":1669077821,"history_interval":3600,"history_addlast":true,"history":[35757850000000000,-1282800000000000,746150000000000,492600000000000,-62700000000000,276900000000000,-200666670000000,139816670000000,241950000000000,28950000000000,-321950000000000,-16310530000000,-40526310000000,-446913160000000,-871000000000000,1233538890000000,4479530000000,130231580000000,-96450000000000,-347700000000000,268900000000000,8350000000000,37200000000000,-811450000000000,-117750000000000,239200000000000,299450000000000,-404300000000000,-169450000000000,279950000000000,333250000000000,828350000000000,-92750000000000,-1072200000000000,-391500000000000,1105050000000000,1385600000000000,89400000000000,-220150000000000,34050000000000,112100000000000,-295027780000000,90127780000000,183900000000000,-202850000000000,-160450000000000,54800000000000,57600000000000,-625700000000000,324300000000000,22850000000000,-170200000000000,-470600000000000,694600000000000,-1875700000000000,833000000000000,1196150000000000,-507602630000000,-545297370000000,-33550000000000,-350850000000000,204900000000000,51050000000000,15200000000000,-3950000000000,-112550000000000,41300000000000,-167150000000000,218150000000000,-4850000000000,-75250000000000,-195200000000000,-411650000000000,-18900000000000,-687450000000000,359500000000000,-96950000000000,-87200000000000,237300000000000,-133050000000000,-342900000000000,-31300000000000,-660800000000000,-387550000000000,-727160530000000,-204239470000000,76100000000000,83700000000000,-29950000000000,-77300000000000,56750000000000,-112150000000000,17000000000000,-92900000000000,-25600000000000,253400000000000,-544250000000000,-125600000000000,-3255650000000000,1973600000000000,1726000000000000,72750000000000,137400000000000,557150000000000,587450000000000,581950000000000,-66850000000000,-192150000000000,-491700000000000,632100000000000,-82750000000000,66400000000000,-278950000000000,99900000000000,241850000000000,-143150000000000,-35900000000000,78250000000000,-5900000000000,129650000000000,682500000000000,31500000000000,-197100000000000,97900000000000,146350000000000,-363700000000000,154300000000000,376650000000000,77850000000000,-112250000000000,-250500000000000,-251100000000000,440550000000000,-53650000000000,3550000000000,-25450000000000,-16500000000000,145050000000000,157750000000000,48800000000000,-146800000000000,-290100000000000,-6050000000000,-67150000000000,-191050000000000,265250000000000,217000000000000,-139400000000000,193550000000000,-505900000000000,-91100000000000,272500000000000,-11600000000000,75650000000000,-214700000000000,104800000000000,238100000000000,-225250000000000,-141950000000000,-134800000000000,39000000000000,-253700000000000,231052630000000,191747370000000,8650000000000,-78550000000000,-13847370000000,25097370000000,141207140000000],"hashrate_average_7d":34667588252840236,"hashrate_average_7d_count":169,"hashrate_block":636222966269841.1,"expected_blocks":48,"luck":6.004723680246904,"multipool":15}],"hashblock":{"hashrate_average_100":62276451449568190,"blocks_count":87,"pools":[[528713337053571.44,8,66089167131696.43,"https:\/\/pool.btc.com"],[947628182982728,25,37905127319309.12,"https:\/\/www.f2pool.com"],[636222966269841.1,54,11781906782774.836,"https:\/\/www.poolin.com"]],"hashrate_block_all":715821281029519.5,"hashrate_block_min":11781906782774.836,"hashrate_block_max":66089167131696.43,"pool_hashblock_average":38592067077926.79,"hashrate_block":715821281029519.5},"time":1669688562,"hashrate":89670000000000000,"difficulty":5470548894.95763,"height":715859,"symbol":"DCR","maxhash":34857999999999996,"poolshash":78289912474334510,"nethash_estimat":71582128102951950,"poolsminers":1532,"supply":{"circulating":14541761.88639992,"total":21000000,"emission24":2948},"block_time_target":300,"block_height_ok":true,"algo":"Blake256R14","hashrate_from_diff":false,"hashrate_src":"https:\/\/lab.antpool.com","unit":"H\/s","block_time_average":258.7,"minerstat":[1.5073320839393e-16,19.370815041128,0.98377823,1638],"link":{"coingecko":"decred","cmc":"decred","whattomine":"152-dcr-blake (14r)","coin360":"decred-dcr","coinpaprika":"dcr-decred"},"latest_release":{"tag":"release-v1.7.5","name":"dcrd v1.7.5","t":1665429869},"price":19.54}