{"data":[{"url":"https:\/\/www.okx.com\/pool","hashrate":0,"miners":-1,"minpay":-1,"id":23,"pool_id":"okx.com","i":1617,"workers":0,"lastblock":630904,"feetype":"PPLNS","fee":2,"country":"HK|Hong Kong","hashrate_average_100_count":74,"hashrate_average_100":0,"hashrate_average_1h":0,"history_start":1668991423,"history_interval":3600,"history_addlast":true,"history":[9066500000000,-293000000000,232000000000,541500000000,68000000000,-1224500000000,615970588000,431029412000,-6634000000000,-2803500000000,0,0,0,0,0,0,0,0,0,0,0,0,0,0,0,0,0,0,0,0,0,0,0,0,0,0,0,0,0,0,0,0,0,0,0,0,0,0,0,0,0,0,0,0,0,0,0,0,0,0,0,0,0,0,0,0,0,0,0,0,0,0,0,0,0,0,0,0,0,0,0,0,0,0,0,0,0,0,0,0,0,0,0,0,0,0,0,0,0,0,0,0,0,0,0,0,0,0,0,0,0,0,0,0,0,0,0,0,0,0,0,0,0,0,0,0,0,0,0,0,0,0,0,0,0,0,0,0,0,0,0,0,0,0,0,0,0,0,0,0,0,0,0,0,0,0,0,0,0,0,0,0,0,0,0,0,0,0,0],"hashrate_average_7d":447606334840.2367,"hashrate_average_7d_count":169,"expected_blocks":0,"multipool":5},{"url":"https:\/\/www2.coinmine.pl\/dcr","hashrate":0,"miners":-1,"minpay":0.05,"id":5,"pool_id":"coinmine.pl","i":12448,"workers":0,"blocks_nr":5,"lastblock":715523,"lastblocktime":"1669600358","fee":1,"feetype":"PPLNS","height":715534,"country":"WL|EU , US , Asia","blocks_1000":11,"blocks_count":2,"hashrate_average_100_count":74,"hashrate_average_100":143366492385426.6,"hashrate_average_1h":105586006518286.58,"history_start":1668991423,"history_interval":3600,"history_addlast":true,"history":[327616015800000,-4357547100000,-32850163000000,4826476300000,-19536939400000,81531762600000,-20893343800000,-32753100700000,-15094533500000,-42934415300000,-4973361400000,-19443851400000,44047586800000,-6063009900000,9733095300000,-6794318800000,-6423751800000,-40595578600000,-34005517400000,37728606500000,-43543693100000,50570908100000,-17373332800000,-456395800000,6281979400000,5278832600000,10337353000000,6384521000000,61757638900000,-50611534800000,32371008900000,-30715596300000,-54888497900000,-1029349700000,3652682700000,-17132639500000,-24755257500000,9153226400000,68020450800000,16145201300000,-65281933000000,55023360400000,-34755522100000,-36055645700000,-18941345800000,25803939000000,-19610784900000,53259156700000,-4720210700000,-88623678500000,22902775200000,64546856300000,29447947800000,1932928200000,451873700000,18338094900000,5769165000000,-71218044500000,47409799700000,-64309579500000,35574196500000,-17828345400000,-6406132000000,-32752850300000,-6097369900000,142071629900000,-138824852900000,-41848158800000,3422884600000,109880257600000,-6338898600000,-20926635100000,43246805500000,-11959336000000,-4931809700000,81291013000000,-41457612600000,37430935700000,-105444673100000,12721319200000,13508188600000,-20271635700000,-77032555200000,-12918777400000,52210251000000,-10206318600000,2494640400000,-7634984300000,56815032400000,-54304760600000,34345812300000,64268475700000,-88260882500000,61129133200000,-65069400800000,32402618700000,-24648616700000,42976146400000,30807731300000,-9297247800000,2554779500000,85404089700000,-45528368800000,-9971192100000,-18550482300000,-7578587700000,58366606000000,-71298040700000,52900609000000,-51407130300000,48562977400000,-77910553000000,48140424400000,-24825620900000,-61142640300000,103990667300000,-106689600000,-28347927600000,-10342407900000,-22075974100000,9766804900000,-64248192200000,75429586100000,40367772700000,24800555700000,-33238562800000,-34849486900000,2400984700000,-8180979200000,35828590000000,7758444500000,103227114500000,-78787982400000,-15178553100000,39857588800000,-25387716900000,32113833800000,-87450397700000,20645245700000,-58147050600000,-57453097700000,45697721500000,-8871256600000,62012026600000,-87608565100000,34290397900000,12384495900000,-33714043000000,32911763200000,65773747500000,-65695843600000,64863032300000,-44617210400000,104807893400000,-78270765400000,36193914000000,1460570100000,20133681600000,-85303155400000,57457514300000,-23386467600000,-4437668600000,-106343795100000,47742809300000,-22680686900000,-26215017700000,-27662747660000,5191617380000,7647017580000],"hashrate_average_7d":214204297091479.22,"hashrate_average_7d_count":169,"hashrate_block":71683246192713.3,"expected_blocks":0.21,"luck":1.7909827046344065,"multipool":6},{"url":"https:\/\/lab.antpool.com","hashrate":13460000000000000,"miners":-1,"minpay":0.1,"id":11,"pool_id":"antpool.com","i":2068,"nethash":68230000000000000,"netdiff":4812040444,"feetype":"PPS","fee":3,"income":3.988542999999999e-15,"lastblock":712107,"lastblocktime":"1668580440","country":"WL|Global","hashrate_average_100_count":74,"hashrate_average_100":14272839949324324,"hashrate_average_1h":14263571428571428,"history_start":1668991423,"history_interval":3600,"history_addlast":true,"history":[14320000000000000,94500000000000,-149000000000000,-1499500000000000,-372000000000000,1445000000000000,-231352940000000,229852940000000,-82000000000000,63000000000000,28000000000000,-96500000000000,-47000000000000,-13000000000000,40500000000000,3000000000000,24000000000000,-81500000000000,-182000000000000,197500000000000,-35500000000000,30842110000000,-9342110000000,73000000000000,-44500000000000,-181000000000000,130500000000000,16000000000000,-103500000000000,99368420000000,25409360000000,96722220000000,472500000000000,-120500000000000,37500000000000,178368420000000,-166315790000000,64947370000000,72500000000000,-50722220000000,-39356730000000,124078950000000,-180500000000000,246500000000000,-123500000000000,49500000000000,25000000000000,-119000000000000,91500000000000,-148000000000000,162000000000000,-108500000000000,182000000000000,-40500000000000,63000000000000,10500000000000,34500000000000,-145500000000000,-211500000000000,-59000000000000,42500000000000,73000000000000,-76000000000000,103000000000000,-157000000000000,227944440000000,-94444440000000,-205000000000000,145500000000000,-85500000000000,193000000000000,-81000000000000,-184500000000000,500500000000000,-132500000000000,13000000000000,-158000000000000,89500000000000,-170000000000000,-6500000000000,62000000000000,-146815790000000,189315790000000,-24500000000000,251000000000000,-319500000000000,24000000000000,203500000000000,-242500000000000,169000000000000,-215500000000000,21000000000000,-45500000000000,83000000000000,-103500000000000,112500000000000,-13000000000000,17500000000000,12500000000000,-47000000000000,32500000000000,129000000000000,-159500000000000,59000000000000,118000000000000,-68000000000000,-12500000000000,-5000000000000,46500000000000,-98500000000000,91000000000000,19500000000000,-169000000000000,186500000000000,67000000000000,-193500000000000,55000000000000,-84500000000000,-25500000000000,158000000000000,-80000000000000,-27000000000000,44500000000000,-79500000000000,32000000000000,26500000000000,-34500000000000,214500000000000,74500000000000,-194500000000000,-32500000000000,15500000000000,-87000000000000,141000000000000,-138000000000000,147500000000000,-311500000000000,223000000000000,-238000000000000,276500000000000,-90500000000000,164500000000000,-98500000000000,98000000000000,-169500000000000,43000000000000,-22500000000000,280500000000000,-275500000000000,189500000000000,-50500000000000,-51000000000000,110500000000000,-126500000000000,19500000000000,-1500000000000,98500000000000,-49000000000000,-67500000000000,47000000000000,-69000000000000,-134000000000000,172000000000000,-74000000000000,206000000000000,-164000000000000,123000000000000,12500000000000,-92428570000000],"hashrate_average_7d":14127393226804736,"hashrate_average_7d_count":169,"expected_blocks":20.81,"multipool":16},{"url":"https:\/\/pool.btc.com","hashrate":4178000000000000,"miners":-1,"minpay":0.1,"id":4,"pool_id":"pool.btc.com","feetype":"PPS","i":14494,"workers":100,"income":4.1118923167668e-15,"i_blocks":14536,"json_blocks":{"err_no":0,"data":{"blocks":{"current_page":1,"data":[{"height":715531,"is_orphaned":0,"hash":"0000000000000000dff6f10b40809c837016ede55546d4c67613775020138932","rewards":"0.98359683","size":64262,"prev_hash":"0000000000000000a3be7c1cddc614336fe82616c9d6146f87a8a046b0d81d48","bits":419488893,"version":9,"created_at":1669601493,"region_id":36,"region_name":"BitDeer"},{"height":715519,"is_orphaned":0,"hash":"0000000000000000d41fccbeb5147b4716337110706d787b3ad73047960c0bf0","rewards":"0.98359683","size":55645,"prev_hash":"000000000000000042b322fa75d5836df62b7b43a9d260eff0bf298a7abb40b7","bits":419488893,"version":9,"created_at":1669598109,"region_id":34,"region_name":"America"},{"height":715505,"is_orphaned":0,"hash":"000000000000000037be09cf4c6f2c49ecc53dc2552bca7425de7a6d1082b1b3","rewards":"0.98359683","size":5575,"prev_hash":"0000000000000000973c271ecf671064021d304b9f4ab5e424725b9bad0cdcf3","bits":419488893,"version":9,"created_at":1669592834,"region_id":34,"region_name":"America"},{"height":715473,"is_orphaned":0,"hash":"000000000000000005911c16f9c8b09743a2ee90fc688f661b8488f2fe9a37e3","rewards":"0.98359683","size":2303,"prev_hash":"00000000000000003a472685c2d1551793072872c91e3ef6f160fd91adc3537c","bits":419488893,"version":9,"created_at":1669582453,"region_id":36,"region_name":"BitDeer"},{"height":715468,"is_orphaned":0,"hash":"0000000000000000106af41c8346fc7fbe720574557aea7dbd3c312dcd9f9500","rewards":"0.98359683","size":8025,"prev_hash":"00000000000000002fdbe1f31010b36a95cd8a32f49e9813f1bb099ee5c1dad7","bits":419488893,"version":9,"created_at":1669581692,"region_id":36,"region_name":"BitDeer"},{"height":715464,"is_orphaned":0,"hash":"0000000000000000b11ee13db202c65a34b3e5693e1b9ee546b8421d06090f01","rewards":"0.98359683","size":2764,"prev_hash":"00000000000000000b68cf51c7beab9b12452e7fd213e88201617879aeaa77a1","bits":419488893,"version":9,"created_at":1669581234,"region_id":36,"region_name":"BitDeer"},{"height":715439,"is_orphaned":0,"hash":"0000000000000000dfdbe4d22ecb329fbb706bb95b749fef63db4cdbf1234638","rewards":"0.98359683","size":39798,"prev_hash":"0000000000000000259fd27d3f9e455527153166f5d856357be68e49bb961ccf","bits":419488893,"version":9,"created_at":1669575060,"region_id":34,"region_name":"America"},{"height":715402,"is_orphaned":0,"hash":"000000000000000067f2ab6ecf411abe2e221693fa8cb3e6a77989292ef12536","rewards":"0.98359683","size":6464,"prev_hash":"000000000000000074655cc0c1a27a8deb10a45922d718d88213ab3171689cb7","bits":419488893,"version":9,"created_at":1669563712,"region_id":34,"region_name":"America"},{"height":715394,"is_orphaned":0,"hash":"0000000000000000a4b1ed3ff8663cb8d7335dde8300110a661956943f5ddede","rewards":"0.98359683","size":6713,"prev_hash":"0000000000000000bcfdb4c382f2e66f1723552d5b3acab6befb4f8d31d424fa","bits":419488893,"version":9,"created_at":1669561687,"region_id":34,"region_name":"America"},{"height":715381,"is_orphaned":0,"hash":"00000000000000003a20c01345813aa97dc5eb5c20f057798bdb90c1d70812b8","rewards":"0.98359683","size":2409,"prev_hash":"000000000000000076fdf7eba8b4e2cd8438f49ca15ef8b55556aee5ab92e499","bits":419485377,"version":9,"created_at":1669558458,"region_id":34,"region_name":"America"}],"first_page_url":"https:\/\/eu-api.connectbtc.com\/\/public\/v1\/pool\/blocks\/merge?order_by=desc&page_size=10&page=1","from":1,"last_page":2256,"last_page_url":"https:\/\/eu-api.connectbtc.com\/\/public\/v1\/pool\/blocks\/merge?order_by=desc&page_size=10&page=2256","next_page_url":"https:\/\/eu-api.connectbtc.com\/\/public\/v1\/pool\/blocks\/merge?order_by=desc&page_size=10&page=2","path":"https:\/\/eu-api.connectbtc.com\/\/public\/v1\/pool\/blocks\/merge","per_page":10,"prev_page_url":null,"to":10,"total":22555},"blocks_count":22555,"rewards_count":"190931.11020829"},"trace_id":"ed56a69a-5322-4148-bdbd-53560a3eb33f"},"blocks_nr":10,"lastblock":715531,"lastblocktime":"1669601467","country":"WL|CN , EU , US","blocks_1000":58,"blocks_count":7,"hashrate_average_100_count":74,"hashrate_average_100":4196256440033783.5,"hashrate_average_1h":4177571428571428.5,"history_start":1668991423,"history_interval":3600,"history_addlast":true,"history":[4070850000000000,-45250000000000,22250000000000,-22550000000000,-27100000000000,24400000000000,26223529000000,23426471000000,5050000000000,53100000000000,13000000000000,-61950000000000,121100000000000,-29450000000000,-17550000000000,8250000000000,41300000000000,-13600000000000,-45250000000000,8550000000000,29400000000000,-33200000000000,-94700000000000,4250000000000,-10400000000000,65650000000000,-119450000000000,71700000000000,-25800000000000,61960526000000,-13488304000000,-7772222000000,-32300000000000,-200000000000,30700000000000,77271053000000,78684210000000,5594737000000,-100500000000000,-20977778000000,37146199000000,17931579000000,-38250000000000,50000000000,2650000000000,-6850000000000,17900000000000,88500000000000,-26400000000000,-9700000000000,42200000000000,-11850000000000,-48200000000000,-24050000000000,-26850000000000,6500000000000,-47700000000000,85750000000000,4950000000000,-56650000000000,4300000000000,41250000000000,-18100000000000,-22300000000000,-5200000000000,34027778000000,-57427778000000,11250000000000,62050000000000,-67400000000000,-36100000000000,82100000000000,-18600000000000,-40100000000000,3500000000000,-56800000000000,9050000000000,-32250000000000,21450000000000,-550000000000,19950000000000,26600000000000,-18000000000000,62450000000000,-38950000000000,41850000000000,-38200000000000,-62950000000000,59250000000000,-39200000000000,4350000000000,-38750000000000,-38400000000000,51850000000000,-55900000000000,71450000000000,47950000000000,57550000000000,-19450000000000,37100000000000,28700000000000,26350000000000,27700000000000,-31250000000000,-35300000000000,-15150000000000,2150000000000,13500000000000,18950000000000,-3550000000000,-14700000000000,14400000000000,-2050000000000,19950000000000,-61650000000000,30200000000000,-29900000000000,4300000000000,-57850000000000,34550000000000,-26050000000000,40450000000000,36350000000000,-13700000000000,1400000000000,-79600000000000,56700000000000,-10400000000000,14300000000000,20850000000000,25000000000000,45350000000000,31800000000000,-28750000000000,-8200000000000,34000000000000,24250000000000,700000000000,-22350000000000,-41050000000000,-36850000000000,1950000000000,-28000000000000,-17550000000000,53150000000000,5200000000000,-31150000000000,-48550000000000,350000000000,-51300000000000,43450000000000,11750000000000,-31800000000000,-13350000000000,40650000000000,-54200000000000,2200000000000,46550000000000,74200000000000,23250000000000,-27600000000000,11700000000000,-15100000000000,-4700000000000,5500000000000,1450000000000,-38850000000000,13350000000000,-1528571000000],"hashrate_average_7d":4143781789603551.5,"hashrate_average_7d_count":169,"hashrate_block":599465205719111.9,"expected_blocks":6.12,"luck":0.8821815532855091,"multipool":7},{"url":"https:\/\/www.f2pool.com","hashrate":23421842555544744,"miners":-1,"minpay":0.1,"id":14,"pool_id":"f2pool.com","fee":3,"feetype":"PPS%3","i":2437,"income":3.8856789476845125e-15,"blocks_nr":7,"lastblock":715534,"lastblocktime":1669602011,"country":"WL|Global","blocks_1000":313,"blocks_count":32,"hashrate_average_100_count":74,"hashrate_average_100":23352586228839250,"hashrate_average_1h":23438265942985748,"history_start":1668991423,"history_interval":3600,"history_addlast":true,"history":[23852623670000000,41964940000000,-9607500000000,-58903100000000,123281330000000,-416687450000000,-18644330000000,-116184350000000,33242480000000,155201910000000,-225059510000000,113254600000000,180769030000000,-79631070000000,-90642420000000,4770880000000,30479370000000,-20266270000000,95463850000000,-189391950000000,-125638800000000,97927180000000,-72183350000000,185500900000000,167419210000000,-62908720000000,96921140000000,158625160000000,-14197340000000,-9728940000000,24851380000000,57249830000000,-124017520000000,-99054970000000,-5491420000000,-133352650000000,161693810000000,-36058940000000,-90386300000000,-112397430000000,-35170550000000,138669330000000,-48218390000000,-88908260000000,-51060690000000,123213900000000,-155238270000000,183282740000000,280727680000000,67818540000000,19851010000000,-88646680000000,-165373900000000,35077030000000,-69885720000000,-190380670000000,226019430000000,-129763950000000,41532040000000,-150598400000000,-170951030000000,89135590000000,-15957940000000,-128988140000000,256774500000000,-114562460000000,118743040000000,-14714760000000,-256689600000000,239096090000000,70374250000000,1166740000000,-111028280000000,64654440000000,39946990000000,-129474670000000,354028110000000,-633972600000000,786634810000000,233208800000000,-114059150000000,-55734680000000,-75160640000000,76205510000000,-40526660000000,148503750000000,287565530000000,-73047570000000,89833840000000,-169475750000000,-280685280000000,16421730000000,-89549850000000,-107672000000000,14954500000000,47523400000000,-25514600000000,-109285940000000,330720790000000,258630370000000,-152166390000000,-474049770000000,476356490000000,-27373940000000,-73736740000000,-225685670000000,80151610000000,69048140000000,23021710000000,108587940000000,-77526040000000,-16425900000000,-45078240000000,-26069590000000,-66848100000000,-97965900000000,54296520000000,38946170000000,249142490000000,-10519080000000,675279540000000,138922030000000,-177037950000000,-62146030000000,-341289840000000,-327242810000000,291854410000000,45511430000000,73728670000000,40248470000000,-223832970000000,-59602640000000,139854520000000,-119888150000000,-55065270000000,-65314550000000,-34026940000000,19306810000000,71817180000000,-121977290000000,-86331940000000,56728440000000,-68268360000000,62853600000000,-231752270000000,-162234860000000,289429900000000,6934430000000,-36850990000000,-113611800000000,-89663570000000,29229160000000,-238485930000000,50696350000000,153479670000000,-131402140000000,100806170000000,141307580000000,-146505080000000,-67873350000000,-63650530000000,13888380000000,-11139080000000,-2850430000000,-67380950000000,-203030310000000,209410680000000,-35233360000000,143738460000000],"hashrate_average_7d":23726136392721896,"hashrate_average_7d_count":169,"hashrate_block":729768319651226.5,"expected_blocks":34.05,"luck":-2.046270729854001,"multipool":33},{"url":"https:\/\/www.poolin.com","hashrate":34938000000000004,"miners":-1,"minpay":0.01,"id":3,"pool_id":"poolin.com","fee":3,"feetype":"PPS","i":13555,"json":{"err_no":0,"data":{"shares":{"shares_1m":34.03,"shares_5m":34.938,"shares_15m":34.894,"shares_1h":34.706,"shares_unit":"P"},"reject":{"1m":0,"5m":0,"15m":0.0057,"1h":0.0053},"workers":1412,"users":368,"total_blocks":146856,"total_rewards":104860800045705}},"workers":1412,"netdiff":4812040444.8969965,"nethash":"68891854446697731","income":4.542080000000001e-15,"blocks_nr":17,"lastblock":715533,"lastblocktime":"1669601663","country":"US|United States","blocks_1000":487,"blocks_count":50,"hashrate_average_100_count":74,"hashrate_average_100":34725356735641892,"hashrate_average_1h":34281285714285716,"history_start":1668991423,"history_interval":3600,"history_addlast":true,"history":[32561850000000000,-1758350000000000,-1071050000000000,512450000000000,652700000000000,1052400000000000,809470590000000,-427820590000000,2717750000000000,214550000000000,-5095300000000000,4556250000000000,829000000000000,-112250000000000,340850000000000,60200000000000,-91100000000000,-6100000000000,-130800000000000,185900000000000,-55900000000000,45036840000000,-147836840000000,132200000000000,-16250000000000,-1282800000000000,746150000000000,492600000000000,-62700000000000,276900000000000,-200666670000000,139816670000000,241950000000000,28950000000000,-321950000000000,-16310530000000,-40526310000000,-446913160000000,-871000000000000,1233538890000000,4479530000000,130231580000000,-96450000000000,-347700000000000,268900000000000,8350000000000,37200000000000,-811450000000000,-117750000000000,239200000000000,299450000000000,-404300000000000,-169450000000000,279950000000000,333250000000000,828350000000000,-92750000000000,-1072200000000000,-391500000000000,1105050000000000,1385600000000000,89400000000000,-220150000000000,34050000000000,112100000000000,-295027780000000,90127780000000,183900000000000,-202850000000000,-160450000000000,54800000000000,57600000000000,-625700000000000,324300000000000,22850000000000,-170200000000000,-470600000000000,694600000000000,-1875700000000000,833000000000000,1196150000000000,-507602630000000,-545297370000000,-33550000000000,-350850000000000,204900000000000,51050000000000,15200000000000,-3950000000000,-112550000000000,41300000000000,-167150000000000,218150000000000,-4850000000000,-75250000000000,-195200000000000,-411650000000000,-18900000000000,-687450000000000,359500000000000,-96950000000000,-87200000000000,237300000000000,-133050000000000,-342900000000000,-31300000000000,-660800000000000,-387550000000000,-727160530000000,-204239470000000,76100000000000,83700000000000,-29950000000000,-77300000000000,56750000000000,-112150000000000,17000000000000,-92900000000000,-25600000000000,253400000000000,-544250000000000,-125600000000000,-3255650000000000,1973600000000000,1726000000000000,72750000000000,137400000000000,557150000000000,587450000000000,581950000000000,-66850000000000,-192150000000000,-491700000000000,632100000000000,-82750000000000,66400000000000,-278950000000000,99900000000000,241850000000000,-143150000000000,-35900000000000,78250000000000,-5900000000000,129650000000000,682500000000000,31500000000000,-197100000000000,97900000000000,146350000000000,-363700000000000,154300000000000,376650000000000,77850000000000,-112250000000000,-250500000000000,-251100000000000,440550000000000,-53650000000000,3550000000000,-25450000000000,-16500000000000,145050000000000,157750000000000,48800000000000,-146800000000000,-290100000000000,-6050000000000,-67150000000000,-217314290000000],"hashrate_average_7d":34599201748343204,"hashrate_average_7d_count":169,"hashrate_block":694507134712837.9,"expected_blocks":50.63,"luck":-0.6268935280659136,"multipool":15}],"hashblock":{"hashrate_average_100":62417565896900350,"blocks_count":91,"pools":[[71683246192713.3,2,35841623096356.65,"https:\/\/www2.coinmine.pl\/dcr"],[599465205719111.9,7,85637886531301.7,"https:\/\/pool.btc.com"],[729768319651226.5,32,22805259989100.83,"https:\/\/www.f2pool.com"],[694507134712837.9,50,13890142694256.758,"https:\/\/www.poolin.com"]],"hashrate_block_all":685907317548355.5,"hashrate_block_min":13890142694256.758,"hashrate_block_max":85637886531301.7,"pool_hashblock_average":39543728077753.984,"hashrate_block":685907317548355.5},"time":1669602163,"hashrate":68230000000000000,"difficulty":4812040444.8969965,"height":715534,"symbol":"DCR","maxhash":34938000000000004,"poolshash":75997842555544750,"nethash_estimat":68590731754835550,"poolsminers":1512,"supply":{"circulating":14538891.94756612,"total":21000000,"emission24":2325},"block_time_target":300,"block_height_ok":true,"algo":"Blake256R14","hashrate_from_diff":false,"hashrate_src":"https:\/\/lab.antpool.com","unit":"H\/s","block_time_average":327,"minerstat":[1.7259483248463e-16,19.795929516974,0.99086484,3438],"link":{"coingecko":"decred","cmc":"decred","whattomine":"152-dcr-blake (14r)","coin360":"decred-dcr","coinpaprika":"dcr-decred"},"latest_release":{"tag":"release-v1.7.5","name":"dcrd v1.7.5","t":1665429869},"price":19.33}