{"data":[{"url":"https:\/\/www.okx.com\/pool","hashrate":0,"miners":-1,"minpay":-1,"id":23,"pool_id":"okx.com","i":1617,"workers":0,"lastblock":630904,"feetype":"PPLNS","fee":2,"country":"HK|Hong Kong","hashrate_average_100_count":72,"hashrate_average_100":0,"hashrate_average_1h":0,"history_start":1668818621,"history_interval":3600,"history_addlast":true,"history":[9505000000000,-59000000000,-800500000000,97000000000,-283500000000,-111500000000,758500000000,-229000000000,1360500000000,-482000000000,-1618500000000,-466000000000,429000000000,122000000000,188500000000,-137500000000,167000000000,-194500000000,2107000000000,-1074500000000,-264000000000,-275000000000,-361500000000,-610500000000,459000000000,586000000000,524000000000,607000000000,-681000000000,-1157000000000,640294118000,-1240794118000,1244000000000,230000000000,-299000000000,105500000000,124500000000,-359000000000,249000000000,538500000000,-701500000000,-440000000000,879500000000,-277500000000,1002500000000,-1000000000,-1147500000000,152500000000,261500000000,-293000000000,232000000000,541500000000,68000000000,-1224500000000,615970588000,431029412000,-6634000000000,-2803500000000,0,0,0,0,0,0,0,0,0,0,0,0,0,0,0,0,0,0,0,0,0,0,0,0,0,0,0,0,0,0,0,0,0,0,0,0,0,0,0,0,0,0,0,0,0,0,0,0,0,0,0,0,0,0,0,0,0,0,0,0,0,0,0,0,0,0,0,0,0,0,0,0,0,0,0,0,0,0,0,0,0,0,0,0,0,0,0,0,0,0,0,0,0,0,0,0,0,0,0,0,0,0,0,0,0,0,0,0,0,0,0],"hashrate_average_7d":2948418726071.0054,"hashrate_average_7d_count":169,"expected_blocks":0,"multipool":5},{"url":"https:\/\/www2.coinmine.pl\/dcr","hashrate":0,"miners":-1,"minpay":0.05,"id":5,"pool_id":"coinmine.pl","i":12448,"workers":0,"blocks_nr":5,"lastblock":714882,"lastblocktime":"1669407461","fee":1,"feetype":"PPLNS","height":714967,"country":"WL|EU , US , Asia","blocks_1000":7,"blocks_count":1,"hashrate_average_100_count":72,"hashrate_average_100":199274604595859.78,"hashrate_average_1h":165438439322116.94,"history_start":1668818621,"history_interval":3600,"history_addlast":true,"history":[225582917200000,77569935100000,8416176400000,54240327900000,-82479089500000,107880285700000,51553119000000,-31856152900000,65317807100000,-116636883600000,-56913766100000,19819722800000,-38906228400000,18040728600000,19692950400000,-38372166800000,33005630500000,28134933000000,-35665318100000,39767588300000,34656964100000,-38063682600000,39146675800000,-16267448600000,21040766200000,-55101467100000,-15085547900000,51169377400000,-7316276600000,3837254300000,-58493708600000,-27225648600000,-9188565900000,9676167800000,-52570432600000,-7388414300000,54103014500000,48743218800000,-2621771100000,120343590500000,-113622201700000,-17966025400000,-2113856600000,25727388000000,-22838119400000,9501891500000,22152549100000,-49001606800000,34189415000000,-4357547100000,-32850163000000,4826476300000,-19536939400000,81531762600000,-20893343800000,-32753100700000,-15094533500000,-42934415300000,-4973361400000,-19443851400000,44047586800000,-6063009900000,9733095300000,-6794318800000,-6423751800000,-40595578600000,-34005517400000,37728606500000,-43543693100000,50570908100000,-17373332800000,-456395800000,6281979400000,5278832600000,10337353000000,6384521000000,61757638900000,-50611534800000,32371008900000,-30715596300000,-54888497900000,-1029349700000,3652682700000,-17132639500000,-24755257500000,9153226400000,68020450800000,16145201300000,-65281933000000,55023360400000,-34755522100000,-36055645700000,-18941345800000,25803939000000,-19610784900000,53259156700000,-4720210700000,-88623678500000,22902775200000,64546856300000,29447947800000,1932928200000,451873700000,18338094900000,5769165000000,-71218044500000,47409799700000,-64309579500000,35574196500000,-17828345400000,-6406132000000,-32752850300000,-6097369900000,142071629900000,-138824852900000,-41848158800000,3422884600000,109880257600000,-6338898600000,-20926635100000,43246805500000,-11959336000000,-4931809700000,81291013000000,-41457612600000,37430935700000,-105444673100000,12721319200000,13508188600000,-20271635700000,-77032555200000,-12918777400000,52210251000000,-10206318600000,2494640400000,-7634984300000,56815032400000,-54304760600000,34345812300000,64268475700000,-88260882500000,61129133200000,-65069400800000,32402618700000,-24648616700000,42976146400000,30807731300000,-9297247800000,2554779500000,85404089700000,-45528368800000,-9971192100000,-18550482300000,-7578587700000,58366606000000,-71298040700000,52900609000000,-51407130300000,48562977400000,-77910553000000,48140424400000,-24825620900000,-61142640300000,103990667300000,-106689600000,-28347927600000,-10342407900000,-22075974100000,-27112085800000],"hashrate_average_7d":247913384911834.16,"hashrate_average_7d_count":169,"expected_blocks":0.28,"luck":0.7232361985697839,"multipool":6},{"url":"https:\/\/lab.antpool.com","hashrate":14290000000000000,"miners":-1,"minpay":0.1,"id":11,"pool_id":"antpool.com","i":2068,"nethash":76030000000000000,"netdiff":4890464455,"feetype":"PPS","fee":3,"income":3.9245812e-15,"lastblock":712107,"lastblocktime":"1668580440","country":"WL|Global","hashrate_average_100_count":72,"hashrate_average_100":14159282769097224,"hashrate_average_1h":14043846153846154,"history_start":1668818621,"history_interval":3600,"history_addlast":true,"history":[13731000000000000,35000000000000,-294000000000000,95000000000000,102000000000000,-230500000000000,224166670000000,82833330000000,-31000000000000,66000000000000,98500000000000,33500000000000,-251500000000000,571000000000000,-66500000000000,89000000000000,-169500000000000,97500000000000,19000000000000,-177500000000000,21500000000000,127000000000000,-103000000000000,47500000000000,29000000000000,-42000000000000,15500000000000,-14000000000000,61000000000000,156000000000000,-121323530000000,36823530000000,-32000000000000,-127500000000000,49000000000000,31000000000000,8000000000000,-112500000000000,163000000000000,-108500000000000,-1500000000000,203500000000000,-119000000000000,-15000000000000,-14500000000000,87000000000000,-14000000000000,-27500000000000,112500000000000,94500000000000,-149000000000000,-1499500000000000,-372000000000000,1445000000000000,-231352940000000,229852940000000,-82000000000000,63000000000000,28000000000000,-96500000000000,-47000000000000,-13000000000000,40500000000000,3000000000000,24000000000000,-81500000000000,-182000000000000,197500000000000,-35500000000000,30842110000000,-9342110000000,73000000000000,-44500000000000,-181000000000000,130500000000000,16000000000000,-103500000000000,99368420000000,25409360000000,96722220000000,472500000000000,-120500000000000,37500000000000,178368420000000,-166315790000000,64947370000000,72500000000000,-50722220000000,-39356730000000,124078950000000,-180500000000000,246500000000000,-123500000000000,49500000000000,25000000000000,-119000000000000,91500000000000,-148000000000000,162000000000000,-108500000000000,182000000000000,-40500000000000,63000000000000,10500000000000,34500000000000,-145500000000000,-211500000000000,-59000000000000,42500000000000,73000000000000,-76000000000000,103000000000000,-157000000000000,227944440000000,-94444440000000,-205000000000000,145500000000000,-85500000000000,193000000000000,-81000000000000,-184500000000000,500500000000000,-132500000000000,13000000000000,-158000000000000,89500000000000,-170000000000000,-6500000000000,62000000000000,-146815790000000,189315790000000,-24500000000000,251000000000000,-319500000000000,24000000000000,203500000000000,-242500000000000,169000000000000,-215500000000000,21000000000000,-45500000000000,83000000000000,-103500000000000,112500000000000,-13000000000000,17500000000000,12500000000000,-47000000000000,32500000000000,129000000000000,-159500000000000,59000000000000,118000000000000,-68000000000000,-12500000000000,-5000000000000,46500000000000,-98500000000000,91000000000000,19500000000000,-169000000000000,186500000000000,67000000000000,-193500000000000,55000000000000,-84500000000000,-25500000000000,158000000000000,-218153850000000],"hashrate_average_7d":14070695699349108,"hashrate_average_7d_count":169,"expected_blocks":19.67,"multipool":16},{"url":"https:\/\/pool.btc.com","hashrate":4131000000000000,"miners":-1,"minpay":0.1,"id":4,"pool_id":"pool.btc.com","feetype":"PPS","i":14494,"workers":100,"income":4.0986764489612e-15,"i_blocks":14536,"json_blocks":{"err_no":0,"data":{"blocks":{"current_page":1,"data":[{"height":714962,"is_orphaned":0,"hash":"00000000000000000686f56cbe03eebedb9bcdceec022d67023b16c380a60f82","rewards":"0.98359683","size":2157,"prev_hash":"000000000000000040051d4ddfad89bd03abbeee47d34eb2027091c841b21406","bits":419487955,"version":9,"created_at":1669427654,"region_id":36,"region_name":"BitDeer"},{"height":714922,"is_orphaned":0,"hash":"000000000000000097e9055285a175782bac471e9bb494fc2ea7f8fd6a51a85d","rewards":"0.98359683","size":10695,"prev_hash":"00000000000000003398ff7d3ed6370d548ec2329aff4b3be896afdb87ab19cd","bits":419488705,"version":9,"created_at":1669418495,"region_id":36,"region_name":"BitDeer"},{"height":714909,"is_orphaned":0,"hash":"0000000000000000487cf9503624bac4ad682acb9f3b93d5d3185d738649e02f","rewards":"0.98359683","size":54973,"prev_hash":"00000000000000004c9c1b1b880079014ce3abc507c004a96e9e21496fc473ce","bits":419488705,"version":9,"created_at":1669414882,"region_id":36,"region_name":"BitDeer"},{"height":714877,"is_orphaned":0,"hash":"00000000000000002a1ecaa957588dbf2ca54fe51655c40d01c6204e8b9cd9cd","rewards":"0.98359683","size":44864,"prev_hash":"000000000000000034dc213d4b9d957ef8cd91dac04e57bd6d98cfa9ed4d45ae","bits":419488705,"version":9,"created_at":1669406220,"region_id":34,"region_name":"America"},{"height":714876,"is_orphaned":0,"hash":"000000000000000034dc213d4b9d957ef8cd91dac04e57bd6d98cfa9ed4d45ae","rewards":"0.98359683","size":11355,"prev_hash":"0000000000000000396eb59835d6400fc42a7a2be3f533c3d3ac39ba4ca29537","bits":419488705,"version":9,"created_at":1669405331,"region_id":34,"region_name":"America"},{"height":714834,"is_orphaned":0,"hash":"00000000000000007e94d843e5bc9e7f751cd902baf6e837dd27ee721604072b","rewards":"0.78687746","size":2363,"prev_hash":"000000000000000016fe05a74a1be4373f322dc8860ea56a48e5afeade0e5354","bits":419488705,"version":9,"created_at":1669391929,"region_id":34,"region_name":"America"},{"height":714784,"is_orphaned":0,"hash":"000000000000000005e319df1e4341dd1033c805e7643e673b642e56aa013c8d","rewards":"0.98359683","size":8037,"prev_hash":"0000000000000000577504340b561e1948c8eabd62e7a04ab39453fd75135aea","bits":419484483,"version":9,"created_at":1669374701,"region_id":36,"region_name":"BitDeer"},{"height":714766,"is_orphaned":0,"hash":"0000000000000000b2d0e7f9fc9f96c62c9f54d2c05c30a883c6408cd7040c92","rewards":"0.98359683","size":35428,"prev_hash":"0000000000000000bb4954ba16611a6e1687a7afd0a81c472eed912de4dc4a1b","bits":419484483,"version":9,"created_at":1669370586,"region_id":34,"region_name":"America"},{"height":714764,"is_orphaned":0,"hash":"000000000000000078f3860428d13074c9bb6e213791ba22f4c187be06840c31","rewards":"0.98359683","size":33298,"prev_hash":"00000000000000006c202b2e3b221c997de5b96da4aa19cf826ca3cb0ee1cea5","bits":419484483,"version":9,"created_at":1669369632,"region_id":34,"region_name":"America"},{"height":714743,"is_orphaned":0,"hash":"0000000000000000cab7563c254c7930107fe6737bacfef0a5b6e767d6a8f23d","rewards":"0.98359683","size":19254,"prev_hash":"0000000000000000313d4b624a50db4a7de30e81e336ab0a0105e92a200ab18a","bits":419484483,"version":9,"created_at":1669359678,"region_id":34,"region_name":"America"}],"first_page_url":"https:\/\/eu-api.connectbtc.com\/\/public\/v1\/pool\/blocks\/merge?order_by=desc&page_size=10&page=1","from":1,"last_page":2252,"last_page_url":"https:\/\/eu-api.connectbtc.com\/\/public\/v1\/pool\/blocks\/merge?order_by=desc&page_size=10&page=2252","next_page_url":"https:\/\/eu-api.connectbtc.com\/\/public\/v1\/pool\/blocks\/merge?order_by=desc&page_size=10&page=2","path":"https:\/\/eu-api.connectbtc.com\/\/public\/v1\/pool\/blocks\/merge","per_page":10,"prev_page_url":null,"to":10,"total":22516},"blocks_count":22516,"rewards_count":"190892.94665129"},"trace_id":"1074e3cc-4878-46ad-bed2-c693b91960b5"},"blocks_nr":10,"lastblock":714962,"lastblocktime":"1669427651","country":"WL|CN , EU , US","blocks_1000":55,"blocks_count":5,"hashrate_average_100_count":72,"hashrate_average_100":4152807183159722.5,"hashrate_average_1h":4103846153846154,"history_start":1668818621,"history_interval":3600,"history_addlast":true,"history":[3890700000000000,64950000000000,-58650000000000,31500000000000,-31500000000000,-3000000000000,-6200000000000,16750000000000,52550000000000,15350000000000,38800000000000,-18550000000000,70400000000000,35850000000000,41150000000000,12350000000000,23550000000000,-60300000000000,5600000000000,-8800000000000,800000000000,9250000000000,11500000000000,-16250000000000,15550000000000,-35200000000000,-75200000000000,-27200000000000,4250000000000,8500000000000,-49676471000000,-6423529000000,17450000000000,-15250000000000,39850000000000,-6500000000000,44750000000000,79050000000000,-53000000000000,83550000000000,-4200000000000,-52350000000000,-26800000000000,42550000000000,-52050000000000,47550000000000,-14650000000000,32900000000000,-44400000000000,-45250000000000,22250000000000,-22550000000000,-27100000000000,24400000000000,26223529000000,23426471000000,5050000000000,53100000000000,13000000000000,-61950000000000,121100000000000,-29450000000000,-17550000000000,8250000000000,41300000000000,-13600000000000,-45250000000000,8550000000000,29400000000000,-33200000000000,-94700000000000,4250000000000,-10400000000000,65650000000000,-119450000000000,71700000000000,-25800000000000,61960526000000,-13488304000000,-7772222000000,-32300000000000,-200000000000,30700000000000,77271053000000,78684210000000,5594737000000,-100500000000000,-20977778000000,37146199000000,17931579000000,-38250000000000,50000000000,2650000000000,-6850000000000,17900000000000,88500000000000,-26400000000000,-9700000000000,42200000000000,-11850000000000,-48200000000000,-24050000000000,-26850000000000,6500000000000,-47700000000000,85750000000000,4950000000000,-56650000000000,4300000000000,41250000000000,-18100000000000,-22300000000000,-5200000000000,34027778000000,-57427778000000,11250000000000,62050000000000,-67400000000000,-36100000000000,82100000000000,-18600000000000,-40100000000000,3500000000000,-56800000000000,9050000000000,-32250000000000,21450000000000,-550000000000,19950000000000,26600000000000,-18000000000000,62450000000000,-38950000000000,41850000000000,-38200000000000,-62950000000000,59250000000000,-39200000000000,4350000000000,-38750000000000,-38400000000000,51850000000000,-55900000000000,71450000000000,47950000000000,57550000000000,-19450000000000,37100000000000,28700000000000,26350000000000,27700000000000,-31250000000000,-35300000000000,-15150000000000,2150000000000,13500000000000,18950000000000,-3550000000000,-14700000000000,14400000000000,-2050000000000,19950000000000,-61650000000000,30200000000000,-29900000000000,4300000000000,-57850000000000,34550000000000,-38503846000000],"hashrate_average_7d":4100918465662721,"hashrate_average_7d_count":169,"hashrate_block":830561436631944.5,"expected_blocks":5.77,"luck":-0.767652656739342,"multipool":7},{"url":"https:\/\/www.f2pool.com","hashrate":24888284999275800,"miners":-1,"minpay":0.1,"id":14,"pool_id":"f2pool.com","fee":3,"feetype":"PPS%3","i":2437,"income":3.823367784760264e-15,"blocks_nr":9,"lastblock":714967,"lastblocktime":1669428868,"country":"WL|Global","blocks_1000":317,"blocks_count":34,"hashrate_average_100_count":72,"hashrate_average_100":23927850544032644,"hashrate_average_1h":24560616603501660,"history_start":1668818621,"history_interval":3600,"history_addlast":true,"history":[23588675710000000,-47595660000000,108656720000000,-89699050000000,-79878970000000,121884630000000,-43249820000000,89786640000000,-18191860000000,-172219090000000,-9655220000000,8136190000000,7380080000000,97826850000000,18328610000000,-237299830000000,47676040000000,-68828950000000,-14156580000000,7298370000000,-115714510000000,175282100000000,-113763110000000,61383280000000,112481940000000,-52886210000000,69929990000000,-21553990000000,107806500000000,-8381920000000,-20809630000000,-88160860000000,26082060000000,52030980000000,53805010000000,-109436000000000,55716920000000,5725450000000,-155512880000000,4065340000000,92365930000000,-71875350000000,-3110130000000,103901960000000,-23931990000000,38298280000000,-34352970000000,268179970000000,130182700000000,41964940000000,-9607500000000,-58903100000000,123281330000000,-416687450000000,-18644330000000,-116184350000000,33242480000000,155201910000000,-225059510000000,113254600000000,180769030000000,-79631070000000,-90642420000000,4770880000000,30479370000000,-20266270000000,95463850000000,-189391950000000,-125638800000000,97927180000000,-72183350000000,185500900000000,167419210000000,-62908720000000,96921140000000,158625160000000,-14197340000000,-9728940000000,24851380000000,57249830000000,-124017520000000,-99054970000000,-5491420000000,-133352650000000,161693810000000,-36058940000000,-90386300000000,-112397430000000,-35170550000000,138669330000000,-48218390000000,-88908260000000,-51060690000000,123213900000000,-155238270000000,183282740000000,280727680000000,67818540000000,19851010000000,-88646680000000,-165373900000000,35077030000000,-69885720000000,-190380670000000,226019430000000,-129763950000000,41532040000000,-150598400000000,-170951030000000,89135590000000,-15957940000000,-128988140000000,256774500000000,-114562460000000,118743040000000,-14714760000000,-256689600000000,239096090000000,70374250000000,1166740000000,-111028280000000,64654440000000,39946990000000,-129474670000000,354028110000000,-633972600000000,786634810000000,233208800000000,-114059150000000,-55734680000000,-75160640000000,76205510000000,-40526660000000,148503750000000,287565530000000,-73047570000000,89833840000000,-169475750000000,-280685280000000,16421730000000,-89549850000000,-107672000000000,14954500000000,47523400000000,-25514600000000,-109285940000000,330720790000000,258630370000000,-152166390000000,-474049770000000,476356490000000,-27373940000000,-73736740000000,-225685670000000,80151610000000,69048140000000,23021710000000,108587940000000,-77526040000000,-16425900000000,-45078240000000,-26069590000000,-66848100000000,-97965900000000,54296520000000,38946170000000,249142490000000,-10519080000000,533687150000000],"hashrate_average_7d":23625690511834320,"hashrate_average_7d_count":169,"hashrate_block":703760310118607.1,"expected_blocks":33.23,"luck":0.7676526567393438,"multipool":33},{"url":"https:\/\/www.poolin.com","hashrate":31478000000000000,"miners":-1,"minpay":0.01,"id":3,"pool_id":"poolin.com","fee":3,"feetype":"PPS","i":13555,"json":{"err_no":0,"data":{"shares":{"shares_1m":30.686,"shares_5m":31.478,"shares_15m":31.64,"shares_1h":32.106,"shares_unit":"P"},"reject":{"1m":0,"5m":0,"15m":0.0051,"1h":0.0041},"workers":1476,"users":373,"total_blocks":146587,"total_rewards":104834400306789}},"workers":1476,"netdiff":4890464455.622622,"nethash":"70014616321584878","income":4.46924e-15,"blocks_nr":15,"lastblock":714965,"lastblocktime":"1669428815","country":"US|United States","blocks_1000":496,"blocks_count":49,"hashrate_average_100_count":72,"hashrate_average_100":32052356336805560,"hashrate_average_1h":31619769230769230,"history_start":1668818621,"history_interval":3600,"history_addlast":true,"history":[27192100000000000,2217100000000000,399550000000000,363350000000000,950650000000000,-104750000000000,-1301466670000000,-1645483330000000,103450000000000,621450000000000,-448100000000000,2401200000000000,460900000000000,228900000000000,133800000000000,395700000000000,16150000000000,121000000000000,-27750000000000,-191600000000000,-362900000000000,-147350000000000,-110150000000000,260400000000000,-90100000000000,136850000000000,164050000000000,-1856450000000000,-1211550000000000,394550000000000,98342110000000,186357890000000,2953800000000000,-2205550000000000,948150000000000,1143050000000000,1449450000000000,84500000000000,455200000000000,-274100000000000,430500000000000,194800000000000,-120850000000000,-44450000000000,-94250000000000,-604450000000000,-1225750000000000,23900000000000,99700000000000,-1758350000000000,-1071050000000000,512450000000000,652700000000000,1052400000000000,809470590000000,-427820590000000,2717750000000000,214550000000000,-5095300000000000,4556250000000000,829000000000000,-112250000000000,340850000000000,60200000000000,-91100000000000,-6100000000000,-130800000000000,185900000000000,-55900000000000,45036840000000,-147836840000000,132200000000000,-16250000000000,-1282800000000000,746150000000000,492600000000000,-62700000000000,276900000000000,-200666670000000,139816670000000,241950000000000,28950000000000,-321950000000000,-16310530000000,-40526310000000,-446913160000000,-871000000000000,1233538890000000,4479530000000,130231580000000,-96450000000000,-347700000000000,268900000000000,8350000000000,37200000000000,-811450000000000,-117750000000000,239200000000000,299450000000000,-404300000000000,-169450000000000,279950000000000,333250000000000,828350000000000,-92750000000000,-1072200000000000,-391500000000000,1105050000000000,1385600000000000,89400000000000,-220150000000000,34050000000000,112100000000000,-295027780000000,90127780000000,183900000000000,-202850000000000,-160450000000000,54800000000000,57600000000000,-625700000000000,324300000000000,22850000000000,-170200000000000,-470600000000000,694600000000000,-1875700000000000,833000000000000,1196150000000000,-507602630000000,-545297370000000,-33550000000000,-350850000000000,204900000000000,51050000000000,15200000000000,-3950000000000,-112550000000000,41300000000000,-167150000000000,218150000000000,-4850000000000,-75250000000000,-195200000000000,-411650000000000,-18900000000000,-687450000000000,359500000000000,-96950000000000,-87200000000000,237300000000000,-133050000000000,-342900000000000,-31300000000000,-660800000000000,-387550000000000,-727160530000000,-204239470000000,76100000000000,83700000000000,-29950000000000,-77300000000000,56750000000000,-112150000000000,17000000000000,-92900000000000,-25600000000000,253400000000000,-634830770000000],"hashrate_average_7d":33887099434497040,"hashrate_average_7d_count":169,"hashrate_block":654129721159297.1,"expected_blocks":44.52,"luck":4.48388113698212,"multipool":15}],"hashblock":{"hashrate_average_100":28080657727192370,"blocks_count":39,"pools":[[830561436631944.5,5,166112287326388.9,"https:\/\/pool.btc.com"],[703760310118607.1,34,20698832650547.27,"https:\/\/www.f2pool.com"],[654129721159297.1,49,13349586146108.105,"https:\/\/www.poolin.com"]],"hashrate_block_all":683329705272703.8,"hashrate_block_min":13349586146108.105,"hashrate_block_max":166112287326388.9,"pool_hashblock_average":66720235374348.09,"hashrate_block":720016864799804.2},"time":1669429183,"hashrate":76030000000000000,"difficulty":4890464455.622622,"height":714968,"symbol":"DCR","maxhash":31478000000000000,"poolshash":74787284999275800,"nethash_estimat":72001686479980424,"poolsminers":1576,"supply":{"circulating":14533906.29194864,"total":21000000,"emission24":2342},"block_time_target":300,"block_height_ok":true,"algo":"Blake256R14","hashrate_from_diff":false,"hashrate_src":"https:\/\/lab.antpool.com","unit":"H\/s","block_time_average":325,"minerstat":[1.7161568873842e-16,20.003503694391,0.98842043,2897],"link":{"coingecko":"decred","cmc":"decred","whattomine":"152-dcr-blake (14r)","coin360":"decred-dcr","coinpaprika":"dcr-decred"},"latest_release":{"tag":"release-v1.7.5","name":"dcrd v1.7.5","t":1665429869},"price":20.07}