{"data":[{"url":"https:\/\/www.okx.com\/pool","hashrate":0,"miners":-1,"minpay":-1,"id":23,"pool_id":"okx.com","i":1617,"workers":0,"lastblock":630904,"feetype":"PPLNS","fee":2,"country":"HK|Hong Kong","hashrate_average_100_count":73,"hashrate_average_100":0,"hashrate_average_1h":0,"history_start":1668480245,"history_interval":3600,"history_addlast":true,"history":[7736500000000,283000000000,1022000000000,-1050000000000,406500000000,515500000000,-17500000000,-143000000000,-237000000000,33000000000,-234500000000,1266500000000,-126000000000,-445500000000,133000000000,-967000000000,521500000000,170000000000,500894737000,108105263000,-2334000000000,1293000000000,-404000000000,679000000000,-200000000000,774500000000,-125500000000,300473684000,208026316000,-820500000000,-93500000000,353000000000,116000000000,152000000000,687000000000,-488500000000,597000000000,-635500000000,721000000000,-222500000000,-28000000000,-337500000000,-1488000000000,1012000000000,-843078947000,2406578947000,-1659500000000,32000000000,697500000000,1436000000000,-1862000000000,-1642000000000,1876571429000,-191571429000,-1038500000000,-199000000000,268000000000,1497000000000,-240500000000,-1307500000000,-1084000000000,1147500000000,236000000000,-144500000000,198000000000,677500000000,-1318000000000,286000000000,56500000000,1938000000000,-905500000000,-174500000000,1317500000000,-2071000000000,-171500000000,-167500000000,387230769000,952269231000,-787500000000,320000000000,413500000000,22500000000,-330500000000,-155000000000,615000000000,-1151000000000,423000000000,-455500000000,625500000000,-761500000000,247000000000,669500000000,-441500000000,-308000000000,978000000000,-59000000000,-800500000000,97000000000,-283500000000,-111500000000,758500000000,-229000000000,1360500000000,-482000000000,-1618500000000,-466000000000,429000000000,122000000000,188500000000,-137500000000,167000000000,-194500000000,2107000000000,-1074500000000,-264000000000,-275000000000,-361500000000,-610500000000,459000000000,586000000000,524000000000,607000000000,-681000000000,-1157000000000,640294118000,-1240794118000,1244000000000,230000000000,-299000000000,105500000000,124500000000,-359000000000,249000000000,538500000000,-701500000000,-440000000000,879500000000,-277500000000,1002500000000,-1000000000,-1147500000000,152500000000,261500000000,-293000000000,232000000000,541500000000,68000000000,-1224500000000,615970588000,431029412000,-6634000000000,-2803500000000,0,0,0,0,0,0,0,0,0,0,0,0,0,0,0,0],"hashrate_average_7d":8004662835583.331,"hashrate_average_7d_count":168,"expected_blocks":0,"multipool":5},{"url":"https:\/\/www2.coinmine.pl\/dcr","hashrate":248865873891164,"miners":-1,"minpay":0.05,"id":5,"pool_id":"coinmine.pl","i":12414,"workers":24,"blocks_nr":5,"lastblock":713770,"lastblocktime":"1669072897","fee":1,"feetype":"PPLNS","height":713815,"country":"WL|EU , US , Asia","blocks_1000":3,"blocks_count":1,"hashrate_average_100_count":73,"hashrate_average_100":202397696927064.34,"hashrate_average_1h":248865873891164,"history_start":1668480245,"history_interval":3600,"history_addlast":true,"history":[930328371900000,3351362500000,36446103200000,-33877104400000,-33251809200000,54504523600000,-21243007700000,-7460435600000,-19148501000000,11818636600000,13280820500000,-44812931700000,-27928731600000,-5119788200000,-38228455900000,43873766000000,48570939800000,-4263939500000,38994695700000,-34601488500000,-11285069200000,-1940984200000,-4207781300000,-13165148500000,11422437400000,5583919700000,11340149000000,-9883006700000,-16729759400000,9461877400000,30889810600000,-19330374300000,6342680800000,-15509057700000,6897511100000,29139532300000,-6996666600000,-5140138600000,-19552423500000,4143733400000,4758849800000,-16078392500000,-9940067600000,12945595000000,15820494800000,-15013606700000,4391897700000,19794210800000,-13670197900000,-30238032600000,24367891100000,-14194557000000,34449057500000,-16780978700000,2291015000000,246482700000,-8183149700000,6700078600000,10771670700000,-30325984400000,12323877000000,8591563200000,3726629400000,-7820241100000,11607216200000,-146828059600000,-32246293700000,161617014400000,11144024500000,-5437441400000,1467579000000,-32213274600000,10655943500000,483848800000,27876757800000,-26829447200000,24522102500000,2261392700000,7478426900000,-17960821300000,-20537545000000,-246846769300000,-613419443070000,314181249270000,-11677736600000,-64998634500000,-22715912700000,53267650800000,-29015342800000,-31672615400000,15879687400000,-46906023400000,-38805281300000,32588048000000,37014244000000,77569935100000,8416176400000,54240327900000,-82479089500000,107880285700000,51553119000000,-31856152900000,65317807100000,-116636883600000,-56913766100000,19819722800000,-38906228400000,18040728600000,19692950400000,-38372166800000,33005630500000,28134933000000,-35665318100000,39767588300000,34656964100000,-38063682600000,39146675800000,-16267448600000,21040766200000,-55101467100000,-15085547900000,51169377400000,-7316276600000,3837254300000,-58493708600000,-27225648600000,-9188565900000,9676167800000,-52570432600000,-7388414300000,54103014500000,48743218800000,-2621771100000,120343590500000,-113622201700000,-17966025400000,-2113856600000,25727388000000,-22838119400000,9501891500000,22152549100000,-49001606800000,34189415000000,-4357547100000,-32850163000000,4826476300000,-19536939400000,81531762600000,-20893343800000,-32753100700000,-15094533500000,-42934415300000,-4973361400000,-19443851400000,44047586800000,-6063009900000,9733095300000,-6794318800000,-6423751800000,-40595578600000,-34005517400000,37728606500000,-43543693100000,50570908100000,-17373332800000,-456395800000,6281979400000,34622296900000],"hashrate_average_7d":587651600451369.4,"hashrate_average_7d_count":168,"expected_blocks":0.29,"luck":0.7120151516593425,"multipool":6},{"url":"https:\/\/lab.antpool.com","hashrate":14070000000000000,"miners":-1,"minpay":0.1,"id":11,"pool_id":"antpool.com","i":2068,"nethash":74660000000000000,"netdiff":4773764148,"feetype":"PPS","fee":3,"income":4.0205142e-15,"lastblock":712107,"lastblocktime":"1668580440","country":"WL|Global","hashrate_average_100_count":73,"hashrate_average_100":13688081389126712,"hashrate_average_1h":14070000000000000,"history_start":1668480245,"history_interval":3600,"history_addlast":true,"history":[3843000000000000,24000000000000,29500000000000,13000000000000,34250000000000,45250000000000,83000000000000,-57000000000000,6000000000000,3500000000000,-17000000000000,-21000000000000,-68500000000000,42000000000000,-89500000000000,7500000000000,-178000000000000,58500000000000,-60605263000000,11605263000000,-31500000000000,15000000000000,-38000000000000,-80500000000000,112000000000000,-2500000000000,41500000000000,-11815789000000,-208684211000000,383000000000000,-1000000000000,1500000000000,34500000000000,36500000000000,-69000000000000,24000000000000,-11500000000000,9500000000000,-60500000000000,-33500000000000,-45500000000000,72500000000000,6500000000000,-32000000000000,-34736842000000,-2263158000000,-44000000000000,113500000000000,-14500000000000,11500000000000,-44000000000000,66500000000000,-34857143000000,2276857143000000,7754500000000000,-173500000000000,108000000000000,-203000000000000,-84000000000000,223500000000000,-36500000000000,13000000000000,-198000000000000,247000000000000,-184500000000000,-102500000000000,53500000000000,-23000000000000,43000000000000,206000000000000,-312500000000000,344500000000000,-186000000000000,89000000000000,-42000000000000,107500000000000,190461540000000,-213961540000000,-41000000000000,1500000000000,41500000000000,74500000000000,-132000000000000,-63500000000000,-234000000000000,294500000000000,22000000000000,-44500000000000,15500000000000,-99500000000000,46000000000000,166000000000000,22000000000000,-157500000000000,85000000000000,35000000000000,-294000000000000,95000000000000,102000000000000,-230500000000000,224166670000000,82833330000000,-31000000000000,66000000000000,98500000000000,33500000000000,-251500000000000,571000000000000,-66500000000000,89000000000000,-169500000000000,97500000000000,19000000000000,-177500000000000,21500000000000,127000000000000,-103000000000000,47500000000000,29000000000000,-42000000000000,15500000000000,-14000000000000,61000000000000,156000000000000,-121323530000000,36823530000000,-32000000000000,-127500000000000,49000000000000,31000000000000,8000000000000,-112500000000000,163000000000000,-108500000000000,-1500000000000,203500000000000,-119000000000000,-15000000000000,-14500000000000,87000000000000,-14000000000000,-27500000000000,112500000000000,94500000000000,-149000000000000,-1499500000000000,-372000000000000,1445000000000000,-231352940000000,229852940000000,-82000000000000,63000000000000,28000000000000,-96500000000000,-47000000000000,-13000000000000,40500000000000,3000000000000,24000000000000,-81500000000000,-182000000000000,197500000000000,-35500000000000,30842110000000,-9342110000000,73000000000000,-44500000000000,364000000000000],"hashrate_average_7d":10634577552458332,"hashrate_average_7d_count":168,"expected_blocks":19.48,"multipool":16},{"url":"https:\/\/pool.btc.com","hashrate":4131999999999999.5,"miners":-1,"minpay":0.1,"id":4,"pool_id":"pool.btc.com","feetype":"PPS","i":14460,"workers":96,"income":4.1448616891115996e-15,"i_blocks":14502,"json_blocks":{"err_no":0,"data":{"blocks":{"current_page":1,"data":[{"height":713814,"is_orphaned":0,"hash":"0000000000000000cf75a1ebcdbe6191b7c39f10712cb48b72e6e9fafe6eafed","rewards":"0.98359683","size":20696,"prev_hash":"0000000000000000e5e7dad32498385853873f41638c2fd11f4954334bfa3a3b","bits":419489362,"version":9,"created_at":1669084380,"region_id":34,"region_name":"America"},{"height":713797,"is_orphaned":0,"hash":"00000000000000006d1d23e92dd6a02b798f55ec9391594fa850bf84b3336982","rewards":"0.98359683","size":10309,"prev_hash":"0000000000000000d135fe95775a117e46fbc368bfc1742490c9261b1c756ebd","bits":419489711,"version":9,"created_at":1669079853,"region_id":34,"region_name":"America"},{"height":713763,"is_orphaned":0,"hash":"0000000000000000d5647e77488957f0885e04349e087ab6f0787035a08b86f4","rewards":"0.78687746","size":2174,"prev_hash":"000000000000000057dac2dcc0e35d351bb8ace61e4fba664591f345230f6bd3","bits":419489711,"version":9,"created_at":1669071248,"region_id":34,"region_name":"America"},{"height":713760,"is_orphaned":0,"hash":"0000000000000000d8ed20bef2ab75c2d6fe155401669c4ae573bdb791322723","rewards":"0.98359683","size":70691,"prev_hash":"000000000000000067f6af553548ed2462a3e831a7b264f632ec63058754905a","bits":419489711,"version":9,"created_at":1669070870,"region_id":34,"region_name":"America"},{"height":713755,"is_orphaned":0,"hash":"00000000000000000b9abe8cc94dd5e042d01257962b2cca8abd6dabaa19b822","rewards":"0.98359683","size":10383,"prev_hash":"0000000000000000c715bd7de038839b1bd553939998e8f540d20a7c80678e7b","bits":419489711,"version":9,"created_at":1669069408,"region_id":36,"region_name":"BitDeer"},{"height":713750,"is_orphaned":0,"hash":"00000000000000006ff09efd0dab6d26f379fe3bff359fe9c21bf593dbb25b7b","rewards":"0.98359683","size":2158,"prev_hash":"000000000000000079680cdc4c4abdaaac537fa881e31cc969fc1ce0b37c67f6","bits":419489711,"version":9,"created_at":1669067359,"region_id":34,"region_name":"America"},{"height":713745,"is_orphaned":0,"hash":"0000000000000000641f976a840891676555d3db61f265976e72bc7c405838e2","rewards":"0.98359683","size":2659,"prev_hash":"0000000000000000e343a1453b33b12946f5b39b1a99fc78f6cfd6e29268b956","bits":419489711,"version":9,"created_at":1669066642,"region_id":34,"region_name":"America"},{"height":713723,"is_orphaned":0,"hash":"0000000000000000d3f8a98ec292849f5ea5d5282f582d6e3e2d8219f02885a4","rewards":"0.98359683","size":8555,"prev_hash":"0000000000000000948952d408379641f84b053f47dc4f9ac0c7448690a3e637","bits":419489711,"version":9,"created_at":1669061233,"region_id":36,"region_name":"BitDeer"},{"height":713713,"is_orphaned":0,"hash":"0000000000000000143135284f62a5b4ff363a5e8542d47c780032eef1c988c5","rewards":"0.98359683","size":8259,"prev_hash":"0000000000000000229f44d4fc84227e0eba10ee1edbef6ca6b3896076a146ba","bits":419489711,"version":9,"created_at":1669058943,"region_id":34,"region_name":"America"},{"height":713704,"is_orphaned":0,"hash":"000000000000000009164fca045983bb80f02a0e64a430fe8c660f0df475a680","rewards":"0.98359683","size":11582,"prev_hash":"0000000000000000b186b30ee2b99f81241f78d6d5debdd636c524389db85c6e","bits":419489711,"version":9,"created_at":1669055429,"region_id":34,"region_name":"America"}],"first_page_url":"https:\/\/eu-api.connectbtc.com\/\/public\/v1\/pool\/blocks\/merge?order_by=desc&page_size=10&page=1","from":1,"last_page":2245,"last_page_url":"https:\/\/eu-api.connectbtc.com\/\/public\/v1\/pool\/blocks\/merge?order_by=desc&page_size=10&page=2245","next_page_url":"https:\/\/eu-api.connectbtc.com\/\/public\/v1\/pool\/blocks\/merge?order_by=desc&page_size=10&page=2","path":"https:\/\/eu-api.connectbtc.com\/\/public\/v1\/pool\/blocks\/merge","per_page":10,"prev_page_url":null,"to":10,"total":22442},"blocks_count":22442,"rewards_count":"190821.53752144"},"trace_id":"72f762c2-82df-4499-8599-a0940025b62a"},"blocks_nr":10,"lastblock":713814,"lastblocktime":"1669084332","country":"WL|CN , EU , US","blocks_1000":65,"blocks_count":8,"hashrate_average_100_count":73,"hashrate_average_100":4112778922303082,"hashrate_average_1h":4131999999999999.5,"history_start":1668480245,"history_interval":3600,"history_addlast":true,"history":[4177400000000000,-8400000000000,-46000000000000,3750000000000,-32750000000000,41950000000000,58300000000000,43700000000000,82050000000000,-11750000000000,-20900000000000,37350000000000,22800000000000,-60800000000000,-46100000000000,8600000000000,5300000000000,-56650000000000,-29850000000000,29300000000000,-27050000000000,-7900000000000,45300000000000,-20850000000000,-58450000000000,54550000000000,-21850000000000,27844737000000,-120978070000000,18633333000000,-5500000000000,39850000000000,12000000000000,15000000000000,22250000000000,-17600000000000,48050000000000,-7350000000000,20900000000000,5950000000000,-55000000000000,-24100000000000,107250000000000,-52600000000000,-111650000000000,-52700000000000,45850000000000,-26750000000000,-24400000000000,29850000000000,-38700000000000,-51500000000000,-3292857000000,-63157143000000,12221053000000,140128947000000,37900000000000,-64200000000000,62900000000000,39650000000000,-45050000000000,-20900000000000,-42050000000000,-22750000000000,16850000000000,-36850000000000,7100000000000,20950000000000,-87700000000000,90100000000000,-54700000000000,-21700000000000,17650000000000,28550000000000,-3150000000000,-79850000000000,-34223077000000,2023077000000,82550000000000,14600000000000,22700000000000,20750000000000,43350000000000,-19850000000000,-6700000000000,35600000000000,-96450000000000,-16000000000000,85450000000000,-38150000000000,24300000000000,-8350000000000,-30400000000000,9850000000000,-94650000000000,64950000000000,-58650000000000,31500000000000,-31500000000000,-3000000000000,-6200000000000,16750000000000,52550000000000,15350000000000,38800000000000,-18550000000000,70400000000000,35850000000000,41150000000000,12350000000000,23550000000000,-60300000000000,5600000000000,-8800000000000,800000000000,9250000000000,11500000000000,-16250000000000,15550000000000,-35200000000000,-75200000000000,-27200000000000,4250000000000,8500000000000,-49676471000000,-6423529000000,17450000000000,-15250000000000,39850000000000,-6500000000000,44750000000000,79050000000000,-53000000000000,83550000000000,-4200000000000,-52350000000000,-26800000000000,42550000000000,-52050000000000,47550000000000,-14650000000000,32900000000000,-44400000000000,-45250000000000,22250000000000,-22550000000000,-27100000000000,24400000000000,26223529000000,23426471000000,5050000000000,53100000000000,13000000000000,-61950000000000,121100000000000,-29450000000000,-17550000000000,8250000000000,41300000000000,-13600000000000,-45250000000000,8550000000000,29400000000000,-33200000000000,-94700000000000,4250000000000,-10400000000000,81850000000000],"hashrate_average_7d":4076250378458332,"hashrate_average_7d_count":168,"hashrate_block":514097365287885.25,"expected_blocks":5.85,"luck":2.148065752818715,"multipool":7},{"url":"https:\/\/www.f2pool.com","hashrate":23713274391903064,"miners":-1,"minpay":0.1,"id":14,"pool_id":"f2pool.com","fee":3,"feetype":"PPS%3","i":2437,"income":3.9168345291466365e-15,"blocks_nr":7,"lastblock":713813,"lastblocktime":1669084133,"country":"WL|Global","blocks_1000":322,"blocks_count":33,"hashrate_average_100_count":73,"hashrate_average_100":23450149930177430,"hashrate_average_1h":23713274391903064,"history_start":1668480245,"history_interval":3600,"history_addlast":true,"history":[24522812470000000,12335680000000,6285460000000,-152184210000000,-255968980000000,-188400640000000,-41672750000000,117584850000000,-47213890000000,-29231780000000,109678440000000,149727120000000,-92860000000,-105615770000000,-155030170000000,-244996590000000,144582760000000,-29415310000000,116209900000000,128614670000000,47662670000000,-72325730000000,133614620000000,-45121560000000,-201246090000000,-151461980000000,-207960210000000,359236760000000,213659920000000,264061820000000,4155490260000000,1050132160000000,44755790000000,-123238210000000,-97354780000000,139037600000000,87586860000000,-24305100000000,-70009790000000,-116587510000000,127957620000000,-107887200000000,-49380520000000,-179175860000000,292863970000000,524005850000000,-10106290000000,-88618220000000,-108014950000000,-152888660000000,-158208970000000,3560700000000,29242490000000,-2208393340000000,-48465750000000,13288150000000,-6642240000000,558852960000000,158678140000000,64976150000000,196410950000000,-153815410000000,24218070000000,34306600000000,-95651970000000,100412480000000,-15477110000000,-157908720000000,212635080000000,258797400000000,-180655990000000,144056240000000,119783810000000,-50308240000000,-1032409650000000,-1653096490000000,-1555451640000000,-220981700000000,-60385920000000,-117581490000000,-31631080000000,30871650000000,-72700600000000,12040410000000,-75657110000000,-163758390000000,27190620000000,-93867440000000,-88484210000000,-119260450000000,170482570000000,-54629220000000,-71192930000000,51212680000000,171882980000000,-47595660000000,108656720000000,-89699050000000,-79878970000000,121884630000000,-43249820000000,89786640000000,-18191860000000,-172219090000000,-9655220000000,8136190000000,7380080000000,97826850000000,18328610000000,-237299830000000,47676040000000,-68828950000000,-14156580000000,7298370000000,-115714510000000,175282100000000,-113763110000000,61383280000000,112481940000000,-52886210000000,69929990000000,-21553990000000,107806500000000,-8381920000000,-20809630000000,-88160860000000,26082060000000,52030980000000,53805010000000,-109436000000000,55716920000000,5725450000000,-155512880000000,4065340000000,92365930000000,-71875350000000,-3110130000000,103901960000000,-23931990000000,38298280000000,-34352970000000,268179970000000,130182700000000,41964940000000,-9607500000000,-58903100000000,123281330000000,-416687450000000,-18644330000000,-116184350000000,33242480000000,155201910000000,-225059510000000,113254600000000,180769030000000,-79631070000000,-90642420000000,4770880000000,30479370000000,-20266270000000,95463850000000,-189391950000000,-125638800000000,97927180000000,-72183350000000,185500900000000,167419210000000,54215140000000],"hashrate_average_7d":25060827052976200,"hashrate_average_7d_count":168,"hashrate_block":710610603944770.6,"expected_blocks":33.37,"luck":-0.3664264650275726,"multipool":33},{"url":"https:\/\/www.poolin.com","hashrate":35834000000000004,"miners":-1,"minpay":0.01,"id":3,"pool_id":"poolin.com","fee":3,"feetype":"PPS","i":13521,"json":{"err_no":0,"data":{"shares":{"shares_1m":34.42,"shares_5m":35.834,"shares_15m":36.209,"shares_1h":36.095,"shares_unit":"P"},"reject":{"1m":0,"5m":0,"15m":0.0027,"1h":0.0033},"workers":1471,"users":373,"total_blocks":145993,"total_rewards":104776309078016}},"workers":1471,"netdiff":4773764148.830772,"nethash":"68343869648257679","income":4.57849e-15,"blocks_nr":23,"lastblock":713815,"lastblocktime":1669084744,"country":"US|United States","blocks_1000":480,"blocks_count":49,"hashrate_average_100_count":73,"hashrate_average_100":35689679152397264,"hashrate_average_1h":35834000000000004,"history_start":1668480245,"history_interval":3600,"history_addlast":true,"history":[26273250000000000,200800000000000,-631900000000000,688850000000000,-336000000000000,271600000000000,360800000000000,-153100000000000,53550000000000,-532950000000000,-899400000000000,400800000000000,276000000000000,-302000000000000,-102450000000000,221450000000000,158400000000000,203850000000000,622607890000000,-155607890000000,183700000000000,297950000000000,190350000000000,841100000000000,316200000000000,-6100000000000,-210700000000000,-742050000000000,231846150000000,634653850000000,-40250000000000,-132800000000000,91550000000000,56900000000000,-152450000000000,166750000000000,449450000000000,-721000000000000,26150000000000,687200000000000,-98150000000000,189550000000000,-267850000000000,29050000000000,-1088126320000000,-5222373680000000,-430200000000000,-1318850000000000,-414150000000000,-150000000000,-209850000000000,52850000000000,936964290000000,-56264290000000,71550000000000,5170950000000000,926450000000000,-98650000000000,-176200000000000,-1017050000000000,-215500000000000,72350000000000,8050000000000,-313150000000000,-494500000000000,679800000000000,73700000000000,-477200000000000,370350000000000,-77100000000000,14000000000000,331250000000000,-75900000000000,-326600000000000,646300000000000,94700000000000,-1280978570000000,990828570000000,2355450000000000,-1871200000000000,724200000000000,1800600000000000,615950000000000,-190600000000000,-780350000000000,1617400000000000,-63850000000000,117000000000000,-1419250000000000,-2448500000000000,-129250000000000,-76350000000000,96550000000000,1260500000000000,-203100000000000,2217100000000000,399550000000000,363350000000000,950650000000000,-104750000000000,-1301466670000000,-1645483330000000,103450000000000,621450000000000,-448100000000000,2401200000000000,460900000000000,228900000000000,133800000000000,395700000000000,16150000000000,121000000000000,-27750000000000,-191600000000000,-362900000000000,-147350000000000,-110150000000000,260400000000000,-90100000000000,136850000000000,164050000000000,-1856450000000000,-1211550000000000,394550000000000,98342110000000,186357890000000,2953800000000000,-2205550000000000,948150000000000,1143050000000000,1449450000000000,84500000000000,455200000000000,-274100000000000,430500000000000,194800000000000,-120850000000000,-44450000000000,-94250000000000,-604450000000000,-1225750000000000,23900000000000,99700000000000,-1758350000000000,-1071050000000000,512450000000000,652700000000000,1052400000000000,809470590000000,-427820590000000,2717750000000000,214550000000000,-5095300000000000,4556250000000000,829000000000000,-112250000000000,340850000000000,60200000000000,-91100000000000,-6100000000000,-130800000000000,185900000000000,-55900000000000,45036840000000,-147836840000000,132200000000000,-16250000000000,76150000000000],"hashrate_average_7d":28966491942321420,"hashrate_average_7d_count":168,"hashrate_block":728360799028515.6,"expected_blocks":50.78,"luck":-1.781639287791137,"multipool":15}],"hashblock":{"hashrate_average_100":63252608004877780,"blocks_count":90,"pools":[[514097365287885.25,8,64262170660985.66,"https:\/\/pool.btc.com"],[710610603944770.6,33,21533654664993.05,"https:\/\/www.f2pool.com"],[728360799028515.6,49,14864506102622.768,"https:\/\/www.poolin.com"]],"hashrate_block_all":702806755609753.1,"hashrate_block_min":14864506102622.768,"hashrate_block_max":64262170660985.66,"pool_hashblock_average":33553443809533.824,"hashrate_block":702806755609753.1},"time":1669085045,"hashrate":74660000000000000,"difficulty":4773764148.830772,"height":713815,"symbol":"DCR","maxhash":35834000000000004,"poolshash":77998140265794220,"nethash_estimat":70280675560975310,"poolsminers":1591,"supply":{"circulating":14523754.3923355,"total":21000000,"emission24":2463},"block_time_target":300,"block_height_ok":true,"algo":"Blake256R14","hashrate_from_diff":false,"hashrate_src":"https:\/\/lab.antpool.com","unit":"H\/s","block_time_average":309,"minerstat":[1.7375638838944e-16,18.618633401281,0.98377563,2896],"link":{"coingecko":"decred","cmc":"decred","whattomine":"152-dcr-blake (14r)","coin360":"decred-dcr","coinpaprika":"dcr-decred"},"latest_release":{"tag":"release-v1.7.5","name":"dcrd v1.7.5","t":1665429869},"price":18.62}