{"data":[{"url":"https:\/\/www.okx.com\/pool","hashrate":8270000000000,"miners":-1,"minpay":-1,"id":23,"pool_id":"okx.com","i":1612,"workers":1,"lastblock":630904,"feetype":"PPLNS","fee":2,"country":"HK|Hong Kong","hashrate_average_100_count":78,"hashrate_average_100":9379496193910.256,"hashrate_average_1h":8168125000000,"history_start":1666665644,"history_interval":3600,"history_addlast":true,"history":[9685000000000,-148000000000,429500000000,-383000000000,495500000000,-925500000000,-462500000000,-243500000000,262500000000,0,0,0,0,0,0,0,0,0,0,0,0,0,0,0,0,0,0,0,0,0,0,0,0,0,0,0,0,0,0,0,0,0,0,0,0,0,0,0,0,0,0,0,0,-3919500000000,-4790500000000,8934500000000,259000000000,952000000000,-990500000000,1290000000000,-1112500000000,-74500000000,-227000000000,-317000000000,529000000000,-712000000000,-562000000000,2099000000000,-353500000000,-128500000000,-462000000000,-404500000000,-628500000000,1323000000000,212000000000,-278777778000,62277778000,-56000000000,482000000000,-1680500000000,-142000000000,412000000000,348000000000,-7000000000,-135500000000,601000000000,-810000000000,822000000000,191000000000,365000000000,-386000000000,-420500000000,-491000000000,184000000000,303500000000,-619500000000,-82500000000,288000000000,682000000000,-88088235000,-846411765000,1786500000000,-1021500000000,25000000000,1257500000000,-1103500000000,-144500000000,622000000000,-860000000000,-426000000000,503000000000,-583000000000,938722222000,-166222222000,-1277500000000,-306000000000,567000000000,292000000000,618000000000,-1022500000000,2141000000000,-1558000000000,-69500000000,367000000000,-264166667000,58166667000,115000000000,-427500000000,1061500000000,-1365000000000,683000000000,665000000000,-173000000000,192000000000,875000000000,-831000000000,-1089500000000,-10000000000,797500000000,1400500000000,-995000000000,-1000500000000,664500000000,-710000000000,1084500000000,-557500000000,1500000000,633500000000,565470590000,-1439102169000,-319868421000,-1050500000000,1453000000000,662500000000,-4500000000,-212500000000,742000000000,-1875500000000,1449500000000,641000000000,481500000000,-1687000000000,9000000000,1100000000000,-453000000000,-1444500000000,253500000000,-413875000000],"hashrate_average_7d":8908759842577.379,"hashrate_average_7d_count":168,"expected_blocks":0.01,"multipool":5},{"url":"https:\/\/www2.coinmine.pl\/dcr","hashrate":523040378829756,"miners":-1,"minpay":0.05,"id":5,"pool_id":"coinmine.pl","i":12342,"workers":26,"blocks_nr":5,"lastblock":707815,"lastblocktime":"1667261875","fee":1,"feetype":"PPLNS","height":707839,"country":"WL|EU , US , Asia","blocks_1000":6,"blocks_count":1,"hashrate_average_100_count":78,"hashrate_average_100":540984759231112.6,"hashrate_average_1h":527762729854478.56,"history_start":1666665644,"history_interval":3600,"history_addlast":true,"history":[556967046600000,37270453700000,6586261200000,-2147051400000,394246000000,-20360954200000,15088233400000,-12320604200000,25308546200000,10385078400000,-20162227300000,1395555700000,-12514762600000,13771556200000,1493083700000,-4354215900000,-31816846600000,16386927800000,-27302138700000,-9109180200000,33409547400000,-10017857200000,47061651100000,-980249900000,3295175400000,26395151900000,-16349605500000,14417604800000,-36425732800000,25613084900000,10605316400000,16806365800000,-20411275600000,-13753783000000,20722737100000,-17248114400000,-2812097400000,-9779052200000,-2545479600000,35554548800000,1333306000000,-55474547800000,-15878564300000,7659019500000,-19106952000000,16758671600000,-4934183100000,-11156355200000,-1167757000000,19415842300000,-22659208300000,12497131700000,44798255900000,-12133340900000,12101467200000,12912591300000,-24882877300000,-27609160400000,-12164977200000,15050086200000,4096973200000,-5581228000000,13059963900000,-33571584200000,21688627200000,10185035000000,-9284181600000,3550011100000,3045653200000,-17349932600000,9130778300000,-20783374400000,23136024900000,-2779912400000,-14110177500000,36517045500000,20868718600000,-12336798400000,17800288400000,-22483432200000,-3515182900000,21143354300000,11552157900000,-29123083600000,10235103000000,1539400800000,-37630642300000,-8678168500000,-114469300000,4341285100000,-2995712300000,13388773100000,12557252900000,6121208200000,-36347125900000,-10675109400000,-3594870100000,26187125100000,-8875414900000,5968223900000,-1425994400000,-8751358900000,10017342500000,19155233400000,-4849925600000,-3647965800000,-12013384700000,9500888600000,-377784600000,-25942289600000,24924662000000,-14021670200000,20581298300000,-603995600000,11757425500000,-35457501800000,18299247800000,-9629366700000,-27529156300000,30289391200000,-19009250300000,-2742443000000,20504269100000,-16930114700000,-695574700000,17381050300000,-21706000100000,7030595500000,-6332229000000,11518278300000,4613800700000,-15311677800000,11460181000000,-1154343500000,-7156439600000,871432300000,-35937275100000,-6501899800000,29311647600000,-89406412200000,-3535859600000,93583334300000,31916424600000,-4988798400000,-1823987700000,-4779241700000,-4355810000000,-9978753800000,-4012814200000,-7919899000000,15595239500000,-9669475000000,20311851300000,-20290896300000,15765671100000,-3913758300000,11358479400000,2392505300000,-20299996200000,18591403900000,-39123290200000,15367848600000,-20701540800000,9053224600000,-2489392100000,-11770728900000,-10052878900000,13293183200000],"hashrate_average_7d":582552877242857.1,"hashrate_average_7d_count":168,"expected_blocks":0.61,"luck":0.38631868327544505,"multipool":6},{"url":"https:\/\/lab.antpool.com","hashrate":4240000000000000,"miners":-1,"minpay":0.1,"id":11,"pool_id":"antpool.com","i":2063,"nethash":83770000000000000,"netdiff":7094945597,"feetype":"PPS","fee":3,"income":2.7322184e-15,"country":"WL|Global","hashrate_average_100_count":78,"hashrate_average_100":4237871093749999.5,"hashrate_average_1h":4280000000000000,"history_start":1666665644,"history_interval":3600,"history_addlast":true,"history":[4747000000000000,-45500000000000,-27000000000000,-38500000000000,22000000000000,17000000000000,-90500000000000,61500000000000,286000000000000,272500000000000,-4500000000000,87500000000000,25000000000000,-31500000000000,-151000000000000,-22500000000000,12500000000000,35500000000000,3500000000000,-93500000000000,140000000000000,-137000000000000,15000000000000,114500000000000,-38500000000000,-27500000000000,110000000000000,70500000000000,-112500000000000,42000000000000,28000000000000,46500000000000,-100500000000000,-8500000000000,-28000000000000,116500000000000,-85500000000000,104500000000000,-174000000000000,53500000000000,35500000000000,49000000000000,-49500000000000,-65000000000000,-788500000000000,-41500000000000,53500000000000,43500000000000,23500000000000,-100500000000000,15000000000000,-74763158000000,3263158000000,46000000000000,-15000000000000,24500000000000,28500000000000,215000000000000,173500000000000,54000000000000,-64500000000000,-29500000000000,-147500000000000,140500000000000,-46000000000000,77000000000000,-5500000000000,-33500000000000,-63000000000000,-270500000000000,-26000000000000,29000000000000,-53500000000000,102000000000000,-68500000000000,-16666667000000,2666667000000,-36000000000000,87000000000000,-59500000000000,-3500000000000,36500000000000,-44500000000000,-30000000000000,-65000000000000,90000000000000,-169000000000000,112000000000000,60000000000000,41500000000000,-4000000000000,-39000000000000,24000000000000,18000000000000,-18000000000000,16000000000000,45000000000000,4000000000000,-65500000000000,68444444000000,-24444444000000,7500000000000,-28500000000000,2500000000000,-104000000000000,47000000000000,127000000000000,98000000000000,-82000000000000,120500000000000,-94500000000000,118500000000000,45222222000000,20277778000000,2000000000000,1500000000000,-25000000000000,-1000000000000,-21000000000000,23000000000000,185500000000000,220500000000000,74000000000000,-100000000000000,-21444444000000,-18055556000000,80000000000000,-113500000000000,57000000000000,113500000000000,-3500000000000,46500000000000,-11500000000000,-26500000000000,-128000000000000,92500000000000,19500000000000,69000000000000,-21500000000000,-60500000000000,-36500000000000,-173000000000000,-113000000000000,-55500000000000,-993500000000000,975500000000000,69000000000000,-267500000000000,-223941176000000,61888544000000,-51947368000000,8000000000000,-46000000000000,-6500000000000,-58500000000000,50000000000000,34500000000000,-21000000000000,-80000000000000,49000000000000,-5500000000000,19500000000000,-7000000000000,36500000000000,-13000000000000,-42500000000000,61000000000000,4500000000000],"hashrate_average_7d":4683165467791668,"hashrate_average_7d_count":168,"expected_blocks":4.81,"multipool":16},{"url":"https:\/\/pool.btc.com","hashrate":3884000000000000,"miners":-1,"minpay":0.1,"id":4,"pool_id":"pool.btc.com","feetype":"PPS","i":14356,"workers":85,"income":2.8167175934321e-15,"i_blocks":14398,"json_blocks":{"err_no":0,"data":{"blocks":{"current_page":1,"data":[{"height":707833,"is_orphaned":0,"hash":"0000000000000000536c068279d8d7f5ca5b2c157147a4eb8e8e587ccb89634c","rewards":"0.99343280","size":8294,"prev_hash":"0000000000000000302b7807f3c2dd882544161319c4921c38027da25c2f4855","bits":419470072,"version":9,"created_at":1667271558,"region_id":36,"region_name":"BitDeer"},{"height":707817,"is_orphaned":0,"hash":"0000000000000000917552a5fe890c73abd2592b30569b02b9d8d972caa64180","rewards":"0.99343280","size":22588,"prev_hash":"000000000000000054319559bd021c2eda8dcee0bbab3bf1b72819418c08612d","bits":419470072,"version":9,"created_at":1667263835,"region_id":34,"region_name":"America"},{"height":707801,"is_orphaned":0,"hash":"0000000000000000283c031f75e49b5df37562d8685276448425c139215d2955","rewards":"0.99343280","size":22769,"prev_hash":"00000000000000001941eed65cf3b007c11063b2a31622e79a1591704a6c61a7","bits":419470072,"version":9,"created_at":1667254751,"region_id":36,"region_name":"BitDeer"},{"height":707796,"is_orphaned":0,"hash":"000000000000000005efb64baff8d4a45a8c838077fea7dc7409803f8948c47c","rewards":"0.99343280","size":4614,"prev_hash":"00000000000000002026ecd75990b75910883ceeb9b667736f958fd590f2ca7d","bits":419470072,"version":9,"created_at":1667253397,"region_id":34,"region_name":"America"},{"height":707665,"is_orphaned":0,"hash":"0000000000000000895910f152d35999bf5e78cf00a70a2a63463b58d4b1217a","rewards":"0.99343280","size":52001,"prev_hash":"00000000000000002429bc3eff1b28a82570cc12e522ad2f4a052a9802c9cfb9","bits":419472873,"version":9,"created_at":1667216505,"region_id":36,"region_name":"BitDeer"},{"height":707663,"is_orphaned":0,"hash":"0000000000000000365262b56ae4b0537cef714f83f6c41e83bbe5b6c63cd3f1","rewards":"0.99343280","size":13222,"prev_hash":"00000000000000001b6c9b78c08b78fac405572f372753ca68420d937328fe5e","bits":419472873,"version":9,"created_at":1667215567,"region_id":36,"region_name":"BitDeer"},{"height":707661,"is_orphaned":0,"hash":"0000000000000000a39c2f7fe739499022d1cf6b9f2d73e58c439b8e173f791a","rewards":"0.99343280","size":3503,"prev_hash":"000000000000000043298c029904418b2ecc0e6262a058d37da415f1a25bcb4e","bits":419472873,"version":9,"created_at":1667214361,"region_id":34,"region_name":"America"},{"height":707633,"is_orphaned":0,"hash":"000000000000000065bf683614489466b2aa9d84435e90517dbe9386c7041216","rewards":"0.99343280","size":3772,"prev_hash":"0000000000000000122de40cfae1ff95453020cb8973cc3ad8c1aff0219397d3","bits":419472873,"version":9,"created_at":1667206500,"region_id":34,"region_name":"America"},{"height":707605,"is_orphaned":0,"hash":"00000000000000001bd6a9ef0b25f715630533faec5095c30bc4273c1d6ca291","rewards":"0.99343280","size":4236,"prev_hash":"0000000000000000731a877ed790a610296f55a85a26bf578aa55f2aaaf4c806","bits":419475268,"version":9,"created_at":1667199940,"region_id":34,"region_name":"America"},{"height":707575,"is_orphaned":0,"hash":"000000000000000036e22cdaacabd56de597609abd3801c8fb7f84229964d445","rewards":"0.99343280","size":3490,"prev_hash":"000000000000000054413def4e97caabf149c563267b3ea81603da17558fc2d1","bits":419475268,"version":9,"created_at":1667191212,"region_id":34,"region_name":"America"}],"first_page_url":"https:\/\/eu-api.connectbtc.com\/\/public\/v1\/pool\/blocks\/merge?order_by=desc&page_size=10&page=1","from":1,"last_page":2210,"last_page_url":"https:\/\/eu-api.connectbtc.com\/\/public\/v1\/pool\/blocks\/merge?order_by=desc&page_size=10&page=2210","next_page_url":"https:\/\/eu-api.connectbtc.com\/\/public\/v1\/pool\/blocks\/merge?order_by=desc&page_size=10&page=2","path":"https:\/\/eu-api.connectbtc.com\/\/public\/v1\/pool\/blocks\/merge","per_page":10,"prev_page_url":null,"to":10,"total":22095},"blocks_count":22095,"rewards_count":"190481.07728144"},"trace_id":"7b9491cb-80fa-49fd-b9a7-8daa8adb889e"},"blocks_nr":10,"lastblock":707833,"lastblocktime":"1667271552","country":"WL|CN , EU , US","blocks_1000":37,"blocks_count":4,"hashrate_average_100_count":78,"hashrate_average_100":3899845903445513,"hashrate_average_1h":3867312500000000,"history_start":1666665644,"history_interval":3600,"history_addlast":true,"history":[3087900000000000,256450000000000,15950000000000,34200000000000,-16300000000000,-1400000000000,-30400000000000,2350000000000,-7350000000000,-6700000000000,70000000000000,8850000000000,100000000000,1050000000000,41800000000000,-2200000000000,-52750000000000,-42200000000000,-17600000000000,-25200000000000,-4600000000000,149100000000000,-8100000000000,-12150000000000,66500000000000,-61150000000000,-12100000000000,62100000000000,-23500000000000,-1050000000000,-2200000000000,19900000000000,-66100000000000,55250000000000,-21300000000000,42050000000000,-50000000000000,32650000000000,62750000000000,-40750000000000,2150000000000,-86450000000000,30500000000000,-55800000000000,35650000000000,3800000000000,13550000000000,100550000000000,-58850000000000,-47750000000000,-12650000000000,-29497368000000,31647368000000,5850000000000,-105650000000000,78250000000000,24850000000000,-27900000000000,12200000000000,-40300000000000,35950000000000,64000000000000,-39800000000000,-41950000000000,12200000000000,-51200000000000,-55200000000000,-32050000000000,133850000000000,10950000000000,41900000000000,72400000000000,13250000000000,-42350000000000,35350000000000,-17355556000000,-5994444000000,-10050000000000,-15850000000000,28250000000000,-14450000000000,-45700000000000,21400000000000,-48600000000000,45250000000000,2750000000000,-19450000000000,22450000000000,-53600000000000,51750000000000,28550000000000,71800000000000,21050000000000,950000000000,22100000000000,81450000000000,-53900000000000,2800000000000,-41200000000000,-16111765000000,9711765000000,24350000000000,-40750000000000,4150000000000,42000000000000,-17100000000000,-13600000000000,15250000000000,15350000000000,68200000000000,-9200000000000,9000000000000,43272222000000,-32472222000000,9500000000000,2600000000000,-16500000000000,1100000000000,-17950000000000,-95350000000000,33200000000000,-22900000000000,27900000000000,42650000000000,-15888889000000,25688889000000,-42500000000000,12300000000000,-5500000000000,19200000000000,9650000000000,6900000000000,4100000000000,70500000000000,-41250000000000,21900000000000,1700000000000,-40650000000000,-34500000000000,-27700000000000,33600000000000,49800000000000,-29850000000000,-6900000000000,-29200000000000,60050000000000,-82450000000000,56600000000000,44400000000000,-15000000000000,43350000000000,-12700000000000,28250000000000,-8350000000000,22150000000000,36750000000000,-35900000000000,-9150000000000,86850000000000,2500000000000,33300000000000,150000000000,77050000000000,-64000000000000,-72800000000000,91400000000000,-45700000000000,-26837500000000],"hashrate_average_7d":3558911792523809.5,"hashrate_average_7d_count":168,"hashrate_block":974961475861378.2,"expected_blocks":4.42,"luck":-0.4239001713297528,"multipool":7},{"url":"https:\/\/www.f2pool.com","hashrate":49866325348063080,"miners":-1,"minpay":0.1,"id":14,"pool_id":"f2pool.com","fee":3,"feetype":"PPS%3","i":2445,"income":2.6617575099771796e-15,"blocks_nr":10,"lastblock":707839,"lastblocktime":1667273036,"country":"WL|Global","blocks_1000":591,"blocks_count":58,"hashrate_average_100_count":78,"hashrate_average_100":50698561763079870,"hashrate_average_1h":49985336686781010,"history_start":1666665644,"history_interval":3600,"history_addlast":true,"history":[48615800760000000,-233893690000000,190629890000000,602762280000000,-16471080000000,-89024620000000,-389736360000000,270056020000000,204216830000000,69745780000000,-438105150000000,143821780000000,-135294910000000,399925230000000,3094970000000,-119128110000000,-113954910000000,176224210000000,-219733960000000,123588470000000,-482117340000000,157721910000000,456727400000000,-149957330000000,-18886750000000,-64527680000000,77804160000000,86182970000000,-37642230000000,71621110000000,-386958630000000,370455380000000,-155883270000000,-5523971690000000,-991477630000000,-93557150000000,5643028190000000,1070615550000000,-146607030000000,-74855420000000,-163987510000000,418591910000000,-82205310000000,-122258240000000,-143730500000000,334379460000000,-698038790000000,116618570000000,874091730000000,-872802990000000,222296270000000,262732430000000,1587730930000000,216385300000000,-473474010000000,-363172790000000,13511470000000,235847700000000,-191197960000000,-395412950000000,417976210000000,113399400000000,-164546240000000,-153301010000000,-29517770000000,17776390000000,76395310000000,-23310750000000,-711069520000000,662880850000000,-131153340000000,-21471660000000,548044790000000,-474315870000000,274847560000000,65187390000000,48350940000000,14045250000000,753436650000000,589654760000000,21696240000000,-3697840000000,-225234320000000,-136362140000000,-605960430000000,-195173410000000,39862830000000,-211253570000000,-73096610000000,474457920000000,-3288990000000,-87584940000000,-378942650000000,44897290000000,497353390000000,-332579440000000,105088490000000,-365026530000000,-120325450000000,123261530000000,-166577170000000,294370550000000,345288300000000,-74614660000000,122571900000000,194175460000000,-73461230000000,-363473420000000,348930640000000,33893990000000,242232200000000,-297708100000000,-213366010000000,223585120000000,-311052060000000,-94715990000000,-198442880000000,118550910000000,-121044420000000,307116430000000,358807750000000,-439460880000000,97173380000000,199999460000000,48541180000000,69288620000000,-229563190000000,521500290000000,-486158310000000,-81353650000000,289252900000000,-93647170000000,-8617730000000,91158270000000,-138736890000000,-32338190000000,-189870940000000,-85353640000000,173325940000000,233929150000000,-312066560000000,21607210000000,168838880000000,15529900000000,60559620000000,-541437400000000,282170850000000,98100260000000,-154311830000000,750970690000000,-612945300000000,244277410000000,159472880000000,105827960000000,-203476510000000,-347187380000000,371060550000000,-54794180000000,264321370000000,-389776790000000,129823640000000,346871370000000,-13719200000000,-402780540000000,-263759760000000,533944030000000,-406154260000000,-549309510000000],"hashrate_average_7d":49857186362738104,"hashrate_average_7d_count":168,"hashrate_block":874113133846204.8,"expected_blocks":57.51,"luck":0.48865682828518686,"multipool":33},{"url":"https:\/\/www.poolin.com","hashrate":26454000000000000,"miners":-1,"minpay":0.01,"id":3,"pool_id":"poolin.com","fee":3,"feetype":"PPS","i":13417,"json":{"err_no":0,"data":{"shares":{"shares_1m":25.902,"shares_5m":26.454,"shares_15m":26.378,"shares_1h":25.88,"shares_unit":"P"},"reject":{"1m":0,"5m":0,"15m":0.0057,"1h":0.0037},"workers":1352,"users":379,"total_blocks":143560,"total_rewards":104536125354657}},"workers":1352,"netdiff":7094945597.483363,"nethash":"101575197686713985","income":3.08059e-15,"blocks_nr":15,"lastblock":707836,"lastblocktime":"1667272418","country":"US|United States","blocks_1000":314,"blocks_count":29,"hashrate_average_100_count":18,"hashrate_average_100":25995436848958332,"hashrate_average_1h":25787875000000000,"history_start":1666665644,"history_interval":3600,"history_addlast":true,"history":[24921450000000000,-1623000000000000,-530950000000000,50550000000000,787600000000000,2360100000000000,-2489950000000000,5039200000000000,310400000000000,-444800000000000,267950000000000,-20550000000000,210550000000000,180000000000000,-235100000000000,149250000000000,-67900000000000,191200000000000,-174450000000000,329550000000000,-287950000000000,13200000000000,-96050000000000,-113036840000000,-3969263160000000,1334000000000000,1185400000000000,-332050000000000,604650000000000,441750000000000,337500000000000,-211050000000000,-44500000000000,337550000000000,-90200000000000,132350000000000,626350000000000,186900000000000,3500000000000,-10100000000000,-4400000000000,178600000000000,127000000000000,-665150000000000,-821000000000000,563500000000000,5768750000000000,890700000000000,-569100000000000,555400000000000,356650000000000,-393789470000000,-2471410530000000,2985200000000000,16450000000000,-307250000000000,247100000000000,-241950000000000,-712750000000000,422650000000000,-179550000000000,-553450000000000,297450000000000,80800000000000,92200000000000,124100000000000,257900000000000,22900000000000,45250000000000,-646850000000000,-7147150000000000,18250000000000,68650000000000,-231350000000000,210450000000000,-25627780000000,144477780000000,-185050000000000,-31450000000000,-101200000000000,-331750000000000,37013160000000,-115813160000000,248450000000000,-60050000000000,-8850000000000,48700000000000,-75450000000000,39150000000000,95800000000000,-109650000000000,299850000000000,-91250000000000,-13000000000000,-202600000000000,-25100000000000,90500000000000,4827550000000000,2169200000000000,152947060000000,393802940000000,-42818420000000,449068420000000,-227700000000000,53100000000000,-182300000000000,66350000000000,221550000000000,-482350000000000,26700000000000,116950000000000,-108500000000000,72055560000000,37394440000000,-22650000000000,4250000000000,-514750000000000,307750000000000,-2645250000000000,-442700000000000,233800000000000,-387100000000000,2379900000000000,702957890000000,67529610000000,-101937500000000,-122000000000000,-483050000000000,370223080000000,-51273080000000,603100000000000,-511050000000000,481850000000000,-235600000000000,-2907300000000000,-4042950000000000,-10550000000000,-17050000000000,-243950000000000,-94050000000000,104250000000000,143350000000000,-339084620000000,168784620000000,-472100000000000,229050000000000,-476750000000000,103600000000000,472623530000000,355755420000000,-179278950000000,-145600000000000,123750000000000,-149450000000000,229350000000000,-254100000000000,-823800000000000,865250000000000,313650000000000,-277850000000000,-16450000000000,260500000000000,-1067100000000000,107500000000000,-215200000000000,133557690000000,-498657690000000,-40775000000000],"hashrate_average_7d":30026621799345236,"hashrate_average_7d_count":168,"hashrate_block":896394374102011.5,"expected_blocks":29.49,"luck":-0.4886568282851833,"multipool":15}],"hashblock":{"hashrate_average_100":76693998612038200,"blocks_count":87,"pools":[[974961475861378.2,4,243740368965344.56,"https:\/\/pool.btc.com"],[874113133846204.8,58,15070916100796.633,"https:\/\/www.f2pool.com"],[896394374102011.5,29,30910150831103.844,"https:\/\/www.poolin.com"]],"hashrate_block_all":885646643027293.5,"hashrate_block_min":15070916100796.633,"hashrate_block_max":243740368965344.56,"pool_hashblock_average":96573811965748.33,"ignored":[[974961475861378.2,4,243740368965344.56,"https:\/\/pool.btc.com"]],"hashrate_block":881540213931473.6},"time":1667273145,"hashrate":83770000000000000,"difficulty":7094945597.483363,"height":707839,"symbol":"DCR","maxhash":49866325348063080,"poolshash":84975635726892830,"nethash_estimat":88154021393147360,"poolsminers":1464,"supply":{"circulating":14470675.50209736,"total":21000000,"emission24":2511},"block_time_target":300,"block_height_ok":true,"algo":"Blake256R14","hashrate_from_diff":false,"hashrate_src":"https:\/\/lab.antpool.com","unit":"H\/s","block_time_average":305,"minerstat":[1.174097562278e-16,27.351988289213,0.9938266,3617],"link":{"coingecko":"decred","cmc":"decred","whattomine":"152-dcr-blake (14r)","coin360":"decred-dcr","coinpaprika":"dcr-decred"},"latest_release":{"tag":"release-v1.7.5","name":"dcrd v1.7.5","t":1665429869},"price":27.38}