{"data":[{"url":"https:\/\/www.okx.com\/pool","hashrate":0,"miners":-1,"minpay":-1,"id":23,"pool_id":"okx.com","i":1660,"workers":0,"lastblock":630904,"feetype":"PPLNS","fee":2,"country":"HK|Hong Kong","hashrate_average_100_count":79,"hashrate_average_100":0,"hashrate_average_1h":0,"history_start":1669164223,"history_interval":3600,"history_addlast":true,"history":[0,0,0,0,0,0,0,0,0,0,0,0,0,0,0,0,0,0,0,0,0,0,0,0,0,0,0,0,0,0,0,0,0,0,0,0,0,0,0,0,0,0,0,0,0,0,0,0,0,0,0,0,0,0,0,0,0,0,0,0,0,0,0,0,0,0,0,0,0,0,0,0,0,0,0,0,0,0,0,0,0,0,0,0,0,0,0,0,0,0,0,0,0,0,0,0,0,0,0,0,0,0,0,0,0,0,0,0,0,0,0,0,0,0,0,0,0,0,0,0,0,0,0,0,0,0,0,0,0,0,0,0,0,0,0,0,0,0,0,0,0,0,0,0,0,0,0,0,0,0,0,0,0,0,0,0,0,0,0,0,0,0,0,0,0,0,0,0,0],"hashrate_average_7d":0,"hashrate_average_7d_count":169,"expected_blocks":0,"multipool":5},{"url":"https:\/\/www2.coinmine.pl\/dcr","hashrate":302721489233947,"miners":-1,"minpay":0.05,"id":5,"pool_id":"coinmine.pl","i":12491,"workers":20,"blocks_nr":5,"lastblock":715523,"lastblocktime":"1669600358","fee":1,"feetype":"PPLNS","height":716085,"country":"WL|EU , US , Asia","blocks_1000":5,"hashrate_average_100_count":79,"hashrate_average_100":172546502796671.8,"hashrate_average_1h":204581048716529.53,"history_start":1669164223,"history_interval":3600,"history_addlast":true,"history":[202932630800000,-88623678500000,22902775200000,64546856300000,29447947800000,1932928200000,451873700000,18338094900000,5769165000000,-71218044500000,47409799700000,-64309579500000,35574196500000,-17828345400000,-6406132000000,-32752850300000,-6097369900000,142071629900000,-138824852900000,-41848158800000,3422884600000,109880257600000,-6338898600000,-20926635100000,43246805500000,-11959336000000,-4931809700000,81291013000000,-41457612600000,37430935700000,-105444673100000,12721319200000,13508188600000,-20271635700000,-77032555200000,-12918777400000,52210251000000,-10206318600000,2494640400000,-7634984300000,56815032400000,-54304760600000,34345812300000,64268475700000,-88260882500000,61129133200000,-65069400800000,32402618700000,-24648616700000,42976146400000,30807731300000,-9297247800000,2554779500000,85404089700000,-45528368800000,-9971192100000,-18550482300000,-7578587700000,58366606000000,-71298040700000,52900609000000,-51407130300000,48562977400000,-77910553000000,48140424400000,-24825620900000,-61142640300000,103990667300000,-106689600000,-28347927600000,-10342407900000,-22075974100000,9766804900000,-64248192200000,75429586100000,40367772700000,24800555700000,-33238562800000,-34849486900000,2400984700000,-8180979200000,35828590000000,7758444500000,103227114500000,-78787982400000,-15178553100000,39857588800000,-25387716900000,32113833800000,-87450397700000,20645245700000,-58147050600000,-57453097700000,45697721500000,-8871256600000,62012026600000,-87608565100000,34290397900000,12384495900000,-33714043000000,32911763200000,65773747500000,-65695843600000,64863032300000,-44617210400000,104807893400000,-78270765400000,36193914000000,1460570100000,20133681600000,-85303155400000,57457514300000,-23386467600000,-4437668600000,-106343795100000,47742809300000,-22680686900000,-26215017700000,-27662747660000,5191617380000,41436877280000,62652761900000,-50574902700000,56271186100000,-59335487500000,66440280300000,-40795549000000,103250880600000,-43998499800000,-10049972000000,-30953307200000,-18767935600000,5450015800000,-12178091100000,-27650733200000,43210893700000,-17965991100000,56110652600000,-51714324000000,-8281823000000,-26399687600000,64778422100000,-32423343600000,56836416000000,-57046452100000,-8125378400000,11375856800000,-25738304600000,-15004243500000,41791324300000,-5237208100000,-12790235600000,33499661200000,-58813048600000,-13173100300000,63619818900000,-63746288000000,23696807400000,45503593600000,-28954201800000,573469400000,-19962551800000,-8485977100000,18924402600000,26169886900000,52046513800000,-61216290900000,65563501300000,-23178234600000],"hashrate_average_7d":196889845273727.88,"hashrate_average_7d_count":169,"expected_blocks":0.27,"multipool":6},{"url":"https:\/\/lab.antpool.com","hashrate":13820000000000000,"miners":-1,"minpay":0.1,"id":11,"pool_id":"antpool.com","i":2111,"nethash":61270000000000000,"netdiff":5111979109,"feetype":"PPS","fee":3,"income":3.7120832999999996e-15,"lastblock":712107,"lastblocktime":"1668580440","country":"WL|Global","hashrate_average_100_count":79,"hashrate_average_100":13781454212816456,"hashrate_average_1h":13969230769230770,"history_start":1669164223,"history_interval":3600,"history_addlast":true,"history":[14352000000000000,-148000000000000,162000000000000,-108500000000000,182000000000000,-40500000000000,63000000000000,10500000000000,34500000000000,-145500000000000,-211500000000000,-59000000000000,42500000000000,73000000000000,-76000000000000,103000000000000,-157000000000000,227944440000000,-94444440000000,-205000000000000,145500000000000,-85500000000000,193000000000000,-81000000000000,-184500000000000,500500000000000,-132500000000000,13000000000000,-158000000000000,89500000000000,-170000000000000,-6500000000000,62000000000000,-146815790000000,189315790000000,-24500000000000,251000000000000,-319500000000000,24000000000000,203500000000000,-242500000000000,169000000000000,-215500000000000,21000000000000,-45500000000000,83000000000000,-103500000000000,112500000000000,-13000000000000,17500000000000,12500000000000,-47000000000000,32500000000000,129000000000000,-159500000000000,59000000000000,118000000000000,-68000000000000,-12500000000000,-5000000000000,46500000000000,-98500000000000,91000000000000,19500000000000,-169000000000000,186500000000000,67000000000000,-193500000000000,55000000000000,-84500000000000,-25500000000000,158000000000000,-80000000000000,-27000000000000,44500000000000,-79500000000000,32000000000000,26500000000000,-34500000000000,214500000000000,74500000000000,-194500000000000,-32500000000000,15500000000000,-87000000000000,141000000000000,-138000000000000,147500000000000,-311500000000000,223000000000000,-238000000000000,276500000000000,-90500000000000,164500000000000,-98500000000000,98000000000000,-169500000000000,43000000000000,-22500000000000,280500000000000,-275500000000000,189500000000000,-50500000000000,-51000000000000,110500000000000,-126500000000000,19500000000000,-1500000000000,98500000000000,-49000000000000,-67500000000000,47000000000000,-69000000000000,-134000000000000,172000000000000,-74000000000000,206000000000000,-164000000000000,123000000000000,12500000000000,-73500000000000,271500000000000,-190000000000000,-2063000000000000,1330500000000000,581500000000000,38500000000000,85500000000000,-35000000000000,-122000000000000,39500000000000,65500000000000,-153500000000000,-103500000000000,83000000000000,106000000000000,59000000000000,69500000000000,-110763160000000,180263160000000,-195000000000000,51500000000000,-257289470000000,192789470000000,-3500000000000,370000000000000,-303500000000000,82000000000000,-39000000000000,-103000000000000,170500000000000,-72500000000000,132500000000000,-87500000000000,-59000000000000,-35000000000000,-82000000000000,16000000000000,-46000000000000,18500000000000,-2674500000000000,2509000000000000,251500000000000,-265500000000000,153500000000000,-31000000000000,-31000000000000,39000000000000,-147269230000000],"hashrate_average_7d":14194060986923074,"hashrate_average_7d_count":169,"expected_blocks":21.75,"multipool":16},{"url":"https:\/\/pool.btc.com","hashrate":4095000000000000,"miners":-1,"minpay":0.1,"id":4,"pool_id":"pool.btc.com","feetype":"PPS","i":14537,"workers":99,"income":3.8706324321457e-15,"i_blocks":14579,"json_blocks":{"err_no":0,"data":{"blocks":{"current_page":1,"data":[{"height":716073,"is_orphaned":0,"hash":"00000000000000008c041c3523f1527155e29d9b902b78eaa7dda530db89f8c5","rewards":"0.98359683","size":25338,"prev_hash":"000000000000000022b2991cd842fb6e8c3710be4eeee9104ee51922adb67316","bits":419485461,"version":9,"created_at":1669769483,"region_id":34,"region_name":"America"},{"height":716058,"is_orphaned":0,"hash":"0000000000000000b3cebf12f22ca84ce7e5c1687e1b499907f8c18f86efeee2","rewards":"0.98359683","size":3053,"prev_hash":"00000000000000007cacc376e5daf249b4618789423a5496cd78b1acea21cfdc","bits":419485461,"version":9,"created_at":1669763112,"region_id":34,"region_name":"America"},{"height":716039,"is_orphaned":0,"hash":"0000000000000000675db52e600213ae83a7680cda610d1e98815a5f753f5f32","rewards":"0.98359683","size":29314,"prev_hash":"00000000000000001d5cd2f55f85c50d26b32a9cea09433a3bba0734b1998db1","bits":419485461,"version":9,"created_at":1669755565,"region_id":34,"region_name":"America"},{"height":716007,"is_orphaned":0,"hash":"000000000000000057806fa155b9a33aeb41a660c1cba1c7f65929f8a23ccec3","rewards":"0.98359683","size":6280,"prev_hash":"00000000000000008f51894a755241de7e42425d363c309c96a9afc16b636c87","bits":419485461,"version":9,"created_at":1669745189,"region_id":34,"region_name":"America"},{"height":715961,"is_orphaned":0,"hash":"00000000000000002d50f836f150d00820b2c408e8bd4eee75fd32df27fb1177","rewards":"0.98359683","size":8276,"prev_hash":"00000000000000009f05ec484dc1ec6d6dfd4fffffe997fc12662fdc5f9d8a48","bits":419481852,"version":9,"created_at":1669729330,"region_id":36,"region_name":"BitDeer"},{"height":715952,"is_orphaned":0,"hash":"0000000000000000ac1d122014f5df438ec75d458ba440550838f965fae1720e","rewards":"0.98359683","size":8778,"prev_hash":"000000000000000052a3bb32acdb8c9f852f83b6b4f0c5b023313bf76af57ad7","bits":419481852,"version":9,"created_at":1669727733,"region_id":34,"region_name":"America"},{"height":715947,"is_orphaned":0,"hash":"000000000000000078dc51fd64c7a733f7ba25a1f597888ab00f8ac948a21b51","rewards":"0.98359683","size":4677,"prev_hash":"0000000000000000c1dd0b2c3eda2876fbc43820f99c2400c870ba082dc6ef2e","bits":419481852,"version":9,"created_at":1669725530,"region_id":36,"region_name":"BitDeer"},{"height":715898,"is_orphaned":0,"hash":"00000000000000003a2901da1d282fe535ce2dfef71f27f18b2a56caabe17fbc","rewards":"0.98359683","size":40360,"prev_hash":"0000000000000000361ab795d64a86291225b14c00013a713c7a8cee1c31973e","bits":419481852,"version":9,"created_at":1669703692,"region_id":36,"region_name":"BitDeer"},{"height":715890,"is_orphaned":0,"hash":"000000000000000003774f35483ace777ee3f8458c2396c7fee55337fd118ac2","rewards":"0.98359683","size":22615,"prev_hash":"0000000000000000976413e1a5ada5dc2c8af37b83c441d6f38ffb4ca66391bb","bits":419481852,"version":9,"created_at":1669700257,"region_id":34,"region_name":"America"},{"height":715825,"is_orphaned":0,"hash":"00000000000000001f07b9fa2b96a59302ee802c18b405c11ae58edb23d73229","rewards":"0.98359683","size":2252,"prev_hash":"000000000000000034031f38dd4c2acfde311333c2b7a5f3f6e8151a160e8f04","bits":419481852,"version":9,"created_at":1669679208,"region_id":36,"region_name":"BitDeer"}],"first_page_url":"https:\/\/eu-api.connectbtc.com\/\/public\/v1\/pool\/blocks\/merge?order_by=desc&page_size=10&page=1","from":1,"last_page":2259,"last_page_url":"https:\/\/eu-api.connectbtc.com\/\/public\/v1\/pool\/blocks\/merge?order_by=desc&page_size=10&page=2259","next_page_url":"https:\/\/eu-api.connectbtc.com\/\/public\/v1\/pool\/blocks\/merge?order_by=desc&page_size=10&page=2","path":"https:\/\/eu-api.connectbtc.com\/\/public\/v1\/pool\/blocks\/merge","per_page":10,"prev_page_url":null,"to":10,"total":22589},"blocks_count":22589,"rewards_count":"190964.35578114"},"trace_id":"1c63747c-7770-4755-b943-da3afad7921d"},"blocks_nr":10,"lastblock":716073,"lastblocktime":"1669769435","country":"WL|CN , EU , US","blocks_1000":66,"blocks_count":4,"hashrate_average_100_count":79,"hashrate_average_100":4104755290743671,"hashrate_average_1h":4119769230769231,"history_start":1669164223,"history_interval":3600,"history_addlast":true,"history":[4213900000000000,-9700000000000,42200000000000,-11850000000000,-48200000000000,-24050000000000,-26850000000000,6500000000000,-47700000000000,85750000000000,4950000000000,-56650000000000,4300000000000,41250000000000,-18100000000000,-22300000000000,-5200000000000,34027778000000,-57427778000000,11250000000000,62050000000000,-67400000000000,-36100000000000,82100000000000,-18600000000000,-40100000000000,3500000000000,-56800000000000,9050000000000,-32250000000000,21450000000000,-550000000000,19950000000000,26600000000000,-18000000000000,62450000000000,-38950000000000,41850000000000,-38200000000000,-62950000000000,59250000000000,-39200000000000,4350000000000,-38750000000000,-38400000000000,51850000000000,-55900000000000,71450000000000,47950000000000,57550000000000,-19450000000000,37100000000000,28700000000000,26350000000000,27700000000000,-31250000000000,-35300000000000,-15150000000000,2150000000000,13500000000000,18950000000000,-3550000000000,-14700000000000,14400000000000,-2050000000000,19950000000000,-61650000000000,30200000000000,-29900000000000,4300000000000,-57850000000000,34550000000000,-26050000000000,40450000000000,36350000000000,-13700000000000,1400000000000,-79600000000000,56700000000000,-10400000000000,14300000000000,20850000000000,25000000000000,45350000000000,31800000000000,-28750000000000,-8200000000000,34000000000000,24250000000000,700000000000,-22350000000000,-41050000000000,-36850000000000,1950000000000,-28000000000000,-17550000000000,53150000000000,5200000000000,-31150000000000,-48550000000000,350000000000,-51300000000000,43450000000000,11750000000000,-31800000000000,-13350000000000,40650000000000,-54200000000000,2200000000000,46550000000000,74200000000000,23250000000000,-27600000000000,11700000000000,-15100000000000,-4700000000000,5500000000000,1450000000000,-38850000000000,13350000000000,-3400000000000,-14100000000000,28750000000000,-71050000000000,-2100000000000,43650000000000,52500000000000,48550000000000,-18600000000000,2900000000000,4900000000000,-14350000000000,10150000000000,-23150000000000,29100000000000,14000000000000,15000000000000,-30300000000000,4502632000000,-23252632000000,11450000000000,11200000000000,-37502632000000,-11997368000000,-44800000000000,13600000000000,-38700000000000,42050000000000,-18100000000000,-74400000000000,14900000000000,24350000000000,18700000000000,16400000000000,13250000000000,51750000000000,-12300000000000,-1000000000000,-76550000000000,26450000000000,-11750000000000,-6050000000000,-49300000000000,-41950000000000,19750000000000,-8300000000000,24550000000000,-24450000000000,55719231000000],"hashrate_average_7d":4161699982301777,"hashrate_average_7d_count":169,"hashrate_block":1026188822685917.8,"expected_blocks":6.48,"luck":-2.4784125000368213,"multipool":7},{"url":"https:\/\/www.f2pool.com","hashrate":23865297867551080,"miners":-1,"minpay":0.1,"id":14,"pool_id":"f2pool.com","fee":3,"feetype":"PPS%3","i":2480,"income":3.65769183557788e-15,"blocks_nr":5,"lastblock":716082,"lastblocktime":1669773282,"country":"WL|Global","blocks_1000":318,"blocks_count":34,"hashrate_average_100_count":79,"hashrate_average_100":23618692362125308,"hashrate_average_1h":23825983010962172,"history_start":1669164223,"history_interval":3600,"history_addlast":true,"history":[23818103830000000,67818540000000,19851010000000,-88646680000000,-165373900000000,35077030000000,-69885720000000,-190380670000000,226019430000000,-129763950000000,41532040000000,-150598400000000,-170951030000000,89135590000000,-15957940000000,-128988140000000,256774500000000,-114562460000000,118743040000000,-14714760000000,-256689600000000,239096090000000,70374250000000,1166740000000,-111028280000000,64654440000000,39946990000000,-129474670000000,354028110000000,-633972600000000,786634810000000,233208800000000,-114059150000000,-55734680000000,-75160640000000,76205510000000,-40526660000000,148503750000000,287565530000000,-73047570000000,89833840000000,-169475750000000,-280685280000000,16421730000000,-89549850000000,-107672000000000,14954500000000,47523400000000,-25514600000000,-109285940000000,330720790000000,258630370000000,-152166390000000,-474049770000000,476356490000000,-27373940000000,-73736740000000,-225685670000000,80151610000000,69048140000000,23021710000000,108587940000000,-77526040000000,-16425900000000,-45078240000000,-26069590000000,-66848100000000,-97965900000000,54296520000000,38946170000000,249142490000000,-10519080000000,675279540000000,138922030000000,-177037950000000,-62146030000000,-341289840000000,-327242810000000,291854410000000,45511430000000,73728670000000,40248470000000,-223832970000000,-59602640000000,139854520000000,-119888150000000,-55065270000000,-65314550000000,-34026940000000,19306810000000,71817180000000,-121977290000000,-86331940000000,56728440000000,-68268360000000,62853600000000,-231752270000000,-162234860000000,289429900000000,6934430000000,-36850990000000,-113611800000000,-89663570000000,29229160000000,-238485930000000,50696350000000,153479670000000,-131402140000000,100806170000000,141307580000000,-146505080000000,-67873350000000,-63650530000000,13888380000000,-11139080000000,-2850430000000,-67380950000000,-203030310000000,209410680000000,-35233360000000,84641900000000,147607650000000,60816720000000,-62703050000000,-106507260000000,-103515170000000,40345210000000,-20409500000000,42563440000000,109405420000000,31104460000000,-301071240000000,184633310000000,58221070000000,-118121740000000,73343020000000,7769420000000,150005820000000,67888170000000,-6903730000000,-114978620000000,61655910000000,157656320000000,90805750000000,378012070000000,211280200000000,-107813260000000,-126514000000000,-132673870000000,-143715070000000,-49538090000000,90459330000000,-130074750000000,9171500000000,-55825640000000,-5463610000000,7993990000000,-98340790000000,-79023330000000,103528340000000,-61664610000000,-46730330000000,23220060000000,-22697180000000,-45196640000000,-6562920000000,-14129440000000,130248350000000,169251940000000],"hashrate_average_7d":23743812203076920,"hashrate_average_7d_count":169,"hashrate_block":694667422415450.2,"expected_blocks":37.28,"luck":-3.2766757078946895,"multipool":33},{"url":"https:\/\/www.poolin.com","hashrate":34630000000000004,"miners":-1,"minpay":0.01,"id":3,"pool_id":"poolin.com","fee":3,"feetype":"PPS","i":13598,"json":{"err_no":0,"data":{"shares":{"shares_1m":32.906,"shares_5m":34.63,"shares_15m":34.28,"shares_1h":34.249,"shares_unit":"P"},"reject":{"1m":0,"5m":0,"15m":0.0035,"1h":0.0041},"workers":1400,"users":366,"total_blocks":147137,"total_rewards":104888340756943}},"workers":1400,"netdiff":5111979109.41247,"nethash":"73185943636634064","income":4.27558e-15,"blocks_nr":20,"lastblock":716085,"lastblocktime":"1669774269","country":"US|United States","blocks_1000":494,"blocks_count":56,"hashrate_average_100_count":79,"hashrate_average_100":33405767899525316,"hashrate_average_1h":33961769230769230,"history_start":1669164223,"history_interval":3600,"history_addlast":true,"history":[34750700000000000,239200000000000,299450000000000,-404300000000000,-169450000000000,279950000000000,333250000000000,828350000000000,-92750000000000,-1072200000000000,-391500000000000,1105050000000000,1385600000000000,89400000000000,-220150000000000,34050000000000,112100000000000,-295027780000000,90127780000000,183900000000000,-202850000000000,-160450000000000,54800000000000,57600000000000,-625700000000000,324300000000000,22850000000000,-170200000000000,-470600000000000,694600000000000,-1875700000000000,833000000000000,1196150000000000,-507602630000000,-545297370000000,-33550000000000,-350850000000000,204900000000000,51050000000000,15200000000000,-3950000000000,-112550000000000,41300000000000,-167150000000000,218150000000000,-4850000000000,-75250000000000,-195200000000000,-411650000000000,-18900000000000,-687450000000000,359500000000000,-96950000000000,-87200000000000,237300000000000,-133050000000000,-342900000000000,-31300000000000,-660800000000000,-387550000000000,-727160530000000,-204239470000000,76100000000000,83700000000000,-29950000000000,-77300000000000,56750000000000,-112150000000000,17000000000000,-92900000000000,-25600000000000,253400000000000,-544250000000000,-125600000000000,-3255650000000000,1973600000000000,1726000000000000,72750000000000,137400000000000,557150000000000,587450000000000,581950000000000,-66850000000000,-192150000000000,-491700000000000,632100000000000,-82750000000000,66400000000000,-278950000000000,99900000000000,241850000000000,-143150000000000,-35900000000000,78250000000000,-5900000000000,129650000000000,682500000000000,31500000000000,-197100000000000,97900000000000,146350000000000,-363700000000000,154300000000000,376650000000000,77850000000000,-112250000000000,-250500000000000,-251100000000000,440550000000000,-53650000000000,3550000000000,-25450000000000,-16500000000000,145050000000000,157750000000000,48800000000000,-146800000000000,-290100000000000,-6050000000000,-67150000000000,-191050000000000,265250000000000,217000000000000,-139400000000000,193550000000000,-505900000000000,-91100000000000,272500000000000,-11600000000000,75650000000000,-214700000000000,104800000000000,238100000000000,-225250000000000,-141950000000000,-134800000000000,39000000000000,-253700000000000,231052630000000,191747370000000,8650000000000,-78550000000000,-13847370000000,25097370000000,88100000000000,-375650000000000,118900000000000,-1141800000000000,-136150000000000,26200000000000,58100000000000,7250000000000,-78250000000000,-108200000000000,191800000000000,-164650000000000,-381300000000000,324100000000000,145850000000000,-177200000000000,526900000000000,315850000000000,-84500000000000,-341500000000000,317400000000000,-12450000000000,242250000000000,68700000000000,172869230000000],"hashrate_average_7d":34335470021005924,"hashrate_average_7d_count":169,"hashrate_block":596531569634380.6,"expected_blocks":52.72,"luck":3.2766757078946824,"multipool":15}],"hashblock":{"hashrate_average_100":57024460261650620,"blocks_count":90,"pools":[[1026188822685917.8,4,256547205671479.44,"https:\/\/pool.btc.com"],[694667422415450.2,34,20431394776925.008,"https:\/\/www.f2pool.com"],[596531569634380.6,56,10652349457756.797,"https:\/\/www.poolin.com"]],"hashrate_block_all":650310803748875.5,"hashrate_block_min":10652349457756.797,"hashrate_block_max":256547205671479.44,"pool_hashblock_average":95876983302053.75,"hashrate_block":633605114018340.2},"time":1669774783,"hashrate":61270000000000000,"difficulty":5111979109.41247,"height":716085,"symbol":"DCR","maxhash":34630000000000004,"poolshash":76713019356785020,"nethash_estimat":63360511401834024,"poolsminers":1519,"supply":{"circulating":14543755.4404572,"total":21000000,"emission24":1994},"block_time_target":300,"block_height_ok":true,"algo":"Blake256R14","hashrate_from_diff":false,"hashrate_src":"https:\/\/lab.antpool.com","unit":"H\/s","block_time_average":382,"minerstat":[1.6539822317689e-16,20.188808850234,1.00873542,3983],"link":{"coingecko":"decred","cmc":"decred","whattomine":"152-dcr-blake (14r)","coin360":"decred-dcr","coinpaprika":"dcr-decred"},"latest_release":{"tag":"release-v1.7.5","name":"dcrd v1.7.5","t":1665429869},"price":20.42}