{"data":[{"url":"https:\/\/www.okx.com\/pool","hashrate":9020000000000,"miners":-1,"minpay":-1,"id":23,"pool_id":"okx.com","i":1612,"workers":1,"lastblock":630904,"feetype":"PPLNS","fee":2,"country":"HK|Hong Kong","hashrate_average_100_count":82,"hashrate_average_100":9115251061392.994,"hashrate_average_1h":9005714285714.285,"history_start":1667097654,"history_interval":3600,"history_addlast":true,"history":[10163000000000,-1558000000000,-69500000000,367000000000,-264166667000,58166667000,115000000000,-427500000000,1061500000000,-1365000000000,683000000000,665000000000,-173000000000,192000000000,875000000000,-831000000000,-1089500000000,-10000000000,797500000000,1400500000000,-995000000000,-1000500000000,664500000000,-710000000000,1084500000000,-557500000000,1500000000,633500000000,565470590000,-1439102169000,-319868421000,-1050500000000,1453000000000,662500000000,-4500000000,-212500000000,742000000000,-1875500000000,1449500000000,641000000000,481500000000,-1687000000000,9000000000,1100000000000,-453000000000,-1444500000000,253500000000,-413000000000,74684211000,894315789000,879500000000,-417000000000,-432605263000,1881105263000,-1558000000000,-1423000000000,182000000000,521500000000,1342500000000,-1150500000000,-643000000000,477500000000,1031000000000,-1572000000000,376500000000,-739500000000,2627000000000,-1765500000000,-438000000000,7500000000,1718500000000,594500000000,207500000000,-781500000000,-1308000000000,-141000000000,-261842105000,403842105000,-612500000000,663000000000,237000000000,-84000000000,-357500000000,575500000000,273000000000,1026500000000,-856000000000,-875000000000,112000000000,-355500000000,762500000000,1882500000000,-1750000000000,-536000000000,5500000000,-760000000000,731500000000,959500000000,-168500000000,-534000000000,-1317000000000,1299500000000,-495500000000,844500000000,-84000000000,25500000000,-616500000000,85500000000,-26500000000,-327500000000,264000000000,530500000000,-574000000000,136000000000,-40500000000,340000000000,1349500000000,-1962000000000,221500000000,-221000000000,574000000000,342500000000,-725000000000,575500000000,-279710526000,90710526000,-114000000000,418000000000,-506000000000,548000000000,-372500000000,-99500000000,170000000000,-347000000000,620000000000,254000000000,-1161000000000,-548500000000,219894737000,1597605263000,-1724500000000,2235500000000,-822500000000,175500000000,794000000000,-662000000000,357000000000,-1561000000000,837205882000,-425816993000,488479532000,-1221368421000,700500000000,-935000000000,223500000000,672500000000,-262500000000,-106500000000,284000000000,917000000000,-775500000000,-287000000000,338000000000,-166500000000,651000000000,-68500000000,-832500000000,397214286000],"hashrate_average_7d":9106921255214.285,"hashrate_average_7d_count":168,"expected_blocks":0.01,"multipool":5},{"url":"https:\/\/www2.coinmine.pl\/dcr","hashrate":761201632707871,"miners":-1,"minpay":0.05,"id":5,"pool_id":"coinmine.pl","i":12372,"workers":28,"blocks_nr":5,"lastblock":708977,"lastblocktime":"1667613769","fee":1,"feetype":"PPLNS","height":709243,"country":"WL|EU , US , Asia","blocks_1000":4,"hashrate_average_100_count":82,"hashrate_average_100":715597191380160.1,"hashrate_average_1h":737725432049721.4,"history_start":1667097654,"history_interval":3600,"history_addlast":true,"history":[561423839900000,-2742443000000,20504269100000,-16930114700000,-695574700000,17381050300000,-21706000100000,7030595500000,-6332229000000,11518278300000,4613800700000,-15311677800000,11460181000000,-1154343500000,-7156439600000,871432300000,-35937275100000,-6501899800000,29311647600000,-89406412200000,-3535859600000,93583334300000,31916424600000,-4988798400000,-1823987700000,-4779241700000,-4355810000000,-9978753800000,-4012814200000,-7919899000000,15595239500000,-9669475000000,20311851300000,-20290896300000,15765671100000,-3913758300000,11358479400000,2392505300000,-20299996200000,18591403900000,-39123290200000,15367848600000,-20701540800000,9053224600000,-2489392100000,-11770728900000,-10052878900000,10214787600000,-8333798600000,17519137400000,-5656877700000,59461159800000,81519575500000,-33791608000000,14402758000000,-30627164900000,23055444300000,-9429611900000,18580787700000,20737727000000,-8657515400000,-33949056400000,-30668777700000,26335569800000,-35045462500000,9924846800000,-6028577200000,-11048373800000,22533281500000,-20835406600000,-5905616600000,30762637800000,12187193600000,1198115000000,-1085379000000,-15898331600000,18108305200000,4932308500000,-18142050900000,6483533000000,37416945600000,-25204767400000,-9375050100000,8583330000000,-93625329600000,-23846253400000,20122457600000,3482944000000,-22232728400000,-15815547700000,-206540500000,81633700000,10035699600000,-96143900000,-6444647500000,12899285500000,-26900381500000,17321640800000,16514177500000,13999412400000,104479751200000,-23131992500000,-8399182500000,19568060600000,-7855930100000,2815798000000,-13357626600000,1336387400000,4851885000000,-51693657600000,23147917800000,24560408500000,-65479274500000,-14635607400000,2634798100000,-14033765100000,10915897800000,1399538100000,6121579900000,-27095621100000,13593078000000,-12688463700000,15545003100000,4408702300000,8841104500000,-18206322800000,-9144574300000,37052230400000,-17747157300000,6958850400000,10207516200000,-33130950200000,18792426300000,4199391300000,-11214644700000,-5833904800000,4119887600000,12980541200000,-10890995700000,414747200000,1887013300000,8038130900000,-13819461000000,-7695317400000,-91607288400000,1864266800000,-32599714500000,30262667200000,-10092336300000,-4070976000000,118809471000000,153227233400000,60979300800000,1526655800000,-5191477800000,40234119000000,-45840770600000,3189583300000,7294064000000,-5428051200000,-13925404000000,-1791830900000,-28026207700000,28490925600000,-5113774000000,-28552956900000,30136971400000,17101523100000],"hashrate_average_7d":574244431569642.8,"hashrate_average_7d_count":168,"expected_blocks":0.86,"multipool":6},{"url":"https:\/\/lab.antpool.com","hashrate":4360000000000000.5,"miners":-1,"minpay":0.1,"id":11,"pool_id":"antpool.com","i":2063,"nethash":77390000000000000,"netdiff":5889247222,"feetype":"PPS","fee":3,"income":3.2915786e-15,"lastblock":708211,"lastblocktime":"1667391040","country":"WL|Global","hashrate_average_100_count":82,"hashrate_average_100":4115011206952537,"hashrate_average_1h":4162857142857143,"history_start":1667097654,"history_interval":3600,"history_addlast":true,"history":[4837500000000000,220500000000000,74000000000000,-100000000000000,-21444444000000,-18055556000000,80000000000000,-113500000000000,57000000000000,113500000000000,-3500000000000,46500000000000,-11500000000000,-26500000000000,-128000000000000,92500000000000,19500000000000,69000000000000,-21500000000000,-60500000000000,-36500000000000,-173000000000000,-113000000000000,-55500000000000,-993500000000000,975500000000000,69000000000000,-267500000000000,-223941176000000,61888544000000,-51947368000000,8000000000000,-46000000000000,-6500000000000,-58500000000000,50000000000000,34500000000000,-21000000000000,-80000000000000,49000000000000,-5500000000000,19500000000000,-7000000000000,36500000000000,-13000000000000,-42500000000000,61000000000000,17500000000000,-19500000000000,11000000000000,-33000000000000,-5500000000000,28210526000000,35289474000000,46500000000000,-135000000000000,126500000000000,17500000000000,21500000000000,-6500000000000,-59000000000000,20000000000000,-63500000000000,-21500000000000,-86500000000000,-216500000000000,11500000000000,-61000000000000,64000000000000,-46500000000000,332000000000000,97500000000000,16500000000000,-32500000000000,81000000000000,-60000000000000,55026316000000,-79526316000000,74500000000000,-186500000000000,31500000000000,40500000000000,36500000000000,-6000000000000,-29500000000000,79000000000000,-131500000000000,46500000000000,-28000000000000,90000000000000,4000000000000,43500000000000,25500000000000,67000000000000,-156500000000000,-146000000000000,43000000000000,-32500000000000,-30000000000000,-3000000000000,-68500000000000,68500000000000,40500000000000,-34000000000000,-5500000000000,-3500000000000,4000000000000,-3500000000000,-79500000000000,92500000000000,-89000000000000,58500000000000,-23000000000000,18000000000000,-33500000000000,33500000000000,15500000000000,-32000000000000,-17500000000000,76500000000000,17500000000000,-48000000000000,4000000000000,35000000000000,-112657895000000,57657895000000,32000000000000,-37000000000000,7000000000000,-53500000000000,15500000000000,-189000000000000,17500000000000,215500000000000,-58000000000000,31000000000000,-92000000000000,61000000000000,67078947000000,-20078947000000,19000000000000,-42500000000000,10000000000000,-18000000000000,81500000000000,-130500000000000,17000000000000,67500000000000,94500000000000,191578947000000,37368421000000,-55947368000000,-196000000000000,-101000000000000,-80500000000000,104500000000000,-26000000000000,53000000000000,-86500000000000,2500000000000,-13500000000000,37500000000000,-99500000000000,150500000000000,1000000000000,-13500000000000,-14000000000000,41357143000000],"hashrate_average_7d":4327786327976191,"hashrate_average_7d_count":168,"expected_blocks":4.97,"multipool":16},{"url":"https:\/\/pool.btc.com","hashrate":3692000000000000,"miners":-1,"minpay":0.1,"id":4,"pool_id":"pool.btc.com","feetype":"PPS","i":14386,"workers":86,"income":3.3933807385686e-15,"i_blocks":14428,"json_blocks":{"err_no":0,"data":{"blocks":{"current_page":1,"data":[{"height":709156,"is_orphaned":0,"hash":"00000000000000009404094465deac30f841ee33268453553bddc95a8bce3017","rewards":"0.99343280","size":10129,"prev_hash":"00000000000000008a93afcbc1e0cbd148af1b856e6f1e1da4e1cfcb3dbcbec2","bits":419475064,"version":9,"created_at":1667674914,"region_id":34,"region_name":"America"},{"height":709100,"is_orphaned":0,"hash":"0000000000000000657e302faceff5cb4165f7621b913cd06725675c04fcccb6","rewards":"0.99343280","size":41033,"prev_hash":"0000000000000000aa34a2f374ffdc7aa2f12e488f6d9c65965dab30417d7850","bits":419475064,"version":9,"created_at":1667656296,"region_id":36,"region_name":"BitDeer"},{"height":709091,"is_orphaned":0,"hash":"00000000000000002eae1405790e530b73b877ee23de38d28579f90cf4853c10","rewards":"0.99343280","size":4603,"prev_hash":"0000000000000000ad211c59839e5f3ecbd8b8385a29be4034ed34199561cf64","bits":419475064,"version":9,"created_at":1667652805,"region_id":34,"region_name":"America"},{"height":709084,"is_orphaned":0,"hash":"00000000000000009d6c8180842759fcd0a020f99cd03c5e8c08322e4f5caf3c","rewards":"0.99343280","size":7493,"prev_hash":"00000000000000006084455cea532f4bf1d3df1048f15ee1179d0f0bd30b642b","bits":419475064,"version":9,"created_at":1667649859,"region_id":34,"region_name":"America"},{"height":709072,"is_orphaned":0,"hash":"0000000000000000602092304e1084b475a979a031425601714ebc541ba49d73","rewards":"0.99343280","size":26880,"prev_hash":"0000000000000000973b366c95bc7b06965409f046e20db36631351ea0039b75","bits":419475064,"version":9,"created_at":1667647148,"region_id":34,"region_name":"America"},{"height":709060,"is_orphaned":0,"hash":"0000000000000000ab535c6d31cb392f47288e6e090012b3775de7d76280f7c5","rewards":"0.99343280","size":6856,"prev_hash":"000000000000000014e89fc114388f29005413fbc45378def48c6f27acfc8a4e","bits":419475064,"version":9,"created_at":1667645068,"region_id":34,"region_name":"America"},{"height":709054,"is_orphaned":0,"hash":"0000000000000000364eeec125c77731d66c6b120a492b4f0de290d1cdabcdc4","rewards":"0.99343280","size":8337,"prev_hash":"0000000000000000564734a23129e9ae0ca5be0c7205b20a1737b5165ece659e","bits":419473002,"version":9,"created_at":1667641445,"region_id":34,"region_name":"America"},{"height":709053,"is_orphaned":0,"hash":"0000000000000000564734a23129e9ae0ca5be0c7205b20a1737b5165ece659e","rewards":"0.79474624","size":61735,"prev_hash":"00000000000000007f628edb0934861f8269909d61957678158cfd2e961c3e4d","bits":419473002,"version":9,"created_at":1667641389,"region_id":36,"region_name":"BitDeer"},{"height":709049,"is_orphaned":0,"hash":"00000000000000008b47b33316cc6cef3cdc837336a7bf10be47afe4445a672f","rewards":"0.99343280","size":2156,"prev_hash":"000000000000000019d3fc8bd3897b75efc9cfb914a6d1ee746285c2fba79ab1","bits":419473002,"version":9,"created_at":1667640525,"region_id":36,"region_name":"BitDeer"},{"height":709034,"is_orphaned":0,"hash":"00000000000000007d4282294926af950e09a64e916f0710bf472c0355c1c287","rewards":"0.99343280","size":2571,"prev_hash":"000000000000000063a999f52d1ae4a12a4e0a85134fbfba4b08c692a28fa658","bits":419473002,"version":9,"created_at":1667636174,"region_id":34,"region_name":"America"}],"first_page_url":"https:\/\/eu-api.connectbtc.com\/\/public\/v1\/pool\/blocks\/merge?order_by=desc&page_size=10&page=1","from":1,"last_page":2217,"last_page_url":"https:\/\/eu-api.connectbtc.com\/\/public\/v1\/pool\/blocks\/merge?order_by=desc&page_size=10&page=2217","next_page_url":"https:\/\/eu-api.connectbtc.com\/\/public\/v1\/pool\/blocks\/merge?order_by=desc&page_size=10&page=2","path":"https:\/\/eu-api.connectbtc.com\/\/public\/v1\/pool\/blocks\/merge","per_page":10,"prev_page_url":null,"to":10,"total":22163},"blocks_count":22163,"rewards_count":"190548.23333872"},"trace_id":"de4e01bd-7638-416f-a9ab-5d6b24e1716d"},"blocks_nr":10,"lastblock":709156,"lastblocktime":"1667674885","country":"WL|CN , EU , US","blocks_1000":46,"blocks_count":1,"hashrate_average_100_count":82,"hashrate_average_100":3800417787551880,"hashrate_average_1h":3700857142857143,"history_start":1667097654,"history_interval":3600,"history_addlast":true,"history":[3628350000000000,-22900000000000,27900000000000,42650000000000,-15888889000000,25688889000000,-42500000000000,12300000000000,-5500000000000,19200000000000,9650000000000,6900000000000,4100000000000,70500000000000,-41250000000000,21900000000000,1700000000000,-40650000000000,-34500000000000,-27700000000000,33600000000000,49800000000000,-29850000000000,-6900000000000,-29200000000000,60050000000000,-82450000000000,56600000000000,44400000000000,-15000000000000,43350000000000,-12700000000000,28250000000000,-8350000000000,22150000000000,36750000000000,-35900000000000,-9150000000000,86850000000000,2500000000000,33300000000000,150000000000,77050000000000,-64000000000000,-72800000000000,91400000000000,-45700000000000,-22800000000000,57900000000000,15650000000000,33000000000000,23350000000000,28381579000000,-17381579000000,-25800000000000,-42800000000000,81250000000000,-50400000000000,-11300000000000,43300000000000,37100000000000,-57650000000000,-3400000000000,2000000000000,28450000000000,-16950000000000,10050000000000,-20550000000000,48000000000000,75950000000000,-62150000000000,-7100000000000,700000000000,12350000000000,16050000000000,-44100000000000,17118421000000,181579000000,-45850000000000,11950000000000,9800000000000,-18450000000000,-35250000000000,34000000000000,13000000000000,51250000000000,36650000000000,-73250000000000,-62950000000000,-124800000000000,8750000000000,-18250000000000,12900000000000,31850000000000,-37500000000000,-33250000000000,-11100000000000,-29000000000000,7450000000000,47900000000000,-27900000000000,-7050000000000,15400000000000,-30750000000000,-54200000000000,12950000000000,75350000000000,43850000000000,-33550000000000,-25950000000000,11350000000000,-3450000000000,19500000000000,-64650000000000,1650000000000,62050000000000,-11750000000000,-22450000000000,-96000000000000,-38950000000000,49750000000000,10150000000000,21900000000000,17500000000000,3586842000000,-50936842000000,-25500000000000,-12750000000000,65650000000000,-89000000000000,350000000000,18950000000000,18550000000000,63300000000000,29500000000000,45950000000000,11150000000000,-67450000000000,-24342105000000,-104907895000000,16850000000000,-8400000000000,15150000000000,48200000000000,-13950000000000,51400000000000,3200000000000,23950000000000,-8355882000000,-50715171000000,-18728947000000,65000000000000,35150000000000,-37150000000000,-34700000000000,36000000000000,54150000000000,24800000000000,20650000000000,71800000000000,-40400000000000,-54400000000000,-59150000000000,-39450000000000,12950000000000,79000000000000,-52500000000000,-64742857000000],"hashrate_average_7d":3814969262238096.5,"hashrate_average_7d_count":168,"expected_blocks":4.59,"luck":-3.5911026400130988,"multipool":7},{"url":"https:\/\/www.f2pool.com","hashrate":46398874513151980,"miners":-1,"minpay":0.1,"id":14,"pool_id":"f2pool.com","fee":3,"feetype":"PPS%3","i":2445,"income":3.2066958669048527e-15,"blocks_nr":13,"lastblock":709243,"lastblocktime":1667703346,"country":"WL|Global","blocks_1000":612,"blocks_count":68,"hashrate_average_100_count":82,"hashrate_average_100":53252090867554820,"hashrate_average_1h":46143182880167224,"history_start":1667097654,"history_interval":3600,"history_addlast":true,"history":[50744610690000000,-439460880000000,97173380000000,199999460000000,48541180000000,69288620000000,-229563190000000,521500290000000,-486158310000000,-81353650000000,289252900000000,-93647170000000,-8617730000000,91158270000000,-138736890000000,-32338190000000,-189870940000000,-85353640000000,173325940000000,233929150000000,-312066560000000,21607210000000,168838880000000,15529900000000,60559620000000,-541437400000000,282170850000000,98100260000000,-154311830000000,750970690000000,-612945300000000,244277410000000,159472880000000,105827960000000,-203476510000000,-347187380000000,371060550000000,-54794180000000,264321370000000,-389776790000000,129823640000000,346871370000000,-13719200000000,-402780540000000,-263759760000000,533944030000000,-406154260000000,-490718850000000,749192370000000,-9914232340000000,-10644425470000000,8279477160000000,11937439950000000,879657710000000,-165856510000000,-74084510000000,584199450000000,177541570000000,86794620000000,-57245210000000,507112900000000,-130648410000000,-67005850000000,-242165930000000,150478570000000,377999380000000,32267880000000,-168252400000000,-147617490000000,-268129490000000,359655490000000,382413440000000,638574000000000,-322031590000000,-86557270000000,-2382166790000000,4087040370000000,2065304170000000,20560470000000,-13404820000000,161894170000000,-107551850000000,348071830000000,-789245400000000,627697670000000,-672286050000000,420918820000000,89723930000000,-175070090000000,314286840000000,-2164042290000000,986679420000000,-2001348220000000,1656619270000000,-2212356160000000,3681286920000000,-1033346310000000,-281404660000000,739915410000000,-203453310000000,-864164140000000,1099739110000000,-311237530000000,287015920000000,392493510000000,127815080000000,-239992880000000,-485128380000000,276147920000000,-757013490000000,761149190000000,-665034240000000,-1402379000000000,-444853530000000,1673817100000000,625591160000000,-113450940000000,-5943023340000000,-4638767790000000,711275910000000,2348284540000000,7483454150000000,659184830000000,-415620730000000,451120020000000,-2591259900000000,-5605630580000000,720808530000000,1384254220000000,6299577430000000,-553809970000000,-862841380000000,716821750000000,764046270000000,139318980000000,-1109852180000000,933613680000000,465450010000000,-124190080000000,-191849070000000,-2344178510000000,-8828232800000000,515881300000000,-194811830000000,-1068303320000000,4211743500000000,5904122140000000,176836230000000,117057470000000,-143154270000000,-735284810000000,2550504980000000,321013300000000,-645291310000000,473797150000000,-695795390000000,823925460000000,-305005620000000,-132879400000000,-381422070000000,1363010000000000,-58650810000000,-13141527520000000,13432778150000000,-862588220000000,-10530284040000000,16168420000000,-759928170000000],"hashrate_average_7d":52790682737380980,"hashrate_average_7d_count":168,"hashrate_block":783118983346394.4,"expected_blocks":64.33,"luck":3.6687004862854593,"multipool":33},{"url":"https:\/\/www.poolin.com","hashrate":25948000000000000,"miners":-1,"minpay":0.01,"id":3,"pool_id":"poolin.com","fee":3,"feetype":"PPS","i":13447,"json":{"err_no":0,"data":{"shares":{"shares_1m":25.188,"shares_5m":25.948,"shares_15m":25.855,"shares_1h":26.091,"shares_unit":"P"},"reject":{"1m":0,"5m":0,"15m":0.0078,"1h":0.0041},"workers":1188,"users":366,"total_blocks":143974,"total_rewards":104577074654673}},"workers":1188,"netdiff":5889247222.315772,"nethash":"84313747388496172","income":3.71128e-15,"blocks_nr":16,"lastblock":709240,"lastblocktime":"1667702817","country":"US|United States","blocks_1000":286,"blocks_count":28,"hashrate_average_100_count":82,"hashrate_average_100":26214681324656416,"hashrate_average_1h":25661142857142856,"history_start":1667097654,"history_interval":3600,"history_addlast":true,"history":[31735400000000000,-387100000000000,2379900000000000,702957890000000,67529610000000,-101937500000000,-122000000000000,-483050000000000,370223080000000,-51273080000000,603100000000000,-511050000000000,481850000000000,-235600000000000,-2907300000000000,-4042950000000000,-10550000000000,-17050000000000,-243950000000000,-94050000000000,104250000000000,143350000000000,-339084620000000,168784620000000,-472100000000000,229050000000000,-476750000000000,103600000000000,472623530000000,355755420000000,-179278950000000,-145600000000000,123750000000000,-149450000000000,229350000000000,-254100000000000,-823800000000000,865250000000000,313650000000000,-277850000000000,-16450000000000,260500000000000,-1067100000000000,107500000000000,-215200000000000,133557690000000,-498657690000000,-78050000000000,-38250000000000,914950000000000,-90050000000000,332800000000000,-68681580000000,-838618420000000,675788460000000,-355188460000000,585600000000000,114450000000000,-95850000000000,763700000000000,311750000000000,-146050000000000,-122500000000000,157350000000000,-53000000000000,124850000000000,-254750000000000,-104750000000000,-63900000000000,335500000000000,-126000000000000,150881580000000,52418420000000,70100000000000,-153150000000000,359750000000000,-182644740000000,838094740000000,274300000000000,-524800000000000,262200000000000,-511350000000000,-70150000000000,-66800000000000,579800000000000,-58250000000000,10050000000000,35600000000000,-131850000000000,-176900000000000,30750000000000,114950000000000,13950000000000,-292900000000000,-1125800000000000,882050000000000,-344550000000000,-768289470000000,281239470000000,-216500000000000,-166000000000000,175950000000000,46450000000000,-118500000000000,-71800000000000,370600000000000,1950000000000,-161750000000000,-2950000000000,99800000000000,18650000000000,208000000000000,116650000000000,-101550000000000,-53600000000000,-280550000000000,-14350000000000,-409055260000000,-237894740000000,304650000000000,52850000000000,-482650000000000,22100000000000,-1238002630000000,61789470000000,1036713160000000,-355050000000000,-44450000000000,-494750000000000,113650000000000,550500000000000,-283500000000000,581850000000000,363150000000000,-26200000000000,40000000000000,-257300000000000,134900000000000,-442828950000000,-630271050000000,283150000000000,326250000000000,-490700000000000,-2034450000000000,2686350000000000,336950000000000,269700000000000,-372400000000000,-104647060000000,2804950000000,325592110000000,1050000000000,-104000000000000,110276920000000,78423080000000,49900000000000,-49150000000000,-215300000000000,71450000000000,-167000000000000,179750000000000,0,-177600000000000,-36850000000000,-663200000000000,-286700000000000,376300000000000,-203957140000000],"hashrate_average_7d":27604862969523800,"hashrate_average_7d_count":168,"hashrate_block":936238618737729.1,"expected_blocks":31.67,"luck":-3.668700486285463,"multipool":15}],"hashblock":{"hashrate_average_100":79466772192211230,"blocks_count":96,"pools":[[783118983346394.4,68,11516455637446.977,"https:\/\/www.f2pool.com"],[936238618737729.1,28,33437093526347.47,"https:\/\/www.poolin.com"]],"hashrate_block_all":827778877002200.4,"hashrate_block_min":11516455637446.977,"hashrate_block_max":33437093526347.47,"pool_hashblock_average":22476774581897.223,"hashrate_block":827778877002200.4},"time":1667703534,"hashrate":77390000000000000,"difficulty":5889247222.315772,"height":709243,"symbol":"DCR","maxhash":46398874513151980,"poolshash":81169096145859860,"nethash_estimat":82777887700220030,"poolsminers":1303,"supply":{"circulating":14483176.661766,"total":21000000,"emission24":2267},"block_time_target":300,"block_height_ok":true,"algo":"Blake256R14","hashrate_from_diff":false,"hashrate_src":"https:\/\/lab.antpool.com","unit":"H\/s","block_time_average":339,"minerstat":[1.4143011749218e-16,28.012225821071,0.9937086,1278],"link":{"coingecko":"decred","cmc":"decred","whattomine":"152-dcr-blake (14r)","coin360":"decred-dcr","coinpaprika":"dcr-decred"},"latest_release":{"tag":"release-v1.7.5","name":"dcrd v1.7.5","t":1665429869},"price":28.29}