{"data":[{"url":"https:\/\/www.okx.com\/pool","hashrate":9610000000000,"miners":-1,"minpay":-1,"id":23,"pool_id":"okx.com","i":1617,"workers":1,"lastblock":630904,"feetype":"PPLNS","fee":2,"country":"HK|Hong Kong","hashrate_average_100_count":65,"hashrate_average_100":9354175480769.23,"hashrate_average_1h":9610000000000,"history_start":1668048227,"history_interval":3600,"history_addlast":true,"history":[8707894737000,960605263000,-1750500000000,1942500000000,-347166667000,-651833333000,77500000000,-120500000000,778500000000,-100000000000,-186500000000,-630000000000,-36000000000,400000000000,452500000000,542000000000,-1349000000000,142000000000,204500000000,-339000000000,-135500000000,298000000000,-84500000000,583500000000,534500000000,-456000000000,-175000000000,-256500000000,-984333333000,634833333000,4829000000000,-3537000000000,-1173000000000,292000000000,679500000000,-1940000000000,1737500000000,-548500000000,-861500000000,-478000000000,2032500000000,1318000000000,-724500000000,-2169500000000,171000000000,-115000000000,303000000000,366000000000,-283000000000,1030000000000,-1031500000000,-617000000000,1206277778000,271432748000,-661210526000,1000500000000,-364500000000,116500000000,-33000000000,-18500000000,-125500000000,-268500000000,-220000000000,718333333000,1213166667000,-2560973684000,519473684000,-46000000000,-415000000000,-16500000000,683500000000,-418000000000,-223500000000,-382500000000,90500000000,1072500000000,1273947370000,-1133447370000,-628500000000,848500000000,-1404500000000,333000000000,9000000000,-16000000000,259000000000,-216500000000,731500000000,1083500000000,-1103500000000,-14500000000,-1023000000000,2252000000000,-572000000000,-1298000000000,553500000000,84000000000,1169500000000,-42500000000,0,0,-847777778000,-667722222000,240000000000,553000000000,-729000000000,-744000000000,1173000000000,590394737000,-465394737000,-362000000000,308500000000,-1093000000000,876500000000,-39500000000,789000000000,-775500000000,-916000000000,538500000000,-189500000000,541000000000,-1264000000000,283000000000,1022000000000,-1050000000000,406500000000,515500000000,-17500000000,-143000000000,-237000000000,33000000000,-234500000000,1266500000000,-126000000000,-445500000000,133000000000,-967000000000,521500000000,170000000000,500894737000,108105263000,-2334000000000,1293000000000,-404000000000,679000000000,-200000000000,774500000000,-125500000000,300473684000,208026316000,-820500000000,-93500000000,353000000000,116000000000,152000000000,687000000000,-488500000000,597000000000,-635500000000,721000000000,-222500000000,-28000000000,-337500000000,-1488000000000,1012000000000,-843078947000,2406578947000,-1659500000000,514500000000],"hashrate_average_7d":9052354741029.758,"hashrate_average_7d_count":168,"expected_blocks":0.02,"multipool":5},{"url":"https:\/\/www2.coinmine.pl\/dcr","hashrate":904647347544405,"miners":-1,"minpay":0.05,"id":5,"pool_id":"coinmine.pl","i":12391,"workers":35,"blocks_nr":5,"lastblock":712350,"lastblocktime":"1668642835","fee":1,"feetype":"PPLNS","height":712389,"country":"WL|EU , US , Asia","blocks_1000":11,"blocks_count":1,"hashrate_average_100_count":65,"hashrate_average_100":900592167950926.2,"hashrate_average_1h":904647347544405,"history_start":1668048227,"history_interval":3600,"history_addlast":true,"history":[883492656400000,-22393549800000,10815111000000,7940993500000,-28408035700000,55454731600000,-20915496600000,-122402554400000,28322697900000,-7089148800000,-18743423000000,29202021800000,2442921000000,-12160845900000,-130817103100000,138603834500000,26007337800000,-3749123500000,-17021280100000,96706144700000,19575646200000,-1694127600000,-24541837700000,10340143700000,-40602375600000,4188083800000,32963941400000,-5759929800000,11485589200000,24008622500000,-7050883400000,-24629343600000,27760751000000,5583992000000,-11108630500000,-17866693700000,-2454974500000,13379699300000,-10795998700000,-625989200000,-7885705000000,43969592000000,-17752206500000,-12886063200000,-20727866700000,21150824800000,-20942029800000,40368141300000,-25203283000000,-499748200000,15399972100000,7949737400000,-30954692200000,4656672600000,9905087900000,-40124270500000,47852541600000,-25107272500000,31379310700000,-501511600000,-45122632700000,432388700000,30292297200000,-51193790800000,41245369700000,5610776400000,-4931420600000,17792807700000,-36398425300000,-10738631500000,23703417000000,27110804200000,4089801200000,2992984500000,-22449322400000,7855238000000,12388085400000,2168830400000,77935510600000,-19874950700000,40965280700000,-18181736000000,27046353000000,-93128889900000,10739245900000,-5775738600000,-8660060900000,19728511000000,-9472914900000,24131477800000,-16755875100000,-12387663900000,-8300691200000,59043239200000,-65453189300000,18310396800000,-24237443400000,27927954800000,-27877365000000,22077865200000,-8423838900000,15082971800000,-18140708800000,-102647751200000,115709867300000,-1615312700000,-21387674800000,26320097800000,10936639700000,25396356400000,-44292835400000,7038291300000,227756900000,9622389700000,35883943400000,-47979624500000,10966567700000,12739780600000,-41409874000000,13333231100000,-7170600000000,3351362500000,36446103200000,-33877104400000,-33251809200000,54504523600000,-21243007700000,-7460435600000,-19148501000000,11818636600000,13280820500000,-44812931700000,-27928731600000,-5119788200000,-38228455900000,43873766000000,48570939800000,-4263939500000,38994695700000,-34601488500000,-11285069200000,-1940984200000,-4207781300000,-13165148500000,11422437400000,5583919700000,11340149000000,-9883006700000,-16729759400000,9461877400000,30889810600000,-19330374300000,6342680800000,-15509057700000,6897511100000,29139532300000,-6996666600000,-5140138600000,-19552423500000,4143733400000,4758849800000,-16078392500000,-9940067600000,12945595000000,15820494800000,-15013606700000,4391897700000,5048308800000],"hashrate_average_7d":904329547620237.2,"hashrate_average_7d_count":168,"expected_blocks":1.48,"luck":-0.4834502905640097,"multipool":6},{"url":"https:\/\/lab.antpool.com","hashrate":3650000000000000,"miners":-1,"minpay":0.1,"id":11,"pool_id":"antpool.com","i":2068,"nethash":69370000000000010,"netdiff":4556458732,"feetype":"PPS","fee":3,"income":4.2543909e-15,"lastblock":712107,"lastblocktime":"1668580440","country":"WL|Global","blocks_1000":2,"hashrate_average_100_count":65,"hashrate_average_100":3789524038461538.5,"hashrate_average_1h":3650000000000000,"history_start":1668048227,"history_interval":3600,"history_addlast":true,"history":[3813000000000000,193500000000000,-26500000000000,-57000000000000,48111111000000,89888889000000,-92500000000000,-15000000000000,49000000000000,-128000000000000,6500000000000,9000000000000,-19500000000000,61500000000000,-184000000000000,-17000000000000,500000000000,-20500000000000,-76000000000000,-77500000000000,-114000000000000,-43000000000000,173000000000000,179500000000000,114500000000000,38500000000000,33000000000000,64500000000000,45944444000000,-63444444000000,-34500000000000,-22000000000000,-28000000000000,22000000000000,-34500000000000,31000000000000,40000000000000,-37000000000000,-93500000000000,-2500000000000,5000000000000,25000000000000,-6000000000000,-38500000000000,42000000000000,-76500000000000,36000000000000,55500000000000,96000000000000,175500000000000,132000000000000,6500000000000,206055556000000,83391812000000,3552632000000,45000000000000,-99000000000000,196500000000000,-55000000000000,-26500000000000,-130000000000000,120000000000000,-42000000000000,-31500000000000,18000000000000,19368421000000,-23868421000000,5000000000000,10500000000000,-9000000000000,1500000000000,-39500000000000,54500000000000,-38500000000000,-133000000000000,-236500000000000,9394737000000,20105263000000,47500000000000,-100500000000000,-9500000000000,-94500000000000,78500000000000,9500000000000,11000000000000,23000000000000,-27500000000000,-141000000000000,-186500000000000,16500000000000,38500000000000,58500000000000,-33500000000000,23000000000000,8500000000000,-137000000000000,109000000000000,-1790500000000000,580000000000000,1237000000000000,4222222000000,-23222222000000,1500000000000,-43000000000000,28500000000000,3000000000000,-19000000000000,4736842000000,-136736842000000,-5000000000000,71000000000000,-63000000000000,0,61000000000000,-21000000000000,33500000000000,-44500000000000,15500000000000,52000000000000,-31000000000000,26500000000000,24000000000000,29500000000000,13000000000000,34250000000000,45250000000000,83000000000000,-57000000000000,6000000000000,3500000000000,-17000000000000,-21000000000000,-68500000000000,42000000000000,-89500000000000,7500000000000,-178000000000000,58500000000000,-60605263000000,11605263000000,-31500000000000,15000000000000,-38000000000000,-80500000000000,112000000000000,-2500000000000,41500000000000,-11815789000000,-208684211000000,383000000000000,-1000000000000,1500000000000,34500000000000,36500000000000,-69000000000000,24000000000000,-11500000000000,9500000000000,-60500000000000,-33500000000000,-45500000000000,72500000000000,6500000000000,-32000000000000,-34736842000000,-2263158000000,-44000000000000,-89000000000000],"hashrate_average_7d":3957960552422619,"hashrate_average_7d_count":168,"expected_blocks":6.24,"multipool":16},{"url":"https:\/\/pool.btc.com","hashrate":4065000000000000.5,"miners":-1,"minpay":0.1,"id":4,"pool_id":"pool.btc.com","feetype":"PPS","i":14437,"workers":94,"income":4.3859627096359e-15,"i_blocks":14479,"json_blocks":{"err_no":0,"data":{"blocks":{"current_page":1,"data":[{"height":712366,"is_orphaned":0,"hash":"00000000000000001e2500c14f70fc55405b21904e3fe123e1f4d0f506f66961","rewards":"0.99343280","size":10620,"prev_hash":"00000000000000004f7f1a54d273125c19781a4e37a5d78a9fe22399306ed5ff","bits":419498124,"version":9,"created_at":1668647850,"region_id":34,"region_name":"America"},{"height":712344,"is_orphaned":0,"hash":"0000000000000000b283da5a77292a00b15c6084a0f1da27fc211c79e040cec5","rewards":"0.99343280","size":5123,"prev_hash":"000000000000000012156f39119391b1421fe3b727c7554cd4b8638ee3322cbf","bits":419498124,"version":9,"created_at":1668641070,"region_id":36,"region_name":"BitDeer"},{"height":712308,"is_orphaned":0,"hash":"000000000000000046b4368d6c7213d1fa26a8274a9b2cf4048ea79291239925","rewards":"0.99343280","size":35058,"prev_hash":"0000000000000000f54979261107850d4c1dc23fa38fdfe834a67dd675570ff7","bits":419498124,"version":9,"created_at":1668631328,"region_id":36,"region_name":"BitDeer"},{"height":712282,"is_orphaned":0,"hash":"0000000000000000256e6060c78482ac9b37e2d8859103df923031e1c0572df0","rewards":"0.99343280","size":40285,"prev_hash":"00000000000000007a4aa40c9a63e6879672334244850db55e64d1aa004101a4","bits":419498124,"version":9,"created_at":1668625985,"region_id":34,"region_name":"America"},{"height":712269,"is_orphaned":0,"hash":"000000000000000004837ae45169a2f44b28fa45bbf884cc21203543337bed19","rewards":"0.99343280","size":42938,"prev_hash":"0000000000000000dad08fa82175ad5af2c88eb8464f86cb61da52ecdd36ceec","bits":419498124,"version":9,"created_at":1668622157,"region_id":36,"region_name":"BitDeer"},{"height":712259,"is_orphaned":0,"hash":"0000000000000000c48ebbcbac1c5353b70800e462345d68b2fe328e0b428129","rewards":"0.99343280","size":8997,"prev_hash":"0000000000000001038c3ff6bdb742d035cdca37bc25b777f9c2323cb413efe9","bits":419498124,"version":9,"created_at":1668619122,"region_id":36,"region_name":"BitDeer"},{"height":712255,"is_orphaned":0,"hash":"00000000000000000b8b26715105e899c177f38966f904af2e4fb2b434da208a","rewards":"0.99343280","size":2158,"prev_hash":"00000000000000002ee023b24823432787ba714884ee9e3eb57f107f31186945","bits":419498124,"version":9,"created_at":1668618408,"region_id":34,"region_name":"America"},{"height":712237,"is_orphaned":0,"hash":"00000000000000006e01507e24f56d4fc2f329bbfa106f57627d18cf996c7e12","rewards":"0.99343280","size":45199,"prev_hash":"0000000000000000e3f2e8c50222bd1df30a2e268054aee23fadc0d65e5dfcc1","bits":419498124,"version":9,"created_at":1668614681,"region_id":34,"region_name":"America"},{"height":712226,"is_orphaned":0,"hash":"0000000000000000ba0d375d39b16501b27980193cb5775d3f44d45c9fd83a56","rewards":"0.99343280","size":5500,"prev_hash":"00000000000000007bde3009972a80d7715a605fd0f216a2d66c0164c38634b6","bits":419498124,"version":9,"created_at":1668611451,"region_id":34,"region_name":"America"},{"height":712223,"is_orphaned":0,"hash":"000000000000000089b3378fd0968f63a0f9292d6840958b2b1825d890ee51fa","rewards":"0.99343280","size":7259,"prev_hash":"00000000000000002ecfa97312af333549fe6acbb3ec9e9c28665fb7f85a4ad6","bits":419499800,"version":9,"created_at":1668611287,"region_id":34,"region_name":"America"}],"first_page_url":"https:\/\/eu-api.connectbtc.com\/\/public\/v1\/pool\/blocks\/merge?order_by=desc&page_size=10&page=1","from":1,"last_page":2235,"last_page_url":"https:\/\/eu-api.connectbtc.com\/\/public\/v1\/pool\/blocks\/merge?order_by=desc&page_size=10&page=2235","next_page_url":"https:\/\/eu-api.connectbtc.com\/\/public\/v1\/pool\/blocks\/merge?order_by=desc&page_size=10&page=2","path":"https:\/\/eu-api.connectbtc.com\/\/public\/v1\/pool\/blocks\/merge","per_page":10,"prev_page_url":null,"to":10,"total":22348},"blocks_count":22348,"rewards_count":"190730.23022768"},"trace_id":"bdce24e6-f0e5-4f01-926f-5300fb62e966"},"blocks_nr":10,"lastblock":712366,"lastblocktime":"1668647828","country":"WL|CN , EU , US","blocks_1000":62,"blocks_count":3,"hashrate_average_100_count":65,"hashrate_average_100":4135493028846154,"hashrate_average_1h":4065000000000000.5,"history_start":1668048227,"history_interval":3600,"history_addlast":true,"history":[3776150000000000,22550000000000,3700000000000,33000000000000,-65455556000000,122905556000000,-24050000000000,-2250000000000,56350000000000,-41550000000000,-46450000000000,91550000000000,-23800000000000,37250000000000,-24800000000000,47600000000000,-46400000000000,950000000000,-58550000000000,22450000000000,28200000000000,-95300000000000,71900000000000,-7750000000000,-17800000000000,-14350000000000,-35850000000000,-32150000000000,36450000000000,-7150000000000,-36200000000000,60650000000000,9100000000000,-21950000000000,-17100000000000,50250000000000,6000000000000,-8150000000000,88600000000000,64150000000000,-18250000000000,6000000000000,65800000000000,-22750000000000,-103200000000000,6050000000000,33700000000000,-20800000000000,-69550000000000,26000000000000,-41000000000000,-46750000000000,-36894444000000,22418128000000,33526316000000,109200000000000,89750000000000,104400000000000,103700000000000,-4700000000000,-33700000000000,21550000000000,-31700000000000,-69583333000000,62633333000000,13450000000000,-12000000000000,32200000000000,-26600000000000,-66050000000000,-63800000000000,45350000000000,-23200000000000,27400000000000,-8050000000000,-7700000000000,37976316000000,-47276316000000,650000000000,84350000000000,32800000000000,250000000000,-68750000000000,53550000000000,-29250000000000,-8150000000000,37200000000000,-39150000000000,25850000000000,-26550000000000,-12800000000000,50150000000000,-14650000000000,-31450000000000,-218300000000000,-222000000000000,-17850000000000,16550000000000,-69450000000000,-52400000000000,135094444000000,364655556000000,-9500000000000,-45000000000000,43550000000000,58550000000000,-42750000000000,78023684000000,55026316000000,-16600000000000,13100000000000,39150000000000,-84750000000000,53000000000000,-7050000000000,-88650000000000,-15450000000000,86800000000000,20900000000000,-56300000000000,14750000000000,-8400000000000,-46000000000000,3750000000000,-32750000000000,41950000000000,58300000000000,43700000000000,82050000000000,-11750000000000,-20900000000000,37350000000000,22800000000000,-60800000000000,-46100000000000,8600000000000,5300000000000,-56650000000000,-29850000000000,29300000000000,-27050000000000,-7900000000000,45300000000000,-20850000000000,-58450000000000,54550000000000,-21850000000000,27844737000000,-120978070000000,18633333000000,-5500000000000,39850000000000,12000000000000,15000000000000,22250000000000,-17600000000000,48050000000000,-7350000000000,20900000000000,5950000000000,-55000000000000,-24100000000000,107250000000000,-52600000000000,-111650000000000,-52700000000000,45850000000000,-12150000000000],"hashrate_average_7d":4051545215470237.5,"hashrate_average_7d_count":168,"hashrate_block":1378497676282051.2,"expected_blocks":6.81,"luck":-3.811960567262619,"multipool":7},{"url":"https:\/\/www.f2pool.com","hashrate":29980353568304224,"miners":-1,"minpay":0.1,"id":14,"pool_id":"f2pool.com","fee":3,"feetype":"PPS%3","i":2437,"income":4.1446715169724316e-15,"blocks_nr":12,"lastblock":712388,"lastblocktime":1668652156,"country":"WL|Global","blocks_1000":406,"blocks_count":47,"hashrate_average_100_count":65,"hashrate_average_100":29610611379129864,"hashrate_average_1h":29980353568304224,"history_start":1668048227,"history_interval":3600,"history_addlast":true,"history":[23751614080000000,-453140650000000,-18478070000000,-53851970000000,-267870260000000,12083850000000,-84461590000000,105667450000000,-103159990000000,-23386580000000,38320540000000,-94373310000000,-12031570000000,198338620000000,-458227000000000,-2822584350000000,2870542070000000,-176189480000000,-629510000000,80059650000000,-106618050000000,16336020000000,-163823260000000,109464960000000,133063310000000,807530180000000,-419273990000000,-422992820000000,-219278690000000,187225100000000,-116542960000000,-230588030000000,-77797330000000,-51576010000000,-8197000000000,29289930000000,274957140000000,140108540000000,-12241130000000,-32811120000000,-48018690000000,-82707040000000,5151720000000,184205530000000,17810260000000,74957210000000,-125838460000000,23863900000000,233648750000000,67900470000000,-215169760000000,-202977370000000,561731560000000,316930000000,435650860000000,88547200000000,395192740000000,-76314350000000,259241650000000,332420000000,77545150000000,-157196720000000,2249410000000,125766460000000,-102472010000000,-96755270000000,85333270000000,138468680000000,-64646970000000,-99300950000000,43382970000000,-72358970000000,44568960000000,73876570000000,-269644730000000,14557040000000,-126219030000000,28069100000000,-97042570000000,23804350000000,6669220000000,-11115930000000,5765410000000,-412841560000000,-476689870000000,-200305710000000,-210343070000000,424388810000000,-81708710000000,69941750000000,2803330000000,105398390000000,-78713370000000,71264720000000,-553540680000000,-439649740000000,572601110000000,107371800000000,24002810000000,-276760680000000,44134460000000,251093130000000,512877420000000,873305350000000,647180660000000,-43964880000000,-61832910000000,87475570000000,-221592310000000,33854780000000,-135855670000000,254149140000000,44429770000000,23484350000000,-216092200000000,-16568310000000,93744610000000,217419460000000,102453160000000,51030110000000,-160438240000000,12335680000000,6285460000000,-152184210000000,-255968980000000,-188400640000000,-41672750000000,117584850000000,-47213890000000,-29231780000000,109678440000000,149727120000000,-92860000000,-105615770000000,-155030170000000,-244996590000000,144582760000000,-29415310000000,116209900000000,128614670000000,47662670000000,-72325730000000,133614620000000,-45121560000000,-201246090000000,-151461980000000,-207960210000000,359236760000000,213659920000000,264061820000000,4155490260000000,1050132160000000,44755790000000,-123238210000000,-97354780000000,139037600000000,87586860000000,-24305100000000,-70009790000000,-116587510000000,127957620000000,-107887200000000,-49380520000000,-179175860000000,292863970000000,524005850000000,-10106290000000,-61559900000000],"hashrate_average_7d":23933662557380956,"hashrate_average_7d_count":168,"hashrate_block":630013008066592.9,"expected_blocks":48.77,"luck":-1.7744304440161542,"multipool":33},{"url":"https:\/\/www.poolin.com","hashrate":21359000000000000,"miners":-1,"minpay":0.01,"id":3,"pool_id":"poolin.com","fee":3,"feetype":"PPS","i":13498,"json":{"err_no":0,"data":{"shares":{"shares_1m":21.211,"shares_5m":21.359,"shares_15m":21.686,"shares_1h":22.012,"shares_unit":"P"},"reject":{"1m":0,"5m":0,"15m":0.0034,"1h":0.0046},"workers":1220,"users":369,"total_blocks":145345,"total_rewards":104712578888593}},"workers":1220,"netdiff":4556458732.530838,"nethash":"65232804131712095","income":4.79685e-15,"blocks_nr":20,"lastblock":712387,"lastblocktime":1668652069,"country":"US|United States","blocks_1000":453,"blocks_count":44,"hashrate_average_100_count":65,"hashrate_average_100":26712088461538460,"hashrate_average_1h":21359000000000000,"history_start":1668048227,"history_interval":3600,"history_addlast":true,"history":[20751500000000000,-54450000000000,215300000000000,-258350000000000,-189722220000000,-103777780000000,467500000000000,-2150000000000,-326050000000000,-160950000000000,386300000000000,125100000000000,-65350000000000,26950000000000,-307000000000000,-520200000000000,4350000000000,50350000000000,56750000000000,-208350000000000,165550000000000,374950000000000,-144300000000000,32500000000000,71850000000000,-68350000000000,77000000000000,-323800000000000,-93150000000000,200150000000000,558800000000000,176250000000000,109500000000000,237000000000000,3582100000000000,2035000000000000,139250000000000,242300000000000,9000000000000,173650000000000,-172100000000000,254350000000000,15700000000000,-232300000000000,89350000000000,171800000000000,193650000000000,-437850000000000,206450000000000,-1149800000000000,1290600000000000,370900000000000,-477381580000000,346052630000000,-703721050000000,606900000000000,-607200000000000,654850000000000,241950000000000,497850000000000,360600000000000,-223850000000000,-99300000000000,114916670000000,-99866670000000,-166865790000000,130815790000000,-133750000000000,-442800000000000,94400000000000,-519200000000000,288350000000000,-2639250000000000,-1889800000000000,3707750000000000,641010530000000,-148421060000000,-446389470000000,140850000000000,181800000000000,152550000000000,-426050000000000,-362500000000000,1057500000000000,-544600000000000,-367750000000000,889400000000000,483300000000000,-458700000000000,317000000000000,-208100000000000,-1037900000000000,-1031300000000000,758800000000000,10300000000000,-126250000000000,-1432000000000000,649000000000000,512450000000000,616850000000000,-190383330000000,-567116670000000,-806550000000000,790500000000000,554500000000000,-181800000000000,-74600000000000,6347370000000,-157347370000000,-190450000000000,494650000000000,83650000000000,-222100000000000,-34500000000000,-60650000000000,-221450000000000,16450000000000,68800000000000,233500000000000,299600000000000,-473850000000000,200800000000000,-631900000000000,688850000000000,-336000000000000,271600000000000,360800000000000,-153100000000000,53550000000000,-532950000000000,-899400000000000,400800000000000,276000000000000,-302000000000000,-102450000000000,221450000000000,158400000000000,203850000000000,622607890000000,-155607890000000,183700000000000,297950000000000,190350000000000,841100000000000,316200000000000,-6100000000000,-210700000000000,-742050000000000,231846150000000,634653850000000,-40250000000000,-132800000000000,91550000000000,56900000000000,-152450000000000,166750000000000,449450000000000,-721000000000000,26150000000000,687200000000000,-98150000000000,189550000000000,-267850000000000,29050000000000,-1088126320000000,-5222373680000000,-430200000000000,-539900000000000],"hashrate_average_7d":25735087856488108,"hashrate_average_7d_count":168,"hashrate_block":607092919580419.5,"expected_blocks":44,"luck":0,"multipool":15}],"hashblock":{"hashrate_average_100":26712088461538456,"blocks_count":44,"pools":[[1378497676282051.2,3,459499225427350.44,"https:\/\/pool.btc.com"],[630013008066592.9,47,13404532086523.252,"https:\/\/www.f2pool.com"],[607092919580419.5,44,13797566354100.443,"https:\/\/www.poolin.com"]],"hashrate_block_all":643172264569303,"hashrate_block_min":13404532086523.252,"hashrate_block_max":459499225427350.44,"pool_hashblock_average":162233774622658.03,"hashrate_block":607092919580419.5},"time":1668653027,"hashrate":69370000000000010,"difficulty":4556458732.530838,"height":712389,"symbol":"DCR","maxhash":29980353568304224,"poolshash":59968610915848630,"nethash_estimat":60709291958041950,"poolsminers":1350,"supply":{"circulating":14511152.7228468,"total":21000000,"emission24":2859},"block_time_target":300,"block_height_ok":true,"algo":"Blake256R14","hashrate_from_diff":false,"hashrate_src":"https:\/\/lab.antpool.com","unit":"H\/s","block_time_average":268.3,"minerstat":[1.8287460362003e-16,20.157672768601,0.9941186,737],"link":{"coingecko":"decred","cmc":"decred","whattomine":"152-dcr-blake (14r)","coin360":"decred-dcr","coinpaprika":"dcr-decred"},"latest_release":{"tag":"release-v1.7.5","name":"dcrd v1.7.5","t":1665429869},"price":20.16}