{"data":[{"url":"https:\/\/www.okx.com\/pool","hashrate":10290000000000,"miners":-1,"minpay":-1,"id":23,"pool_id":"okx.com","i":1617,"workers":1,"lastblock":630904,"feetype":"PPLNS","fee":2,"country":"HK|Hong Kong","hashrate_average_100_count":70,"hashrate_average_100":9251343750000,"hashrate_average_1h":10315000000000,"history_start":1668393824,"history_interval":3600,"history_addlast":true,"history":[10262500000000,-42500000000,0,0,-847777778000,-667722222000,240000000000,553000000000,-729000000000,-744000000000,1173000000000,590394737000,-465394737000,-362000000000,308500000000,-1093000000000,876500000000,-39500000000,789000000000,-775500000000,-916000000000,538500000000,-189500000000,541000000000,-1264000000000,283000000000,1022000000000,-1050000000000,406500000000,515500000000,-17500000000,-143000000000,-237000000000,33000000000,-234500000000,1266500000000,-126000000000,-445500000000,133000000000,-967000000000,521500000000,170000000000,500894737000,108105263000,-2334000000000,1293000000000,-404000000000,679000000000,-200000000000,774500000000,-125500000000,300473684000,208026316000,-820500000000,-93500000000,353000000000,116000000000,152000000000,687000000000,-488500000000,597000000000,-635500000000,721000000000,-222500000000,-28000000000,-337500000000,-1488000000000,1012000000000,-843078947000,2406578947000,-1659500000000,32000000000,697500000000,1436000000000,-1862000000000,-1642000000000,1876571429000,-191571429000,-1038500000000,-199000000000,268000000000,1497000000000,-240500000000,-1307500000000,-1084000000000,1147500000000,236000000000,-144500000000,198000000000,677500000000,-1318000000000,286000000000,56500000000,1938000000000,-905500000000,-174500000000,1317500000000,-2071000000000,-171500000000,-167500000000,387230769000,952269231000,-787500000000,320000000000,413500000000,22500000000,-330500000000,-155000000000,615000000000,-1151000000000,423000000000,-455500000000,625500000000,-761500000000,247000000000,669500000000,-441500000000,-308000000000,978000000000,-59000000000,-800500000000,97000000000,-283500000000,-111500000000,758500000000,-229000000000,1360500000000,-482000000000,-1618500000000,-466000000000,429000000000,122000000000,188500000000,-137500000000,167000000000,-194500000000,2107000000000,-1074500000000,-264000000000,-275000000000,-361500000000,-610500000000,459000000000,586000000000,524000000000,607000000000,-681000000000,-1157000000000,640294118000,-1240794118000,1244000000000,230000000000,-299000000000,105500000000,124500000000,-359000000000,249000000000,538500000000,-701500000000,-440000000000,879500000000,-277500000000,1002500000000,-1000000000,-1147500000000,152500000000,261500000000,1248500000000],"hashrate_average_7d":8979645849696.428,"hashrate_average_7d_count":168,"expected_blocks":0.01,"multipool":5},{"url":"https:\/\/www2.coinmine.pl\/dcr","hashrate":285260485828280,"miners":-1,"minpay":0.05,"id":5,"pool_id":"coinmine.pl","i":12414,"workers":18,"blocks_nr":5,"lastblock":712651,"lastblocktime":"1668727418","fee":1,"feetype":"PPLNS","height":713533,"country":"WL|EU , US , Asia","blocks_1000":1,"hashrate_average_100_count":70,"hashrate_average_100":315238488823113.25,"hashrate_average_1h":296117970350899,"history_start":1668393824,"history_interval":3600,"history_addlast":true,"history":[918010243500000,27927954800000,-27877365000000,22077865200000,-8423838900000,15082971800000,-18140708800000,-102647751200000,115709867300000,-1615312700000,-21387674800000,26320097800000,10936639700000,25396356400000,-44292835400000,7038291300000,227756900000,9622389700000,35883943400000,-47979624500000,10966567700000,12739780600000,-41409874000000,13333231100000,-7170600000000,3351362500000,36446103200000,-33877104400000,-33251809200000,54504523600000,-21243007700000,-7460435600000,-19148501000000,11818636600000,13280820500000,-44812931700000,-27928731600000,-5119788200000,-38228455900000,43873766000000,48570939800000,-4263939500000,38994695700000,-34601488500000,-11285069200000,-1940984200000,-4207781300000,-13165148500000,11422437400000,5583919700000,11340149000000,-9883006700000,-16729759400000,9461877400000,30889810600000,-19330374300000,6342680800000,-15509057700000,6897511100000,29139532300000,-6996666600000,-5140138600000,-19552423500000,4143733400000,4758849800000,-16078392500000,-9940067600000,12945595000000,15820494800000,-15013606700000,4391897700000,19794210800000,-13670197900000,-30238032600000,24367891100000,-14194557000000,34449057500000,-16780978700000,2291015000000,246482700000,-8183149700000,6700078600000,10771670700000,-30325984400000,12323877000000,8591563200000,3726629400000,-7820241100000,11607216200000,-146828059600000,-32246293700000,161617014400000,11144024500000,-5437441400000,1467579000000,-32213274600000,10655943500000,483848800000,27876757800000,-26829447200000,24522102500000,2261392700000,7478426900000,-17960821300000,-20537545000000,-246846769300000,-613419443070000,314181249270000,-11677736600000,-64998634500000,-22715912700000,53267650800000,-29015342800000,-31672615400000,15879687400000,-46906023400000,-38805281300000,32588048000000,37014244000000,77569935100000,8416176400000,54240327900000,-82479089500000,107880285700000,51553119000000,-31856152900000,65317807100000,-116636883600000,-56913766100000,19819722800000,-38906228400000,18040728600000,19692950400000,-38372166800000,33005630500000,28134933000000,-35665318100000,39767588300000,34656964100000,-38063682600000,39146675800000,-16267448600000,21040766200000,-55101467100000,-15085547900000,51169377400000,-7316276600000,3837254300000,-58493708600000,-27225648600000,-9188565900000,9676167800000,-52570432600000,-7388414300000,54103014500000,48743218800000,-2621771100000,120343590500000,-113622201700000,-17966025400000,-2113856600000,25727388000000,-22838119400000,9501891500000,22152549100000,-49001606800000,34189415000000,-31498045400000],"hashrate_average_7d":685520338769821.2,"hashrate_average_7d_count":168,"expected_blocks":0.44,"multipool":6},{"url":"https:\/\/lab.antpool.com","hashrate":14920000000000000,"miners":-1,"minpay":0.1,"id":11,"pool_id":"antpool.com","i":2068,"nethash":77550000000000000,"netdiff":4845090400,"feetype":"PPS","fee":3,"income":3.9613345e-15,"lastblock":712107,"lastblocktime":"1668580440","country":"WL|Global","hashrate_average_100_count":70,"hashrate_average_100":14243292410714286,"hashrate_average_1h":14855000000000000,"history_start":1668393824,"history_interval":3600,"history_addlast":true,"history":[3901500000000000,-1790500000000000,580000000000000,1237000000000000,4222222000000,-23222222000000,1500000000000,-43000000000000,28500000000000,3000000000000,-19000000000000,4736842000000,-136736842000000,-5000000000000,71000000000000,-63000000000000,0,61000000000000,-21000000000000,33500000000000,-44500000000000,15500000000000,52000000000000,-31000000000000,26500000000000,24000000000000,29500000000000,13000000000000,34250000000000,45250000000000,83000000000000,-57000000000000,6000000000000,3500000000000,-17000000000000,-21000000000000,-68500000000000,42000000000000,-89500000000000,7500000000000,-178000000000000,58500000000000,-60605263000000,11605263000000,-31500000000000,15000000000000,-38000000000000,-80500000000000,112000000000000,-2500000000000,41500000000000,-11815789000000,-208684211000000,383000000000000,-1000000000000,1500000000000,34500000000000,36500000000000,-69000000000000,24000000000000,-11500000000000,9500000000000,-60500000000000,-33500000000000,-45500000000000,72500000000000,6500000000000,-32000000000000,-34736842000000,-2263158000000,-44000000000000,113500000000000,-14500000000000,11500000000000,-44000000000000,66500000000000,-34857143000000,2276857143000000,7754500000000000,-173500000000000,108000000000000,-203000000000000,-84000000000000,223500000000000,-36500000000000,13000000000000,-198000000000000,247000000000000,-184500000000000,-102500000000000,53500000000000,-23000000000000,43000000000000,206000000000000,-312500000000000,344500000000000,-186000000000000,89000000000000,-42000000000000,107500000000000,190461540000000,-213961540000000,-41000000000000,1500000000000,41500000000000,74500000000000,-132000000000000,-63500000000000,-234000000000000,294500000000000,22000000000000,-44500000000000,15500000000000,-99500000000000,46000000000000,166000000000000,22000000000000,-157500000000000,85000000000000,35000000000000,-294000000000000,95000000000000,102000000000000,-230500000000000,224166670000000,82833330000000,-31000000000000,66000000000000,98500000000000,33500000000000,-251500000000000,571000000000000,-66500000000000,89000000000000,-169500000000000,97500000000000,19000000000000,-177500000000000,21500000000000,127000000000000,-103000000000000,47500000000000,29000000000000,-42000000000000,15500000000000,-14000000000000,61000000000000,156000000000000,-121323530000000,36823530000000,-32000000000000,-127500000000000,49000000000000,31000000000000,8000000000000,-112500000000000,163000000000000,-108500000000000,-1500000000000,203500000000000,-119000000000000,-15000000000000,-14500000000000,87000000000000,-14000000000000,-27500000000000,112500000000000,535000000000000],"hashrate_average_7d":9216851182779764,"hashrate_average_7d_count":168,"expected_blocks":19.83,"multipool":16},{"url":"https:\/\/pool.btc.com","hashrate":4030000000000000,"miners":-1,"minpay":0.1,"id":4,"pool_id":"pool.btc.com","feetype":"PPS","i":14460,"workers":95,"income":4.0838437462645e-15,"i_blocks":14502,"json_blocks":{"err_no":0,"data":{"blocks":{"current_page":1,"data":[{"height":713514,"is_orphaned":0,"hash":"0000000000000000ea3f8333a9cc7cd32ef6dd75cc60dfa4075516aab8c82df1","rewards":"0.98359683","size":36215,"prev_hash":"0000000000000000b4f959e4f71c7dc7f7bb20c5433fbac93715dbd6ec089259","bits":419494369,"version":9,"created_at":1668990865,"region_id":34,"region_name":"America"},{"height":713508,"is_orphaned":0,"hash":"0000000000000000ad529ddf99afa416499444957d9f7c1d186de5716abfd007","rewards":"0.98359683","size":16131,"prev_hash":"000000000000000067256011722dd87729cdedb26fa2835e6dc01268dd7f9eb8","bits":419494369,"version":9,"created_at":1668989988,"region_id":34,"region_name":"America"},{"height":713504,"is_orphaned":0,"hash":"0000000000000000f3d3e761807026f0a97a31875665f8362c5b966b9cd63a3e","rewards":"0.98359683","size":12706,"prev_hash":"0000000000000000d783deaa3f09c49b5b1d4dc33b3839a77ee33c665e988257","bits":419494369,"version":9,"created_at":1668988885,"region_id":34,"region_name":"America"},{"height":713489,"is_orphaned":0,"hash":"0000000000000000d88556ae18249c1e5a33d754b993b49fc16dfa57d94d894d","rewards":"0.98359683","size":4313,"prev_hash":"0000000000000000a79f4926595acf932e6f2b2c575e245101d80abc6008d622","bits":419494369,"version":9,"created_at":1668986379,"region_id":36,"region_name":"BitDeer"},{"height":713477,"is_orphaned":0,"hash":"0000000000000000d9c1c66e0a79ecd5e1ed9ef407bf170cff9d6261b44cd073","rewards":"0.98359683","size":3431,"prev_hash":"0000000000000000cf2f0606fd1f942f1c03582637135156ec5f1b6cc1e8acbc","bits":419494369,"version":9,"created_at":1668984225,"region_id":36,"region_name":"BitDeer"},{"height":713468,"is_orphaned":0,"hash":"0000000000000000f98f7eb237fc135f3f80d79dbea4ceff2c6b351c49c73dd1","rewards":"0.98359683","size":5418,"prev_hash":"00000000000000006901a8978797b260f8f45d55ed1b4560bbae980770f0833c","bits":419494369,"version":9,"created_at":1668982088,"region_id":34,"region_name":"America"},{"height":713464,"is_orphaned":0,"hash":"00000000000000001791bc6bc826eda31a05ff67e2deb90b21d33162cbf7cb8b","rewards":"0.98359683","size":7419,"prev_hash":"00000000000000001910f9e7cb4fe32392af668f0a6fae058d5a361ef4db54e7","bits":419494369,"version":9,"created_at":1668981149,"region_id":34,"region_name":"America"},{"height":713459,"is_orphaned":0,"hash":"000000000000000020812077dba9d23fdddee53b847030f3d998456c90a8365c","rewards":"0.98359683","size":57181,"prev_hash":"00000000000000001e2230541ee011a8e901f0abcf1d45189d91aa8af271079e","bits":419494369,"version":9,"created_at":1668980507,"region_id":34,"region_name":"America"},{"height":713446,"is_orphaned":0,"hash":"000000000000000039fa2c8ee08f4034f41313aa7ad788ee3f01ee813e2f6896","rewards":"0.78687746","size":16016,"prev_hash":"00000000000000002d22ab58cb0ce395a57d3a59679c2e3b34107a99ec54d31f","bits":419494369,"version":9,"created_at":1668975640,"region_id":36,"region_name":"BitDeer"},{"height":713444,"is_orphaned":0,"hash":"0000000000000000cc4c73cea9f9f4d7283465d416a1d59a6fd00083b56db748","rewards":"0.98359683","size":2157,"prev_hash":"00000000000000004e4024cc57a0f9aa08d6b699e5d4a1be3b005ab4e91af580","bits":419494369,"version":9,"created_at":1668975343,"region_id":36,"region_name":"BitDeer"}],"first_page_url":"https:\/\/eu-api.connectbtc.com\/\/public\/v1\/pool\/blocks\/merge?order_by=desc&page_size=10&page=1","from":1,"last_page":2243,"last_page_url":"https:\/\/eu-api.connectbtc.com\/\/public\/v1\/pool\/blocks\/merge?order_by=desc&page_size=10&page=2243","next_page_url":"https:\/\/eu-api.connectbtc.com\/\/public\/v1\/pool\/blocks\/merge?order_by=desc&page_size=10&page=2","path":"https:\/\/eu-api.connectbtc.com\/\/public\/v1\/pool\/blocks\/merge","per_page":10,"prev_page_url":null,"to":10,"total":22421},"blocks_count":22421,"rewards_count":"190801.07870738"},"trace_id":"d49abb32-cec0-460f-9ced-b51571c0d4a3"},"blocks_nr":10,"lastblock":713514,"lastblocktime":"1668990865","country":"WL|CN , EU , US","blocks_1000":62,"blocks_count":10,"hashrate_average_100_count":70,"hashrate_average_100":4079570535714285.5,"hashrate_average_1h":4026000000000000,"history_start":1668393824,"history_interval":3600,"history_addlast":true,"history":[3686150000000000,16550000000000,-69450000000000,-52400000000000,135094444000000,364655556000000,-9500000000000,-45000000000000,43550000000000,58550000000000,-42750000000000,78023684000000,55026316000000,-16600000000000,13100000000000,39150000000000,-84750000000000,53000000000000,-7050000000000,-88650000000000,-15450000000000,86800000000000,20900000000000,-56300000000000,14750000000000,-8400000000000,-46000000000000,3750000000000,-32750000000000,41950000000000,58300000000000,43700000000000,82050000000000,-11750000000000,-20900000000000,37350000000000,22800000000000,-60800000000000,-46100000000000,8600000000000,5300000000000,-56650000000000,-29850000000000,29300000000000,-27050000000000,-7900000000000,45300000000000,-20850000000000,-58450000000000,54550000000000,-21850000000000,27844737000000,-120978070000000,18633333000000,-5500000000000,39850000000000,12000000000000,15000000000000,22250000000000,-17600000000000,48050000000000,-7350000000000,20900000000000,5950000000000,-55000000000000,-24100000000000,107250000000000,-52600000000000,-111650000000000,-52700000000000,45850000000000,-26750000000000,-24400000000000,29850000000000,-38700000000000,-51500000000000,-3292857000000,-63157143000000,12221053000000,140128947000000,37900000000000,-64200000000000,62900000000000,39650000000000,-45050000000000,-20900000000000,-42050000000000,-22750000000000,16850000000000,-36850000000000,7100000000000,20950000000000,-87700000000000,90100000000000,-54700000000000,-21700000000000,17650000000000,28550000000000,-3150000000000,-79850000000000,-34223077000000,2023077000000,82550000000000,14600000000000,22700000000000,20750000000000,43350000000000,-19850000000000,-6700000000000,35600000000000,-96450000000000,-16000000000000,85450000000000,-38150000000000,24300000000000,-8350000000000,-30400000000000,9850000000000,-94650000000000,64950000000000,-58650000000000,31500000000000,-31500000000000,-3000000000000,-6200000000000,16750000000000,52550000000000,15350000000000,38800000000000,-18550000000000,70400000000000,35850000000000,41150000000000,12350000000000,23550000000000,-60300000000000,5600000000000,-8800000000000,800000000000,9250000000000,11500000000000,-16250000000000,15550000000000,-35200000000000,-75200000000000,-27200000000000,4250000000000,8500000000000,-49676471000000,-6423529000000,17450000000000,-15250000000000,39850000000000,-6500000000000,44750000000000,79050000000000,-53000000000000,83550000000000,-4200000000000,-52350000000000,-26800000000000,42550000000000,-52050000000000,47550000000000,-14650000000000,32900000000000,-44400000000000,-44850000000000],"hashrate_average_7d":4067820286785713.5,"hashrate_average_7d_count":168,"hashrate_block":407957053571428.56,"expected_blocks":5.68,"luck":4.32053235610324,"multipool":7},{"url":"https:\/\/www.f2pool.com","hashrate":23959466132027460,"miners":-1,"minpay":0.1,"id":14,"pool_id":"f2pool.com","fee":3,"feetype":"PPS%3","i":2437,"income":3.859173453007779e-15,"blocks_nr":4,"lastblock":713527,"lastblocktime":1668995283,"country":"WL|Global","blocks_1000":344,"blocks_count":25,"hashrate_average_100_count":70,"hashrate_average_100":23511841640450376,"hashrate_average_1h":23959466132027460,"history_start":1668393824,"history_interval":3600,"history_addlast":true,"history":[22287911090000000,107371800000000,24002810000000,-276760680000000,44134460000000,251093130000000,512877420000000,873305350000000,647180660000000,-43964880000000,-61832910000000,87475570000000,-221592310000000,33854780000000,-135855670000000,254149140000000,44429770000000,23484350000000,-216092200000000,-16568310000000,93744610000000,217419460000000,102453160000000,51030110000000,-160438240000000,12335680000000,6285460000000,-152184210000000,-255968980000000,-188400640000000,-41672750000000,117584850000000,-47213890000000,-29231780000000,109678440000000,149727120000000,-92860000000,-105615770000000,-155030170000000,-244996590000000,144582760000000,-29415310000000,116209900000000,128614670000000,47662670000000,-72325730000000,133614620000000,-45121560000000,-201246090000000,-151461980000000,-207960210000000,359236760000000,213659920000000,264061820000000,4155490260000000,1050132160000000,44755790000000,-123238210000000,-97354780000000,139037600000000,87586860000000,-24305100000000,-70009790000000,-116587510000000,127957620000000,-107887200000000,-49380520000000,-179175860000000,292863970000000,524005850000000,-10106290000000,-88618220000000,-108014950000000,-152888660000000,-158208970000000,3560700000000,29242490000000,-2208393340000000,-48465750000000,13288150000000,-6642240000000,558852960000000,158678140000000,64976150000000,196410950000000,-153815410000000,24218070000000,34306600000000,-95651970000000,100412480000000,-15477110000000,-157908720000000,212635080000000,258797400000000,-180655990000000,144056240000000,119783810000000,-50308240000000,-1032409650000000,-1653096490000000,-1555451640000000,-220981700000000,-60385920000000,-117581490000000,-31631080000000,30871650000000,-72700600000000,12040410000000,-75657110000000,-163758390000000,27190620000000,-93867440000000,-88484210000000,-119260450000000,170482570000000,-54629220000000,-71192930000000,51212680000000,171882980000000,-47595660000000,108656720000000,-89699050000000,-79878970000000,121884630000000,-43249820000000,89786640000000,-18191860000000,-172219090000000,-9655220000000,8136190000000,7380080000000,97826850000000,18328610000000,-237299830000000,47676040000000,-68828950000000,-14156580000000,7298370000000,-115714510000000,175282100000000,-113763110000000,61383280000000,112481940000000,-52886210000000,69929990000000,-21553990000000,107806500000000,-8381920000000,-20809630000000,-88160860000000,26082060000000,52030980000000,53805010000000,-109436000000000,55716920000000,5725450000000,-155512880000000,4065340000000,92365930000000,-71875350000000,-3110130000000,103901960000000,-23931990000000,38298280000000,-34352970000000,268179970000000,130182700000000,106842460000000],"hashrate_average_7d":25096007564761904,"hashrate_average_7d_count":168,"hashrate_block":940473665618015,"expected_blocks":32.73,"luck":-7.732549339775552,"multipool":33},{"url":"https:\/\/www.poolin.com","hashrate":32798000000000000,"miners":-1,"minpay":0.01,"id":3,"pool_id":"poolin.com","fee":3,"feetype":"PPS","i":13521,"json":{"err_no":0,"data":{"shares":{"shares_1m":31.434,"shares_5m":32.798,"shares_15m":32.935,"shares_1h":32.825,"shares_unit":"P"},"reject":{"1m":0,"5m":0,"15m":0.002,"1h":0.0032},"workers":1367,"users":368,"total_blocks":145857,"total_rewards":104762971505002}},"workers":1367,"netdiff":4845090400.787689,"nethash":"69365016047211861","income":4.51109e-15,"blocks_nr":19,"lastblock":713533,"lastblocktime":1668998117,"country":"US|United States","blocks_1000":453,"blocks_count":50,"hashrate_average_100_count":70,"hashrate_average_100":33464221428571428,"hashrate_average_1h":32864000000000000,"history_start":1668393824,"history_interval":3600,"history_addlast":true,"history":[25127750000000000,649000000000000,512450000000000,616850000000000,-190383330000000,-567116670000000,-806550000000000,790500000000000,554500000000000,-181800000000000,-74600000000000,6347370000000,-157347370000000,-190450000000000,494650000000000,83650000000000,-222100000000000,-34500000000000,-60650000000000,-221450000000000,16450000000000,68800000000000,233500000000000,299600000000000,-473850000000000,200800000000000,-631900000000000,688850000000000,-336000000000000,271600000000000,360800000000000,-153100000000000,53550000000000,-532950000000000,-899400000000000,400800000000000,276000000000000,-302000000000000,-102450000000000,221450000000000,158400000000000,203850000000000,622607890000000,-155607890000000,183700000000000,297950000000000,190350000000000,841100000000000,316200000000000,-6100000000000,-210700000000000,-742050000000000,231846150000000,634653850000000,-40250000000000,-132800000000000,91550000000000,56900000000000,-152450000000000,166750000000000,449450000000000,-721000000000000,26150000000000,687200000000000,-98150000000000,189550000000000,-267850000000000,29050000000000,-1088126320000000,-5222373680000000,-430200000000000,-1318850000000000,-414150000000000,-150000000000,-209850000000000,52850000000000,936964290000000,-56264290000000,71550000000000,5170950000000000,926450000000000,-98650000000000,-176200000000000,-1017050000000000,-215500000000000,72350000000000,8050000000000,-313150000000000,-494500000000000,679800000000000,73700000000000,-477200000000000,370350000000000,-77100000000000,14000000000000,331250000000000,-75900000000000,-326600000000000,646300000000000,94700000000000,-1280978570000000,990828570000000,2355450000000000,-1871200000000000,724200000000000,1800600000000000,615950000000000,-190600000000000,-780350000000000,1617400000000000,-63850000000000,117000000000000,-1419250000000000,-2448500000000000,-129250000000000,-76350000000000,96550000000000,1260500000000000,-203100000000000,2217100000000000,399550000000000,363350000000000,950650000000000,-104750000000000,-1301466670000000,-1645483330000000,103450000000000,621450000000000,-448100000000000,2401200000000000,460900000000000,228900000000000,133800000000000,395700000000000,16150000000000,121000000000000,-27750000000000,-191600000000000,-362900000000000,-147350000000000,-110150000000000,260400000000000,-90100000000000,136850000000000,164050000000000,-1856450000000000,-1211550000000000,394550000000000,98342110000000,186357890000000,2953800000000000,-2205550000000000,948150000000000,1143050000000000,1449450000000000,84500000000000,455200000000000,-274100000000000,430500000000000,194800000000000,-120850000000000,-44450000000000,-94250000000000,-604450000000000,-1225750000000000,23900000000000,99700000000000,302150000000000],"hashrate_average_7d":27834761326904750,"hashrate_average_7d_count":168,"hashrate_block":669284428571428.5,"expected_blocks":46.59,"luck":3.412016983672302,"multipool":15}],"hashblock":{"hashrate_average_100":61055633604736080,"blocks_count":85,"pools":[[407957053571428.56,10,40795705357142.86,"https:\/\/pool.btc.com"],[940473665618015,25,37618946624720.6,"https:\/\/www.f2pool.com"],[669284428571428.5,50,13385688571428.57,"https:\/\/www.poolin.com"]],"hashrate_block_all":718301571820424.6,"hashrate_block_min":13385688571428.57,"hashrate_block_max":40795705357142.86,"pool_hashblock_average":30600113517764.01,"hashrate_block":718301571820424.5},"time":1668998804,"hashrate":77550000000000000,"difficulty":4845090400.787689,"height":713533,"symbol":"DCR","maxhash":32798000000000000,"poolshash":76003016617855740,"nethash_estimat":71830157182042450,"poolsminers":1481,"supply":{"circulating":14521273.95784684,"total":21000000,"emission24":2686},"block_time_target":300,"block_height_ok":true,"algo":"Blake256R14","hashrate_from_diff":false,"hashrate_src":"https:\/\/lab.antpool.com","unit":"H\/s","block_time_average":283.3,"minerstat":[1.7444776816309e-16,19.026481832738,1.00838102,1277],"link":{"coingecko":"decred","cmc":"decred","whattomine":"152-dcr-blake (14r)","coin360":"decred-dcr","coinpaprika":"dcr-decred"},"latest_release":{"tag":"release-v1.7.5","name":"dcrd v1.7.5","t":1665429869},"price":18.73}