{"data":[{"url":"https:\/\/www.okx.com\/pool","hashrate":8310000000000,"miners":-1,"minpay":-1,"id":23,"pool_id":"okx.com","i":1624,"workers":1,"lastblock":630904,"feetype":"PPLNS","fee":2,"country":"HK|Hong Kong","hashrate_average_100_count":73,"hashrate_average_100":9034452054794.521,"hashrate_average_1h":8070000000000,"history_start":1667612444,"history_interval":3600,"history_addlast":true,"history":[9649500000000,794000000000,-662000000000,357000000000,-1561000000000,837205882000,-425816993000,488479532000,-1221368421000,700500000000,-935000000000,223500000000,672500000000,-262500000000,-106500000000,284000000000,917000000000,-775500000000,-287000000000,338000000000,-166500000000,651000000000,-68500000000,-832500000000,200500000000,734000000000,-1038500000000,1488000000000,-822500000000,183333333000,-373333333000,826000000000,-2600000000000,2663000000000,732000000000,-1073000000000,935000000000,-1150500000000,163500000000,188000000000,-641500000000,-883500000000,2341000000000,-2356500000000,1383500000000,-1304500000000,846000000000,-647500000000,660500000000,-525000000000,262000000000,-464500000000,561000000000,241666667000,-1410666667000,1679000000000,-1412000000000,92000000000,397000000000,1196000000000,-905500000000,1007000000000,-749500000000,79500000000,-188500000000,661500000000,722500000000,-1373000000000,-297500000000,139000000000,1202000000000,-970000000000,-223500000000,576500000000,-154500000000,1070500000000,-2109000000000,-569071429000,1639571429000,-190000000000,876000000000,-1219000000000,578500000000,-402000000000,-545000000000,1328500000000,-482500000000,-648500000000,756000000000,511500000000,-276500000000,-1574000000000,2018500000000,-750500000000,242500000000,-649000000000,-217000000000,-255000000000,553000000000,305500000000,226000000000,-772285714000,1273730158000,-901944444000,-703000000000,-273000000000,1068500000000,-916500000000,464000000000,801944444000,-99444444000,-683500000000,-187500000000,1727500000000,-776500000000,-238000000000,-190500000000,554500000000,-888500000000,233000000000,895026316000,-1102631579000,960605263000,-1750500000000,1942500000000,-347166667000,-651833333000,77500000000,-120500000000,778500000000,-100000000000,-186500000000,-630000000000,-36000000000,400000000000,452500000000,542000000000,-1349000000000,142000000000,204500000000,-339000000000,-135500000000,298000000000,-84500000000,583500000000,534500000000,-456000000000,-175000000000,-256500000000,-984333333000,634833333000,4829000000000,-3537000000000,-1173000000000,292000000000,679500000000,-1940000000000,1737500000000,-548500000000,-861500000000,-478000000000,2032500000000,1318000000000,-724500000000,-2169500000000,171000000000,-115000000000,303000000000,-402000000000],"hashrate_average_7d":9078567550236.688,"hashrate_average_7d_count":169,"expected_blocks":0.02,"multipool":5},{"url":"https:\/\/www2.coinmine.pl\/dcr","hashrate":988732240438832,"miners":-1,"minpay":0.05,"id":5,"pool_id":"coinmine.pl","i":12398,"workers":33,"blocks_nr":5,"lastblock":710829,"lastblocktime":"1668208676","fee":1,"feetype":"PPLNS","height":710889,"country":"WL|EU , US , Asia","blocks_1000":8,"blocks_count":1,"hashrate_average_100_count":73,"hashrate_average_100":903501990383697.8,"hashrate_average_1h":941547702953021.4,"history_start":1667612444,"history_interval":3600,"history_addlast":true,"history":[516849438900000,-91607288400000,1864266800000,-32599714500000,30262667200000,-10092336300000,-4070976000000,118809471000000,153227233400000,60979300800000,1526655800000,-5191477800000,40234119000000,-45840770600000,3189583300000,7294064000000,-5428051200000,-13925404000000,-1791830900000,-28026207700000,28490925600000,-5113774000000,-28552956900000,30136971400000,5959547100000,-3604745600000,8778951600000,-2893782800000,10566578600000,51749048900000,50102986600000,-3956535500000,6769979900000,5196125400000,-22055503400000,22251775300000,4375625000000,-5399759400000,5348544900000,-20195230500000,24309977000000,-14890801300000,-11942930900000,8300654500000,-2767616500000,-12494195600000,14925621200000,3431470300000,-22743681500000,10741335200000,-70468768800000,-230023763200000,-11832716300000,1902111600000,11926113200000,118388219700000,184044233000000,11831726700000,14849356800000,-62570189500000,33979360800000,15291114900000,39508889800000,-20559972800000,-2891928900000,-24159415900000,188420000000,-15992402800000,10338063400000,-9668771600000,24351186400000,-200672000000,-6859864500000,-5448835000000,23635740300000,16574821000000,67787756300000,12928317400000,1610458300000,-44204184200000,15092868500000,-3835640600000,13208116800000,-16193831800000,7132442300000,-1507190200000,2876265400000,-15598130700000,34224437700000,-10468376000000,-981770200000,16958827800000,-8108136700000,-28884077500000,16784849600000,-7059254400000,46462809600000,-43610489000000,6883464100000,9341741400000,-29273633400000,12517667900000,22358507500000,-75940723600000,25965168300000,31061072000000,-50315652300000,8095417500000,6954611300000,-32922789600000,19368295200000,40024802200000,-4194956900000,-34135851500000,-16479864200000,-5911956800000,14705320700000,-32169279500000,12048488900000,-7858091400000,-4302539600000,36437966100000,-22393549800000,10815111000000,7940993500000,-28408035700000,55454731600000,-20915496600000,-122402554400000,28322697900000,-7089148800000,-18743423000000,29202021800000,2442921000000,-12160845900000,-130817103100000,138603834500000,26007337800000,-3749123500000,-17021280100000,96706144700000,19575646200000,-1694127600000,-24541837700000,10340143700000,-40602375600000,4188083800000,32963941400000,-5759929800000,11485589200000,24008622500000,-7050883400000,-24629343600000,27760751000000,5583992000000,-11108630500000,-17866693700000,-2454974500000,13379699300000,-10795998700000,-625989200000,-7885705000000,43969592000000,-17752206500000,-12886063200000,-20727866700000,21150824800000,-20942029800000,59177583300000],"hashrate_average_7d":826825768607100.2,"hashrate_average_7d_count":169,"expected_blocks":1.51,"luck":-0.5101415069358128,"multipool":6},{"url":"https:\/\/lab.antpool.com","hashrate":3780000000000000,"miners":-1,"minpay":0.1,"id":11,"pool_id":"antpool.com","i":2075,"nethash":54030000000000000,"netdiff":3145943174,"feetype":"PPS","fee":3,"income":6.1618861999999995e-15,"lastblock":710053,"lastblocktime":"1667950017","country":"WL|Global","blocks_1000":1,"hashrate_average_100_count":73,"hashrate_average_100":3838047945205479.5,"hashrate_average_1h":3796000000000000,"history_start":1667612444,"history_interval":3600,"history_addlast":true,"history":[4100000000000000,81500000000000,-130500000000000,17000000000000,67500000000000,94500000000000,191578947000000,37368421000000,-55947368000000,-196000000000000,-101000000000000,-80500000000000,104500000000000,-26000000000000,53000000000000,-86500000000000,2500000000000,-13500000000000,37500000000000,-99500000000000,150500000000000,1000000000000,-13500000000000,-14000000000000,24000000000000,6500000000000,-60000000000000,-80500000000000,9000000000000,28250000000000,119250000000000,-82000000000000,-30000000000000,17500000000000,47000000000000,-56000000000000,-22500000000000,11500000000000,-26500000000000,-10000000000000,15000000000000,22000000000000,52500000000000,-9500000000000,-23000000000000,19000000000000,-9500000000000,-14000000000000,-15000000000000,-25000000000000,-978500000000000,1061000000000000,18000000000000,52000000000000,41000000000000,55500000000000,-83000000000000,-13000000000000,-169500000000000,-181000000000000,-5000000000000,500000000000,-33500000000000,-139500000000000,33500000000000,47000000000000,23500000000000,23000000000000,-54500000000000,52000000000000,-84000000000000,-72500000000000,228500000000000,559000000000000,0,-346500000000000,-692500000000000,706857143000000,-86857143000000,-26000000000000,-2500000000000,62500000000000,-8000000000000,-20000000000000,4000000000000,-35500000000000,-81000000000000,5000000000000,-24500000000000,-49500000000000,-284500000000000,107000000000000,63000000000000,-50500000000000,108000000000000,112500000000000,57000000000000,57500000000000,1000000000000,-107000000000000,-64500000000000,61428571000000,-84323308000000,-32605263000000,49500000000000,46000000000000,-8500000000000,-4000000000000,10000000000000,-6944444000000,12944444000000,-37500000000000,-2000000000000,-54500000000000,83000000000000,-65500000000000,-69500000000000,-89000000000000,24500000000000,-19000000000000,264000000000000,-80000000000000,193500000000000,-26500000000000,-57000000000000,48111111000000,89888889000000,-92500000000000,-15000000000000,49000000000000,-128000000000000,6500000000000,9000000000000,-19500000000000,61500000000000,-184000000000000,-17000000000000,500000000000,-20500000000000,-76000000000000,-77500000000000,-114000000000000,-43000000000000,173000000000000,179500000000000,114500000000000,38500000000000,33000000000000,64500000000000,45944444000000,-63444444000000,-34500000000000,-22000000000000,-28000000000000,22000000000000,-34500000000000,31000000000000,40000000000000,-37000000000000,-93500000000000,-2500000000000,5000000000000,25000000000000,-6000000000000,-38500000000000,42000000000000,-76500000000000,36000000000000,-18000000000000],"hashrate_average_7d":3932472061556213,"hashrate_average_7d_count":169,"expected_blocks":6.42,"multipool":16},{"url":"https:\/\/pool.btc.com","hashrate":3936000000000000,"miners":-1,"minpay":0.1,"id":4,"pool_id":"pool.btc.com","feetype":"PPS","i":14444,"workers":93,"income":6.3524536146895e-15,"i_blocks":14486,"json_blocks":{"err_no":0,"data":{"blocks":{"current_page":1,"data":[{"height":710881,"is_orphaned":0,"hash":"00000000000000004251cc166e99155ae39491c94799a767f97d9a0213131f2d","rewards":"0.99343280","size":39559,"prev_hash":"00000000000000004ec15f40456ba96ed009428fccda59edbcaf61c5876d17fa","bits":419519871,"version":9,"created_at":1668219456,"region_id":34,"region_name":"America"},{"height":710846,"is_orphaned":0,"hash":"000000000000000095f588d61f385d633869b42d74695d00871f71e10762616a","rewards":"0.99343280","size":6517,"prev_hash":"00000000000000001bc8d6c6f42df3527e601bad2608bb9454e1442c73719fe2","bits":419519871,"version":9,"created_at":1668211939,"region_id":36,"region_name":"BitDeer"},{"height":710801,"is_orphaned":0,"hash":"0000000000000000abf0c7089e7b65500829bd62f45c3d7c6e62080348324d63","rewards":"0.99343280","size":4891,"prev_hash":"00000000000000007d7a64c2ef48e6635ac33c54d98880c47a02ad4ab80ce6a8","bits":419519871,"version":9,"created_at":1668201365,"region_id":34,"region_name":"America"},{"height":710797,"is_orphaned":0,"hash":"0000000000000000647d860c8e05ec8b8526645db5521b0660a851be51d4acf7","rewards":"0.99343280","size":10290,"prev_hash":"0000000000000000b12ac2be0e7b95e01764e2cf50f1035ea54ed06e8b0c665a","bits":419519871,"version":9,"created_at":1668199613,"region_id":34,"region_name":"America"},{"height":710791,"is_orphaned":0,"hash":"0000000000000000d585fc17966d9236987b279a68f893792b7610a77490baec","rewards":"0.99343280","size":32038,"prev_hash":"0000000000000000d8d7eb15f36b87db72bb1e32bf5ae4f5ce065da3de155c81","bits":419519871,"version":9,"created_at":1668197947,"region_id":34,"region_name":"America"},{"height":710778,"is_orphaned":0,"hash":"000000000000000058f204356733a9c153ed0bcfbba40bde21c63fec7bdf6add","rewards":"0.99343280","size":29488,"prev_hash":"000000000000000092ea35984eadb8efd9c9950fd5cf1b957348ea056a795fd4","bits":419512878,"version":9,"created_at":1668194306,"region_id":34,"region_name":"America"},{"height":710773,"is_orphaned":0,"hash":"000000000000000037709b6761031e078fa8d8fdbea87a2e650418782a2d7902","rewards":"0.99343280","size":51229,"prev_hash":"000000000000000056b816609bcd5f8239b251ded8048d1d584edcf164746a19","bits":419512878,"version":9,"created_at":1668192085,"region_id":34,"region_name":"America"},{"height":710768,"is_orphaned":0,"hash":"00000000000000012d565eeea022b7c72b30d7ce7986cdb62e4c953d73ab2283","rewards":"0.99343280","size":61829,"prev_hash":"0000000000000000a874b423406b9de2a125cb9e560c3a8fb7a0bfbd3c94a05d","bits":419512878,"version":9,"created_at":1668190796,"region_id":34,"region_name":"America"},{"height":710725,"is_orphaned":0,"hash":"000000000000000058b5daf1c41189207e0c2610cd41bdc809b0d292ca7e87fb","rewards":"0.99343280","size":16326,"prev_hash":"0000000000000000028e58b4ea200d8079220245749a66c5616f53a966299693","bits":419512878,"version":9,"created_at":1668176373,"region_id":34,"region_name":"America"},{"height":710724,"is_orphaned":0,"hash":"0000000000000000028e58b4ea200d8079220245749a66c5616f53a966299693","rewards":"0.99343280","size":5705,"prev_hash":"0000000000000000111237b4452cb70fb2542c9700e670c85822375d272e2284","bits":419512878,"version":9,"created_at":1668176163,"region_id":36,"region_name":"BitDeer"}],"first_page_url":"https:\/\/eu-api.connectbtc.com\/\/public\/v1\/pool\/blocks\/merge?order_by=desc&page_size=10&page=1","from":1,"last_page":2226,"last_page_url":"https:\/\/eu-api.connectbtc.com\/\/public\/v1\/pool\/blocks\/merge?order_by=desc&page_size=10&page=2226","next_page_url":"https:\/\/eu-api.connectbtc.com\/\/public\/v1\/pool\/blocks\/merge?order_by=desc&page_size=10&page=2","path":"https:\/\/eu-api.connectbtc.com\/\/public\/v1\/pool\/blocks\/merge","per_page":10,"prev_page_url":null,"to":10,"total":22257},"blocks_count":22257,"rewards_count":"190641.01996224"},"trace_id":"6950a012-4a06-447e-9c7e-0b2129d5e4cf"},"blocks_nr":10,"lastblock":710881,"lastblocktime":"1668219429","country":"WL|CN , EU , US","blocks_1000":64,"blocks_count":5,"hashrate_average_100_count":73,"hashrate_average_100":3980638270547945,"hashrate_average_1h":3950600000000000,"history_start":1667612444,"history_interval":3600,"history_addlast":true,"history":[3697050000000000,-13950000000000,51400000000000,3200000000000,23950000000000,-8355882000000,-50715171000000,-18728947000000,65000000000000,35150000000000,-37150000000000,-34700000000000,36000000000000,54150000000000,24800000000000,20650000000000,71800000000000,-40400000000000,-54400000000000,-59150000000000,-39450000000000,12950000000000,79000000000000,-52500000000000,-71700000000000,-39300000000000,-16350000000000,17250000000000,20150000000000,-42650000000000,-16300000000000,63100000000000,82650000000000,-13950000000000,5650000000000,-8000000000000,36950000000000,16250000000000,-39900000000000,-37850000000000,4550000000000,-22150000000000,-23750000000000,-28450000000000,-29550000000000,-13150000000000,114200000000000,3500000000000,9400000000000,-68250000000000,-57000000000000,-23400000000000,5100000000000,67950000000000,35450000000000,-22100000000000,6750000000000,-28250000000000,30500000000000,-39900000000000,14050000000000,-69950000000000,-23650000000000,62100000000000,44800000000000,-4250000000000,-117200000000000,34900000000000,-22450000000000,27750000000000,28200000000000,-24900000000000,0,16900000000000,28500000000000,10650000000000,-90250000000000,26178571000000,-1328571000000,-15500000000000,59750000000000,116250000000000,-40300000000000,-29400000000000,-12700000000000,-49350000000000,25800000000000,122450000000000,-47950000000000,-81800000000000,-30050000000000,14050000000000,-23500000000000,-15350000000000,14700000000000,-29400000000000,-44000000000000,98750000000000,35650000000000,37050000000000,8150000000000,37885714000000,72658730000000,-73744444000000,14950000000000,74650000000000,-55200000000000,-40200000000000,41250000000000,-70483333000000,88333333000000,-21750000000000,13600000000000,-13750000000000,13250000000000,-101600000000000,-10900000000000,31200000000000,164700000000000,-39150000000000,2400000000000,-48350000000000,22550000000000,3700000000000,33000000000000,-65455556000000,122905556000000,-24050000000000,-2250000000000,56350000000000,-41550000000000,-46450000000000,91550000000000,-23800000000000,37250000000000,-24800000000000,47600000000000,-46400000000000,950000000000,-58550000000000,22450000000000,28200000000000,-95300000000000,71900000000000,-7750000000000,-17800000000000,-14350000000000,-35850000000000,-32150000000000,36450000000000,-7150000000000,-36200000000000,60650000000000,9100000000000,-21950000000000,-17100000000000,50250000000000,6000000000000,-8150000000000,88600000000000,64150000000000,-18250000000000,6000000000000,65800000000000,-22750000000000,-103200000000000,6050000000000,33700000000000,-19450000000000],"hashrate_average_7d":3746055875177515,"hashrate_average_7d_count":169,"hashrate_block":796127654109589,"expected_blocks":6.65,"luck":-1.6533634019984405,"multipool":7},{"url":"https:\/\/www.f2pool.com","hashrate":22428688287654936,"miners":-1,"minpay":0.1,"id":14,"pool_id":"f2pool.com","fee":3,"feetype":"PPS%3","i":2444,"income":6.002977066323055e-15,"blocks_nr":9,"lastblock":710887,"lastblocktime":1668220744,"country":"WL|Global","blocks_1000":428,"blocks_count":39,"hashrate_average_100_count":73,"hashrate_average_100":22344105069264390,"hashrate_average_1h":22407544654462690,"history_start":1667612444,"history_interval":3600,"history_addlast":true,"history":[46212341030000000,-1068303320000000,4211743500000000,5904122140000000,176836230000000,117057470000000,-143154270000000,-735284810000000,2550504980000000,321013300000000,-645291310000000,473797150000000,-695795390000000,823925460000000,-305005620000000,-132879400000000,-381422070000000,1363010000000000,-58650810000000,-13141527520000000,13432778150000000,-862588220000000,-10530284040000000,16168420000000,-140570130000000,2662181340000000,7897595550000000,560889510000000,-330192550000000,501249180000000,-249051310000000,-868280210000000,1392114270000000,-111065980000000,-118031550000000,478020400000000,-142855230000000,311772740000000,-209408010000000,-166739660000000,186406980000000,-1071811500000000,859376130000000,175931700000000,-145016740000000,-5688665570000000,-6295586410000000,969154530000000,51325220000000,1240521330000000,8268778560000000,1110616650000000,1019022240000000,508478670000000,42263330000000,-8257841270000000,-14423642340000000,-2448685260000000,-150275850000000,-244080880000000,-2128079130000000,1994554810000000,314607500000000,-160225770000000,-91570350000000,153853680000000,-20395800000000,-250932950000000,22682620000000,139455200000000,76690830000000,174557530000000,-3100520590000000,-7622663560000000,6746312370000000,3940758620000000,29206690000000,-194215100000000,9106450000000,289871670000000,-124055970000000,247420000000,-79860560000000,-24862440000000,139611280000000,-44836340000000,61952830000000,12351760000000,236792430000000,-223121560000000,-113821700000000,-57608610000000,37618030000000,-109483580000000,-3013820000000,167363250000000,-113256640000000,-307373960000000,-136450910000000,16605260000000,-925255600000000,-717824730000000,-353318330000000,-9787050000000,-18286350000000,387958310000000,394240570000000,-173758490000000,-73784930000000,201927040000000,-60445820000000,21961850000000,321818820000000,-144192630000000,-108291680000000,-127690260000000,-1002633760000000,-7874488010000000,-163629430000000,-41161920000000,1826497850000000,-1343101190000000,-453140650000000,-18478070000000,-53851970000000,-267870260000000,12083850000000,-84461590000000,105667450000000,-103159990000000,-23386580000000,38320540000000,-94373310000000,-12031570000000,198338620000000,-458227000000000,-2822584350000000,2870542070000000,-176189480000000,-629510000000,80059650000000,-106618050000000,16336020000000,-163823260000000,109464960000000,133063310000000,807530180000000,-419273990000000,-422992820000000,-219278690000000,187225100000000,-116542960000000,-230588030000000,-77797330000000,-51576010000000,-8197000000000,29289930000000,274957140000000,140108540000000,-12241130000000,-32811120000000,-48018690000000,-82707040000000,5151720000000,184205530000000,17810260000000,74957210000000,-125838460000000,57507400000000],"hashrate_average_7d":37269915595266270,"hashrate_average_7d_count":169,"hashrate_block":572925771006779.2,"expected_blocks":37.35,"luck":1.6533634019984405,"multipool":33},{"url":"https:\/\/www.poolin.com","hashrate":27630000000000000,"miners":-1,"minpay":0.01,"id":3,"pool_id":"poolin.com","fee":3,"feetype":"PPS","i":13505,"json":{"err_no":0,"data":{"shares":{"shares_1m":26.087,"shares_5m":27.63,"shares_15m":26.816,"shares_1h":27.683,"shares_unit":"P"},"reject":{"1m":0,"5m":0,"15m":0.0137,"1h":0.0074},"workers":1232,"users":367,"total_blocks":144635,"total_rewards":104642462401569}},"workers":1232,"netdiff":3145943174.2504277,"nethash":"45039076824681458","income":6.94757e-15,"blocks_nr":16,"lastblock":710889,"lastblocktime":"1668221268","country":"US|United States","blocks_1000":430,"blocks_count":46,"hashrate_average_100_count":73,"hashrate_average_100":27479895547945204,"hashrate_average_1h":26453000000000000,"history_start":1667612444,"history_interval":3600,"history_addlast":true,"history":[23553400000000000,2686350000000000,336950000000000,269700000000000,-372400000000000,-104647060000000,2804950000000,325592110000000,1050000000000,-104000000000000,110276920000000,78423080000000,49900000000000,-49150000000000,-215300000000000,71450000000000,-167000000000000,179750000000000,0,-177600000000000,-36850000000000,-663200000000000,-286700000000000,376300000000000,-34450000000000,-263000000000000,2441300000000000,5128600000000000,-188950000000000,-203975000000000,151575000000000,418550000000000,602650000000000,-570550000000000,-49750000000000,393550000000000,611700000000000,-22750000000000,-5460600000000000,-1775000000000000,-240150000000000,-282700000000000,428350000000000,-774050000000000,335250000000000,-17400000000000,-671150000000000,937500000000000,-185650000000000,-54600000000000,-50500000000000,438650000000000,-138650000000000,17833330000000,231866670000000,-94200000000000,657100000000000,-70400000000000,-44800000000000,-149650000000000,52450000000000,-45300000000000,105950000000000,-224000000000000,142200000000000,76350000000000,43750000000000,99800000000000,-228950000000000,424100000000000,543900000000000,-227600000000000,-1548150000000000,914850000000000,519250000000000,120900000000000,272500000000000,1287350000000000,6186600000000000,-657300000000000,699800000000000,174000000000000,-82250000000000,-984850000000000,342700000000000,-94350000000000,-570650000000000,922600000000000,-152700000000000,-195650000000000,277200000000000,-99150000000000,-412950000000000,-92300000000000,358050000000000,-655100000000000,229150000000000,-6775850000000000,-830350000000000,225600000000000,138100000000000,165850000000000,174077780000000,-209677780000000,-238700000000000,-253600000000000,-630050000000000,454700000000000,523650000000000,-60322220000000,-340077780000000,383300000000000,23500000000000,-66050000000000,-407150000000000,696300000000000,-468600000000000,-12850000000000,-385250000000000,-3627650000000000,-2623150000000000,56900000000000,-54450000000000,215300000000000,-258350000000000,-189722220000000,-103777780000000,467500000000000,-2150000000000,-326050000000000,-160950000000000,386300000000000,125100000000000,-65350000000000,26950000000000,-307000000000000,-520200000000000,4350000000000,50350000000000,56750000000000,-208350000000000,165550000000000,374950000000000,-144300000000000,32500000000000,71850000000000,-68350000000000,77000000000000,-323800000000000,-93150000000000,200150000000000,558800000000000,176250000000000,109500000000000,237000000000000,3582100000000000,2035000000000000,139250000000000,242300000000000,9000000000000,173650000000000,-172100000000000,254350000000000,15700000000000,-232300000000000,89350000000000,171800000000000,193650000000000,-1310450000000000],"hashrate_average_7d":27010206387100600,"hashrate_average_7d_count":169,"hashrate_block":597389033650982.8,"expected_blocks":45.93,"luck":0.06924244230035015,"multipool":15}],"hashblock":{"hashrate_average_100":26324743339812336,"blocks_count":44,"pools":[[796127654109589,5,159225530821917.8,"https:\/\/pool.btc.com"],[572925771006779.2,39,14690404384789.21,"https:\/\/www.f2pool.com"],[597389033650982.8,46,12986718122847.451,"https:\/\/www.poolin.com"]],"hashrate_block_all":597829320975083.8,"hashrate_block_min":12986718122847.451,"hashrate_block_max":159225530821917.8,"pool_hashblock_average":62300884443184.82,"hashrate_block":598289621359371.2},"time":1668221564,"hashrate":54030000000000000,"difficulty":3145943174.2504277,"height":710889,"symbol":"DCR","maxhash":27630000000000000,"poolshash":58771730528093770,"nethash_estimat":59828962135937130,"poolsminers":1359,"supply":{"circulating":14497823.63628264,"total":21000000,"emission24":2738},"block_time_target":300,"block_height_ok":true,"algo":"Blake256R14","hashrate_from_diff":false,"hashrate_src":"https:\/\/lab.antpool.com","unit":"H\/s","block_time_average":281.4,"minerstat":[2.6468556727873e-16,20.873635382348,0.9934328,918],"link":{"coingecko":"decred","cmc":"decred","whattomine":"152-dcr-blake (14r)","coin360":"decred-dcr","coinpaprika":"dcr-decred"},"latest_release":{"tag":"release-v1.7.5","name":"dcrd v1.7.5","t":1665429869},"price":20.94}