{"data":[{"url":"https:\/\/www.okx.com\/pool","hashrate":8900000000000,"miners":-1,"minpay":-1,"id":23,"pool_id":"okx.com","i":1617,"workers":1,"lastblock":630904,"feetype":"PPLNS","fee":2,"country":"HK|Hong Kong","hashrate_average_100_count":75,"hashrate_average_100":8822760416666.666,"hashrate_average_1h":8923333333333.334,"history_start":1668134625,"history_interval":3600,"history_addlast":true,"history":[9893500000000,-456000000000,-175000000000,-256500000000,-984333333000,634833333000,4829000000000,-3537000000000,-1173000000000,292000000000,679500000000,-1940000000000,1737500000000,-548500000000,-861500000000,-478000000000,2032500000000,1318000000000,-724500000000,-2169500000000,171000000000,-115000000000,303000000000,366000000000,-283000000000,1030000000000,-1031500000000,-617000000000,1206277778000,271432748000,-661210526000,1000500000000,-364500000000,116500000000,-33000000000,-18500000000,-125500000000,-268500000000,-220000000000,718333333000,1213166667000,-2560973684000,519473684000,-46000000000,-415000000000,-16500000000,683500000000,-418000000000,-223500000000,-382500000000,90500000000,1072500000000,1273947370000,-1133447370000,-628500000000,848500000000,-1404500000000,333000000000,9000000000,-16000000000,259000000000,-216500000000,731500000000,1083500000000,-1103500000000,-14500000000,-1023000000000,2252000000000,-572000000000,-1298000000000,553500000000,84000000000,1169500000000,-42500000000,0,0,-847777778000,-667722222000,240000000000,553000000000,-729000000000,-744000000000,1173000000000,590394737000,-465394737000,-362000000000,308500000000,-1093000000000,876500000000,-39500000000,789000000000,-775500000000,-916000000000,538500000000,-189500000000,541000000000,-1264000000000,283000000000,1022000000000,-1050000000000,406500000000,515500000000,-17500000000,-143000000000,-237000000000,33000000000,-234500000000,1266500000000,-126000000000,-445500000000,133000000000,-967000000000,521500000000,170000000000,500894737000,108105263000,-2334000000000,1293000000000,-404000000000,679000000000,-200000000000,774500000000,-125500000000,300473684000,208026316000,-820500000000,-93500000000,353000000000,116000000000,152000000000,687000000000,-488500000000,597000000000,-635500000000,721000000000,-222500000000,-28000000000,-337500000000,-1488000000000,1012000000000,-843078947000,2406578947000,-1659500000000,32000000000,697500000000,1436000000000,-1862000000000,-1642000000000,1876571429000,-191571429000,-1038500000000,-199000000000,268000000000,1497000000000,-240500000000,-1307500000000,-1084000000000,1147500000000,236000000000,-144500000000,198000000000,677500000000,-1318000000000,286000000000,56500000000,1938000000000,-905500000000,-585666667000],"hashrate_average_7d":9039555197529.766,"hashrate_average_7d_count":168,"expected_blocks":0.01,"multipool":5},{"url":"https:\/\/www2.coinmine.pl\/dcr","hashrate":846096757742196,"miners":-1,"minpay":0.05,"id":5,"pool_id":"coinmine.pl","i":12391,"workers":34,"blocks_nr":5,"lastblock":712651,"lastblocktime":"1668727418","fee":1,"feetype":"PPLNS","height":712677,"country":"WL|EU , US , Asia","blocks_1000":6,"blocks_count":1,"hashrate_average_100_count":75,"hashrate_average_100":868261369888357.9,"hashrate_average_1h":829810707209238.6,"history_start":1668134625,"history_interval":3600,"history_addlast":true,"history":[858365338300000,4188083800000,32963941400000,-5759929800000,11485589200000,24008622500000,-7050883400000,-24629343600000,27760751000000,5583992000000,-11108630500000,-17866693700000,-2454974500000,13379699300000,-10795998700000,-625989200000,-7885705000000,43969592000000,-17752206500000,-12886063200000,-20727866700000,21150824800000,-20942029800000,40368141300000,-25203283000000,-499748200000,15399972100000,7949737400000,-30954692200000,4656672600000,9905087900000,-40124270500000,47852541600000,-25107272500000,31379310700000,-501511600000,-45122632700000,432388700000,30292297200000,-51193790800000,41245369700000,5610776400000,-4931420600000,17792807700000,-36398425300000,-10738631500000,23703417000000,27110804200000,4089801200000,2992984500000,-22449322400000,7855238000000,12388085400000,2168830400000,77935510600000,-19874950700000,40965280700000,-18181736000000,27046353000000,-93128889900000,10739245900000,-5775738600000,-8660060900000,19728511000000,-9472914900000,24131477800000,-16755875100000,-12387663900000,-8300691200000,59043239200000,-65453189300000,18310396800000,-24237443400000,27927954800000,-27877365000000,22077865200000,-8423838900000,15082971800000,-18140708800000,-102647751200000,115709867300000,-1615312700000,-21387674800000,26320097800000,10936639700000,25396356400000,-44292835400000,7038291300000,227756900000,9622389700000,35883943400000,-47979624500000,10966567700000,12739780600000,-41409874000000,13333231100000,-7170600000000,3351362500000,36446103200000,-33877104400000,-33251809200000,54504523600000,-21243007700000,-7460435600000,-19148501000000,11818636600000,13280820500000,-44812931700000,-27928731600000,-5119788200000,-38228455900000,43873766000000,48570939800000,-4263939500000,38994695700000,-34601488500000,-11285069200000,-1940984200000,-4207781300000,-13165148500000,11422437400000,5583919700000,11340149000000,-9883006700000,-16729759400000,9461877400000,30889810600000,-19330374300000,6342680800000,-15509057700000,6897511100000,29139532300000,-6996666600000,-5140138600000,-19552423500000,4143733400000,4758849800000,-16078392500000,-9940067600000,12945595000000,15820494800000,-15013606700000,4391897700000,19794210800000,-13670197900000,-30238032600000,24367891100000,-14194557000000,34449057500000,-16780978700000,2291015000000,246482700000,-8183149700000,6700078600000,10771670700000,-30325984400000,12323877000000,8591563200000,3726629400000,-7820241100000,11607216200000,-146828059600000,-32246293700000,161617014400000,11144024500000,-5437441400000,1467579000000,-73161705500000],"hashrate_average_7d":911860220754761.1,"hashrate_average_7d_count":168,"expected_blocks":1.24,"luck":-0.23648443265905494,"multipool":6},{"url":"https:\/\/lab.antpool.com","hashrate":13410000000000000,"miners":-1,"minpay":0.1,"id":11,"pool_id":"antpool.com","i":2068,"nethash":68120000000000010,"netdiff":5199709630,"feetype":"PPS","fee":3,"income":3.7280786e-15,"lastblock":712107,"lastblocktime":"1668580440","country":"WL|Global","blocks_1000":1,"hashrate_average_100_count":75,"hashrate_average_100":13567579166666666,"hashrate_average_1h":13353333333333334,"history_start":1668134625,"history_interval":3600,"history_addlast":true,"history":[3867500000000000,38500000000000,33000000000000,64500000000000,45944444000000,-63444444000000,-34500000000000,-22000000000000,-28000000000000,22000000000000,-34500000000000,31000000000000,40000000000000,-37000000000000,-93500000000000,-2500000000000,5000000000000,25000000000000,-6000000000000,-38500000000000,42000000000000,-76500000000000,36000000000000,55500000000000,96000000000000,175500000000000,132000000000000,6500000000000,206055556000000,83391812000000,3552632000000,45000000000000,-99000000000000,196500000000000,-55000000000000,-26500000000000,-130000000000000,120000000000000,-42000000000000,-31500000000000,18000000000000,19368421000000,-23868421000000,5000000000000,10500000000000,-9000000000000,1500000000000,-39500000000000,54500000000000,-38500000000000,-133000000000000,-236500000000000,9394737000000,20105263000000,47500000000000,-100500000000000,-9500000000000,-94500000000000,78500000000000,9500000000000,11000000000000,23000000000000,-27500000000000,-141000000000000,-186500000000000,16500000000000,38500000000000,58500000000000,-33500000000000,23000000000000,8500000000000,-137000000000000,109000000000000,-1790500000000000,580000000000000,1237000000000000,4222222000000,-23222222000000,1500000000000,-43000000000000,28500000000000,3000000000000,-19000000000000,4736842000000,-136736842000000,-5000000000000,71000000000000,-63000000000000,0,61000000000000,-21000000000000,33500000000000,-44500000000000,15500000000000,52000000000000,-31000000000000,26500000000000,24000000000000,29500000000000,13000000000000,34250000000000,45250000000000,83000000000000,-57000000000000,6000000000000,3500000000000,-17000000000000,-21000000000000,-68500000000000,42000000000000,-89500000000000,7500000000000,-178000000000000,58500000000000,-60605263000000,11605263000000,-31500000000000,15000000000000,-38000000000000,-80500000000000,112000000000000,-2500000000000,41500000000000,-11815789000000,-208684211000000,383000000000000,-1000000000000,1500000000000,34500000000000,36500000000000,-69000000000000,24000000000000,-11500000000000,9500000000000,-60500000000000,-33500000000000,-45500000000000,72500000000000,6500000000000,-32000000000000,-34736842000000,-2263158000000,-44000000000000,113500000000000,-14500000000000,11500000000000,-44000000000000,66500000000000,-34857143000000,2276857143000000,7754500000000000,-173500000000000,108000000000000,-203000000000000,-84000000000000,223500000000000,-36500000000000,13000000000000,-198000000000000,247000000000000,-184500000000000,-102500000000000,53500000000000,-23000000000000,43000000000000,206000000000000,-312500000000000,-91666670000000],"hashrate_average_7d":5024846654065475,"hashrate_average_7d_count":168,"expected_blocks":19.32,"multipool":16},{"url":"https:\/\/pool.btc.com","hashrate":3917000000000000,"miners":-1,"minpay":0.1,"id":4,"pool_id":"pool.btc.com","feetype":"PPS","i":14437,"workers":91,"income":3.8433796321755e-15,"i_blocks":14479,"json_blocks":{"err_no":0,"data":{"blocks":{"current_page":1,"data":[{"height":712667,"is_orphaned":0,"hash":"0000000000000000d0a034c75b624d0c1cc5231517f40131732267c575b9175a","rewards":"0.99343280","size":3122,"prev_hash":"000000000000000015cd277b3a156b1211628ea6381b3149e155da2b135d1789","bits":419484532,"version":9,"created_at":1668737597,"region_id":34,"region_name":"America"},{"height":712629,"is_orphaned":0,"hash":"000000000000000093939b01129d74bdf5787a772949db4239189e588d72d374","rewards":"0.99343280","size":3668,"prev_hash":"0000000000000000635b6a8c37fc2fba066e1032f7aaef663342621cc4a99dee","bits":419488381,"version":9,"created_at":1668721424,"region_id":34,"region_name":"America"},{"height":712625,"is_orphaned":0,"hash":"0000000000000000d83da1da99a1263ac5008c5492ae090036896b0ff43bda0e","rewards":"0.99343280","size":27682,"prev_hash":"0000000000000000c018dbc1c0cb8e7a10371d32fc9e5b42ac809f81dce55193","bits":419488381,"version":9,"created_at":1668720552,"region_id":36,"region_name":"BitDeer"},{"height":712622,"is_orphaned":0,"hash":"000000000000000088cff9548c95c09a702ae76b0daf790f4a0d3ff3ada4d450","rewards":"0.99343280","size":34203,"prev_hash":"0000000000000000cb1c19ce1498fead5d9c2611664f27dc4006e8867f7ae500","bits":419488381,"version":9,"created_at":1668719938,"region_id":36,"region_name":"BitDeer"},{"height":712619,"is_orphaned":0,"hash":"0000000000000000dfd1155e7255290841367d3f357c3f407e5e42213f7f99e2","rewards":"0.99343280","size":2453,"prev_hash":"000000000000000079e08ee1ed38bd74f95457662a03f956d56352897cf636a2","bits":419488381,"version":9,"created_at":1668717811,"region_id":34,"region_name":"America"},{"height":712610,"is_orphaned":0,"hash":"00000000000000001c3408d466b13fc645e609f126233f63a52b6bc3d02e0d77","rewards":"0.99343280","size":43464,"prev_hash":"00000000000000006d243c23ed5709bb0dee682e1d58f1cd70ea85032a305548","bits":419488381,"version":9,"created_at":1668716427,"region_id":36,"region_name":"BitDeer"},{"height":712601,"is_orphaned":0,"hash":"00000000000000005096ee20221dd20ce90318d519a048f37cf9a7d8e1dac0ac","rewards":"0.99343280","size":4822,"prev_hash":"0000000000000000338d32bfbaaef471be0d1036d2dc70f380f245aa75984744","bits":419488381,"version":9,"created_at":1668712916,"region_id":34,"region_name":"America"},{"height":712587,"is_orphaned":0,"hash":"0000000000000000682979e9e374943e45d71f037a6fb15b2cf56b27be7ffc10","rewards":"0.99343280","size":32698,"prev_hash":"00000000000000004639641dbffe0933c2b2f7b1ea1ea26f191819bf7f78d4b9","bits":419488381,"version":9,"created_at":1668710330,"region_id":34,"region_name":"America"},{"height":712570,"is_orphaned":0,"hash":"0000000000000000a6e3a7bb73760356da37b13424f261d0cb165b942017753b","rewards":"0.99343280","size":7561,"prev_hash":"00000000000000004e7bcfaf29d0c550062a43272270ee8ac57f6cbcbc01062a","bits":419488381,"version":9,"created_at":1668705341,"region_id":34,"region_name":"America"},{"height":712569,"is_orphaned":0,"hash":"00000000000000004e7bcfaf29d0c550062a43272270ee8ac57f6cbcbc01062a","rewards":"0.99343280","size":60342,"prev_hash":"00000000000000002a5fc88f1085b4338cc26b09dfc8c3ba37767c86ca532363","bits":419488381,"version":9,"created_at":1668705253,"region_id":36,"region_name":"BitDeer"}],"first_page_url":"https:\/\/eu-api.connectbtc.com\/\/public\/v1\/pool\/blocks\/merge?order_by=desc&page_size=10&page=1","from":1,"last_page":2237,"last_page_url":"https:\/\/eu-api.connectbtc.com\/\/public\/v1\/pool\/blocks\/merge?order_by=desc&page_size=10&page=2237","next_page_url":"https:\/\/eu-api.connectbtc.com\/\/public\/v1\/pool\/blocks\/merge?order_by=desc&page_size=10&page=2","path":"https:\/\/eu-api.connectbtc.com\/\/public\/v1\/pool\/blocks\/merge","per_page":10,"prev_page_url":null,"to":10,"total":22368},"blocks_count":22368,"rewards_count":"190750.09888368"},"trace_id":"2c32e331-96c7-4ed2-af59-c984cfb4277b"},"blocks_nr":10,"lastblock":712667,"lastblocktime":"1668737597","country":"WL|CN , EU , US","blocks_1000":63,"blocks_count":8,"hashrate_average_100_count":75,"hashrate_average_100":3987277708333333.5,"hashrate_average_1h":3909000000000000,"history_start":1668134625,"history_interval":3600,"history_addlast":true,"history":[3860400000000000,-14350000000000,-35850000000000,-32150000000000,36450000000000,-7150000000000,-36200000000000,60650000000000,9100000000000,-21950000000000,-17100000000000,50250000000000,6000000000000,-8150000000000,88600000000000,64150000000000,-18250000000000,6000000000000,65800000000000,-22750000000000,-103200000000000,6050000000000,33700000000000,-20800000000000,-69550000000000,26000000000000,-41000000000000,-46750000000000,-36894444000000,22418128000000,33526316000000,109200000000000,89750000000000,104400000000000,103700000000000,-4700000000000,-33700000000000,21550000000000,-31700000000000,-69583333000000,62633333000000,13450000000000,-12000000000000,32200000000000,-26600000000000,-66050000000000,-63800000000000,45350000000000,-23200000000000,27400000000000,-8050000000000,-7700000000000,37976316000000,-47276316000000,650000000000,84350000000000,32800000000000,250000000000,-68750000000000,53550000000000,-29250000000000,-8150000000000,37200000000000,-39150000000000,25850000000000,-26550000000000,-12800000000000,50150000000000,-14650000000000,-31450000000000,-218300000000000,-222000000000000,-17850000000000,16550000000000,-69450000000000,-52400000000000,135094444000000,364655556000000,-9500000000000,-45000000000000,43550000000000,58550000000000,-42750000000000,78023684000000,55026316000000,-16600000000000,13100000000000,39150000000000,-84750000000000,53000000000000,-7050000000000,-88650000000000,-15450000000000,86800000000000,20900000000000,-56300000000000,14750000000000,-8400000000000,-46000000000000,3750000000000,-32750000000000,41950000000000,58300000000000,43700000000000,82050000000000,-11750000000000,-20900000000000,37350000000000,22800000000000,-60800000000000,-46100000000000,8600000000000,5300000000000,-56650000000000,-29850000000000,29300000000000,-27050000000000,-7900000000000,45300000000000,-20850000000000,-58450000000000,54550000000000,-21850000000000,27844737000000,-120978070000000,18633333000000,-5500000000000,39850000000000,12000000000000,15000000000000,22250000000000,-17600000000000,48050000000000,-7350000000000,20900000000000,5950000000000,-55000000000000,-24100000000000,107250000000000,-52600000000000,-111650000000000,-52700000000000,45850000000000,-26750000000000,-24400000000000,29850000000000,-38700000000000,-51500000000000,-3292857000000,-63157143000000,12221053000000,140128947000000,37900000000000,-64200000000000,62900000000000,39650000000000,-45050000000000,-20900000000000,-42050000000000,-22750000000000,16850000000000,-36850000000000,7100000000000,20950000000000,-87700000000000,90100000000000,-54700000000000,-43800000000000],"hashrate_average_7d":4070449285422619.5,"hashrate_average_7d_count":168,"hashrate_block":498409713541666.7,"expected_blocks":5.68,"luck":2.321748051883765,"multipool":7},{"url":"https:\/\/www.f2pool.com","hashrate":28134429154211990,"miners":-1,"minpay":0.1,"id":14,"pool_id":"f2pool.com","fee":3,"feetype":"PPS%3","i":2437,"income":3.6319383325792674e-15,"blocks_nr":6,"lastblock":712676,"lastblocktime":1668738969,"country":"WL|Global","blocks_1000":421,"blocks_count":38,"hashrate_average_100_count":75,"hashrate_average_100":28214745635332230,"hashrate_average_1h":28119378093834850,"history_start":1668134625,"history_interval":3600,"history_addlast":true,"history":[22476664910000000,807530180000000,-419273990000000,-422992820000000,-219278690000000,187225100000000,-116542960000000,-230588030000000,-77797330000000,-51576010000000,-8197000000000,29289930000000,274957140000000,140108540000000,-12241130000000,-32811120000000,-48018690000000,-82707040000000,5151720000000,184205530000000,17810260000000,74957210000000,-125838460000000,23863900000000,233648750000000,67900470000000,-215169760000000,-202977370000000,561731560000000,316930000000,435650860000000,88547200000000,395192740000000,-76314350000000,259241650000000,332420000000,77545150000000,-157196720000000,2249410000000,125766460000000,-102472010000000,-96755270000000,85333270000000,138468680000000,-64646970000000,-99300950000000,43382970000000,-72358970000000,44568960000000,73876570000000,-269644730000000,14557040000000,-126219030000000,28069100000000,-97042570000000,23804350000000,6669220000000,-11115930000000,5765410000000,-412841560000000,-476689870000000,-200305710000000,-210343070000000,424388810000000,-81708710000000,69941750000000,2803330000000,105398390000000,-78713370000000,71264720000000,-553540680000000,-439649740000000,572601110000000,107371800000000,24002810000000,-276760680000000,44134460000000,251093130000000,512877420000000,873305350000000,647180660000000,-43964880000000,-61832910000000,87475570000000,-221592310000000,33854780000000,-135855670000000,254149140000000,44429770000000,23484350000000,-216092200000000,-16568310000000,93744610000000,217419460000000,102453160000000,51030110000000,-160438240000000,12335680000000,6285460000000,-152184210000000,-255968980000000,-188400640000000,-41672750000000,117584850000000,-47213890000000,-29231780000000,109678440000000,149727120000000,-92860000000,-105615770000000,-155030170000000,-244996590000000,144582760000000,-29415310000000,116209900000000,128614670000000,47662670000000,-72325730000000,133614620000000,-45121560000000,-201246090000000,-151461980000000,-207960210000000,359236760000000,213659920000000,264061820000000,4155490260000000,1050132160000000,44755790000000,-123238210000000,-97354780000000,139037600000000,87586860000000,-24305100000000,-70009790000000,-116587510000000,127957620000000,-107887200000000,-49380520000000,-179175860000000,292863970000000,524005850000000,-10106290000000,-88618220000000,-108014950000000,-152888660000000,-158208970000000,3560700000000,29242490000000,-2208393340000000,-48465750000000,13288150000000,-6642240000000,558852960000000,158678140000000,64976150000000,196410950000000,-153815410000000,24218070000000,34306600000000,-95651970000000,100412480000000,-15477110000000,-157908720000000,212635080000000,258797400000000,-180655990000000,-203173220000000],"hashrate_average_7d":24742432301547616,"hashrate_average_7d_count":168,"hashrate_block":742493306192953.5,"expected_blocks":40.18,"luck":-2.1804053012391336,"multipool":33},{"url":"https:\/\/www.poolin.com","hashrate":25766000000000000,"miners":-1,"minpay":0.01,"id":3,"pool_id":"poolin.com","fee":3,"feetype":"PPS","i":13498,"json":{"err_no":0,"data":{"shares":{"shares_1m":24.72,"shares_5m":25.766,"shares_15m":25.816,"shares_1h":25.855,"shares_unit":"P"},"reject":{"1m":0,"5m":0,"15m":0.0071,"1h":0.0054},"workers":1217,"users":363,"total_blocks":145448,"total_rewards":104722811246433}},"workers":1217,"netdiff":5199709630.96431,"nethash":"74441942698487534","income":4.20344e-15,"blocks_nr":19,"lastblock":712677,"lastblocktime":"1668739240","country":"US|United States","blocks_1000":427,"blocks_count":36,"hashrate_average_100_count":75,"hashrate_average_100":25378509375000000,"hashrate_average_1h":25636666666666668,"history_start":1668134625,"history_interval":3600,"history_addlast":true,"history":[20388300000000000,-68350000000000,77000000000000,-323800000000000,-93150000000000,200150000000000,558800000000000,176250000000000,109500000000000,237000000000000,3582100000000000,2035000000000000,139250000000000,242300000000000,9000000000000,173650000000000,-172100000000000,254350000000000,15700000000000,-232300000000000,89350000000000,171800000000000,193650000000000,-437850000000000,206450000000000,-1149800000000000,1290600000000000,370900000000000,-477381580000000,346052630000000,-703721050000000,606900000000000,-607200000000000,654850000000000,241950000000000,497850000000000,360600000000000,-223850000000000,-99300000000000,114916670000000,-99866670000000,-166865790000000,130815790000000,-133750000000000,-442800000000000,94400000000000,-519200000000000,288350000000000,-2639250000000000,-1889800000000000,3707750000000000,641010530000000,-148421060000000,-446389470000000,140850000000000,181800000000000,152550000000000,-426050000000000,-362500000000000,1057500000000000,-544600000000000,-367750000000000,889400000000000,483300000000000,-458700000000000,317000000000000,-208100000000000,-1037900000000000,-1031300000000000,758800000000000,10300000000000,-126250000000000,-1432000000000000,649000000000000,512450000000000,616850000000000,-190383330000000,-567116670000000,-806550000000000,790500000000000,554500000000000,-181800000000000,-74600000000000,6347370000000,-157347370000000,-190450000000000,494650000000000,83650000000000,-222100000000000,-34500000000000,-60650000000000,-221450000000000,16450000000000,68800000000000,233500000000000,299600000000000,-473850000000000,200800000000000,-631900000000000,688850000000000,-336000000000000,271600000000000,360800000000000,-153100000000000,53550000000000,-532950000000000,-899400000000000,400800000000000,276000000000000,-302000000000000,-102450000000000,221450000000000,158400000000000,203850000000000,622607890000000,-155607890000000,183700000000000,297950000000000,190350000000000,841100000000000,316200000000000,-6100000000000,-210700000000000,-742050000000000,231846150000000,634653850000000,-40250000000000,-132800000000000,91550000000000,56900000000000,-152450000000000,166750000000000,449450000000000,-721000000000000,26150000000000,687200000000000,-98150000000000,189550000000000,-267850000000000,29050000000000,-1088126320000000,-5222373680000000,-430200000000000,-1318850000000000,-414150000000000,-150000000000,-209850000000000,52850000000000,936964290000000,-56264290000000,71550000000000,5170950000000000,926450000000000,-98650000000000,-176200000000000,-1017050000000000,-215500000000000,72350000000000,8050000000000,-313150000000000,-494500000000000,679800000000000,73700000000000,-477200000000000,370350000000000,-77100000000000,14000000000000,229366670000000],"hashrate_average_7d":26264623292083344,"hashrate_average_7d_count":168,"hashrate_block":704958593750000,"expected_blocks":36.14,"luck":-0.14134275064463964,"multipool":15}],"hashblock":{"hashrate_average_100":57580532718665570,"blocks_count":82,"pools":[[498409713541666.7,8,62301214192708.336,"https:\/\/pool.btc.com"],[742493306192953.5,38,19539297531393.51,"https:\/\/www.f2pool.com"],[704958593750000,36,19582183159722.223,"https:\/\/www.poolin.com"]],"hashrate_block_all":702201618520311.8,"hashrate_block_min":19539297531393.51,"hashrate_block_max":62301214192708.336,"pool_hashblock_average":33807564961274.688,"hashrate_block":702201618520311.8},"time":1668739785,"hashrate":68120000000000010,"difficulty":5199709630.96431,"height":712677,"symbol":"DCR","maxhash":28134429154211990,"poolshash":72082425911954190,"nethash_estimat":70220161852031176,"poolsminers":1343,"supply":{"circulating":14513716.97159016,"total":21000000,"emission24":2564},"block_time_target":300,"block_height_ok":true,"algo":"Blake256R14","hashrate_from_diff":false,"hashrate_src":"https:\/\/lab.antpool.com","unit":"H\/s","block_time_average":300,"minerstat":[1.6066548996746e-16,19.788014305311,0.9966876,3258],"link":{"coingecko":"decred","cmc":"decred","whattomine":"152-dcr-blake (14r)","coin360":"decred-dcr","coinpaprika":"dcr-decred"},"latest_release":{"tag":"release-v1.7.5","name":"dcrd v1.7.5","t":1665429869},"price":19.86}