{"data":[{"url":"https:\/\/www.okx.com\/pool","hashrate":8810000000000,"miners":-1,"minpay":-1,"id":23,"pool_id":"okx.com","i":1612,"workers":1,"lastblock":630904,"feetype":"PPLNS","fee":2,"country":"HK|Hong Kong","hashrate_average_100_count":65,"hashrate_average_100":9120197115384.615,"hashrate_average_1h":8816250000000,"history_start":1667353244,"history_interval":3600,"history_addlast":true,"history":[10638000000000,207500000000,-781500000000,-1308000000000,-141000000000,-261842105000,403842105000,-612500000000,663000000000,237000000000,-84000000000,-357500000000,575500000000,273000000000,1026500000000,-856000000000,-875000000000,112000000000,-355500000000,762500000000,1882500000000,-1750000000000,-536000000000,5500000000,-760000000000,731500000000,959500000000,-168500000000,-534000000000,-1317000000000,1299500000000,-495500000000,844500000000,-84000000000,25500000000,-616500000000,85500000000,-26500000000,-327500000000,264000000000,530500000000,-574000000000,136000000000,-40500000000,340000000000,1349500000000,-1962000000000,221500000000,-221000000000,574000000000,342500000000,-725000000000,575500000000,-279710526000,90710526000,-114000000000,418000000000,-506000000000,548000000000,-372500000000,-99500000000,170000000000,-347000000000,620000000000,254000000000,-1161000000000,-548500000000,219894737000,1597605263000,-1724500000000,2235500000000,-822500000000,175500000000,794000000000,-662000000000,357000000000,-1561000000000,837205882000,-425816993000,488479532000,-1221368421000,700500000000,-935000000000,223500000000,672500000000,-262500000000,-106500000000,284000000000,917000000000,-775500000000,-287000000000,338000000000,-166500000000,651000000000,-68500000000,-832500000000,200500000000,734000000000,-1038500000000,1488000000000,-822500000000,183333333000,-373333333000,826000000000,-2600000000000,2663000000000,732000000000,-1073000000000,935000000000,-1150500000000,163500000000,188000000000,-641500000000,-883500000000,2341000000000,-2356500000000,1383500000000,-1304500000000,846000000000,-647500000000,660500000000,-525000000000,262000000000,-464500000000,561000000000,241666667000,-1410666667000,1679000000000,-1412000000000,92000000000,397000000000,1196000000000,-905500000000,1007000000000,-749500000000,79500000000,-188500000000,661500000000,722500000000,-1373000000000,-297500000000,139000000000,1202000000000,-970000000000,-223500000000,576500000000,-154500000000,1070500000000,-2109000000000,-569071429000,1639571429000,-190000000000,876000000000,-1219000000000,578500000000,-402000000000,-545000000000,1328500000000,-482500000000,-648500000000,756000000000,511500000000,-276500000000,-1574000000000,2018500000000,-750500000000,242500000000,-649000000000,5750000000],"hashrate_average_7d":9085665585023.664,"hashrate_average_7d_count":169,"expected_blocks":0.01,"multipool":5},{"url":"https:\/\/www2.coinmine.pl\/dcr","hashrate":964847262435901,"miners":-1,"minpay":0.05,"id":5,"pool_id":"coinmine.pl","i":12372,"workers":32,"blocks_nr":5,"lastblock":710081,"lastblocktime":"1667955457","fee":1,"feetype":"PPLNS","height":710108,"country":"WL|EU , US , Asia","blocks_1000":11,"blocks_count":2,"hashrate_average_100_count":65,"hashrate_average_100":943973315255349.8,"hashrate_average_1h":1016321350541421.2,"history_start":1667353244,"history_interval":3600,"history_addlast":true,"history":[609539412600000,12187193600000,1198115000000,-1085379000000,-15898331600000,18108305200000,4932308500000,-18142050900000,6483533000000,37416945600000,-25204767400000,-9375050100000,8583330000000,-93625329600000,-23846253400000,20122457600000,3482944000000,-22232728400000,-15815547700000,-206540500000,81633700000,10035699600000,-96143900000,-6444647500000,12899285500000,-26900381500000,17321640800000,16514177500000,13999412400000,104479751200000,-23131992500000,-8399182500000,19568060600000,-7855930100000,2815798000000,-13357626600000,1336387400000,4851885000000,-51693657600000,23147917800000,24560408500000,-65479274500000,-14635607400000,2634798100000,-14033765100000,10915897800000,1399538100000,6121579900000,-27095621100000,13593078000000,-12688463700000,15545003100000,4408702300000,8841104500000,-18206322800000,-9144574300000,37052230400000,-17747157300000,6958850400000,10207516200000,-33130950200000,18792426300000,4199391300000,-11214644700000,-5833904800000,4119887600000,12980541200000,-10890995700000,414747200000,1887013300000,8038130900000,-13819461000000,-7695317400000,-91607288400000,1864266800000,-32599714500000,30262667200000,-10092336300000,-4070976000000,118809471000000,153227233400000,60979300800000,1526655800000,-5191477800000,40234119000000,-45840770600000,3189583300000,7294064000000,-5428051200000,-13925404000000,-1791830900000,-28026207700000,28490925600000,-5113774000000,-28552956900000,30136971400000,5959547100000,-3604745600000,8778951600000,-2893782800000,10566578600000,51749048900000,50102986600000,-3956535500000,6769979900000,5196125400000,-22055503400000,22251775300000,4375625000000,-5399759400000,5348544900000,-20195230500000,24309977000000,-14890801300000,-11942930900000,8300654500000,-2767616500000,-12494195600000,14925621200000,3431470300000,-22743681500000,10741335200000,-70468768800000,-230023763200000,-11832716300000,1902111600000,11926113200000,118388219700000,184044233000000,11831726700000,14849356800000,-62570189500000,33979360800000,15291114900000,39508889800000,-20559972800000,-2891928900000,-24159415900000,188420000000,-15992402800000,10338063400000,-9668771600000,24351186400000,-200672000000,-6859864500000,-5448835000000,23635740300000,16574821000000,67787756300000,12928317400000,1610458300000,-44204184200000,15092868500000,-3835640600000,13208116800000,-16193831800000,7132442300000,-1507190200000,2876265400000,-15598130700000,34224437700000,-10468376000000,-981770200000,16958827800000,-8108136700000,-28884077500000,16784849600000,-7059254400000,87938199500000],"hashrate_average_7d":690015596857988.1,"hashrate_average_7d_count":169,"hashrate_block":471986657627674.9,"expected_blocks":1.2,"luck":0.7958682372582424,"multipool":6},{"url":"https:\/\/lab.antpool.com","hashrate":3780000000000000,"miners":-1,"minpay":0.1,"id":11,"pool_id":"antpool.com","i":2063,"nethash":90440000000000000,"netdiff":4947630194,"feetype":"PPS","fee":3,"income":3.918024e-15,"lastblock":710053,"lastblocktime":"1667950017","country":"WL|Global","blocks_1000":1,"blocks_count":1,"hashrate_average_100_count":65,"hashrate_average_100":3702673076923077,"hashrate_average_1h":3885000000000000,"history_start":1667353244,"history_interval":3600,"history_addlast":true,"history":[4350500000000000,16500000000000,-32500000000000,81000000000000,-60000000000000,55026316000000,-79526316000000,74500000000000,-186500000000000,31500000000000,40500000000000,36500000000000,-6000000000000,-29500000000000,79000000000000,-131500000000000,46500000000000,-28000000000000,90000000000000,4000000000000,43500000000000,25500000000000,67000000000000,-156500000000000,-146000000000000,43000000000000,-32500000000000,-30000000000000,-3000000000000,-68500000000000,68500000000000,40500000000000,-34000000000000,-5500000000000,-3500000000000,4000000000000,-3500000000000,-79500000000000,92500000000000,-89000000000000,58500000000000,-23000000000000,18000000000000,-33500000000000,33500000000000,15500000000000,-32000000000000,-17500000000000,76500000000000,17500000000000,-48000000000000,4000000000000,35000000000000,-112657895000000,57657895000000,32000000000000,-37000000000000,7000000000000,-53500000000000,15500000000000,-189000000000000,17500000000000,215500000000000,-58000000000000,31000000000000,-92000000000000,61000000000000,67078947000000,-20078947000000,19000000000000,-42500000000000,10000000000000,-18000000000000,81500000000000,-130500000000000,17000000000000,67500000000000,94500000000000,191578947000000,37368421000000,-55947368000000,-196000000000000,-101000000000000,-80500000000000,104500000000000,-26000000000000,53000000000000,-86500000000000,2500000000000,-13500000000000,37500000000000,-99500000000000,150500000000000,1000000000000,-13500000000000,-14000000000000,24000000000000,6500000000000,-60000000000000,-80500000000000,9000000000000,28250000000000,119250000000000,-82000000000000,-30000000000000,17500000000000,47000000000000,-56000000000000,-22500000000000,11500000000000,-26500000000000,-10000000000000,15000000000000,22000000000000,52500000000000,-9500000000000,-23000000000000,19000000000000,-9500000000000,-14000000000000,-15000000000000,-25000000000000,-978500000000000,1061000000000000,18000000000000,52000000000000,41000000000000,55500000000000,-83000000000000,-13000000000000,-169500000000000,-181000000000000,-5000000000000,500000000000,-33500000000000,-139500000000000,33500000000000,47000000000000,23500000000000,23000000000000,-54500000000000,52000000000000,-84000000000000,-72500000000000,228500000000000,559000000000000,0,-346500000000000,-692500000000000,706857143000000,-86857143000000,-26000000000000,-2500000000000,62500000000000,-8000000000000,-20000000000000,4000000000000,-35500000000000,-81000000000000,5000000000000,-24500000000000,-49500000000000,-284500000000000,107000000000000,63000000000000,-50500000000000,108000000000000,112500000000000,14000000000000],"hashrate_average_7d":4086287460508875,"hashrate_average_7d_count":169,"expected_blocks":4.72,"luck":-3.7231274305310027,"multipool":16},{"url":"https:\/\/pool.btc.com","hashrate":3483000000000000,"miners":-1,"minpay":0.1,"id":4,"pool_id":"pool.btc.com","feetype":"PPS","i":14386,"workers":86,"income":4.0391980210312e-15,"i_blocks":14428,"json_blocks":{"err_no":0,"data":{"blocks":{"current_page":1,"data":[{"height":710091,"is_orphaned":0,"hash":"00000000000000001eb1c6f1372ca33510ac8d0c8282c549d915ed7a718fc6ea","rewards":"0.99343280","size":14380,"prev_hash":"00000000000000002cd3fb062d61b729b3afd3b062817ad5373f46b681f088d7","bits":419487290,"version":9,"created_at":1667958089,"region_id":34,"region_name":"America"},{"height":710082,"is_orphaned":0,"hash":"000000000000000082b9deceeb5d2d5134042975b839bb4f2202ca62bd839f95","rewards":"0.99343280","size":8080,"prev_hash":"0000000000000000c9b39003bc5bab17c1f0129f37bb85535e6feae642806580","bits":419487290,"version":9,"created_at":1667955527,"region_id":34,"region_name":"America"},{"height":710069,"is_orphaned":0,"hash":"0000000000000000342aacb8501fafb8c8c953d2ce3b4af475d452ba4df2ccec","rewards":"0.99343280","size":28946,"prev_hash":"0000000000000000b23692a2d5f66316c1718d1984dcd15c6c41110ba49cebfd","bits":419487290,"version":9,"created_at":1667952199,"region_id":36,"region_name":"BitDeer"},{"height":710067,"is_orphaned":0,"hash":"0000000000000000ad1e16a9a8ed330b5e08ac0074f2c2679a758d470c6456a3","rewards":"0.99343280","size":6108,"prev_hash":"000000000000000092b62b2729a64725ac84d94c828ba12a8d4676a829438187","bits":419487290,"version":9,"created_at":1667951787,"region_id":34,"region_name":"America"},{"height":710036,"is_orphaned":0,"hash":"0000000000000000786d421ba94621ba7a47de02c2af9e9d08b1cede61839408","rewards":"0.99343280","size":13015,"prev_hash":"0000000000000000887c6e496b1bcac0a77b59da95e470785faac65f1e61ca0f","bits":419490635,"version":9,"created_at":1667946201,"region_id":34,"region_name":"America"},{"height":710029,"is_orphaned":0,"hash":"0000000000000000d29639ba531aab0de1b3b83dc489eff38971b02293c7f0d3","rewards":"0.99343280","size":44114,"prev_hash":"000000000000000094d6bb86c55ead1bddbaacc129ce7c272d2992a2e58aaf06","bits":419490635,"version":9,"created_at":1667944833,"region_id":36,"region_name":"BitDeer"},{"height":710020,"is_orphaned":0,"hash":"0000000000000000a27aa5a07aa1108ed7c358bfb13aa3484897ba637fd515d5","rewards":"0.99343280","size":2157,"prev_hash":"00000000000000003245d0a3507a64d6a0a901053dd2bb2265f3d33e0efa2a66","bits":419490635,"version":9,"created_at":1667942530,"region_id":34,"region_name":"America"},{"height":710018,"is_orphaned":0,"hash":"000000000000000096bf32136b8de6e1e1257a0fb99d0a2ab2b012e3863482c5","rewards":"0.99343280","size":2911,"prev_hash":"00000000000000007eb71a605e8936142093546844ac6b0a0fcfddbfa2387c8a","bits":419490635,"version":9,"created_at":1667942377,"region_id":36,"region_name":"BitDeer"},{"height":710010,"is_orphaned":0,"hash":"0000000000000000de6c3e1dd492c40190a28e2bb761f59c46824b63b9631e23","rewards":"0.99343280","size":15662,"prev_hash":"00000000000000000bbe07a4ac965fbf0c38fa9b2157ad36e36d4ea55e16291e","bits":419490635,"version":9,"created_at":1667941109,"region_id":34,"region_name":"America"},{"height":709961,"is_orphaned":0,"hash":"0000000000000000635ed2b7fcab6e7c5d5902857671f4bf2ce6096adb93d791","rewards":"0.99343280","size":8016,"prev_hash":"000000000000000086e40f67bb3edadb194c24ced5aef0bf705998fd234974bc","bits":419490635,"version":9,"created_at":1667926034,"region_id":34,"region_name":"America"}],"first_page_url":"https:\/\/eu-api.connectbtc.com\/\/public\/v1\/pool\/blocks\/merge?order_by=desc&page_size=10&page=1","from":1,"last_page":2221,"last_page_url":"https:\/\/eu-api.connectbtc.com\/\/public\/v1\/pool\/blocks\/merge?order_by=desc&page_size=10&page=2221","next_page_url":"https:\/\/eu-api.connectbtc.com\/\/public\/v1\/pool\/blocks\/merge?order_by=desc&page_size=10&page=2","path":"https:\/\/eu-api.connectbtc.com\/\/public\/v1\/pool\/blocks\/merge","per_page":10,"prev_page_url":null,"to":10,"total":22207},"blocks_count":22207,"rewards_count":"190591.94438192"},"trace_id":"44fe0922-ad6e-4005-880a-226207c89e88"},"blocks_nr":10,"lastblock":710091,"lastblocktime":"1667958056","country":"WL|CN , EU , US","blocks_1000":45,"blocks_count":9,"hashrate_average_100_count":65,"hashrate_average_100":3582677884615384.5,"hashrate_average_1h":3488750000000000,"history_start":1667353244,"history_interval":3600,"history_addlast":true,"history":[4040250000000000,700000000000,12350000000000,16050000000000,-44100000000000,17118421000000,181579000000,-45850000000000,11950000000000,9800000000000,-18450000000000,-35250000000000,34000000000000,13000000000000,51250000000000,36650000000000,-73250000000000,-62950000000000,-124800000000000,8750000000000,-18250000000000,12900000000000,31850000000000,-37500000000000,-33250000000000,-11100000000000,-29000000000000,7450000000000,47900000000000,-27900000000000,-7050000000000,15400000000000,-30750000000000,-54200000000000,12950000000000,75350000000000,43850000000000,-33550000000000,-25950000000000,11350000000000,-3450000000000,19500000000000,-64650000000000,1650000000000,62050000000000,-11750000000000,-22450000000000,-96000000000000,-38950000000000,49750000000000,10150000000000,21900000000000,17500000000000,3586842000000,-50936842000000,-25500000000000,-12750000000000,65650000000000,-89000000000000,350000000000,18950000000000,18550000000000,63300000000000,29500000000000,45950000000000,11150000000000,-67450000000000,-24342105000000,-104907895000000,16850000000000,-8400000000000,15150000000000,48200000000000,-13950000000000,51400000000000,3200000000000,23950000000000,-8355882000000,-50715171000000,-18728947000000,65000000000000,35150000000000,-37150000000000,-34700000000000,36000000000000,54150000000000,24800000000000,20650000000000,71800000000000,-40400000000000,-54400000000000,-59150000000000,-39450000000000,12950000000000,79000000000000,-52500000000000,-71700000000000,-39300000000000,-16350000000000,17250000000000,20150000000000,-42650000000000,-16300000000000,63100000000000,82650000000000,-13950000000000,5650000000000,-8000000000000,36950000000000,16250000000000,-39900000000000,-37850000000000,4550000000000,-22150000000000,-23750000000000,-28450000000000,-29550000000000,-13150000000000,114200000000000,3500000000000,9400000000000,-68250000000000,-57000000000000,-23400000000000,5100000000000,67950000000000,35450000000000,-22100000000000,6750000000000,-28250000000000,30500000000000,-39900000000000,14050000000000,-69950000000000,-23650000000000,62100000000000,44800000000000,-4250000000000,-117200000000000,34900000000000,-22450000000000,27750000000000,28200000000000,-24900000000000,0,16900000000000,28500000000000,10650000000000,-90250000000000,26178571000000,-1328571000000,-15500000000000,59750000000000,116250000000000,-40300000000000,-29400000000000,-12700000000000,-49350000000000,25800000000000,122450000000000,-47950000000000,-81800000000000,-30050000000000,14050000000000,-23500000000000,-15350000000000,14700000000000,-29400000000000,-72050000000000],"hashrate_average_7d":3739310738426036.5,"hashrate_average_7d_count":169,"hashrate_block":398075320512820.5,"expected_blocks":4.57,"luck":4.4299383607354725,"multipool":7},{"url":"https:\/\/www.f2pool.com","hashrate":34277646104343080,"miners":-1,"minpay":0.1,"id":14,"pool_id":"f2pool.com","fee":3,"feetype":"PPS%3","i":2445,"income":3.816983886433801e-15,"blocks_nr":7,"lastblock":710108,"lastblocktime":1667962616,"country":"WL|Global","blocks_1000":518,"blocks_count":32,"hashrate_average_100_count":65,"hashrate_average_100":34185136268087864,"hashrate_average_1h":34343585893530156,"history_start":1667353244,"history_interval":3600,"history_addlast":true,"history":[52668494230000000,638574000000000,-322031590000000,-86557270000000,-2382166790000000,4087040370000000,2065304170000000,20560470000000,-13404820000000,161894170000000,-107551850000000,348071830000000,-789245400000000,627697670000000,-672286050000000,420918820000000,89723930000000,-175070090000000,314286840000000,-2164042290000000,986679420000000,-2001348220000000,1656619270000000,-2212356160000000,3681286920000000,-1033346310000000,-281404660000000,739915410000000,-203453310000000,-864164140000000,1099739110000000,-311237530000000,287015920000000,392493510000000,127815080000000,-239992880000000,-485128380000000,276147920000000,-757013490000000,761149190000000,-665034240000000,-1402379000000000,-444853530000000,1673817100000000,625591160000000,-113450940000000,-5943023340000000,-4638767790000000,711275910000000,2348284540000000,7483454150000000,659184830000000,-415620730000000,451120020000000,-2591259900000000,-5605630580000000,720808530000000,1384254220000000,6299577430000000,-553809970000000,-862841380000000,716821750000000,764046270000000,139318980000000,-1109852180000000,933613680000000,465450010000000,-124190080000000,-191849070000000,-2344178510000000,-8828232800000000,515881300000000,-194811830000000,-1068303320000000,4211743500000000,5904122140000000,176836230000000,117057470000000,-143154270000000,-735284810000000,2550504980000000,321013300000000,-645291310000000,473797150000000,-695795390000000,823925460000000,-305005620000000,-132879400000000,-381422070000000,1363010000000000,-58650810000000,-13141527520000000,13432778150000000,-862588220000000,-10530284040000000,16168420000000,-140570130000000,2662181340000000,7897595550000000,560889510000000,-330192550000000,501249180000000,-249051310000000,-868280210000000,1392114270000000,-111065980000000,-118031550000000,478020400000000,-142855230000000,311772740000000,-209408010000000,-166739660000000,186406980000000,-1071811500000000,859376130000000,175931700000000,-145016740000000,-5688665570000000,-6295586410000000,969154530000000,51325220000000,1240521330000000,8268778560000000,1110616650000000,1019022240000000,508478670000000,42263330000000,-8257841270000000,-14423642340000000,-2448685260000000,-150275850000000,-244080880000000,-2128079130000000,1994554810000000,314607500000000,-160225770000000,-91570350000000,153853680000000,-20395800000000,-250932950000000,22682620000000,139455200000000,76690830000000,174557530000000,-3100520590000000,-7622663560000000,6746312370000000,3940758620000000,29206690000000,-194215100000000,9106450000000,289871670000000,-124055970000000,247420000000,-79860560000000,-24862440000000,139611280000000,-44836340000000,61952830000000,12351760000000,236792430000000,-223121560000000,-113821700000000,-57608610000000,37618030000000,-109483580000000,-3013820000000,167363250000000,68249820000000],"hashrate_average_7d":49821557273668650,"hashrate_average_7d_count":169,"hashrate_block":1068285508377745.8,"expected_blocks":43.61,"luck":-11.606538160376822,"multipool":33},{"url":"https:\/\/www.poolin.com","hashrate":35199000000000000,"miners":-1,"minpay":0.01,"id":3,"pool_id":"poolin.com","fee":3,"feetype":"PPS","i":13447,"json":{"err_no":0,"data":{"shares":{"shares_1m":34.234,"shares_5m":35.199,"shares_15m":35.643,"shares_1h":35.117,"shares_unit":"P"},"reject":{"1m":0,"5m":0,"15m":0.0042,"1h":0.0054},"workers":1416,"users":376,"total_blocks":144315,"total_rewards":104610831501217}},"workers":1416,"netdiff":4947630194.117771,"nethash":"70833032919773784","income":4.4176e-15,"blocks_nr":19,"lastblock":710107,"lastblocktime":"1667962318","country":"US|United States","blocks_1000":377,"blocks_count":52,"hashrate_average_100_count":65,"hashrate_average_100":35139089423076924,"hashrate_average_1h":34823250000000000,"history_start":1667353244,"history_interval":3600,"history_addlast":true,"history":[27860631580000000,52418420000000,70100000000000,-153150000000000,359750000000000,-182644740000000,838094740000000,274300000000000,-524800000000000,262200000000000,-511350000000000,-70150000000000,-66800000000000,579800000000000,-58250000000000,10050000000000,35600000000000,-131850000000000,-176900000000000,30750000000000,114950000000000,13950000000000,-292900000000000,-1125800000000000,882050000000000,-344550000000000,-768289470000000,281239470000000,-216500000000000,-166000000000000,175950000000000,46450000000000,-118500000000000,-71800000000000,370600000000000,1950000000000,-161750000000000,-2950000000000,99800000000000,18650000000000,208000000000000,116650000000000,-101550000000000,-53600000000000,-280550000000000,-14350000000000,-409055260000000,-237894740000000,304650000000000,52850000000000,-482650000000000,22100000000000,-1238002630000000,61789470000000,1036713160000000,-355050000000000,-44450000000000,-494750000000000,113650000000000,550500000000000,-283500000000000,581850000000000,363150000000000,-26200000000000,40000000000000,-257300000000000,134900000000000,-442828950000000,-630271050000000,283150000000000,326250000000000,-490700000000000,-2034450000000000,2686350000000000,336950000000000,269700000000000,-372400000000000,-104647060000000,2804950000000,325592110000000,1050000000000,-104000000000000,110276920000000,78423080000000,49900000000000,-49150000000000,-215300000000000,71450000000000,-167000000000000,179750000000000,0,-177600000000000,-36850000000000,-663200000000000,-286700000000000,376300000000000,-34450000000000,-263000000000000,2441300000000000,5128600000000000,-188950000000000,-203975000000000,151575000000000,418550000000000,602650000000000,-570550000000000,-49750000000000,393550000000000,611700000000000,-22750000000000,-5460600000000000,-1775000000000000,-240150000000000,-282700000000000,428350000000000,-774050000000000,335250000000000,-17400000000000,-671150000000000,937500000000000,-185650000000000,-54600000000000,-50500000000000,438650000000000,-138650000000000,17833330000000,231866670000000,-94200000000000,657100000000000,-70400000000000,-44800000000000,-149650000000000,52450000000000,-45300000000000,105950000000000,-224000000000000,142200000000000,76350000000000,43750000000000,99800000000000,-228950000000000,424100000000000,543900000000000,-227600000000000,-1548150000000000,914850000000000,519250000000000,120900000000000,272500000000000,1287350000000000,6186600000000000,-657300000000000,699800000000000,174000000000000,-82250000000000,-984850000000000,342700000000000,-94350000000000,-570650000000000,922600000000000,-152700000000000,-195650000000000,277200000000000,-99150000000000,-412950000000000,-92300000000000,358050000000000,-655100000000000,213550000000000],"hashrate_average_7d":28403606470118330,"hashrate_average_7d_count":169,"hashrate_block":675751719674556.2,"expected_blocks":44.82,"luck":7.176599799641345,"multipool":15}],"hashblock":{"hashrate_average_100":72906903575780180,"blocks_count":93,"pools":[[471986657627674.9,2,235993328813837.44,"https:\/\/www2.coinmine.pl\/dcr"],[398075320512820.5,9,44230591168091.164,"https:\/\/pool.btc.com"],[1068285508377745.8,32,33383922136804.555,"https:\/\/www.f2pool.com"],[675751719674556.2,52,12995225378356.852,"https:\/\/www.poolin.com"]],"hashrate_block_all":777377651484584.4,"hashrate_block_min":12995225378356.852,"hashrate_block_max":235993328813837.44,"pool_hashblock_average":81650766874272.5,"hashrate_block":783945199739571.8},"time":1667962906,"hashrate":90440000000000000,"difficulty":4947630194.117771,"height":710108,"symbol":"DCR","maxhash":35199000000000000,"poolshash":77713303366778980,"nethash_estimat":78394519973957170,"poolsminers":1535,"supply":{"circulating":14490867.61981704,"total":21000000,"emission24":2825},"block_time_target":300,"block_height_ok":true,"algo":"Blake256R14","hashrate_from_diff":false,"hashrate_src":"https:\/\/lab.antpool.com","unit":"H\/s","block_time_average":271.7,"minerstat":[1.7455538030836e-16,23.322482720256,1.03035725,1819],"link":{"coingecko":"decred","cmc":"decred","whattomine":"152-dcr-blake (14r)","coin360":"decred-dcr","coinpaprika":"dcr-decred"},"latest_release":{"tag":"release-v1.7.5","name":"dcrd v1.7.5","t":1665429869},"price":23.25}