{"data":[{"url":"https:\/\/www.okx.com\/pool","hashrate":8960000000000,"miners":-1,"minpay":-1,"id":23,"pool_id":"okx.com","i":1606,"workers":1,"lastblock":630904,"feetype":"PPLNS","fee":2,"country":"HK|Hong Kong","hashrate_average_100_count":77,"hashrate_average_100":9196124188311.688,"hashrate_average_1h":8974000000000,"history_start":1667785244,"history_interval":3600,"history_addlast":true,"history":[9061500000000,-525000000000,262000000000,-464500000000,561000000000,241666667000,-1410666667000,1679000000000,-1412000000000,92000000000,397000000000,1196000000000,-905500000000,1007000000000,-749500000000,79500000000,-188500000000,661500000000,722500000000,-1373000000000,-297500000000,139000000000,1202000000000,-970000000000,-223500000000,576500000000,-154500000000,1070500000000,-2109000000000,-569071429000,1639571429000,-190000000000,876000000000,-1219000000000,578500000000,-402000000000,-545000000000,1328500000000,-482500000000,-648500000000,756000000000,511500000000,-276500000000,-1574000000000,2018500000000,-750500000000,242500000000,-649000000000,-217000000000,-255000000000,553000000000,305500000000,226000000000,-772285714000,1273730158000,-901944444000,-703000000000,-273000000000,1068500000000,-916500000000,464000000000,801944444000,-99444444000,-683500000000,-187500000000,1727500000000,-776500000000,-238000000000,-190500000000,554500000000,-888500000000,233000000000,895026316000,-1102631579000,960605263000,-1750500000000,1942500000000,-347166667000,-651833333000,77500000000,-120500000000,778500000000,-100000000000,-186500000000,-630000000000,-36000000000,400000000000,452500000000,542000000000,-1349000000000,142000000000,204500000000,-339000000000,-135500000000,298000000000,-84500000000,583500000000,534500000000,-456000000000,-175000000000,-256500000000,-984333333000,634833333000,4829000000000,-3537000000000,-1173000000000,292000000000,679500000000,-1940000000000,1737500000000,-548500000000,-861500000000,-478000000000,2032500000000,1318000000000,-724500000000,-2169500000000,171000000000,-115000000000,303000000000,366000000000,-283000000000,1030000000000,-1031500000000,-617000000000,1206277778000,271432748000,-661210526000,1000500000000,-364500000000,116500000000,-33000000000,-18500000000,-125500000000,-268500000000,-220000000000,718333333000,1213166667000,-2560973684000,519473684000,-46000000000,-415000000000,-16500000000,683500000000,-418000000000,-223500000000,-382500000000,90500000000,1072500000000,1273947370000,-1133447370000,-628500000000,848500000000,-1404500000000,333000000000,9000000000,-16000000000,259000000000,-216500000000,731500000000,1083500000000,-1103500000000,-14500000000,-1023000000000,2252000000000,-572000000000,-1298000000000,553500000000,-35000000000],"hashrate_average_7d":9029085294603.55,"hashrate_average_7d_count":169,"expected_blocks":0.02,"multipool":5},{"url":"https:\/\/www2.coinmine.pl\/dcr","hashrate":930507776348652,"miners":-1,"minpay":0.05,"id":5,"pool_id":"coinmine.pl","i":12380,"workers":35,"blocks_nr":5,"lastblock":711473,"lastblocktime":"1668385083","fee":1,"feetype":"PPLNS","height":711501,"country":"WL|EU , US , Asia","blocks_1000":15,"blocks_count":2,"hashrate_average_100_count":77,"hashrate_average_100":958287168536780.6,"hashrate_average_1h":908102916989692.8,"history_start":1667785244,"history_interval":3600,"history_addlast":true,"history":[819746012200000,10741335200000,-70468768800000,-230023763200000,-11832716300000,1902111600000,11926113200000,118388219700000,184044233000000,11831726700000,14849356800000,-62570189500000,33979360800000,15291114900000,39508889800000,-20559972800000,-2891928900000,-24159415900000,188420000000,-15992402800000,10338063400000,-9668771600000,24351186400000,-200672000000,-6859864500000,-5448835000000,23635740300000,16574821000000,67787756300000,12928317400000,1610458300000,-44204184200000,15092868500000,-3835640600000,13208116800000,-16193831800000,7132442300000,-1507190200000,2876265400000,-15598130700000,34224437700000,-10468376000000,-981770200000,16958827800000,-8108136700000,-28884077500000,16784849600000,-7059254400000,46462809600000,-43610489000000,6883464100000,9341741400000,-29273633400000,12517667900000,22358507500000,-75940723600000,25965168300000,31061072000000,-50315652300000,8095417500000,6954611300000,-32922789600000,19368295200000,40024802200000,-4194956900000,-34135851500000,-16479864200000,-5911956800000,14705320700000,-32169279500000,12048488900000,-7858091400000,-4302539600000,36437966100000,-22393549800000,10815111000000,7940993500000,-28408035700000,55454731600000,-20915496600000,-122402554400000,28322697900000,-7089148800000,-18743423000000,29202021800000,2442921000000,-12160845900000,-130817103100000,138603834500000,26007337800000,-3749123500000,-17021280100000,96706144700000,19575646200000,-1694127600000,-24541837700000,10340143700000,-40602375600000,4188083800000,32963941400000,-5759929800000,11485589200000,24008622500000,-7050883400000,-24629343600000,27760751000000,5583992000000,-11108630500000,-17866693700000,-2454974500000,13379699300000,-10795998700000,-625989200000,-7885705000000,43969592000000,-17752206500000,-12886063200000,-20727866700000,21150824800000,-20942029800000,40368141300000,-25203283000000,-499748200000,15399972100000,7949737400000,-30954692200000,4656672600000,9905087900000,-40124270500000,47852541600000,-25107272500000,31379310700000,-501511600000,-45122632700000,432388700000,30292297200000,-51193790800000,41245369700000,5610776400000,-4931420600000,17792807700000,-36398425300000,-10738631500000,23703417000000,27110804200000,4089801200000,2992984500000,-22449322400000,7855238000000,12388085400000,2168830400000,77935510600000,-19874950700000,40965280700000,-18181736000000,27046353000000,-93128889900000,10739245900000,-5775738600000,-8660060900000,19728511000000,-9472914900000,24131477800000,-16755875100000,-12387663900000,-8300691200000,59043239200000,-65453189300000,-15834373100000],"hashrate_average_7d":882715131375147.9,"hashrate_average_7d_count":169,"hashrate_block":479143584268390.3,"expected_blocks":1.63,"luck":0.36925739920173184,"multipool":6},{"url":"https:\/\/lab.antpool.com","hashrate":3940000000000000,"miners":-1,"minpay":0.1,"id":11,"pool_id":"antpool.com","i":2057,"nethash":65450000000000000,"netdiff":4184566510,"feetype":"PPS","fee":3,"income":4.6324774999999996e-15,"lastblock":711136,"lastblocktime":"1668281238","country":"WL|Global","blocks_1000":1,"hashrate_average_100_count":77,"hashrate_average_100":3904455154220779,"hashrate_average_1h":3992000000000000,"history_start":1667785244,"history_interval":3600,"history_addlast":true,"history":[4054500000000000,-25000000000000,-978500000000000,1061000000000000,18000000000000,52000000000000,41000000000000,55500000000000,-83000000000000,-13000000000000,-169500000000000,-181000000000000,-5000000000000,500000000000,-33500000000000,-139500000000000,33500000000000,47000000000000,23500000000000,23000000000000,-54500000000000,52000000000000,-84000000000000,-72500000000000,228500000000000,559000000000000,0,-346500000000000,-692500000000000,706857143000000,-86857143000000,-26000000000000,-2500000000000,62500000000000,-8000000000000,-20000000000000,4000000000000,-35500000000000,-81000000000000,5000000000000,-24500000000000,-49500000000000,-284500000000000,107000000000000,63000000000000,-50500000000000,108000000000000,112500000000000,57000000000000,57500000000000,1000000000000,-107000000000000,-64500000000000,61428571000000,-84323308000000,-32605263000000,49500000000000,46000000000000,-8500000000000,-4000000000000,10000000000000,-6944444000000,12944444000000,-37500000000000,-2000000000000,-54500000000000,83000000000000,-65500000000000,-69500000000000,-89000000000000,24500000000000,-19000000000000,264000000000000,-80000000000000,193500000000000,-26500000000000,-57000000000000,48111111000000,89888889000000,-92500000000000,-15000000000000,49000000000000,-128000000000000,6500000000000,9000000000000,-19500000000000,61500000000000,-184000000000000,-17000000000000,500000000000,-20500000000000,-76000000000000,-77500000000000,-114000000000000,-43000000000000,173000000000000,179500000000000,114500000000000,38500000000000,33000000000000,64500000000000,45944444000000,-63444444000000,-34500000000000,-22000000000000,-28000000000000,22000000000000,-34500000000000,31000000000000,40000000000000,-37000000000000,-93500000000000,-2500000000000,5000000000000,25000000000000,-6000000000000,-38500000000000,42000000000000,-76500000000000,36000000000000,55500000000000,96000000000000,175500000000000,132000000000000,6500000000000,206055556000000,83391812000000,3552632000000,45000000000000,-99000000000000,196500000000000,-55000000000000,-26500000000000,-130000000000000,120000000000000,-42000000000000,-31500000000000,18000000000000,19368421000000,-23868421000000,5000000000000,10500000000000,-9000000000000,1500000000000,-39500000000000,54500000000000,-38500000000000,-133000000000000,-236500000000000,9394737000000,20105263000000,47500000000000,-100500000000000,-9500000000000,-94500000000000,78500000000000,9500000000000,11000000000000,23000000000000,-27500000000000,-141000000000000,-186500000000000,16500000000000,38500000000000,58500000000000,-33500000000000,23000000000000,8500000000000,62500000000000],"hashrate_average_7d":3989004545384613,"hashrate_average_7d_count":169,"expected_blocks":6.64,"multipool":16},{"url":"https:\/\/pool.btc.com","hashrate":3727000000000000,"miners":-1,"minpay":0.1,"id":4,"pool_id":"pool.btc.com","feetype":"PPS","i":14426,"workers":87,"income":4.775753483681599e-15,"i_blocks":14468,"json_blocks":{"err_no":0,"data":{"blocks":{"current_page":1,"data":[{"height":711480,"is_orphaned":0,"hash":"00000000000000004d811ba45fbaa4c424abe1385b975b5e5a59d8f1f42e3c05","rewards":"0.99343280","size":46114,"prev_hash":"000000000000000080f5f3695b787469345b35c4ed1713ef04accf3aef85b964","bits":419497664,"version":9,"created_at":1668386387,"region_id":34,"region_name":"America"},{"height":711463,"is_orphaned":0,"hash":"0000000000000000c3831a53df8a399a051ad6f669206c37881b3b4d9be98e1d","rewards":"0.99343280","size":2658,"prev_hash":"0000000000000000cc66331a6d1860c85aa84a52b76d4999767a8d8d57f449c6","bits":419497664,"version":9,"created_at":1668381350,"region_id":34,"region_name":"America"},{"height":711460,"is_orphaned":0,"hash":"0000000000000000e5faf9630b804c56047a2985ced7dd11b9c6147c2d325c14","rewards":"0.99343280","size":28008,"prev_hash":"0000000000000000574a0fbd3c3279a0c021377fc4e720c918d7212e25995d67","bits":419497664,"version":9,"created_at":1668380283,"region_id":34,"region_name":"America"},{"height":711449,"is_orphaned":0,"hash":"0000000000000000420648af9354b9beb77c52501efd9f94c996743e1348128d","rewards":"0.99343280","size":7114,"prev_hash":"000000000000000028c96db29c2ec61ab37d4731e038905880aab50bab6200ff","bits":419497664,"version":9,"created_at":1668376394,"region_id":36,"region_name":"BitDeer"},{"height":711427,"is_orphaned":0,"hash":"00000000000000008d2e80c905cb3cda632ca82adb28c6569cc35520a84a0665","rewards":"0.99343280","size":5002,"prev_hash":"0000000000000000e132a3a95858939ee7a01cdbd2209cc0bd2c98d793a8ba4d","bits":419497664,"version":9,"created_at":1668370140,"region_id":34,"region_name":"America"},{"height":711370,"is_orphaned":0,"hash":"0000000000000000429d1ef3dac43449b9d414458610eab0f8953e5fd0d72cd9","rewards":"0.99343280","size":3039,"prev_hash":"0000000000000000ad7d638504ec7b51f674b9e0c312365d84f90eafdb1a062e","bits":419497664,"version":9,"created_at":1668356115,"region_id":36,"region_name":"BitDeer"},{"height":711292,"is_orphaned":0,"hash":"000000000000000109deff4a734c7facbedb0e1f9c70b0e9b188e548866ab47f","rewards":"0.99343280","size":5716,"prev_hash":"00000000000000007fff015744474edca9e829d52df96834968134c4ccfec75f","bits":419498589,"version":9,"created_at":1668330218,"region_id":36,"region_name":"BitDeer"},{"height":711271,"is_orphaned":0,"hash":"000000000000000107d44f7527cd4a0e5df978bdffdb641819964cd5ddbe1b78","rewards":"0.99343280","size":2660,"prev_hash":"0000000000000000b29044a4a70414ca63cdd2528c341e0406968a568b6c3cd6","bits":419498589,"version":9,"created_at":1668324284,"region_id":36,"region_name":"BitDeer"},{"height":711265,"is_orphaned":0,"hash":"0000000000000000c0516a2b8ddb07a2ff5174c3656e1f04538ab8649b324e00","rewards":"0.99343280","size":10535,"prev_hash":"000000000000000001d6c0b9f2c3c44e28a72e97d0e637bafd81f1b97116a771","bits":419498589,"version":9,"created_at":1668323151,"region_id":36,"region_name":"BitDeer"},{"height":711248,"is_orphaned":0,"hash":"000000000000000088b4fd61288d0a725ead52b1bb11c19c74300a61262376ba","rewards":"0.99343280","size":9140,"prev_hash":"0000000000000000b551861ee040bc05f306031bd9fa50fba17920f58f48a705","bits":419498589,"version":9,"created_at":1668319004,"region_id":36,"region_name":"BitDeer"}],"first_page_url":"https:\/\/eu-api.connectbtc.com\/\/public\/v1\/pool\/blocks\/merge?order_by=desc&page_size=10&page=1","from":1,"last_page":2229,"last_page_url":"https:\/\/eu-api.connectbtc.com\/\/public\/v1\/pool\/blocks\/merge?order_by=desc&page_size=10&page=2229","next_page_url":"https:\/\/eu-api.connectbtc.com\/\/public\/v1\/pool\/blocks\/merge?order_by=desc&page_size=10&page=2","path":"https:\/\/eu-api.connectbtc.com\/\/public\/v1\/pool\/blocks\/merge","per_page":10,"prev_page_url":null,"to":10,"total":22290},"blocks_count":22290,"rewards_count":"190673.60455808"},"trace_id":"bbd931c3-3211-458e-83ad-f95425669539"},"blocks_nr":10,"lastblock":711480,"lastblocktime":"1668386387","country":"WL|CN , EU , US","blocks_1000":61,"blocks_count":5,"hashrate_average_100_count":77,"hashrate_average_100":4142826197240260,"hashrate_average_1h":3725400000000000,"history_start":1667785244,"history_interval":3600,"history_addlast":true,"history":[3736200000000000,-68250000000000,-57000000000000,-23400000000000,5100000000000,67950000000000,35450000000000,-22100000000000,6750000000000,-28250000000000,30500000000000,-39900000000000,14050000000000,-69950000000000,-23650000000000,62100000000000,44800000000000,-4250000000000,-117200000000000,34900000000000,-22450000000000,27750000000000,28200000000000,-24900000000000,0,16900000000000,28500000000000,10650000000000,-90250000000000,26178571000000,-1328571000000,-15500000000000,59750000000000,116250000000000,-40300000000000,-29400000000000,-12700000000000,-49350000000000,25800000000000,122450000000000,-47950000000000,-81800000000000,-30050000000000,14050000000000,-23500000000000,-15350000000000,14700000000000,-29400000000000,-44000000000000,98750000000000,35650000000000,37050000000000,8150000000000,37885714000000,72658730000000,-73744444000000,14950000000000,74650000000000,-55200000000000,-40200000000000,41250000000000,-70483333000000,88333333000000,-21750000000000,13600000000000,-13750000000000,13250000000000,-101600000000000,-10900000000000,31200000000000,164700000000000,-39150000000000,2400000000000,-48350000000000,22550000000000,3700000000000,33000000000000,-65455556000000,122905556000000,-24050000000000,-2250000000000,56350000000000,-41550000000000,-46450000000000,91550000000000,-23800000000000,37250000000000,-24800000000000,47600000000000,-46400000000000,950000000000,-58550000000000,22450000000000,28200000000000,-95300000000000,71900000000000,-7750000000000,-17800000000000,-14350000000000,-35850000000000,-32150000000000,36450000000000,-7150000000000,-36200000000000,60650000000000,9100000000000,-21950000000000,-17100000000000,50250000000000,6000000000000,-8150000000000,88600000000000,64150000000000,-18250000000000,6000000000000,65800000000000,-22750000000000,-103200000000000,6050000000000,33700000000000,-20800000000000,-69550000000000,26000000000000,-41000000000000,-46750000000000,-36894444000000,22418128000000,33526316000000,109200000000000,89750000000000,104400000000000,103700000000000,-4700000000000,-33700000000000,21550000000000,-31700000000000,-69583333000000,62633333000000,13450000000000,-12000000000000,32200000000000,-26600000000000,-66050000000000,-63800000000000,45350000000000,-23200000000000,27400000000000,-8050000000000,-7700000000000,37976316000000,-47276316000000,650000000000,84350000000000,32800000000000,250000000000,-68750000000000,53550000000000,-29250000000000,-8150000000000,37200000000000,-39150000000000,25850000000000,-26550000000000,-12800000000000,50150000000000,-14650000000000,-31450000000000,-218300000000000,-200600000000000],"hashrate_average_7d":3848614154218935,"hashrate_average_7d_count":169,"hashrate_block":828565239448052,"expected_blocks":7.05,"luck":-2.0499568285552794,"multipool":7},{"url":"https:\/\/www.f2pool.com","hashrate":21737493317018750,"miners":-1,"minpay":0.1,"id":14,"pool_id":"f2pool.com","fee":3,"feetype":"PPS%3","i":2426,"income":4.51301817783588e-15,"blocks_nr":6,"lastblock":711496,"lastblocktime":1668390665,"country":"WL|Global","blocks_1000":385,"blocks_count":36,"hashrate_average_100_count":77,"hashrate_average_100":22604718531266708,"hashrate_average_1h":21742500249855176,"history_start":1667785244,"history_interval":3600,"history_addlast":true,"history":[47411853750000000,1240521330000000,8268778560000000,1110616650000000,1019022240000000,508478670000000,42263330000000,-8257841270000000,-14423642340000000,-2448685260000000,-150275850000000,-244080880000000,-2128079130000000,1994554810000000,314607500000000,-160225770000000,-91570350000000,153853680000000,-20395800000000,-250932950000000,22682620000000,139455200000000,76690830000000,174557530000000,-3100520590000000,-7622663560000000,6746312370000000,3940758620000000,29206690000000,-194215100000000,9106450000000,289871670000000,-124055970000000,247420000000,-79860560000000,-24862440000000,139611280000000,-44836340000000,61952830000000,12351760000000,236792430000000,-223121560000000,-113821700000000,-57608610000000,37618030000000,-109483580000000,-3013820000000,167363250000000,-113256640000000,-307373960000000,-136450910000000,16605260000000,-925255600000000,-717824730000000,-353318330000000,-9787050000000,-18286350000000,387958310000000,394240570000000,-173758490000000,-73784930000000,201927040000000,-60445820000000,21961850000000,321818820000000,-144192630000000,-108291680000000,-127690260000000,-1002633760000000,-7874488010000000,-163629430000000,-41161920000000,1826497850000000,-1343101190000000,-453140650000000,-18478070000000,-53851970000000,-267870260000000,12083850000000,-84461590000000,105667450000000,-103159990000000,-23386580000000,38320540000000,-94373310000000,-12031570000000,198338620000000,-458227000000000,-2822584350000000,2870542070000000,-176189480000000,-629510000000,80059650000000,-106618050000000,16336020000000,-163823260000000,109464960000000,133063310000000,807530180000000,-419273990000000,-422992820000000,-219278690000000,187225100000000,-116542960000000,-230588030000000,-77797330000000,-51576010000000,-8197000000000,29289930000000,274957140000000,140108540000000,-12241130000000,-32811120000000,-48018690000000,-82707040000000,5151720000000,184205530000000,17810260000000,74957210000000,-125838460000000,23863900000000,233648750000000,67900470000000,-215169760000000,-202977370000000,561731560000000,316930000000,435650860000000,88547200000000,395192740000000,-76314350000000,259241650000000,332420000000,77545150000000,-157196720000000,2249410000000,125766460000000,-102472010000000,-96755270000000,85333270000000,138468680000000,-64646970000000,-99300950000000,43382970000000,-72358970000000,44568960000000,73876570000000,-269644730000000,14557040000000,-126219030000000,28069100000000,-97042570000000,23804350000000,6669220000000,-11115930000000,5765410000000,-412841560000000,-476689870000000,-200305710000000,-210343070000000,424388810000000,-81708710000000,69941750000000,2803330000000,105398390000000,-78713370000000,71264720000000,-553540680000000,-412459470000000],"hashrate_average_7d":28204337184852052,"hashrate_average_7d_count":169,"hashrate_block":627908848090741.9,"expected_blocks":38.47,"luck":-2.4670469336205443,"multipool":33},{"url":"https:\/\/www.poolin.com","hashrate":27094000000000000,"miners":-1,"minpay":0.01,"id":3,"pool_id":"poolin.com","fee":3,"feetype":"PPS","i":13487,"json":{"err_no":0,"data":{"shares":{"shares_1m":26.126,"shares_5m":27.094,"shares_15m":27.171,"shares_1h":27.012,"shares_unit":"P"},"reject":{"1m":0,"5m":0,"15m":0.0011,"1h":0.0033},"workers":1275,"users":370,"total_blocks":144945,"total_rewards":104673040263153}},"workers":1275,"netdiff":4184566510.218839,"nethash":"59908587694622856","income":5.22316e-15,"blocks_nr":16,"lastblock":711501,"lastblocktime":"1668392733","country":"US|United States","blocks_1000":470,"blocks_count":51,"hashrate_average_100_count":77,"hashrate_average_100":27315199117288960,"hashrate_average_1h":26920400000000000,"history_start":1667785244,"history_interval":3600,"history_addlast":true,"history":[26574000000000000,-54600000000000,-50500000000000,438650000000000,-138650000000000,17833330000000,231866670000000,-94200000000000,657100000000000,-70400000000000,-44800000000000,-149650000000000,52450000000000,-45300000000000,105950000000000,-224000000000000,142200000000000,76350000000000,43750000000000,99800000000000,-228950000000000,424100000000000,543900000000000,-227600000000000,-1548150000000000,914850000000000,519250000000000,120900000000000,272500000000000,1287350000000000,6186600000000000,-657300000000000,699800000000000,174000000000000,-82250000000000,-984850000000000,342700000000000,-94350000000000,-570650000000000,922600000000000,-152700000000000,-195650000000000,277200000000000,-99150000000000,-412950000000000,-92300000000000,358050000000000,-655100000000000,229150000000000,-6775850000000000,-830350000000000,225600000000000,138100000000000,165850000000000,174077780000000,-209677780000000,-238700000000000,-253600000000000,-630050000000000,454700000000000,523650000000000,-60322220000000,-340077780000000,383300000000000,23500000000000,-66050000000000,-407150000000000,696300000000000,-468600000000000,-12850000000000,-385250000000000,-3627650000000000,-2623150000000000,56900000000000,-54450000000000,215300000000000,-258350000000000,-189722220000000,-103777780000000,467500000000000,-2150000000000,-326050000000000,-160950000000000,386300000000000,125100000000000,-65350000000000,26950000000000,-307000000000000,-520200000000000,4350000000000,50350000000000,56750000000000,-208350000000000,165550000000000,374950000000000,-144300000000000,32500000000000,71850000000000,-68350000000000,77000000000000,-323800000000000,-93150000000000,200150000000000,558800000000000,176250000000000,109500000000000,237000000000000,3582100000000000,2035000000000000,139250000000000,242300000000000,9000000000000,173650000000000,-172100000000000,254350000000000,15700000000000,-232300000000000,89350000000000,171800000000000,193650000000000,-437850000000000,206450000000000,-1149800000000000,1290600000000000,370900000000000,-477381580000000,346052630000000,-703721050000000,606900000000000,-607200000000000,654850000000000,241950000000000,497850000000000,360600000000000,-223850000000000,-99300000000000,114916670000000,-99866670000000,-166865790000000,130815790000000,-133750000000000,-442800000000000,94400000000000,-519200000000000,288350000000000,-2639250000000000,-1889800000000000,3707750000000000,641010530000000,-148421060000000,-446389470000000,140850000000000,181800000000000,152550000000000,-426050000000000,-362500000000000,1057500000000000,-544600000000000,-367750000000000,889400000000000,483300000000000,-458700000000000,317000000000000,-208100000000000,-1037900000000000,-1031300000000000,758800000000000,10300000000000,234400000000000],"hashrate_average_7d":26869119272307704,"hashrate_average_7d_count":169,"hashrate_block":535592139554685.5,"expected_blocks":46.48,"luck":4.517003762175825,"multipool":15}],"hashblock":{"hashrate_average_100":54062743845795930,"blocks_count":92,"pools":[[479143584268390.3,2,239571792134195.16,"https:\/\/www2.coinmine.pl\/dcr"],[828565239448052,5,165713047889610.4,"https:\/\/pool.btc.com"],[627908848090741.9,36,17441912446965.053,"https:\/\/www.f2pool.com"],[535592139554685.5,51,10501806657935.01,"https:\/\/www.poolin.com"]],"hashrate_block_all":585330117173752.1,"hashrate_block_min":10501806657935.01,"hashrate_block_max":239571792134195.16,"pool_hashblock_average":108307139782176.4,"hashrate_block":587638520062999.2},"time":1668394364,"hashrate":65450000000000000,"difficulty":4184566510.218839,"height":711501,"symbol":"DCR","maxhash":27094000000000000,"poolshash":57437961093367410,"nethash_estimat":58763852006299930,"poolsminers":1398,"supply":{"circulating":14503256.12420616,"total":21000000,"emission24":2568},"block_time_target":300,"block_height_ok":true,"algo":"Blake256R14","hashrate_from_diff":false,"hashrate_src":"https:\/\/lab.antpool.com","unit":"H\/s","block_time_average":298.9,"minerstat":[1.9916074904311e-16,19.353693987243,0.9942866,1995],"link":{"coingecko":"decred","cmc":"decred","whattomine":"152-dcr-blake (14r)","coin360":"decred-dcr","coinpaprika":"dcr-decred"},"latest_release":{"tag":"release-v1.7.5","name":"dcrd v1.7.5","t":1665429869},"price":18.74}