{"data":[{"url":"https:\/\/www.okx.com\/pool","hashrate":8730000000000,"miners":-1,"minpay":-1,"id":23,"pool_id":"okx.com","i":1612,"workers":1,"lastblock":630904,"feetype":"PPLNS","fee":2,"country":"HK|Hong Kong","hashrate_average_100_count":78,"hashrate_average_100":9311093875200.32,"hashrate_average_1h":8912857142857.143,"history_start":1666834844,"history_interval":3600,"history_addlast":true,"history":[8710000000000,0,0,0,0,0,-3919500000000,-4790500000000,8934500000000,259000000000,952000000000,-990500000000,1290000000000,-1112500000000,-74500000000,-227000000000,-317000000000,529000000000,-712000000000,-562000000000,2099000000000,-353500000000,-128500000000,-462000000000,-404500000000,-628500000000,1323000000000,212000000000,-278777778000,62277778000,-56000000000,482000000000,-1680500000000,-142000000000,412000000000,348000000000,-7000000000,-135500000000,601000000000,-810000000000,822000000000,191000000000,365000000000,-386000000000,-420500000000,-491000000000,184000000000,303500000000,-619500000000,-82500000000,288000000000,682000000000,-88088235000,-846411765000,1786500000000,-1021500000000,25000000000,1257500000000,-1103500000000,-144500000000,622000000000,-860000000000,-426000000000,503000000000,-583000000000,938722222000,-166222222000,-1277500000000,-306000000000,567000000000,292000000000,618000000000,-1022500000000,2141000000000,-1558000000000,-69500000000,367000000000,-264166667000,58166667000,115000000000,-427500000000,1061500000000,-1365000000000,683000000000,665000000000,-173000000000,192000000000,875000000000,-831000000000,-1089500000000,-10000000000,797500000000,1400500000000,-995000000000,-1000500000000,664500000000,-710000000000,1084500000000,-557500000000,1500000000,633500000000,565470590000,-1439102169000,-319868421000,-1050500000000,1453000000000,662500000000,-4500000000,-212500000000,742000000000,-1875500000000,1449500000000,641000000000,481500000000,-1687000000000,9000000000,1100000000000,-453000000000,-1444500000000,253500000000,-413000000000,74684211000,894315789000,879500000000,-417000000000,-432605263000,1881105263000,-1558000000000,-1423000000000,182000000000,521500000000,1342500000000,-1150500000000,-643000000000,477500000000,1031000000000,-1572000000000,376500000000,-739500000000,2627000000000,-1765500000000,-438000000000,7500000000,1718500000000,594500000000,207500000000,-781500000000,-1308000000000,-141000000000,-261842105000,403842105000,-612500000000,663000000000,237000000000,-84000000000,-357500000000,575500000000,273000000000,1026500000000,-856000000000,-875000000000,112000000000,-355500000000,762500000000,1882500000000,-1750000000000,-536000000000,5500000000,44857143000],"hashrate_average_7d":9001734452893.494,"hashrate_average_7d_count":169,"expected_blocks":0.01,"multipool":5},{"url":"https:\/\/www2.coinmine.pl\/dcr","hashrate":531647155621506,"miners":-1,"minpay":0.05,"id":5,"pool_id":"coinmine.pl","i":12342,"workers":26,"blocks_nr":5,"lastblock":708332,"lastblocktime":"1667423863","fee":1,"feetype":"PPLNS","height":708400,"country":"WL|EU , US , Asia","blocks_1000":9,"blocks_count":1,"hashrate_average_100_count":78,"hashrate_average_100":505096362038340.94,"hashrate_average_1h":518400771617868.1,"history_start":1666834844,"history_interval":3600,"history_addlast":true,"history":[567717338500000,-1167757000000,19415842300000,-22659208300000,12497131700000,44798255900000,-12133340900000,12101467200000,12912591300000,-24882877300000,-27609160400000,-12164977200000,15050086200000,4096973200000,-5581228000000,13059963900000,-33571584200000,21688627200000,10185035000000,-9284181600000,3550011100000,3045653200000,-17349932600000,9130778300000,-20783374400000,23136024900000,-2779912400000,-14110177500000,36517045500000,20868718600000,-12336798400000,17800288400000,-22483432200000,-3515182900000,21143354300000,11552157900000,-29123083600000,10235103000000,1539400800000,-37630642300000,-8678168500000,-114469300000,4341285100000,-2995712300000,13388773100000,12557252900000,6121208200000,-36347125900000,-10675109400000,-3594870100000,26187125100000,-8875414900000,5968223900000,-1425994400000,-8751358900000,10017342500000,19155233400000,-4849925600000,-3647965800000,-12013384700000,9500888600000,-377784600000,-25942289600000,24924662000000,-14021670200000,20581298300000,-603995600000,11757425500000,-35457501800000,18299247800000,-9629366700000,-27529156300000,30289391200000,-19009250300000,-2742443000000,20504269100000,-16930114700000,-695574700000,17381050300000,-21706000100000,7030595500000,-6332229000000,11518278300000,4613800700000,-15311677800000,11460181000000,-1154343500000,-7156439600000,871432300000,-35937275100000,-6501899800000,29311647600000,-89406412200000,-3535859600000,93583334300000,31916424600000,-4988798400000,-1823987700000,-4779241700000,-4355810000000,-9978753800000,-4012814200000,-7919899000000,15595239500000,-9669475000000,20311851300000,-20290896300000,15765671100000,-3913758300000,11358479400000,2392505300000,-20299996200000,18591403900000,-39123290200000,15367848600000,-20701540800000,9053224600000,-2489392100000,-11770728900000,-10052878900000,10214787600000,-8333798600000,17519137400000,-5656877700000,59461159800000,81519575500000,-33791608000000,14402758000000,-30627164900000,23055444300000,-9429611900000,18580787700000,20737727000000,-8657515400000,-33949056400000,-30668777700000,26335569800000,-35045462500000,9924846800000,-6028577200000,-11048373800000,22533281500000,-20835406600000,-5905616600000,30762637800000,12187193600000,1198115000000,-1085379000000,-15898331600000,18108305200000,4932308500000,-18142050900000,6483533000000,37416945600000,-25204767400000,-9375050100000,8583330000000,-93625329600000,-23846253400000,20122457600000,3482944000000,-22232728400000,-15815547700000,-206540500000,81633700000,10035699600000,-96143900000,-6444647500000,18201663200000],"hashrate_average_7d":578256675982248.6,"hashrate_average_7d_count":169,"expected_blocks":0.56,"luck":0.44459169956690925,"multipool":6},{"url":"https:\/\/lab.antpool.com","hashrate":4000000000000000,"miners":-1,"minpay":0.1,"id":11,"pool_id":"antpool.com","i":2063,"nethash":90240000000000000,"netdiff":6072853389,"feetype":"PPS","fee":3,"income":3.1920663e-15,"lastblock":708211,"lastblocktime":"1667391040","country":"WL|Global","blocks_1000":1,"hashrate_average_100_count":78,"hashrate_average_100":4353253956330128.5,"hashrate_average_1h":4197142857142857,"history_start":1666834844,"history_interval":3600,"history_addlast":true,"history":[4431500000000000,23500000000000,-100500000000000,15000000000000,-74763158000000,3263158000000,46000000000000,-15000000000000,24500000000000,28500000000000,215000000000000,173500000000000,54000000000000,-64500000000000,-29500000000000,-147500000000000,140500000000000,-46000000000000,77000000000000,-5500000000000,-33500000000000,-63000000000000,-270500000000000,-26000000000000,29000000000000,-53500000000000,102000000000000,-68500000000000,-16666667000000,2666667000000,-36000000000000,87000000000000,-59500000000000,-3500000000000,36500000000000,-44500000000000,-30000000000000,-65000000000000,90000000000000,-169000000000000,112000000000000,60000000000000,41500000000000,-4000000000000,-39000000000000,24000000000000,18000000000000,-18000000000000,16000000000000,45000000000000,4000000000000,-65500000000000,68444444000000,-24444444000000,7500000000000,-28500000000000,2500000000000,-104000000000000,47000000000000,127000000000000,98000000000000,-82000000000000,120500000000000,-94500000000000,118500000000000,45222222000000,20277778000000,2000000000000,1500000000000,-25000000000000,-1000000000000,-21000000000000,23000000000000,185500000000000,220500000000000,74000000000000,-100000000000000,-21444444000000,-18055556000000,80000000000000,-113500000000000,57000000000000,113500000000000,-3500000000000,46500000000000,-11500000000000,-26500000000000,-128000000000000,92500000000000,19500000000000,69000000000000,-21500000000000,-60500000000000,-36500000000000,-173000000000000,-113000000000000,-55500000000000,-993500000000000,975500000000000,69000000000000,-267500000000000,-223941176000000,61888544000000,-51947368000000,8000000000000,-46000000000000,-6500000000000,-58500000000000,50000000000000,34500000000000,-21000000000000,-80000000000000,49000000000000,-5500000000000,19500000000000,-7000000000000,36500000000000,-13000000000000,-42500000000000,61000000000000,17500000000000,-19500000000000,11000000000000,-33000000000000,-5500000000000,28210526000000,35289474000000,46500000000000,-135000000000000,126500000000000,17500000000000,21500000000000,-6500000000000,-59000000000000,20000000000000,-63500000000000,-21500000000000,-86500000000000,-216500000000000,11500000000000,-61000000000000,64000000000000,-46500000000000,332000000000000,97500000000000,16500000000000,-32500000000000,81000000000000,-60000000000000,55026316000000,-79526316000000,74500000000000,-186500000000000,31500000000000,40500000000000,36500000000000,-6000000000000,-29500000000000,79000000000000,-131500000000000,46500000000000,-28000000000000,90000000000000,4000000000000,43500000000000,25500000000000,67000000000000,-156500000000000,-134357143000000],"hashrate_average_7d":4465666735431950,"hashrate_average_7d_count":169,"expected_blocks":4.79,"multipool":16},{"url":"https:\/\/pool.btc.com","hashrate":3806000000000000,"miners":-1,"minpay":0.1,"id":4,"pool_id":"pool.btc.com","feetype":"PPS","i":14356,"workers":85,"income":3.2907855348352002e-15,"i_blocks":14398,"json_blocks":{"err_no":0,"data":{"blocks":{"current_page":1,"data":[{"height":708395,"is_orphaned":0,"hash":"00000000000000009c60c981c2383ffd9c0bad19bd8f52b4d10d21d27c4c187b","rewards":"0.99343280","size":5910,"prev_hash":"0000000000000000b01e623e753078774deae7c71f0a9bafd8f32421bafbcc63","bits":419476749,"version":9,"created_at":1667442509,"region_id":34,"region_name":"America"},{"height":708392,"is_orphaned":0,"hash":"00000000000000000852ebeb3c32d799e61777effb741a293a87fe78117a2b2b","rewards":"0.99343280","size":2552,"prev_hash":"0000000000000000946ed082f03aef86f7d4ae903399c39588bba19f9d20d45e","bits":419476749,"version":9,"created_at":1667442146,"region_id":34,"region_name":"America"},{"height":708374,"is_orphaned":0,"hash":"0000000000000000ac310d5ebdc28dd269b41a8c8471b830450be31e4f1f3ce7","rewards":"0.99343280","size":7433,"prev_hash":"000000000000000008faa3507c5fd2e6e29f332e27652217e798bb72cea20d06","bits":419476749,"version":9,"created_at":1667437752,"region_id":34,"region_name":"America"},{"height":708365,"is_orphaned":0,"hash":"000000000000000027330ba6094f2ae8ed91947702e24687ce089063bd5cf1e7","rewards":"0.99343280","size":32961,"prev_hash":"0000000000000000878279d55bd798e595fa8bb3090dff7558dc770c1f87d29a","bits":419476749,"version":9,"created_at":1667433489,"region_id":36,"region_name":"BitDeer"},{"height":708359,"is_orphaned":0,"hash":"00000000000000007572bdec105ca2f201e2c280dc467235af3e9aee96da8f33","rewards":"0.99343280","size":22896,"prev_hash":"000000000000000058d1514edb9468755d1686fc2bc15e615a5a74526a09dd07","bits":419476749,"version":9,"created_at":1667431855,"region_id":34,"region_name":"America"},{"height":708349,"is_orphaned":0,"hash":"000000000000000015d58b92ed5be36e157e7e6ee7bc382f2982307046583011","rewards":"0.99343280","size":29093,"prev_hash":"0000000000000000b1e7f96c9aff626e2f0ff6e22abbfcb8bae3ee6078176d88","bits":419476749,"version":9,"created_at":1667428855,"region_id":34,"region_name":"America"},{"height":708327,"is_orphaned":0,"hash":"00000000000000004ef12af8d5d05f6f1fed9568b5ed52fa7869bc80752dcc31","rewards":"0.99343280","size":2595,"prev_hash":"0000000000000000a991a1d6f78979ef6e0c5aecfcc40646e46c176bdea42c28","bits":419478090,"version":9,"created_at":1667422340,"region_id":36,"region_name":"BitDeer"},{"height":708310,"is_orphaned":0,"hash":"00000000000000004a6879eefeac9f3f7120d81ff6b19be42e7a1877cecefb61","rewards":"0.99343280","size":2205,"prev_hash":"00000000000000004de4a22b5ff8ef81290d35c462d3505ee8fd3097377a69cd","bits":419478090,"version":9,"created_at":1667417795,"region_id":34,"region_name":"America"},{"height":708230,"is_orphaned":0,"hash":"000000000000000064924794e13d97157bd269d21d5735da0a8dc3bf83dbe879","rewards":"0.99343280","size":4278,"prev_hash":"00000000000000003f12bb51bade119f81fa5e3a5419de74cff0621a64aa9cec","bits":419478090,"version":9,"created_at":1667395981,"region_id":36,"region_name":"BitDeer"},{"height":708226,"is_orphaned":0,"hash":"00000000000000003bd593f2b4a2c488ebaabb1e69e82d63c27c9cd79da48f78","rewards":"0.99343280","size":46044,"prev_hash":"0000000000000000397f6af0ca60a63278a9fc3463ac760b1e3c3f1c125c4133","bits":419478090,"version":9,"created_at":1667395123,"region_id":34,"region_name":"America"}],"first_page_url":"https:\/\/eu-api.connectbtc.com\/\/public\/v1\/pool\/blocks\/merge?order_by=desc&page_size=10&page=1","from":1,"last_page":2213,"last_page_url":"https:\/\/eu-api.connectbtc.com\/\/public\/v1\/pool\/blocks\/merge?order_by=desc&page_size=10&page=2213","next_page_url":"https:\/\/eu-api.connectbtc.com\/\/public\/v1\/pool\/blocks\/merge?order_by=desc&page_size=10&page=2","path":"https:\/\/eu-api.connectbtc.com\/\/public\/v1\/pool\/blocks\/merge","per_page":10,"prev_page_url":null,"to":10,"total":22125},"blocks_count":22125,"rewards_count":"190510.88026544"},"trace_id":"b4fef03c-2afb-4427-936b-eb93e7d0170c"},"blocks_nr":10,"lastblock":708395,"lastblocktime":"1667442506","country":"WL|CN , EU , US","blocks_1000":44,"blocks_count":8,"hashrate_average_100_count":78,"hashrate_average_100":3871576822916667,"hashrate_average_1h":3813142857142857,"history_start":1666834844,"history_interval":3600,"history_addlast":true,"history":[3547800000000000,-58850000000000,-47750000000000,-12650000000000,-29497368000000,31647368000000,5850000000000,-105650000000000,78250000000000,24850000000000,-27900000000000,12200000000000,-40300000000000,35950000000000,64000000000000,-39800000000000,-41950000000000,12200000000000,-51200000000000,-55200000000000,-32050000000000,133850000000000,10950000000000,41900000000000,72400000000000,13250000000000,-42350000000000,35350000000000,-17355556000000,-5994444000000,-10050000000000,-15850000000000,28250000000000,-14450000000000,-45700000000000,21400000000000,-48600000000000,45250000000000,2750000000000,-19450000000000,22450000000000,-53600000000000,51750000000000,28550000000000,71800000000000,21050000000000,950000000000,22100000000000,81450000000000,-53900000000000,2800000000000,-41200000000000,-16111765000000,9711765000000,24350000000000,-40750000000000,4150000000000,42000000000000,-17100000000000,-13600000000000,15250000000000,15350000000000,68200000000000,-9200000000000,9000000000000,43272222000000,-32472222000000,9500000000000,2600000000000,-16500000000000,1100000000000,-17950000000000,-95350000000000,33200000000000,-22900000000000,27900000000000,42650000000000,-15888889000000,25688889000000,-42500000000000,12300000000000,-5500000000000,19200000000000,9650000000000,6900000000000,4100000000000,70500000000000,-41250000000000,21900000000000,1700000000000,-40650000000000,-34500000000000,-27700000000000,33600000000000,49800000000000,-29850000000000,-6900000000000,-29200000000000,60050000000000,-82450000000000,56600000000000,44400000000000,-15000000000000,43350000000000,-12700000000000,28250000000000,-8350000000000,22150000000000,36750000000000,-35900000000000,-9150000000000,86850000000000,2500000000000,33300000000000,150000000000,77050000000000,-64000000000000,-72800000000000,91400000000000,-45700000000000,-22800000000000,57900000000000,15650000000000,33000000000000,23350000000000,28381579000000,-17381579000000,-25800000000000,-42800000000000,81250000000000,-50400000000000,-11300000000000,43300000000000,37100000000000,-57650000000000,-3400000000000,2000000000000,28450000000000,-16950000000000,10050000000000,-20550000000000,48000000000000,75950000000000,-62150000000000,-7100000000000,700000000000,12350000000000,16050000000000,-44100000000000,17118421000000,181579000000,-45850000000000,11950000000000,9800000000000,-18450000000000,-35250000000000,34000000000000,13000000000000,51250000000000,36650000000000,-73250000000000,-62950000000000,-124800000000000,8750000000000,-18250000000000,12900000000000,31850000000000,-37500000000000,-23257143000000],"hashrate_average_7d":3719338233733727.5,"hashrate_average_7d_count":169,"hashrate_block":483947102864583.4,"expected_blocks":4.26,"luck":3.7427808536679477,"multipool":7},{"url":"https:\/\/www.f2pool.com","hashrate":56881852636700850,"miners":-1,"minpay":0.1,"id":14,"pool_id":"f2pool.com","fee":3,"feetype":"PPS%3","i":2445,"income":3.109744878754091e-15,"blocks_nr":11,"lastblock":708399,"lastblocktime":1667443789,"country":"WL|Global","blocks_1000":600,"blocks_count":62,"hashrate_average_100_count":78,"hashrate_average_100":55152612498023730,"hashrate_average_1h":56996040119064050,"history_start":1666834844,"history_interval":3600,"history_addlast":true,"history":[48511607540000000,874091730000000,-872802990000000,222296270000000,262732430000000,1587730930000000,216385300000000,-473474010000000,-363172790000000,13511470000000,235847700000000,-191197960000000,-395412950000000,417976210000000,113399400000000,-164546240000000,-153301010000000,-29517770000000,17776390000000,76395310000000,-23310750000000,-711069520000000,662880850000000,-131153340000000,-21471660000000,548044790000000,-474315870000000,274847560000000,65187390000000,48350940000000,14045250000000,753436650000000,589654760000000,21696240000000,-3697840000000,-225234320000000,-136362140000000,-605960430000000,-195173410000000,39862830000000,-211253570000000,-73096610000000,474457920000000,-3288990000000,-87584940000000,-378942650000000,44897290000000,497353390000000,-332579440000000,105088490000000,-365026530000000,-120325450000000,123261530000000,-166577170000000,294370550000000,345288300000000,-74614660000000,122571900000000,194175460000000,-73461230000000,-363473420000000,348930640000000,33893990000000,242232200000000,-297708100000000,-213366010000000,223585120000000,-311052060000000,-94715990000000,-198442880000000,118550910000000,-121044420000000,307116430000000,358807750000000,-439460880000000,97173380000000,199999460000000,48541180000000,69288620000000,-229563190000000,521500290000000,-486158310000000,-81353650000000,289252900000000,-93647170000000,-8617730000000,91158270000000,-138736890000000,-32338190000000,-189870940000000,-85353640000000,173325940000000,233929150000000,-312066560000000,21607210000000,168838880000000,15529900000000,60559620000000,-541437400000000,282170850000000,98100260000000,-154311830000000,750970690000000,-612945300000000,244277410000000,159472880000000,105827960000000,-203476510000000,-347187380000000,371060550000000,-54794180000000,264321370000000,-389776790000000,129823640000000,346871370000000,-13719200000000,-402780540000000,-263759760000000,533944030000000,-406154260000000,-490718850000000,749192370000000,-9914232340000000,-10644425470000000,8279477160000000,11937439950000000,879657710000000,-165856510000000,-74084510000000,584199450000000,177541570000000,86794620000000,-57245210000000,507112900000000,-130648410000000,-67005850000000,-242165930000000,150478570000000,377999380000000,32267880000000,-168252400000000,-147617490000000,-268129490000000,359655490000000,382413440000000,638574000000000,-322031590000000,-86557270000000,-2382166790000000,4087040370000000,2065304170000000,20560470000000,-13404820000000,161894170000000,-107551850000000,348071830000000,-789245400000000,627697670000000,-672286050000000,420918820000000,89723930000000,-175070090000000,314286840000000,-2164042290000000,986679420000000,-2001348220000000,1656619270000000,-2212356160000000,3836235460000000],"hashrate_average_7d":51038182220473380,"hashrate_average_7d_count":169,"hashrate_block":889558266097156.9,"expected_blocks":60.65,"luck":1.3537133224353681,"multipool":33},{"url":"https:\/\/www.poolin.com","hashrate":27750000000000000,"miners":-1,"minpay":0.01,"id":3,"pool_id":"poolin.com","fee":3,"feetype":"PPS","i":13417,"json":{"err_no":0,"data":{"shares":{"shares_1m":27.343,"shares_5m":27.75,"shares_15m":28.43,"shares_1h":28.298,"shares_unit":"P"},"reject":{"1m":0,"5m":0,"15m":0.0045,"1h":0.0063},"workers":1298,"users":376,"total_blocks":143729,"total_rewards":104552854763009}},"workers":1298,"netdiff":6072853389.35813,"nethash":"86942355663859220","income":3.5990699999999995e-15,"blocks_nr":15,"lastblock":708400,"lastblocktime":"1667443923","country":"US|United States","blocks_1000":297,"blocks_count":26,"hashrate_average_100_count":78,"hashrate_average_100":28279602714342948,"hashrate_average_1h":28142857142857144,"history_start":1666834844,"history_interval":3600,"history_addlast":true,"history":[35298050000000000,-569100000000000,555400000000000,356650000000000,-393789470000000,-2471410530000000,2985200000000000,16450000000000,-307250000000000,247100000000000,-241950000000000,-712750000000000,422650000000000,-179550000000000,-553450000000000,297450000000000,80800000000000,92200000000000,124100000000000,257900000000000,22900000000000,45250000000000,-646850000000000,-7147150000000000,18250000000000,68650000000000,-231350000000000,210450000000000,-25627780000000,144477780000000,-185050000000000,-31450000000000,-101200000000000,-331750000000000,37013160000000,-115813160000000,248450000000000,-60050000000000,-8850000000000,48700000000000,-75450000000000,39150000000000,95800000000000,-109650000000000,299850000000000,-91250000000000,-13000000000000,-202600000000000,-25100000000000,90500000000000,4827550000000000,2169200000000000,152947060000000,393802940000000,-42818420000000,449068420000000,-227700000000000,53100000000000,-182300000000000,66350000000000,221550000000000,-482350000000000,26700000000000,116950000000000,-108500000000000,72055560000000,37394440000000,-22650000000000,4250000000000,-514750000000000,307750000000000,-2645250000000000,-442700000000000,233800000000000,-387100000000000,2379900000000000,702957890000000,67529610000000,-101937500000000,-122000000000000,-483050000000000,370223080000000,-51273080000000,603100000000000,-511050000000000,481850000000000,-235600000000000,-2907300000000000,-4042950000000000,-10550000000000,-17050000000000,-243950000000000,-94050000000000,104250000000000,143350000000000,-339084620000000,168784620000000,-472100000000000,229050000000000,-476750000000000,103600000000000,472623530000000,355755420000000,-179278950000000,-145600000000000,123750000000000,-149450000000000,229350000000000,-254100000000000,-823800000000000,865250000000000,313650000000000,-277850000000000,-16450000000000,260500000000000,-1067100000000000,107500000000000,-215200000000000,133557690000000,-498657690000000,-78050000000000,-38250000000000,914950000000000,-90050000000000,332800000000000,-68681580000000,-838618420000000,675788460000000,-355188460000000,585600000000000,114450000000000,-95850000000000,763700000000000,311750000000000,-146050000000000,-122500000000000,157350000000000,-53000000000000,124850000000000,-254750000000000,-104750000000000,-63900000000000,335500000000000,-126000000000000,150881580000000,52418420000000,70100000000000,-153150000000000,359750000000000,-182644740000000,838094740000000,274300000000000,-524800000000000,262200000000000,-511350000000000,-70150000000000,-66800000000000,579800000000000,-58250000000000,10050000000000,35600000000000,-131850000000000,-176900000000000,30750000000000,114950000000000,13950000000000,-292900000000000,-1125800000000000,934857140000000],"hashrate_average_7d":29981381804674544,"hashrate_average_7d_count":169,"hashrate_block":1087677027474728.8,"expected_blocks":31.1,"luck":-5.09649417610331,"multipool":15}],"hashblock":{"hashrate_average_100":87303792035283340,"blocks_count":96,"pools":[[483947102864583.4,8,60493387858072.92,"https:\/\/pool.btc.com"],[889558266097156.9,62,14347713969308.982,"https:\/\/www.f2pool.com"],[1087677027474728.8,26,41833731825951.11,"https:\/\/www.poolin.com"]],"hashrate_block_all":909414500367534.9,"hashrate_block_min":14347713969308.982,"hashrate_block_max":60493387858072.92,"pool_hashblock_average":38891611217777.67,"hashrate_block":909414500367534.9},"time":1667444324,"hashrate":90240000000000000,"difficulty":6072853389.35813,"height":708400,"symbol":"DCR","maxhash":56881852636700850,"poolshash":92978229792322350,"nethash_estimat":90941450036753490,"poolsminers":1410,"supply":{"circulating":14475677.03887224,"total":21000000,"emission24":2745},"block_time_target":300,"block_height_ok":true,"algo":"Blake256R14","hashrate_from_diff":false,"hashrate_src":"https:\/\/lab.antpool.com","unit":"H\/s","block_time_average":280.5,"minerstat":[1.3711955592034e-16,26.622043184561,0.9934581,1996],"link":{"coingecko":"decred","cmc":"decred","whattomine":"152-dcr-blake (14r)","coin360":"decred-dcr","coinpaprika":"dcr-decred"},"latest_release":{"tag":"release-v1.7.5","name":"dcrd v1.7.5","t":1665429869},"price":26.57}