{"data":[{"url":"https:\/\/www.okx.com\/pool","hashrate":9230000000000,"miners":-1,"minpay":-1,"id":23,"pool_id":"okx.com","i":1617,"workers":1,"lastblock":630904,"feetype":"PPLNS","fee":2,"country":"HK|Hong Kong","hashrate_average_100_count":76,"hashrate_average_100":8738737664473.685,"hashrate_average_1h":9505000000000,"history_start":1668217428,"history_interval":3600,"history_addlast":true,"history":[8838000000000,-283000000000,1030000000000,-1031500000000,-617000000000,1206277778000,271432748000,-661210526000,1000500000000,-364500000000,116500000000,-33000000000,-18500000000,-125500000000,-268500000000,-220000000000,718333333000,1213166667000,-2560973684000,519473684000,-46000000000,-415000000000,-16500000000,683500000000,-418000000000,-223500000000,-382500000000,90500000000,1072500000000,1273947370000,-1133447370000,-628500000000,848500000000,-1404500000000,333000000000,9000000000,-16000000000,259000000000,-216500000000,731500000000,1083500000000,-1103500000000,-14500000000,-1023000000000,2252000000000,-572000000000,-1298000000000,553500000000,84000000000,1169500000000,-42500000000,0,0,-847777778000,-667722222000,240000000000,553000000000,-729000000000,-744000000000,1173000000000,590394737000,-465394737000,-362000000000,308500000000,-1093000000000,876500000000,-39500000000,789000000000,-775500000000,-916000000000,538500000000,-189500000000,541000000000,-1264000000000,283000000000,1022000000000,-1050000000000,406500000000,515500000000,-17500000000,-143000000000,-237000000000,33000000000,-234500000000,1266500000000,-126000000000,-445500000000,133000000000,-967000000000,521500000000,170000000000,500894737000,108105263000,-2334000000000,1293000000000,-404000000000,679000000000,-200000000000,774500000000,-125500000000,300473684000,208026316000,-820500000000,-93500000000,353000000000,116000000000,152000000000,687000000000,-488500000000,597000000000,-635500000000,721000000000,-222500000000,-28000000000,-337500000000,-1488000000000,1012000000000,-843078947000,2406578947000,-1659500000000,32000000000,697500000000,1436000000000,-1862000000000,-1642000000000,1876571429000,-191571429000,-1038500000000,-199000000000,268000000000,1497000000000,-240500000000,-1307500000000,-1084000000000,1147500000000,236000000000,-144500000000,198000000000,677500000000,-1318000000000,286000000000,56500000000,1938000000000,-905500000000,-174500000000,1317500000000,-2071000000000,-171500000000,-167500000000,387230769000,952269231000,-787500000000,320000000000,413500000000,22500000000,-330500000000,-155000000000,615000000000,-1151000000000,423000000000,-455500000000,625500000000,-761500000000,247000000000,669500000000,-441500000000,-308000000000,978000000000],"hashrate_average_7d":9016976214011.904,"hashrate_average_7d_count":168,"expected_blocks":0.01,"multipool":5},{"url":"https:\/\/www2.coinmine.pl\/dcr","hashrate":337826199633920,"miners":-1,"minpay":0.05,"id":5,"pool_id":"coinmine.pl","i":12414,"workers":31,"blocks_nr":5,"lastblock":712651,"lastblocktime":"1668727418","fee":1,"feetype":"PPLNS","height":712928,"country":"WL|EU , US , Asia","blocks_1000":3,"hashrate_average_100_count":76,"hashrate_average_100":224128187191951.25,"hashrate_average_1h":225582917216025.16,"history_start":1668217428,"history_interval":3600,"history_addlast":true,"history":[922738261000000,-25203283000000,-499748200000,15399972100000,7949737400000,-30954692200000,4656672600000,9905087900000,-40124270500000,47852541600000,-25107272500000,31379310700000,-501511600000,-45122632700000,432388700000,30292297200000,-51193790800000,41245369700000,5610776400000,-4931420600000,17792807700000,-36398425300000,-10738631500000,23703417000000,27110804200000,4089801200000,2992984500000,-22449322400000,7855238000000,12388085400000,2168830400000,77935510600000,-19874950700000,40965280700000,-18181736000000,27046353000000,-93128889900000,10739245900000,-5775738600000,-8660060900000,19728511000000,-9472914900000,24131477800000,-16755875100000,-12387663900000,-8300691200000,59043239200000,-65453189300000,18310396800000,-24237443400000,27927954800000,-27877365000000,22077865200000,-8423838900000,15082971800000,-18140708800000,-102647751200000,115709867300000,-1615312700000,-21387674800000,26320097800000,10936639700000,25396356400000,-44292835400000,7038291300000,227756900000,9622389700000,35883943400000,-47979624500000,10966567700000,12739780600000,-41409874000000,13333231100000,-7170600000000,3351362500000,36446103200000,-33877104400000,-33251809200000,54504523600000,-21243007700000,-7460435600000,-19148501000000,11818636600000,13280820500000,-44812931700000,-27928731600000,-5119788200000,-38228455900000,43873766000000,48570939800000,-4263939500000,38994695700000,-34601488500000,-11285069200000,-1940984200000,-4207781300000,-13165148500000,11422437400000,5583919700000,11340149000000,-9883006700000,-16729759400000,9461877400000,30889810600000,-19330374300000,6342680800000,-15509057700000,6897511100000,29139532300000,-6996666600000,-5140138600000,-19552423500000,4143733400000,4758849800000,-16078392500000,-9940067600000,12945595000000,15820494800000,-15013606700000,4391897700000,19794210800000,-13670197900000,-30238032600000,24367891100000,-14194557000000,34449057500000,-16780978700000,2291015000000,246482700000,-8183149700000,6700078600000,10771670700000,-30325984400000,12323877000000,8591563200000,3726629400000,-7820241100000,11607216200000,-146828059600000,-32246293700000,161617014400000,11144024500000,-5437441400000,1467579000000,-32213274600000,10655943500000,483848800000,27876757800000,-26829447200000,24522102500000,2261392700000,7478426900000,-17960821300000,-20537545000000,-246846769300000,-613419443070000,314181249270000,-11677736600000,-64998634500000,-22715912700000,53267650800000,-29015342800000,-31672615400000,15879687400000,-46906023400000,-38805281300000,32588048000000,37014244000000],"hashrate_average_7d":858067956614464,"hashrate_average_7d_count":168,"expected_blocks":0.38,"multipool":6},{"url":"https:\/\/lab.antpool.com","hashrate":13960000000000000,"miners":-1,"minpay":0.1,"id":11,"pool_id":"antpool.com","i":2068,"nethash":68370000000000010,"netdiff":4835767476,"feetype":"PPS","fee":3,"income":3.9689587e-15,"lastblock":712107,"lastblocktime":"1668580440","country":"WL|Global","blocks_1000":1,"hashrate_average_100_count":76,"hashrate_average_100":13696504934210526,"hashrate_average_1h":13731000000000000,"history_start":1668217428,"history_interval":3600,"history_addlast":true,"history":[3869500000000000,96000000000000,175500000000000,132000000000000,6500000000000,206055556000000,83391812000000,3552632000000,45000000000000,-99000000000000,196500000000000,-55000000000000,-26500000000000,-130000000000000,120000000000000,-42000000000000,-31500000000000,18000000000000,19368421000000,-23868421000000,5000000000000,10500000000000,-9000000000000,1500000000000,-39500000000000,54500000000000,-38500000000000,-133000000000000,-236500000000000,9394737000000,20105263000000,47500000000000,-100500000000000,-9500000000000,-94500000000000,78500000000000,9500000000000,11000000000000,23000000000000,-27500000000000,-141000000000000,-186500000000000,16500000000000,38500000000000,58500000000000,-33500000000000,23000000000000,8500000000000,-137000000000000,109000000000000,-1790500000000000,580000000000000,1237000000000000,4222222000000,-23222222000000,1500000000000,-43000000000000,28500000000000,3000000000000,-19000000000000,4736842000000,-136736842000000,-5000000000000,71000000000000,-63000000000000,0,61000000000000,-21000000000000,33500000000000,-44500000000000,15500000000000,52000000000000,-31000000000000,26500000000000,24000000000000,29500000000000,13000000000000,34250000000000,45250000000000,83000000000000,-57000000000000,6000000000000,3500000000000,-17000000000000,-21000000000000,-68500000000000,42000000000000,-89500000000000,7500000000000,-178000000000000,58500000000000,-60605263000000,11605263000000,-31500000000000,15000000000000,-38000000000000,-80500000000000,112000000000000,-2500000000000,41500000000000,-11815789000000,-208684211000000,383000000000000,-1000000000000,1500000000000,34500000000000,36500000000000,-69000000000000,24000000000000,-11500000000000,9500000000000,-60500000000000,-33500000000000,-45500000000000,72500000000000,6500000000000,-32000000000000,-34736842000000,-2263158000000,-44000000000000,113500000000000,-14500000000000,11500000000000,-44000000000000,66500000000000,-34857143000000,2276857143000000,7754500000000000,-173500000000000,108000000000000,-203000000000000,-84000000000000,223500000000000,-36500000000000,13000000000000,-198000000000000,247000000000000,-184500000000000,-102500000000000,53500000000000,-23000000000000,43000000000000,206000000000000,-312500000000000,344500000000000,-186000000000000,89000000000000,-42000000000000,107500000000000,190461540000000,-213961540000000,-41000000000000,1500000000000,41500000000000,74500000000000,-132000000000000,-63500000000000,-234000000000000,294500000000000,22000000000000,-44500000000000,15500000000000,-99500000000000,46000000000000,166000000000000,22000000000000,-157500000000000,85000000000000],"hashrate_average_7d":6368145366958331,"hashrate_average_7d_count":168,"expected_blocks":23.46,"multipool":16},{"url":"https:\/\/pool.btc.com","hashrate":3931000000000000,"miners":-1,"minpay":0.1,"id":4,"pool_id":"pool.btc.com","feetype":"PPS","i":14460,"workers":90,"income":4.0917170292126e-15,"i_blocks":14502,"json_blocks":{"err_no":0,"data":{"blocks":{"current_page":1,"data":[{"height":712925,"is_orphaned":0,"hash":"00000000000000004eca61b73819c5d74c7fa53dbe9e71957f464b228988c611","rewards":"0.98359683","size":3002,"prev_hash":"0000000000000000d5c3e91a56dfb3d3a38748f9185ad98e7b854888adfe3ed1","bits":419488606,"version":9,"created_at":1668822998,"region_id":36,"region_name":"BitDeer"},{"height":712920,"is_orphaned":0,"hash":"0000000000000000da53503ceaadc06642abf71d9cf3c1e1a6505b9ca64b4028","rewards":"0.98359683","size":21258,"prev_hash":"00000000000000001799d8f3c0a325857a92956ec9934d67a3bdbf09a89990c5","bits":419488606,"version":9,"created_at":1668821336,"region_id":34,"region_name":"America"},{"height":712917,"is_orphaned":0,"hash":"00000000000000004380936c215c8c72805a92f4a1d638f8cb29b53761c09aed","rewards":"0.98359683","size":4356,"prev_hash":"0000000000000000da216a7a5150ea9de2ff2e9338b48f81a926f36605d92da7","bits":419488606,"version":9,"created_at":1668820141,"region_id":34,"region_name":"America"},{"height":712883,"is_orphaned":0,"hash":"000000000000000046e77b9671bc70f6f578623ee24be65a3b2f036758930ba7","rewards":"0.98359683","size":52986,"prev_hash":"0000000000000000a7d5f406fc8e24cd2c3afb485739ccc03c6d5ae8d2fda501","bits":419488606,"version":9,"created_at":1668807786,"region_id":36,"region_name":"BitDeer"},{"height":712801,"is_orphaned":0,"hash":"0000000000000000d54477e5e1cad51eefe751bc738ea36aea0261655a7476cd","rewards":"0.98359683","size":28563,"prev_hash":"00000000000000007561b2bf859c6abb032bcad60851bbb70bbfa91952e2e5e8","bits":419488606,"version":9,"created_at":1668783804,"region_id":36,"region_name":"BitDeer"},{"height":712782,"is_orphaned":0,"hash":"0000000000000000d25444f4a76d602d81d3b4ae4df091be811ce1bbcd52c350","rewards":"0.98359683","size":17346,"prev_hash":"0000000000000000a81ea6c0d55b2a296bf7dfe03bc8e7cf64f22c8fff1d2db2","bits":419484532,"version":9,"created_at":1668774765,"region_id":36,"region_name":"BitDeer"},{"height":712743,"is_orphaned":0,"hash":"0000000000000000a0a84ee8b1e6a7365a787b662726224b21cba2583948e28b","rewards":"0.98359683","size":19279,"prev_hash":"00000000000000001f84dd8ebeb69fa550216a4dacea08b1ea87f11ae4d259be","bits":419484532,"version":9,"created_at":1668762520,"region_id":34,"region_name":"America"},{"height":712741,"is_orphaned":0,"hash":"00000000000000009c6bc690dd4a030d478c863df03cbb8e8e4dee1f9adc079b","rewards":"0.98359683","size":8529,"prev_hash":"00000000000000005e3588661a5654f47d9cbfa958f0aaddb99a6937df82cc09","bits":419484532,"version":9,"created_at":1668762302,"region_id":34,"region_name":"America"},{"height":712712,"is_orphaned":0,"hash":"00000000000000001a2d7cba6151ce3029b2208ac7a5506edabcf631cc36dd9f","rewards":"0.98359683","size":31244,"prev_hash":"0000000000000000bbd8ac2525dbe511bed2b91c36971512ac3d591c47737f06","bits":419484532,"version":9,"created_at":1668751791,"region_id":34,"region_name":"America"},{"height":712702,"is_orphaned":0,"hash":"00000000000000008c546c696e4cf9dca09eb461593dcc08adb90d501ae909bb","rewards":"0.99343280","size":25408,"prev_hash":"00000000000000009fab1ed48619a5126f853521785efccfe0c7548a4e7da707","bits":419484532,"version":9,"created_at":1668748602,"region_id":36,"region_name":"BitDeer"}],"first_page_url":"https:\/\/eu-api.connectbtc.com\/\/public\/v1\/pool\/blocks\/merge?order_by=desc&page_size=10&page=1","from":1,"last_page":2238,"last_page_url":"https:\/\/eu-api.connectbtc.com\/\/public\/v1\/pool\/blocks\/merge?order_by=desc&page_size=10&page=2238","next_page_url":"https:\/\/eu-api.connectbtc.com\/\/public\/v1\/pool\/blocks\/merge?order_by=desc&page_size=10&page=2","path":"https:\/\/eu-api.connectbtc.com\/\/public\/v1\/pool\/blocks\/merge","per_page":10,"prev_page_url":null,"to":10,"total":22380},"blocks_count":22380,"rewards_count":"190761.93155355"},"trace_id":"3a6e79b1-463d-4eee-9550-5a24d93a213a"},"blocks_nr":10,"lastblock":712925,"lastblocktime":"1668822962","country":"WL|CN , EU , US","blocks_1000":65,"blocks_count":4,"hashrate_average_100_count":76,"hashrate_average_100":3981079975328947.5,"hashrate_average_1h":3890700000000000,"history_start":1668217428,"history_interval":3600,"history_addlast":true,"history":[3949250000000000,-69550000000000,26000000000000,-41000000000000,-46750000000000,-36894444000000,22418128000000,33526316000000,109200000000000,89750000000000,104400000000000,103700000000000,-4700000000000,-33700000000000,21550000000000,-31700000000000,-69583333000000,62633333000000,13450000000000,-12000000000000,32200000000000,-26600000000000,-66050000000000,-63800000000000,45350000000000,-23200000000000,27400000000000,-8050000000000,-7700000000000,37976316000000,-47276316000000,650000000000,84350000000000,32800000000000,250000000000,-68750000000000,53550000000000,-29250000000000,-8150000000000,37200000000000,-39150000000000,25850000000000,-26550000000000,-12800000000000,50150000000000,-14650000000000,-31450000000000,-218300000000000,-222000000000000,-17850000000000,16550000000000,-69450000000000,-52400000000000,135094444000000,364655556000000,-9500000000000,-45000000000000,43550000000000,58550000000000,-42750000000000,78023684000000,55026316000000,-16600000000000,13100000000000,39150000000000,-84750000000000,53000000000000,-7050000000000,-88650000000000,-15450000000000,86800000000000,20900000000000,-56300000000000,14750000000000,-8400000000000,-46000000000000,3750000000000,-32750000000000,41950000000000,58300000000000,43700000000000,82050000000000,-11750000000000,-20900000000000,37350000000000,22800000000000,-60800000000000,-46100000000000,8600000000000,5300000000000,-56650000000000,-29850000000000,29300000000000,-27050000000000,-7900000000000,45300000000000,-20850000000000,-58450000000000,54550000000000,-21850000000000,27844737000000,-120978070000000,18633333000000,-5500000000000,39850000000000,12000000000000,15000000000000,22250000000000,-17600000000000,48050000000000,-7350000000000,20900000000000,5950000000000,-55000000000000,-24100000000000,107250000000000,-52600000000000,-111650000000000,-52700000000000,45850000000000,-26750000000000,-24400000000000,29850000000000,-38700000000000,-51500000000000,-3292857000000,-63157143000000,12221053000000,140128947000000,37900000000000,-64200000000000,62900000000000,39650000000000,-45050000000000,-20900000000000,-42050000000000,-22750000000000,16850000000000,-36850000000000,7100000000000,20950000000000,-87700000000000,90100000000000,-54700000000000,-21700000000000,17650000000000,28550000000000,-3150000000000,-79850000000000,-34223077000000,2023077000000,82550000000000,14600000000000,22700000000000,20750000000000,43350000000000,-19850000000000,-6700000000000,35600000000000,-96450000000000,-16000000000000,85450000000000,-38150000000000,24300000000000,-8350000000000,-30400000000000,9850000000000,-94650000000000],"hashrate_average_7d":4082242600440478.5,"hashrate_average_7d_count":168,"hashrate_block":995269993832236.9,"expected_blocks":6.82,"luck":-2.8188973188040025,"multipool":7},{"url":"https:\/\/www.f2pool.com","hashrate":23579991391166250,"miners":-1,"minpay":0.1,"id":14,"pool_id":"f2pool.com","fee":3,"feetype":"PPS%3","i":2437,"income":3.8666135918644066e-15,"blocks_nr":4,"lastblock":712924,"lastblocktime":1668822504,"country":"WL|Global","blocks_1000":404,"blocks_count":33,"hashrate_average_100_count":76,"hashrate_average_100":23483093651677972,"hashrate_average_1h":23588675708699450,"history_start":1668217428,"history_interval":3600,"history_addlast":true,"history":[22373901150000000,233648750000000,67900470000000,-215169760000000,-202977370000000,561731560000000,316930000000,435650860000000,88547200000000,395192740000000,-76314350000000,259241650000000,332420000000,77545150000000,-157196720000000,2249410000000,125766460000000,-102472010000000,-96755270000000,85333270000000,138468680000000,-64646970000000,-99300950000000,43382970000000,-72358970000000,44568960000000,73876570000000,-269644730000000,14557040000000,-126219030000000,28069100000000,-97042570000000,23804350000000,6669220000000,-11115930000000,5765410000000,-412841560000000,-476689870000000,-200305710000000,-210343070000000,424388810000000,-81708710000000,69941750000000,2803330000000,105398390000000,-78713370000000,71264720000000,-553540680000000,-439649740000000,572601110000000,107371800000000,24002810000000,-276760680000000,44134460000000,251093130000000,512877420000000,873305350000000,647180660000000,-43964880000000,-61832910000000,87475570000000,-221592310000000,33854780000000,-135855670000000,254149140000000,44429770000000,23484350000000,-216092200000000,-16568310000000,93744610000000,217419460000000,102453160000000,51030110000000,-160438240000000,12335680000000,6285460000000,-152184210000000,-255968980000000,-188400640000000,-41672750000000,117584850000000,-47213890000000,-29231780000000,109678440000000,149727120000000,-92860000000,-105615770000000,-155030170000000,-244996590000000,144582760000000,-29415310000000,116209900000000,128614670000000,47662670000000,-72325730000000,133614620000000,-45121560000000,-201246090000000,-151461980000000,-207960210000000,359236760000000,213659920000000,264061820000000,4155490260000000,1050132160000000,44755790000000,-123238210000000,-97354780000000,139037600000000,87586860000000,-24305100000000,-70009790000000,-116587510000000,127957620000000,-107887200000000,-49380520000000,-179175860000000,292863970000000,524005850000000,-10106290000000,-88618220000000,-108014950000000,-152888660000000,-158208970000000,3560700000000,29242490000000,-2208393340000000,-48465750000000,13288150000000,-6642240000000,558852960000000,158678140000000,64976150000000,196410950000000,-153815410000000,24218070000000,34306600000000,-95651970000000,100412480000000,-15477110000000,-157908720000000,212635080000000,258797400000000,-180655990000000,144056240000000,119783810000000,-50308240000000,-1032409650000000,-1653096490000000,-1555451640000000,-220981700000000,-60385920000000,-117581490000000,-31631080000000,30871650000000,-72700600000000,12040410000000,-75657110000000,-163758390000000,27190620000000,-93867440000000,-88484210000000,-119260450000000,170482570000000,-54629220000000,-71192930000000,51212680000000,171882980000000],"hashrate_average_7d":25026197326726188,"hashrate_average_7d_count":168,"hashrate_block":711608898535696.1,"expected_blocks":40.22,"luck":-7.22245353797976,"multipool":33},{"url":"https:\/\/www.poolin.com","hashrate":27940000000000000,"miners":-1,"minpay":0.01,"id":3,"pool_id":"poolin.com","fee":3,"feetype":"PPS","i":13521,"json":{"err_no":0,"data":{"shares":{"shares_1m":27.211,"shares_5m":27.94,"shares_15m":27.578,"shares_1h":27.437,"shares_unit":"P"},"reject":{"1m":0,"5m":0,"15m":0.0024,"1h":0.005},"workers":1360,"users":364,"total_blocks":145570,"total_rewards":104734820963729}},"workers":1360,"netdiff":4835767476.606535,"nethash":"69231543868268216","income":4.51979e-15,"blocks_nr":19,"lastblock":712928,"lastblocktime":"1668824303","country":"US|United States","blocks_1000":432,"blocks_count":55,"hashrate_average_100_count":76,"hashrate_average_100":27893987047697370,"hashrate_average_1h":27192100000000000,"history_start":1668217428,"history_interval":3600,"history_addlast":true,"history":[27325600000000000,206450000000000,-1149800000000000,1290600000000000,370900000000000,-477381580000000,346052630000000,-703721050000000,606900000000000,-607200000000000,654850000000000,241950000000000,497850000000000,360600000000000,-223850000000000,-99300000000000,114916670000000,-99866670000000,-166865790000000,130815790000000,-133750000000000,-442800000000000,94400000000000,-519200000000000,288350000000000,-2639250000000000,-1889800000000000,3707750000000000,641010530000000,-148421060000000,-446389470000000,140850000000000,181800000000000,152550000000000,-426050000000000,-362500000000000,1057500000000000,-544600000000000,-367750000000000,889400000000000,483300000000000,-458700000000000,317000000000000,-208100000000000,-1037900000000000,-1031300000000000,758800000000000,10300000000000,-126250000000000,-1432000000000000,649000000000000,512450000000000,616850000000000,-190383330000000,-567116670000000,-806550000000000,790500000000000,554500000000000,-181800000000000,-74600000000000,6347370000000,-157347370000000,-190450000000000,494650000000000,83650000000000,-222100000000000,-34500000000000,-60650000000000,-221450000000000,16450000000000,68800000000000,233500000000000,299600000000000,-473850000000000,200800000000000,-631900000000000,688850000000000,-336000000000000,271600000000000,360800000000000,-153100000000000,53550000000000,-532950000000000,-899400000000000,400800000000000,276000000000000,-302000000000000,-102450000000000,221450000000000,158400000000000,203850000000000,622607890000000,-155607890000000,183700000000000,297950000000000,190350000000000,841100000000000,316200000000000,-6100000000000,-210700000000000,-742050000000000,231846150000000,634653850000000,-40250000000000,-132800000000000,91550000000000,56900000000000,-152450000000000,166750000000000,449450000000000,-721000000000000,26150000000000,687200000000000,-98150000000000,189550000000000,-267850000000000,29050000000000,-1088126320000000,-5222373680000000,-430200000000000,-1318850000000000,-414150000000000,-150000000000,-209850000000000,52850000000000,936964290000000,-56264290000000,71550000000000,5170950000000000,926450000000000,-98650000000000,-176200000000000,-1017050000000000,-215500000000000,72350000000000,8050000000000,-313150000000000,-494500000000000,679800000000000,73700000000000,-477200000000000,370350000000000,-77100000000000,14000000000000,331250000000000,-75900000000000,-326600000000000,646300000000000,94700000000000,-1280978570000000,990828570000000,2355450000000000,-1871200000000000,724200000000000,1800600000000000,615950000000000,-190600000000000,-780350000000000,1617400000000000,-63850000000000,117000000000000,-1419250000000000,-2448500000000000,-129250000000000,-76350000000000,96550000000000,1260500000000000,-203100000000000],"hashrate_average_7d":26685025106130964,"hashrate_average_7d_count":168,"hashrate_block":507163400867224.9,"expected_blocks":47.78,"luck":7.222453537979767,"multipool":15}],"hashblock":{"hashrate_average_100":51377080699375340,"blocks_count":88,"pools":[[995269993832236.9,4,248817498458059.22,"https:\/\/pool.btc.com"],[711608898535696.1,33,21563906016233.215,"https:\/\/www.f2pool.com"],[507163400867224.9,55,9221152743040.453,"https:\/\/www.poolin.com"]],"hashrate_block_all":601719137768524.9,"hashrate_block_min":9221152743040.453,"hashrate_block_max":248817498458059.22,"pool_hashblock_average":93200852405777.62,"hashrate_block":583830462492901.6},"time":1668825646,"hashrate":68370000000000010,"difficulty":4835767476.606535,"height":712928,"symbol":"DCR","maxhash":27940000000000000,"poolshash":69758047590800170,"nethash_estimat":58383046249290160,"poolsminers":1482,"supply":{"circulating":14515935.97784444,"total":21000000,"emission24":2282},"block_time_target":300,"block_height_ok":true,"algo":"Blake256R14","hashrate_from_diff":false,"hashrate_src":"https:\/\/lab.antpool.com","unit":"H\/s","block_time_average":335,"minerstat":[1.7082442045521e-16,19.772211969749,0.98553653,4156],"link":{"coingecko":"decred","cmc":"decred","whattomine":"152-dcr-blake (14r)","coin360":"decred-dcr","coinpaprika":"dcr-decred"},"latest_release":{"tag":"release-v1.7.5","name":"dcrd v1.7.5","t":1665429869},"price":19.63}