{"data":[{"url":"https:\/\/www.okx.com\/pool","hashrate":8910000000000,"miners":-1,"minpay":-1,"id":23,"pool_id":"okx.com","i":1624,"workers":1,"lastblock":630904,"feetype":"PPLNS","fee":2,"country":"HK|Hong Kong","hashrate_average_100_count":80,"hashrate_average_100":9156112182617.188,"hashrate_average_1h":9084285714285.715,"history_start":1667443244,"history_interval":3600,"history_addlast":true,"history":[8839500000000,959500000000,-168500000000,-534000000000,-1317000000000,1299500000000,-495500000000,844500000000,-84000000000,25500000000,-616500000000,85500000000,-26500000000,-327500000000,264000000000,530500000000,-574000000000,136000000000,-40500000000,340000000000,1349500000000,-1962000000000,221500000000,-221000000000,574000000000,342500000000,-725000000000,575500000000,-279710526000,90710526000,-114000000000,418000000000,-506000000000,548000000000,-372500000000,-99500000000,170000000000,-347000000000,620000000000,254000000000,-1161000000000,-548500000000,219894737000,1597605263000,-1724500000000,2235500000000,-822500000000,175500000000,794000000000,-662000000000,357000000000,-1561000000000,837205882000,-425816993000,488479532000,-1221368421000,700500000000,-935000000000,223500000000,672500000000,-262500000000,-106500000000,284000000000,917000000000,-775500000000,-287000000000,338000000000,-166500000000,651000000000,-68500000000,-832500000000,200500000000,734000000000,-1038500000000,1488000000000,-822500000000,183333333000,-373333333000,826000000000,-2600000000000,2663000000000,732000000000,-1073000000000,935000000000,-1150500000000,163500000000,188000000000,-641500000000,-883500000000,2341000000000,-2356500000000,1383500000000,-1304500000000,846000000000,-647500000000,660500000000,-525000000000,262000000000,-464500000000,561000000000,241666667000,-1410666667000,1679000000000,-1412000000000,92000000000,397000000000,1196000000000,-905500000000,1007000000000,-749500000000,79500000000,-188500000000,661500000000,722500000000,-1373000000000,-297500000000,139000000000,1202000000000,-970000000000,-223500000000,576500000000,-154500000000,1070500000000,-2109000000000,-569071429000,1639571429000,-190000000000,876000000000,-1219000000000,578500000000,-402000000000,-545000000000,1328500000000,-482500000000,-648500000000,756000000000,511500000000,-276500000000,-1574000000000,2018500000000,-750500000000,242500000000,-649000000000,-217000000000,-255000000000,553000000000,305500000000,226000000000,-772285714000,1273730158000,-901944444000,-703000000000,-273000000000,1068500000000,-916500000000,464000000000,801944444000,-99444444000,-683500000000,-187500000000,1727500000000,-776500000000,-238000000000,-190500000000,554500000000,-888500000000,233000000000,168785714000],"hashrate_average_7d":9054243838464.287,"hashrate_average_7d_count":168,"expected_blocks":0.01,"multipool":5},{"url":"https:\/\/www2.coinmine.pl\/dcr","hashrate":846467804650537,"miners":-1,"minpay":0.05,"id":5,"pool_id":"coinmine.pl","i":12398,"workers":31,"blocks_nr":5,"lastblock":710081,"lastblocktime":"1667955457","fee":1,"feetype":"PPLNS","height":710364,"country":"WL|EU , US , Asia","blocks_1000":11,"hashrate_average_100_count":80,"hashrate_average_100":880285970381932.2,"hashrate_average_1h":862091665234759.8,"history_start":1667443244,"history_interval":3600,"history_addlast":true,"history":[486198012400000,17321640800000,16514177500000,13999412400000,104479751200000,-23131992500000,-8399182500000,19568060600000,-7855930100000,2815798000000,-13357626600000,1336387400000,4851885000000,-51693657600000,23147917800000,24560408500000,-65479274500000,-14635607400000,2634798100000,-14033765100000,10915897800000,1399538100000,6121579900000,-27095621100000,13593078000000,-12688463700000,15545003100000,4408702300000,8841104500000,-18206322800000,-9144574300000,37052230400000,-17747157300000,6958850400000,10207516200000,-33130950200000,18792426300000,4199391300000,-11214644700000,-5833904800000,4119887600000,12980541200000,-10890995700000,414747200000,1887013300000,8038130900000,-13819461000000,-7695317400000,-91607288400000,1864266800000,-32599714500000,30262667200000,-10092336300000,-4070976000000,118809471000000,153227233400000,60979300800000,1526655800000,-5191477800000,40234119000000,-45840770600000,3189583300000,7294064000000,-5428051200000,-13925404000000,-1791830900000,-28026207700000,28490925600000,-5113774000000,-28552956900000,30136971400000,5959547100000,-3604745600000,8778951600000,-2893782800000,10566578600000,51749048900000,50102986600000,-3956535500000,6769979900000,5196125400000,-22055503400000,22251775300000,4375625000000,-5399759400000,5348544900000,-20195230500000,24309977000000,-14890801300000,-11942930900000,8300654500000,-2767616500000,-12494195600000,14925621200000,3431470300000,-22743681500000,10741335200000,-70468768800000,-230023763200000,-11832716300000,1902111600000,11926113200000,118388219700000,184044233000000,11831726700000,14849356800000,-62570189500000,33979360800000,15291114900000,39508889800000,-20559972800000,-2891928900000,-24159415900000,188420000000,-15992402800000,10338063400000,-9668771600000,24351186400000,-200672000000,-6859864500000,-5448835000000,23635740300000,16574821000000,67787756300000,12928317400000,1610458300000,-44204184200000,15092868500000,-3835640600000,13208116800000,-16193831800000,7132442300000,-1507190200000,2876265400000,-15598130700000,34224437700000,-10468376000000,-981770200000,16958827800000,-8108136700000,-28884077500000,16784849600000,-7059254400000,46462809600000,-43610489000000,6883464100000,9341741400000,-29273633400000,12517667900000,22358507500000,-75940723600000,25965168300000,31061072000000,-50315652300000,8095417500000,6954611300000,-32922789600000,19368295200000,40024802200000,-4194956900000,-34135851500000,-16479864200000,-5911956800000,14705320700000,-32169279500000,12048488900000,-7858091400000,10734435300000],"hashrate_average_7d":737259587502976,"hashrate_average_7d_count":168,"expected_blocks":1.41,"multipool":6},{"url":"https:\/\/lab.antpool.com","hashrate":3930000000000000,"miners":-1,"minpay":0.1,"id":11,"pool_id":"antpool.com","i":2075,"nethash":62350000000000000,"netdiff":4953202438,"feetype":"PPS","fee":3,"income":3.9136202e-15,"lastblock":710053,"lastblocktime":"1667950017","country":"WL|Global","blocks_1000":1,"hashrate_average_100_count":80,"hashrate_average_100":3767559936523437.5,"hashrate_average_1h":3862857142857143,"history_start":1667443244,"history_interval":3600,"history_addlast":true,"history":[4228500000000000,-32500000000000,-30000000000000,-3000000000000,-68500000000000,68500000000000,40500000000000,-34000000000000,-5500000000000,-3500000000000,4000000000000,-3500000000000,-79500000000000,92500000000000,-89000000000000,58500000000000,-23000000000000,18000000000000,-33500000000000,33500000000000,15500000000000,-32000000000000,-17500000000000,76500000000000,17500000000000,-48000000000000,4000000000000,35000000000000,-112657895000000,57657895000000,32000000000000,-37000000000000,7000000000000,-53500000000000,15500000000000,-189000000000000,17500000000000,215500000000000,-58000000000000,31000000000000,-92000000000000,61000000000000,67078947000000,-20078947000000,19000000000000,-42500000000000,10000000000000,-18000000000000,81500000000000,-130500000000000,17000000000000,67500000000000,94500000000000,191578947000000,37368421000000,-55947368000000,-196000000000000,-101000000000000,-80500000000000,104500000000000,-26000000000000,53000000000000,-86500000000000,2500000000000,-13500000000000,37500000000000,-99500000000000,150500000000000,1000000000000,-13500000000000,-14000000000000,24000000000000,6500000000000,-60000000000000,-80500000000000,9000000000000,28250000000000,119250000000000,-82000000000000,-30000000000000,17500000000000,47000000000000,-56000000000000,-22500000000000,11500000000000,-26500000000000,-10000000000000,15000000000000,22000000000000,52500000000000,-9500000000000,-23000000000000,19000000000000,-9500000000000,-14000000000000,-15000000000000,-25000000000000,-978500000000000,1061000000000000,18000000000000,52000000000000,41000000000000,55500000000000,-83000000000000,-13000000000000,-169500000000000,-181000000000000,-5000000000000,500000000000,-33500000000000,-139500000000000,33500000000000,47000000000000,23500000000000,23000000000000,-54500000000000,52000000000000,-84000000000000,-72500000000000,228500000000000,559000000000000,0,-346500000000000,-692500000000000,706857143000000,-86857143000000,-26000000000000,-2500000000000,62500000000000,-8000000000000,-20000000000000,4000000000000,-35500000000000,-81000000000000,5000000000000,-24500000000000,-49500000000000,-284500000000000,107000000000000,63000000000000,-50500000000000,108000000000000,112500000000000,57000000000000,57500000000000,1000000000000,-107000000000000,-64500000000000,61428571000000,-84323308000000,-32605263000000,49500000000000,46000000000000,-8500000000000,-4000000000000,10000000000000,-6944444000000,12944444000000,-37500000000000,-2000000000000,-54500000000000,83000000000000,-65500000000000,-69500000000000,-89000000000000,24500000000000,-19000000000000,233857143000000],"hashrate_average_7d":4010666672875002,"hashrate_average_7d_count":168,"expected_blocks":6.02,"multipool":16},{"url":"https:\/\/pool.btc.com","hashrate":3821000000000000,"miners":-1,"minpay":0.1,"id":4,"pool_id":"pool.btc.com","feetype":"PPS","i":14412,"workers":91,"income":4.0346540120077e-15,"i_blocks":14454,"json_blocks":{"err_no":0,"data":{"blocks":{"current_page":1,"data":[{"height":710362,"is_orphaned":0,"hash":"00000000000000008d760bb5829d9a8ca3eb424bc44af6f1ecbdfeb26596fca0","rewards":"0.99343280","size":46072,"prev_hash":"000000000000000022d499ad18b9c671eea990c372fb12023beaf72395889807","bits":419487226,"version":9,"created_at":1668048599,"region_id":36,"region_name":"BitDeer"},{"height":710361,"is_orphaned":0,"hash":"000000000000000022d499ad18b9c671eea990c372fb12023beaf72395889807","rewards":"0.99343280","size":9255,"prev_hash":"00000000000000001a0419d80576309fa16aecbeae55149da1b2e6b2e66b9f53","bits":419487226,"version":9,"created_at":1668048417,"region_id":34,"region_name":"America"},{"height":710358,"is_orphaned":0,"hash":"00000000000000002d4f9c6444f399255372f09c7428b0578dea29fc1810dabd","rewards":"0.99343280","size":22858,"prev_hash":"00000000000000007824f03db81e5862d3812f936a82321bb3c60deadb11907a","bits":419487226,"version":9,"created_at":1668047861,"region_id":34,"region_name":"America"},{"height":710338,"is_orphaned":0,"hash":"00000000000000009bd77e3a41f424aff887e94f2ac658e9f0d59efdbc8b0811","rewards":"0.99343280","size":5119,"prev_hash":"00000000000000000f1d5ea9414f844d19ceb15c68e101cf8830ff53bba0eae9","bits":419482423,"version":9,"created_at":1668038651,"region_id":36,"region_name":"BitDeer"},{"height":710334,"is_orphaned":0,"hash":"0000000000000000a845b9978578aefbd666c4854b22814884e00db27d7748b0","rewards":"0.99343280","size":3653,"prev_hash":"0000000000000000a0bc74180c1b91d54c864b45250beab65d62593a8814f849","bits":419482423,"version":9,"created_at":1668037168,"region_id":36,"region_name":"BitDeer"},{"height":710289,"is_orphaned":0,"hash":"00000000000000006e8603aa407f367be94141ec3d21e8f2205b3ab570fe4898","rewards":"0.99343280","size":8116,"prev_hash":"0000000000000000bd1973e17c582b07143011d2962c568dcb055a38ce113c2c","bits":419482423,"version":9,"created_at":1668020169,"region_id":34,"region_name":"America"},{"height":710280,"is_orphaned":0,"hash":"000000000000000019f771410f44ff0e749673fd979bb417ebf0ba72a85a8984","rewards":"0.99343280","size":11465,"prev_hash":"00000000000000000b6e6e283bd89218f560bb561d78473af78de9325282f87c","bits":419482423,"version":9,"created_at":1668015501,"region_id":36,"region_name":"BitDeer"},{"height":710261,"is_orphaned":0,"hash":"0000000000000000682744031fb9217bf28b8e715716365bc31985289fd01655","rewards":"0.99343280","size":69459,"prev_hash":"0000000000000000b17355a97f241102258c0b691cc181f8816f68419080168b","bits":419482423,"version":9,"created_at":1668009579,"region_id":34,"region_name":"America"},{"height":710230,"is_orphaned":0,"hash":"0000000000000000bf2d52ab097deb005facca348bfc55c9cd767a6bebc99407","rewards":"0.99343280","size":3121,"prev_hash":"0000000000000000534519b37d1daf8634c95ad8d3eda06c58e58dec8c903469","bits":419482423,"version":9,"created_at":1667997744,"region_id":34,"region_name":"America"},{"height":710212,"is_orphaned":0,"hash":"00000000000000007a054bd781e1ba62a14bd5d41c76effaa9c19e08240a351d","rewards":"0.99343280","size":32964,"prev_hash":"0000000000000000070da98fece74d14efc3a14a5668f252909b3ff384810fd9","bits":419482423,"version":9,"created_at":1667991832,"region_id":36,"region_name":"BitDeer"}],"first_page_url":"https:\/\/eu-api.connectbtc.com\/\/public\/v1\/pool\/blocks\/merge?order_by=desc&page_size=10&page=1","from":1,"last_page":2223,"last_page_url":"https:\/\/eu-api.connectbtc.com\/\/public\/v1\/pool\/blocks\/merge?order_by=desc&page_size=10&page=2223","next_page_url":"https:\/\/eu-api.connectbtc.com\/\/public\/v1\/pool\/blocks\/merge?order_by=desc&page_size=10&page=2","path":"https:\/\/eu-api.connectbtc.com\/\/public\/v1\/pool\/blocks\/merge","per_page":10,"prev_page_url":null,"to":10,"total":22224},"blocks_count":22224,"rewards_count":"190608.63405296"},"trace_id":"a4ab1cc3-44c9-4c58-b6a8-2324acb4f1f0"},"blocks_nr":10,"lastblock":710362,"lastblocktime":"1668048599","country":"WL|CN , EU , US","blocks_1000":57,"blocks_count":7,"hashrate_average_100_count":80,"hashrate_average_100":3762909545898437.5,"hashrate_average_1h":3804714285714285.5,"history_start":1667443244,"history_interval":3600,"history_addlast":true,"history":[3792050000000000,-29000000000000,7450000000000,47900000000000,-27900000000000,-7050000000000,15400000000000,-30750000000000,-54200000000000,12950000000000,75350000000000,43850000000000,-33550000000000,-25950000000000,11350000000000,-3450000000000,19500000000000,-64650000000000,1650000000000,62050000000000,-11750000000000,-22450000000000,-96000000000000,-38950000000000,49750000000000,10150000000000,21900000000000,17500000000000,3586842000000,-50936842000000,-25500000000000,-12750000000000,65650000000000,-89000000000000,350000000000,18950000000000,18550000000000,63300000000000,29500000000000,45950000000000,11150000000000,-67450000000000,-24342105000000,-104907895000000,16850000000000,-8400000000000,15150000000000,48200000000000,-13950000000000,51400000000000,3200000000000,23950000000000,-8355882000000,-50715171000000,-18728947000000,65000000000000,35150000000000,-37150000000000,-34700000000000,36000000000000,54150000000000,24800000000000,20650000000000,71800000000000,-40400000000000,-54400000000000,-59150000000000,-39450000000000,12950000000000,79000000000000,-52500000000000,-71700000000000,-39300000000000,-16350000000000,17250000000000,20150000000000,-42650000000000,-16300000000000,63100000000000,82650000000000,-13950000000000,5650000000000,-8000000000000,36950000000000,16250000000000,-39900000000000,-37850000000000,4550000000000,-22150000000000,-23750000000000,-28450000000000,-29550000000000,-13150000000000,114200000000000,3500000000000,9400000000000,-68250000000000,-57000000000000,-23400000000000,5100000000000,67950000000000,35450000000000,-22100000000000,6750000000000,-28250000000000,30500000000000,-39900000000000,14050000000000,-69950000000000,-23650000000000,62100000000000,44800000000000,-4250000000000,-117200000000000,34900000000000,-22450000000000,27750000000000,28200000000000,-24900000000000,0,16900000000000,28500000000000,10650000000000,-90250000000000,26178571000000,-1328571000000,-15500000000000,59750000000000,116250000000000,-40300000000000,-29400000000000,-12700000000000,-49350000000000,25800000000000,122450000000000,-47950000000000,-81800000000000,-30050000000000,14050000000000,-23500000000000,-15350000000000,14700000000000,-29400000000000,-44000000000000,98750000000000,35650000000000,37050000000000,8150000000000,37885714000000,72658730000000,-73744444000000,14950000000000,74650000000000,-55200000000000,-40200000000000,41250000000000,-70483333000000,88333333000000,-21750000000000,13600000000000,-13750000000000,13250000000000,-101600000000000,-10900000000000,31200000000000,164700000000000,-39150000000000,-17385714000000],"hashrate_average_7d":3705310461214285.5,"hashrate_average_7d_count":168,"hashrate_block":537558506556919.6,"expected_blocks":6.01,"luck":0.9886337436937174,"multipool":7},{"url":"https:\/\/www.f2pool.com","hashrate":23402161608514024,"miners":-1,"minpay":0.1,"id":14,"pool_id":"f2pool.com","fee":3,"feetype":"PPS%3","i":2444,"income":3.8126898634292005e-15,"blocks_nr":9,"lastblock":710363,"lastblocktime":1668048602,"country":"WL|Global","blocks_1000":476,"blocks_count":45,"hashrate_average_100_count":80,"hashrate_average_100":29640886690878988,"hashrate_average_1h":23375894593469576,"history_start":1667443244,"history_interval":3600,"history_addlast":true,"history":[55807745270000000,-281404660000000,739915410000000,-203453310000000,-864164140000000,1099739110000000,-311237530000000,287015920000000,392493510000000,127815080000000,-239992880000000,-485128380000000,276147920000000,-757013490000000,761149190000000,-665034240000000,-1402379000000000,-444853530000000,1673817100000000,625591160000000,-113450940000000,-5943023340000000,-4638767790000000,711275910000000,2348284540000000,7483454150000000,659184830000000,-415620730000000,451120020000000,-2591259900000000,-5605630580000000,720808530000000,1384254220000000,6299577430000000,-553809970000000,-862841380000000,716821750000000,764046270000000,139318980000000,-1109852180000000,933613680000000,465450010000000,-124190080000000,-191849070000000,-2344178510000000,-8828232800000000,515881300000000,-194811830000000,-1068303320000000,4211743500000000,5904122140000000,176836230000000,117057470000000,-143154270000000,-735284810000000,2550504980000000,321013300000000,-645291310000000,473797150000000,-695795390000000,823925460000000,-305005620000000,-132879400000000,-381422070000000,1363010000000000,-58650810000000,-13141527520000000,13432778150000000,-862588220000000,-10530284040000000,16168420000000,-140570130000000,2662181340000000,7897595550000000,560889510000000,-330192550000000,501249180000000,-249051310000000,-868280210000000,1392114270000000,-111065980000000,-118031550000000,478020400000000,-142855230000000,311772740000000,-209408010000000,-166739660000000,186406980000000,-1071811500000000,859376130000000,175931700000000,-145016740000000,-5688665570000000,-6295586410000000,969154530000000,51325220000000,1240521330000000,8268778560000000,1110616650000000,1019022240000000,508478670000000,42263330000000,-8257841270000000,-14423642340000000,-2448685260000000,-150275850000000,-244080880000000,-2128079130000000,1994554810000000,314607500000000,-160225770000000,-91570350000000,153853680000000,-20395800000000,-250932950000000,22682620000000,139455200000000,76690830000000,174557530000000,-3100520590000000,-7622663560000000,6746312370000000,3940758620000000,29206690000000,-194215100000000,9106450000000,289871670000000,-124055970000000,247420000000,-79860560000000,-24862440000000,139611280000000,-44836340000000,61952830000000,12351760000000,236792430000000,-223121560000000,-113821700000000,-57608610000000,37618030000000,-109483580000000,-3013820000000,167363250000000,-113256640000000,-307373960000000,-136450910000000,16605260000000,-925255600000000,-717824730000000,-353318330000000,-9787050000000,-18286350000000,387958310000000,394240570000000,-173758490000000,-73784930000000,201927040000000,-60445820000000,21961850000000,321818820000000,-144192630000000,-108291680000000,-127690260000000,-1002633760000000,-7874488010000000,-163629430000000,-41161920000000,107677170000000],"hashrate_average_7d":46302528041547640,"hashrate_average_7d_count":168,"hashrate_block":658686370908422,"expected_blocks":47.35,"luck":-2.3522480110546766,"multipool":33},{"url":"https:\/\/www.poolin.com","hashrate":20904000000000000,"miners":-1,"minpay":0.01,"id":3,"pool_id":"poolin.com","fee":3,"feetype":"PPS","i":13473,"json":{"err_no":0,"data":{"shares":{"shares_1m":20.08,"shares_5m":20.904,"shares_15m":20.892,"shares_1h":21.852,"shares_unit":"P"},"reject":{"1m":0,"5m":0,"15m":0.0051,"1h":0.0036},"workers":1398,"users":375,"total_blocks":144420,"total_rewards":104621202939649}},"workers":1398,"netdiff":4953202438.027663,"nethash":"70912808272258225","income":4.41263e-15,"blocks_nr":17,"lastblock":710364,"lastblocktime":"1668048617","country":"US|United States","blocks_1000":401,"blocks_count":44,"hashrate_average_100_count":80,"hashrate_average_100":26688918298339844,"hashrate_average_1h":20646571428571428,"history_start":1667443244,"history_interval":3600,"history_addlast":true,"history":[27745500000000000,-768289470000000,281239470000000,-216500000000000,-166000000000000,175950000000000,46450000000000,-118500000000000,-71800000000000,370600000000000,1950000000000,-161750000000000,-2950000000000,99800000000000,18650000000000,208000000000000,116650000000000,-101550000000000,-53600000000000,-280550000000000,-14350000000000,-409055260000000,-237894740000000,304650000000000,52850000000000,-482650000000000,22100000000000,-1238002630000000,61789470000000,1036713160000000,-355050000000000,-44450000000000,-494750000000000,113650000000000,550500000000000,-283500000000000,581850000000000,363150000000000,-26200000000000,40000000000000,-257300000000000,134900000000000,-442828950000000,-630271050000000,283150000000000,326250000000000,-490700000000000,-2034450000000000,2686350000000000,336950000000000,269700000000000,-372400000000000,-104647060000000,2804950000000,325592110000000,1050000000000,-104000000000000,110276920000000,78423080000000,49900000000000,-49150000000000,-215300000000000,71450000000000,-167000000000000,179750000000000,0,-177600000000000,-36850000000000,-663200000000000,-286700000000000,376300000000000,-34450000000000,-263000000000000,2441300000000000,5128600000000000,-188950000000000,-203975000000000,151575000000000,418550000000000,602650000000000,-570550000000000,-49750000000000,393550000000000,611700000000000,-22750000000000,-5460600000000000,-1775000000000000,-240150000000000,-282700000000000,428350000000000,-774050000000000,335250000000000,-17400000000000,-671150000000000,937500000000000,-185650000000000,-54600000000000,-50500000000000,438650000000000,-138650000000000,17833330000000,231866670000000,-94200000000000,657100000000000,-70400000000000,-44800000000000,-149650000000000,52450000000000,-45300000000000,105950000000000,-224000000000000,142200000000000,76350000000000,43750000000000,99800000000000,-228950000000000,424100000000000,543900000000000,-227600000000000,-1548150000000000,914850000000000,519250000000000,120900000000000,272500000000000,1287350000000000,6186600000000000,-657300000000000,699800000000000,174000000000000,-82250000000000,-984850000000000,342700000000000,-94350000000000,-570650000000000,922600000000000,-152700000000000,-195650000000000,277200000000000,-99150000000000,-412950000000000,-92300000000000,358050000000000,-655100000000000,229150000000000,-6775850000000000,-830350000000000,225600000000000,138100000000000,165850000000000,174077780000000,-209677780000000,-238700000000000,-253600000000000,-630050000000000,454700000000000,523650000000000,-60322220000000,-340077780000000,383300000000000,23500000000000,-66050000000000,-407150000000000,696300000000000,-468600000000000,-12850000000000,-385250000000000,-3627650000000000,-2671178570000000],"hashrate_average_7d":28204273414285730,"hashrate_average_7d_count":168,"hashrate_block":606566324962269.1,"expected_blocks":42.64,"luck":1.3636142673609513,"multipool":15}],"hashblock":{"hashrate_average_100":60092714535117260,"blocks_count":96,"pools":[[537558506556919.6,7,76794072365274.23,"https:\/\/pool.btc.com"],[658686370908422,45,14637474909076.045,"https:\/\/www.f2pool.com"],[606566324962269.1,44,13785598294597.025,"https:\/\/www.poolin.com"]],"hashrate_block_all":625965776407471.5,"hashrate_block_min":13785598294597.025,"hashrate_block_max":76794072365274.23,"pool_hashblock_average":35072381856315.77,"hashrate_block":625965776407471.5},"time":1668049123,"hashrate":62350000000000000,"difficulty":4953202438.027663,"height":710364,"symbol":"DCR","maxhash":23402161608514024,"poolshash":52912539413164560,"nethash_estimat":62596577640747150,"poolsminers":1521,"supply":{"circulating":14493147.54809304,"total":21000000,"emission24":2253},"block_time_target":300,"block_height_ok":true,"algo":"Blake256R14","hashrate_from_diff":false,"hashrate_src":"https:\/\/lab.antpool.com","unit":"H\/s","block_time_average":342,"minerstat":[1.6817862795879e-16,19.547156942616,0.9938349,3796],"link":{"coingecko":"decred","cmc":"decred","whattomine":"152-dcr-blake (14r)","coin360":"decred-dcr","coinpaprika":"dcr-decred"},"latest_release":{"tag":"release-v1.7.5","name":"dcrd v1.7.5","t":1665429869},"price":19.54}