{"data":[{"url":"https:\/\/www.okx.com\/pool","hashrate":8870000000000,"miners":-1,"minpay":-1,"id":23,"pool_id":"okx.com","i":1624,"workers":1,"lastblock":630904,"feetype":"PPLNS","fee":2,"country":"HK|Hong Kong","hashrate_average_100_count":80,"hashrate_average_100":9078912780761.719,"hashrate_average_1h":8854285714285.715,"history_start":1667529645,"history_interval":3600,"history_addlast":true,"history":[9102500000000,342500000000,-725000000000,575500000000,-279710526000,90710526000,-114000000000,418000000000,-506000000000,548000000000,-372500000000,-99500000000,170000000000,-347000000000,620000000000,254000000000,-1161000000000,-548500000000,219894737000,1597605263000,-1724500000000,2235500000000,-822500000000,175500000000,794000000000,-662000000000,357000000000,-1561000000000,837205882000,-425816993000,488479532000,-1221368421000,700500000000,-935000000000,223500000000,672500000000,-262500000000,-106500000000,284000000000,917000000000,-775500000000,-287000000000,338000000000,-166500000000,651000000000,-68500000000,-832500000000,200500000000,734000000000,-1038500000000,1488000000000,-822500000000,183333333000,-373333333000,826000000000,-2600000000000,2663000000000,732000000000,-1073000000000,935000000000,-1150500000000,163500000000,188000000000,-641500000000,-883500000000,2341000000000,-2356500000000,1383500000000,-1304500000000,846000000000,-647500000000,660500000000,-525000000000,262000000000,-464500000000,561000000000,241666667000,-1410666667000,1679000000000,-1412000000000,92000000000,397000000000,1196000000000,-905500000000,1007000000000,-749500000000,79500000000,-188500000000,661500000000,722500000000,-1373000000000,-297500000000,139000000000,1202000000000,-970000000000,-223500000000,576500000000,-154500000000,1070500000000,-2109000000000,-569071429000,1639571429000,-190000000000,876000000000,-1219000000000,578500000000,-402000000000,-545000000000,1328500000000,-482500000000,-648500000000,756000000000,511500000000,-276500000000,-1574000000000,2018500000000,-750500000000,242500000000,-649000000000,-217000000000,-255000000000,553000000000,305500000000,226000000000,-772285714000,1273730158000,-901944444000,-703000000000,-273000000000,1068500000000,-916500000000,464000000000,801944444000,-99444444000,-683500000000,-187500000000,1727500000000,-776500000000,-238000000000,-190500000000,554500000000,-888500000000,233000000000,895026316000,-1102631579000,960605263000,-1750500000000,1942500000000,-347166667000,-651833333000,77500000000,-120500000000,778500000000,-100000000000,-186500000000,-630000000000,-36000000000,400000000000,452500000000,542000000000,-1349000000000,142000000000,204500000000,-339000000000,-135500000000,298000000000,-84500000000,78785714000],"hashrate_average_7d":9066051900285.717,"hashrate_average_7d_count":168,"expected_blocks":0.02,"multipool":5},{"url":"https:\/\/www2.coinmine.pl\/dcr","hashrate":892609630381800,"miners":-1,"minpay":0.05,"id":5,"pool_id":"coinmine.pl","i":12398,"workers":32,"blocks_nr":5,"lastblock":710432,"lastblocktime":"1668079256","fee":1,"feetype":"PPLNS","height":710585,"country":"WL|EU , US , Asia","blocks_1000":8,"hashrate_average_100_count":80,"hashrate_average_100":835799736825987.5,"hashrate_average_1h":881747697241847,"history_start":1667529645,"history_interval":3600,"history_addlast":true,"history":[523775686100000,-12688463700000,15545003100000,4408702300000,8841104500000,-18206322800000,-9144574300000,37052230400000,-17747157300000,6958850400000,10207516200000,-33130950200000,18792426300000,4199391300000,-11214644700000,-5833904800000,4119887600000,12980541200000,-10890995700000,414747200000,1887013300000,8038130900000,-13819461000000,-7695317400000,-91607288400000,1864266800000,-32599714500000,30262667200000,-10092336300000,-4070976000000,118809471000000,153227233400000,60979300800000,1526655800000,-5191477800000,40234119000000,-45840770600000,3189583300000,7294064000000,-5428051200000,-13925404000000,-1791830900000,-28026207700000,28490925600000,-5113774000000,-28552956900000,30136971400000,5959547100000,-3604745600000,8778951600000,-2893782800000,10566578600000,51749048900000,50102986600000,-3956535500000,6769979900000,5196125400000,-22055503400000,22251775300000,4375625000000,-5399759400000,5348544900000,-20195230500000,24309977000000,-14890801300000,-11942930900000,8300654500000,-2767616500000,-12494195600000,14925621200000,3431470300000,-22743681500000,10741335200000,-70468768800000,-230023763200000,-11832716300000,1902111600000,11926113200000,118388219700000,184044233000000,11831726700000,14849356800000,-62570189500000,33979360800000,15291114900000,39508889800000,-20559972800000,-2891928900000,-24159415900000,188420000000,-15992402800000,10338063400000,-9668771600000,24351186400000,-200672000000,-6859864500000,-5448835000000,23635740300000,16574821000000,67787756300000,12928317400000,1610458300000,-44204184200000,15092868500000,-3835640600000,13208116800000,-16193831800000,7132442300000,-1507190200000,2876265400000,-15598130700000,34224437700000,-10468376000000,-981770200000,16958827800000,-8108136700000,-28884077500000,16784849600000,-7059254400000,46462809600000,-43610489000000,6883464100000,9341741400000,-29273633400000,12517667900000,22358507500000,-75940723600000,25965168300000,31061072000000,-50315652300000,8095417500000,6954611300000,-32922789600000,19368295200000,40024802200000,-4194956900000,-34135851500000,-16479864200000,-5911956800000,14705320700000,-32169279500000,12048488900000,-7858091400000,-4302539600000,36437966100000,-22393549800000,10815111000000,7940993500000,-28408035700000,55454731600000,-20915496600000,-122402554400000,28322697900000,-7089148800000,-18743423000000,29202021800000,2442921000000,-12160845900000,-130817103100000,138603834500000,26007337800000,-3749123500000,-17021280100000,96706144700000,19575646200000,-1694127600000,-24541837700000,-6879873000000],"hashrate_average_7d":775286462221428.5,"hashrate_average_7d_count":168,"expected_blocks":1.65,"multipool":6},{"url":"https:\/\/lab.antpool.com","hashrate":3760000000000000,"miners":-1,"minpay":0.1,"id":11,"pool_id":"antpool.com","i":2075,"nethash":50550000000000000,"netdiff":3941890368,"feetype":"PPS","fee":3,"income":4.9176769000000004e-15,"lastblock":710053,"lastblocktime":"1667950017","country":"WL|Global","blocks_1000":1,"hashrate_average_100_count":80,"hashrate_average_100":3645282409667969,"hashrate_average_1h":3670000000000000,"history_start":1667529645,"history_interval":3600,"history_addlast":true,"history":[4198500000000000,-48000000000000,4000000000000,35000000000000,-112657895000000,57657895000000,32000000000000,-37000000000000,7000000000000,-53500000000000,15500000000000,-189000000000000,17500000000000,215500000000000,-58000000000000,31000000000000,-92000000000000,61000000000000,67078947000000,-20078947000000,19000000000000,-42500000000000,10000000000000,-18000000000000,81500000000000,-130500000000000,17000000000000,67500000000000,94500000000000,191578947000000,37368421000000,-55947368000000,-196000000000000,-101000000000000,-80500000000000,104500000000000,-26000000000000,53000000000000,-86500000000000,2500000000000,-13500000000000,37500000000000,-99500000000000,150500000000000,1000000000000,-13500000000000,-14000000000000,24000000000000,6500000000000,-60000000000000,-80500000000000,9000000000000,28250000000000,119250000000000,-82000000000000,-30000000000000,17500000000000,47000000000000,-56000000000000,-22500000000000,11500000000000,-26500000000000,-10000000000000,15000000000000,22000000000000,52500000000000,-9500000000000,-23000000000000,19000000000000,-9500000000000,-14000000000000,-15000000000000,-25000000000000,-978500000000000,1061000000000000,18000000000000,52000000000000,41000000000000,55500000000000,-83000000000000,-13000000000000,-169500000000000,-181000000000000,-5000000000000,500000000000,-33500000000000,-139500000000000,33500000000000,47000000000000,23500000000000,23000000000000,-54500000000000,52000000000000,-84000000000000,-72500000000000,228500000000000,559000000000000,0,-346500000000000,-692500000000000,706857143000000,-86857143000000,-26000000000000,-2500000000000,62500000000000,-8000000000000,-20000000000000,4000000000000,-35500000000000,-81000000000000,5000000000000,-24500000000000,-49500000000000,-284500000000000,107000000000000,63000000000000,-50500000000000,108000000000000,112500000000000,57000000000000,57500000000000,1000000000000,-107000000000000,-64500000000000,61428571000000,-84323308000000,-32605263000000,49500000000000,46000000000000,-8500000000000,-4000000000000,10000000000000,-6944444000000,12944444000000,-37500000000000,-2000000000000,-54500000000000,83000000000000,-65500000000000,-69500000000000,-89000000000000,24500000000000,-19000000000000,264000000000000,-80000000000000,193500000000000,-26500000000000,-57000000000000,48111111000000,89888889000000,-92500000000000,-15000000000000,49000000000000,-128000000000000,6500000000000,9000000000000,-19500000000000,61500000000000,-184000000000000,-17000000000000,500000000000,-20500000000000,-76000000000000,-77500000000000,-114000000000000,-43000000000000,173000000000000,96500000000000],"hashrate_average_7d":3961718779827382,"hashrate_average_7d_count":168,"expected_blocks":7.21,"multipool":16},{"url":"https:\/\/pool.btc.com","hashrate":3912000000000000,"miners":-1,"minpay":0.1,"id":4,"pool_id":"pool.btc.com","feetype":"PPS","i":14437,"workers":93,"income":5.0697650675290995e-15,"i_blocks":14479,"json_blocks":{"err_no":0,"data":{"blocks":{"current_page":1,"data":[{"height":710577,"is_orphaned":0,"hash":"0000000000000000d49eb4ec6db477aafd22b60c66f752d47a23683e1043df5a","rewards":"0.99343280","size":6061,"prev_hash":"0000000000000000520ef9e5087df2f1c453a1dbbd7cf0244bf3c3457a18ac44","bits":419501805,"version":9,"created_at":1668133569,"region_id":34,"region_name":"America"},{"height":710572,"is_orphaned":0,"hash":"0000000000000000829bf4777329015159b44ba40ec4a249061f4d688398984b","rewards":"0.99343280","size":9531,"prev_hash":"0000000000000000212d4c80f22d254655d5220a85825eefce2ed3e0c856b1d1","bits":419501805,"version":9,"created_at":1668131825,"region_id":34,"region_name":"America"},{"height":710564,"is_orphaned":0,"hash":"0000000000000000e3d86fea87ef74ee630012946577bc55a53f92b9a9d17564","rewards":"0.99343280","size":59506,"prev_hash":"0000000000000000e70a766d438b5714981f3f25b411b8e265d8507a07fbaf14","bits":419501805,"version":9,"created_at":1668128979,"region_id":34,"region_name":"America"},{"height":710563,"is_orphaned":0,"hash":"0000000000000000e70a766d438b5714981f3f25b411b8e265d8507a07fbaf14","rewards":"0.99343280","size":2505,"prev_hash":"00000000000000010f3a54b0753c55b98f7c47cb4d556defd4c6886a278bd2a5","bits":419501805,"version":9,"created_at":1668128187,"region_id":34,"region_name":"America"},{"height":710558,"is_orphaned":0,"hash":"000000000000000070220f712a960d7370ec1f39ee4e0797acdc6bb6dbaeaf2d","rewards":"0.99343280","size":40188,"prev_hash":"00000000000000006fbadb39233f1f2d50586c84dec95ff29bed58c92c599bb5","bits":419501805,"version":9,"created_at":1668126333,"region_id":34,"region_name":"America"},{"height":710556,"is_orphaned":0,"hash":"00000000000000001b7c37c03893bf1efb7e9c4b62bc11ba8f4fc6478a04919c","rewards":"0.99343280","size":2452,"prev_hash":"0000000000000000f81780d1c49a854dfb8c706f2957c9743eeb5d01fd35b339","bits":419501805,"version":9,"created_at":1668125057,"region_id":34,"region_name":"America"},{"height":710551,"is_orphaned":0,"hash":"0000000000000000999d304972aad9b1ef5308fb7d3e2cc093dbac0d70f99354","rewards":"0.99343280","size":29916,"prev_hash":"0000000000000000a0c211bc48555659a5ee86df11c3319c86a55d2100b23ff9","bits":419501805,"version":9,"created_at":1668124042,"region_id":34,"region_name":"America"},{"height":710550,"is_orphaned":0,"hash":"0000000000000000a0c211bc48555659a5ee86df11c3319c86a55d2100b23ff9","rewards":"0.99343280","size":36081,"prev_hash":"00000000000000001eea966bf49b65210ffcca446e9d4cfa2e29cb648e23e75b","bits":419501805,"version":9,"created_at":1668123339,"region_id":34,"region_name":"America"},{"height":710545,"is_orphaned":0,"hash":"000000000000000106ae4d23a575a6ad5d1bb0af211dad2a45a5399bf008d32b","rewards":"0.99343280","size":55021,"prev_hash":"0000000000000000f9ea3e2326052df9cb3d9c9ec8652771b14566a5e2efbec4","bits":419501805,"version":9,"created_at":1668120527,"region_id":34,"region_name":"America"},{"height":710540,"is_orphaned":0,"hash":"0000000000000000904ef5c51ab6d73ad5c235cca7fa27768f03dc418c597241","rewards":"0.99343280","size":40433,"prev_hash":"00000000000000010b5836f8fd80ef49fc963a0c2fe40ff80df350d85987a912","bits":419501805,"version":9,"created_at":1668119003,"region_id":34,"region_name":"America"}],"first_page_url":"https:\/\/eu-api.connectbtc.com\/\/public\/v1\/pool\/blocks\/merge?order_by=desc&page_size=10&page=1","from":1,"last_page":2225,"last_page_url":"https:\/\/eu-api.connectbtc.com\/\/public\/v1\/pool\/blocks\/merge?order_by=desc&page_size=10&page=2225","next_page_url":"https:\/\/eu-api.connectbtc.com\/\/public\/v1\/pool\/blocks\/merge?order_by=desc&page_size=10&page=2","path":"https:\/\/eu-api.connectbtc.com\/\/public\/v1\/pool\/blocks\/merge","per_page":10,"prev_page_url":null,"to":10,"total":22241},"blocks_count":22241,"rewards_count":"190625.32372400"},"trace_id":"4a2901fb-cf98-4a7e-a95c-cf6a1114e483"},"blocks_nr":10,"lastblock":710577,"lastblocktime":"1668133526","country":"WL|CN , EU , US","blocks_1000":69,"blocks_count":12,"hashrate_average_100_count":80,"hashrate_average_100":3906644857788085.5,"hashrate_average_1h":3904428571428571.5,"history_start":1667529645,"history_interval":3600,"history_addlast":true,"history":[3693600000000000,10150000000000,21900000000000,17500000000000,3586842000000,-50936842000000,-25500000000000,-12750000000000,65650000000000,-89000000000000,350000000000,18950000000000,18550000000000,63300000000000,29500000000000,45950000000000,11150000000000,-67450000000000,-24342105000000,-104907895000000,16850000000000,-8400000000000,15150000000000,48200000000000,-13950000000000,51400000000000,3200000000000,23950000000000,-8355882000000,-50715171000000,-18728947000000,65000000000000,35150000000000,-37150000000000,-34700000000000,36000000000000,54150000000000,24800000000000,20650000000000,71800000000000,-40400000000000,-54400000000000,-59150000000000,-39450000000000,12950000000000,79000000000000,-52500000000000,-71700000000000,-39300000000000,-16350000000000,17250000000000,20150000000000,-42650000000000,-16300000000000,63100000000000,82650000000000,-13950000000000,5650000000000,-8000000000000,36950000000000,16250000000000,-39900000000000,-37850000000000,4550000000000,-22150000000000,-23750000000000,-28450000000000,-29550000000000,-13150000000000,114200000000000,3500000000000,9400000000000,-68250000000000,-57000000000000,-23400000000000,5100000000000,67950000000000,35450000000000,-22100000000000,6750000000000,-28250000000000,30500000000000,-39900000000000,14050000000000,-69950000000000,-23650000000000,62100000000000,44800000000000,-4250000000000,-117200000000000,34900000000000,-22450000000000,27750000000000,28200000000000,-24900000000000,0,16900000000000,28500000000000,10650000000000,-90250000000000,26178571000000,-1328571000000,-15500000000000,59750000000000,116250000000000,-40300000000000,-29400000000000,-12700000000000,-49350000000000,25800000000000,122450000000000,-47950000000000,-81800000000000,-30050000000000,14050000000000,-23500000000000,-15350000000000,14700000000000,-29400000000000,-44000000000000,98750000000000,35650000000000,37050000000000,8150000000000,37885714000000,72658730000000,-73744444000000,14950000000000,74650000000000,-55200000000000,-40200000000000,41250000000000,-70483333000000,88333333000000,-21750000000000,13600000000000,-13750000000000,13250000000000,-101600000000000,-10900000000000,31200000000000,164700000000000,-39150000000000,2400000000000,-48350000000000,22550000000000,3700000000000,33000000000000,-65455556000000,122905556000000,-24050000000000,-2250000000000,56350000000000,-41550000000000,-46450000000000,91550000000000,-23800000000000,37250000000000,-24800000000000,47600000000000,-46400000000000,950000000000,-58550000000000,22450000000000,28200000000000,-95300000000000,71900000000000,18478571000000],"hashrate_average_7d":3719623013172619.5,"hashrate_average_7d_count":168,"hashrate_block":325553738149007.1,"expected_blocks":7.72,"luck":4.277022855219923,"multipool":7},{"url":"https:\/\/www.f2pool.com","hashrate":22328105795071520,"miners":-1,"minpay":0.1,"id":14,"pool_id":"f2pool.com","fee":3,"feetype":"PPS%3","i":2444,"income":4.790854885055468e-15,"blocks_nr":10,"lastblock":710585,"lastblocktime":1668135415,"country":"WL|Global","blocks_1000":448,"blocks_count":49,"hashrate_average_100_count":80,"hashrate_average_100":21987391177996344,"hashrate_average_1h":22317777141701656,"history_start":1667529645,"history_interval":3600,"history_addlast":true,"history":[48501086890000000,7483454150000000,659184830000000,-415620730000000,451120020000000,-2591259900000000,-5605630580000000,720808530000000,1384254220000000,6299577430000000,-553809970000000,-862841380000000,716821750000000,764046270000000,139318980000000,-1109852180000000,933613680000000,465450010000000,-124190080000000,-191849070000000,-2344178510000000,-8828232800000000,515881300000000,-194811830000000,-1068303320000000,4211743500000000,5904122140000000,176836230000000,117057470000000,-143154270000000,-735284810000000,2550504980000000,321013300000000,-645291310000000,473797150000000,-695795390000000,823925460000000,-305005620000000,-132879400000000,-381422070000000,1363010000000000,-58650810000000,-13141527520000000,13432778150000000,-862588220000000,-10530284040000000,16168420000000,-140570130000000,2662181340000000,7897595550000000,560889510000000,-330192550000000,501249180000000,-249051310000000,-868280210000000,1392114270000000,-111065980000000,-118031550000000,478020400000000,-142855230000000,311772740000000,-209408010000000,-166739660000000,186406980000000,-1071811500000000,859376130000000,175931700000000,-145016740000000,-5688665570000000,-6295586410000000,969154530000000,51325220000000,1240521330000000,8268778560000000,1110616650000000,1019022240000000,508478670000000,42263330000000,-8257841270000000,-14423642340000000,-2448685260000000,-150275850000000,-244080880000000,-2128079130000000,1994554810000000,314607500000000,-160225770000000,-91570350000000,153853680000000,-20395800000000,-250932950000000,22682620000000,139455200000000,76690830000000,174557530000000,-3100520590000000,-7622663560000000,6746312370000000,3940758620000000,29206690000000,-194215100000000,9106450000000,289871670000000,-124055970000000,247420000000,-79860560000000,-24862440000000,139611280000000,-44836340000000,61952830000000,12351760000000,236792430000000,-223121560000000,-113821700000000,-57608610000000,37618030000000,-109483580000000,-3013820000000,167363250000000,-113256640000000,-307373960000000,-136450910000000,16605260000000,-925255600000000,-717824730000000,-353318330000000,-9787050000000,-18286350000000,387958310000000,394240570000000,-173758490000000,-73784930000000,201927040000000,-60445820000000,21961850000000,321818820000000,-144192630000000,-108291680000000,-127690260000000,-1002633760000000,-7874488010000000,-163629430000000,-41161920000000,1826497850000000,-1343101190000000,-453140650000000,-18478070000000,-53851970000000,-267870260000000,12083850000000,-84461590000000,105667450000000,-103159990000000,-23386580000000,38320540000000,-94373310000000,-12031570000000,198338620000000,-458227000000000,-2822584350000000,2870542070000000,-176189480000000,-629510000000,80059650000000,-106618050000000,16336020000000,-163823260000000,83640500000000],"hashrate_average_7d":41724386725119040,"hashrate_average_7d_count":168,"hashrate_block":448722268938700.9,"expected_blocks":43.47,"luck":5.533515145999473,"multipool":33},{"url":"https:\/\/www.poolin.com","hashrate":20475000000000000,"miners":-1,"minpay":0.01,"id":3,"pool_id":"poolin.com","fee":3,"feetype":"PPS","i":13498,"json":{"err_no":0,"data":{"shares":{"shares_1m":20.018,"shares_5m":20.475,"shares_15m":20.335,"shares_1h":20.476,"shares_unit":"P"},"reject":{"1m":0,"5m":0,"15m":0.007,"1h":0.0048},"workers":1381,"users":367,"total_blocks":144498,"total_rewards":104628872240865}},"workers":1381,"netdiff":3941890368.228555,"nethash":"56434300716591349","income":5.544709999999999e-15,"blocks_nr":18,"lastblock":710584,"lastblocktime":"1668134974","country":"US|United States","blocks_1000":411,"blocks_count":30,"hashrate_average_100_count":80,"hashrate_average_100":20138041412353516,"hashrate_average_1h":20276000000000000,"history_start":1667529645,"history_interval":3600,"history_addlast":true,"history":[26819500000000000,-482650000000000,22100000000000,-1238002630000000,61789470000000,1036713160000000,-355050000000000,-44450000000000,-494750000000000,113650000000000,550500000000000,-283500000000000,581850000000000,363150000000000,-26200000000000,40000000000000,-257300000000000,134900000000000,-442828950000000,-630271050000000,283150000000000,326250000000000,-490700000000000,-2034450000000000,2686350000000000,336950000000000,269700000000000,-372400000000000,-104647060000000,2804950000000,325592110000000,1050000000000,-104000000000000,110276920000000,78423080000000,49900000000000,-49150000000000,-215300000000000,71450000000000,-167000000000000,179750000000000,0,-177600000000000,-36850000000000,-663200000000000,-286700000000000,376300000000000,-34450000000000,-263000000000000,2441300000000000,5128600000000000,-188950000000000,-203975000000000,151575000000000,418550000000000,602650000000000,-570550000000000,-49750000000000,393550000000000,611700000000000,-22750000000000,-5460600000000000,-1775000000000000,-240150000000000,-282700000000000,428350000000000,-774050000000000,335250000000000,-17400000000000,-671150000000000,937500000000000,-185650000000000,-54600000000000,-50500000000000,438650000000000,-138650000000000,17833330000000,231866670000000,-94200000000000,657100000000000,-70400000000000,-44800000000000,-149650000000000,52450000000000,-45300000000000,105950000000000,-224000000000000,142200000000000,76350000000000,43750000000000,99800000000000,-228950000000000,424100000000000,543900000000000,-227600000000000,-1548150000000000,914850000000000,519250000000000,120900000000000,272500000000000,1287350000000000,6186600000000000,-657300000000000,699800000000000,174000000000000,-82250000000000,-984850000000000,342700000000000,-94350000000000,-570650000000000,922600000000000,-152700000000000,-195650000000000,277200000000000,-99150000000000,-412950000000000,-92300000000000,358050000000000,-655100000000000,229150000000000,-6775850000000000,-830350000000000,225600000000000,138100000000000,165850000000000,174077780000000,-209677780000000,-238700000000000,-253600000000000,-630050000000000,454700000000000,523650000000000,-60322220000000,-340077780000000,383300000000000,23500000000000,-66050000000000,-407150000000000,696300000000000,-468600000000000,-12850000000000,-385250000000000,-3627650000000000,-2623150000000000,56900000000000,-54450000000000,215300000000000,-258350000000000,-189722220000000,-103777780000000,467500000000000,-2150000000000,-326050000000000,-160950000000000,386300000000000,125100000000000,-65350000000000,26950000000000,-307000000000000,-520200000000000,4350000000000,50350000000000,56750000000000,-208350000000000,165550000000000,374950000000000,-144300000000000,-7950000000000],"hashrate_average_7d":27251242765952390,"hashrate_average_7d_count":168,"hashrate_block":671268047078450.5,"expected_blocks":39.81,"luck":-9.810538001219392,"multipool":15}],"hashblock":{"hashrate_average_100":46032077448137944,"blocks_count":91,"pools":[[325553738149007.1,12,27129478179083.926,"https:\/\/pool.btc.com"],[448722268938700.9,49,9157597325279.61,"https:\/\/www.f2pool.com"],[671268047078450.5,30,22375601569281.684,"https:\/\/www.poolin.com"]],"hashrate_block_all":505847004924592.8,"hashrate_block_min":9157597325279.61,"hashrate_block_max":27129478179083.926,"pool_hashblock_average":19554225691215.074,"hashrate_block":505847004924592.8},"time":1668135523,"hashrate":50550000000000000,"difficulty":3941890368.228555,"height":710585,"symbol":"DCR","maxhash":22328105795071520,"poolshash":51376585425453320,"nethash_estimat":50584700492459280,"poolsminers":1507,"supply":{"circulating":14495103.8159628,"total":21000000,"emission24":1965},"block_time_target":300,"block_height_ok":true,"algo":"Blake256R14","hashrate_from_diff":false,"hashrate_src":"https:\/\/lab.antpool.com","unit":"H\/s","block_time_average":391,"minerstat":[2.1706063305022e-16,21.562763086925,1.02080542,2357],"link":{"coingecko":"decred","cmc":"decred","whattomine":"152-dcr-blake (14r)","coin360":"decred-dcr","coinpaprika":"dcr-decred"},"latest_release":{"tag":"release-v1.7.5","name":"dcrd v1.7.5","t":1665429869},"price":21.36}