{"data":[{"url":"https:\/\/www.okx.com\/pool","hashrate":9030000000000,"miners":-1,"minpay":-1,"id":23,"pool_id":"okx.com","i":1612,"workers":1,"lastblock":630904,"feetype":"PPLNS","fee":2,"country":"HK|Hong Kong","hashrate_average_100_count":79,"hashrate_average_100":9214080547863.924,"hashrate_average_1h":9026666666666.666,"history_start":1667270445,"history_interval":3600,"history_addlast":true,"history":[8243684211000,894315789000,879500000000,-417000000000,-432605263000,1881105263000,-1558000000000,-1423000000000,182000000000,521500000000,1342500000000,-1150500000000,-643000000000,477500000000,1031000000000,-1572000000000,376500000000,-739500000000,2627000000000,-1765500000000,-438000000000,7500000000,1718500000000,594500000000,207500000000,-781500000000,-1308000000000,-141000000000,-261842105000,403842105000,-612500000000,663000000000,237000000000,-84000000000,-357500000000,575500000000,273000000000,1026500000000,-856000000000,-875000000000,112000000000,-355500000000,762500000000,1882500000000,-1750000000000,-536000000000,5500000000,-760000000000,731500000000,959500000000,-168500000000,-534000000000,-1317000000000,1299500000000,-495500000000,844500000000,-84000000000,25500000000,-616500000000,85500000000,-26500000000,-327500000000,264000000000,530500000000,-574000000000,136000000000,-40500000000,340000000000,1349500000000,-1962000000000,221500000000,-221000000000,574000000000,342500000000,-725000000000,575500000000,-279710526000,90710526000,-114000000000,418000000000,-506000000000,548000000000,-372500000000,-99500000000,170000000000,-347000000000,620000000000,254000000000,-1161000000000,-548500000000,219894737000,1597605263000,-1724500000000,2235500000000,-822500000000,175500000000,794000000000,-662000000000,357000000000,-1561000000000,837205882000,-425816993000,488479532000,-1221368421000,700500000000,-935000000000,223500000000,672500000000,-262500000000,-106500000000,284000000000,917000000000,-775500000000,-287000000000,338000000000,-166500000000,651000000000,-68500000000,-832500000000,200500000000,734000000000,-1038500000000,1488000000000,-822500000000,183333333000,-373333333000,826000000000,-2600000000000,2663000000000,732000000000,-1073000000000,935000000000,-1150500000000,163500000000,188000000000,-641500000000,-883500000000,2341000000000,-2356500000000,1383500000000,-1304500000000,846000000000,-647500000000,660500000000,-525000000000,262000000000,-464500000000,561000000000,241666667000,-1410666667000,1679000000000,-1412000000000,92000000000,397000000000,1196000000000,-905500000000,1007000000000,-749500000000,79500000000,-188500000000,661500000000,722500000000,-1373000000000,-297500000000,139000000000,1202000000000,-970000000000,21166667000],"hashrate_average_7d":9083833636386.904,"hashrate_average_7d_count":168,"expected_blocks":0.01,"multipool":5},{"url":"https:\/\/www2.coinmine.pl\/dcr","hashrate":899440272605532,"miners":-1,"minpay":0.05,"id":5,"pool_id":"coinmine.pl","i":12372,"workers":30,"blocks_nr":5,"lastblock":709777,"lastblocktime":"1667872370","fee":1,"feetype":"PPLNS","height":709789,"country":"WL|EU , US , Asia","blocks_1000":8,"blocks_count":2,"hashrate_average_100_count":79,"hashrate_average_100":845266368837485.1,"hashrate_average_1h":858354146584734.4,"history_start":1667270445,"history_interval":3600,"history_addlast":true,"history":[516350535700000,17519137400000,-5656877700000,59461159800000,81519575500000,-33791608000000,14402758000000,-30627164900000,23055444300000,-9429611900000,18580787700000,20737727000000,-8657515400000,-33949056400000,-30668777700000,26335569800000,-35045462500000,9924846800000,-6028577200000,-11048373800000,22533281500000,-20835406600000,-5905616600000,30762637800000,12187193600000,1198115000000,-1085379000000,-15898331600000,18108305200000,4932308500000,-18142050900000,6483533000000,37416945600000,-25204767400000,-9375050100000,8583330000000,-93625329600000,-23846253400000,20122457600000,3482944000000,-22232728400000,-15815547700000,-206540500000,81633700000,10035699600000,-96143900000,-6444647500000,12899285500000,-26900381500000,17321640800000,16514177500000,13999412400000,104479751200000,-23131992500000,-8399182500000,19568060600000,-7855930100000,2815798000000,-13357626600000,1336387400000,4851885000000,-51693657600000,23147917800000,24560408500000,-65479274500000,-14635607400000,2634798100000,-14033765100000,10915897800000,1399538100000,6121579900000,-27095621100000,13593078000000,-12688463700000,15545003100000,4408702300000,8841104500000,-18206322800000,-9144574300000,37052230400000,-17747157300000,6958850400000,10207516200000,-33130950200000,18792426300000,4199391300000,-11214644700000,-5833904800000,4119887600000,12980541200000,-10890995700000,414747200000,1887013300000,8038130900000,-13819461000000,-7695317400000,-91607288400000,1864266800000,-32599714500000,30262667200000,-10092336300000,-4070976000000,118809471000000,153227233400000,60979300800000,1526655800000,-5191477800000,40234119000000,-45840770600000,3189583300000,7294064000000,-5428051200000,-13925404000000,-1791830900000,-28026207700000,28490925600000,-5113774000000,-28552956900000,30136971400000,5959547100000,-3604745600000,8778951600000,-2893782800000,10566578600000,51749048900000,50102986600000,-3956535500000,6769979900000,5196125400000,-22055503400000,22251775300000,4375625000000,-5399759400000,5348544900000,-20195230500000,24309977000000,-14890801300000,-11942930900000,8300654500000,-2767616500000,-12494195600000,14925621200000,3431470300000,-22743681500000,10741335200000,-70468768800000,-230023763200000,-11832716300000,1902111600000,11926113200000,118388219700000,184044233000000,11831726700000,14849356800000,-62570189500000,33979360800000,15291114900000,39508889800000,-20559972800000,-2891928900000,-24159415900000,188420000000,-15992402800000,10338063400000,-9668771600000,24351186400000,-200672000000,9636604700000],"hashrate_average_7d":644745753367857,"hashrate_average_7d_count":168,"hashrate_block":422633184418742.56,"expected_blocks":1.14,"luck":0.8617935594291712,"multipool":6},{"url":"https:\/\/lab.antpool.com","hashrate":3560000000000000,"miners":-1,"minpay":0.1,"id":11,"pool_id":"antpool.com","i":2063,"nethash":68080000000000000,"netdiff":5022943443,"feetype":"PPS","fee":3,"income":3.8592808000000005e-15,"lastblock":708211,"lastblocktime":"1667391040","country":"WL|Global","hashrate_average_100_count":79,"hashrate_average_100":3692754153481012.5,"hashrate_average_1h":3560000000000000,"history_start":1667270445,"history_interval":3600,"history_addlast":true,"history":[4273500000000000,11000000000000,-33000000000000,-5500000000000,28210526000000,35289474000000,46500000000000,-135000000000000,126500000000000,17500000000000,21500000000000,-6500000000000,-59000000000000,20000000000000,-63500000000000,-21500000000000,-86500000000000,-216500000000000,11500000000000,-61000000000000,64000000000000,-46500000000000,332000000000000,97500000000000,16500000000000,-32500000000000,81000000000000,-60000000000000,55026316000000,-79526316000000,74500000000000,-186500000000000,31500000000000,40500000000000,36500000000000,-6000000000000,-29500000000000,79000000000000,-131500000000000,46500000000000,-28000000000000,90000000000000,4000000000000,43500000000000,25500000000000,67000000000000,-156500000000000,-146000000000000,43000000000000,-32500000000000,-30000000000000,-3000000000000,-68500000000000,68500000000000,40500000000000,-34000000000000,-5500000000000,-3500000000000,4000000000000,-3500000000000,-79500000000000,92500000000000,-89000000000000,58500000000000,-23000000000000,18000000000000,-33500000000000,33500000000000,15500000000000,-32000000000000,-17500000000000,76500000000000,17500000000000,-48000000000000,4000000000000,35000000000000,-112657895000000,57657895000000,32000000000000,-37000000000000,7000000000000,-53500000000000,15500000000000,-189000000000000,17500000000000,215500000000000,-58000000000000,31000000000000,-92000000000000,61000000000000,67078947000000,-20078947000000,19000000000000,-42500000000000,10000000000000,-18000000000000,81500000000000,-130500000000000,17000000000000,67500000000000,94500000000000,191578947000000,37368421000000,-55947368000000,-196000000000000,-101000000000000,-80500000000000,104500000000000,-26000000000000,53000000000000,-86500000000000,2500000000000,-13500000000000,37500000000000,-99500000000000,150500000000000,1000000000000,-13500000000000,-14000000000000,24000000000000,6500000000000,-60000000000000,-80500000000000,9000000000000,28250000000000,119250000000000,-82000000000000,-30000000000000,17500000000000,47000000000000,-56000000000000,-22500000000000,11500000000000,-26500000000000,-10000000000000,15000000000000,22000000000000,52500000000000,-9500000000000,-23000000000000,19000000000000,-9500000000000,-14000000000000,-15000000000000,-25000000000000,-978500000000000,1061000000000000,18000000000000,52000000000000,41000000000000,55500000000000,-83000000000000,-13000000000000,-169500000000000,-181000000000000,-5000000000000,500000000000,-33500000000000,-139500000000000,33500000000000,47000000000000,23500000000000,23000000000000,-54500000000000,52000000000000,-84000000000000,-72500000000000,-62500000000000],"hashrate_average_7d":4128383536958334,"hashrate_average_7d_count":168,"expected_blocks":4.97,"multipool":16},{"url":"https:\/\/pool.btc.com","hashrate":3599000000000000,"miners":-1,"minpay":0.1,"id":4,"pool_id":"pool.btc.com","feetype":"PPS","i":14386,"workers":88,"income":3.978634900765099e-15,"i_blocks":14428,"json_blocks":{"err_no":0,"data":{"blocks":{"current_page":1,"data":[{"height":709759,"is_orphaned":0,"hash":"00000000000000001f66b2e3e5aad55d1a15c87402e4e29823cfbe0a4dd74799","rewards":"0.99343280","size":52390,"prev_hash":"00000000000000002c3af1e9e40a4e027ddb31138f227d2bb8c7359ff76a1661","bits":419480131,"version":9,"created_at":1667868592,"region_id":36,"region_name":"BitDeer"},{"height":709752,"is_orphaned":0,"hash":"00000000000000007b3c63d2e78a9cc42f66bd3da0a2615c6915af4e9852c1a7","rewards":"0.99343280","size":21869,"prev_hash":"0000000000000000b787bda7f45bc5aa24274f17e8b016d10fe9cf613b382e9f","bits":419480131,"version":9,"created_at":1667864925,"region_id":36,"region_name":"BitDeer"},{"height":709750,"is_orphaned":0,"hash":"00000000000000001c933cb2576e580596e31ceb4580755637fd3b8f4d10bfcb","rewards":"0.99343280","size":40067,"prev_hash":"0000000000000000b54c99448b36473efaf09b4594fdd69b7240ff6ce8cde5aa","bits":419480131,"version":9,"created_at":1667864388,"region_id":34,"region_name":"America"},{"height":709738,"is_orphaned":0,"hash":"00000000000000002e2ea6b40730673e36f625ff321a5dee818a14c2f31f2153","rewards":"0.99343280","size":7754,"prev_hash":"0000000000000000c1615ee0f783c6a50acbb7de195ef74d71ef43bfee5f7ef0","bits":419480131,"version":9,"created_at":1667858332,"region_id":34,"region_name":"America"},{"height":709733,"is_orphaned":0,"hash":"0000000000000000c08504711fad7d6e1522f9c17ccf7980a1dc868b818d4c7f","rewards":"0.99343280","size":2453,"prev_hash":"00000000000000004084d74cd107dd510f1a0229534e44e6b9e1cdda23b163ab","bits":419480131,"version":9,"created_at":1667855300,"region_id":34,"region_name":"America"},{"height":709658,"is_orphaned":0,"hash":"00000000000000006d64df3b72706585f737f3f3561135bbbdef466bf9e4c28b","rewards":"0.99343280","size":36098,"prev_hash":"0000000000000000903cf6c5800ecbf7d65817bbb636bb9e576e25f6d5c9c3da","bits":419480131,"version":9,"created_at":1667831659,"region_id":34,"region_name":"America"},{"height":709632,"is_orphaned":0,"hash":"0000000000000000b80075f7f961429a054368e9ed011cf6c631806e4852d189","rewards":"0.99343280","size":13129,"prev_hash":"0000000000000000af231215d2561d7b56aa9d5add4e08d754eb1561e20d0935","bits":419480131,"version":9,"created_at":1667819861,"region_id":36,"region_name":"BitDeer"},{"height":709627,"is_orphaned":0,"hash":"0000000000000000b704fe523fc868d430425c7cfb420f1dffab99f2b3b900a1","rewards":"0.99343280","size":6809,"prev_hash":"0000000000000000a398283ae7c1bee516d7ffc2c02a689ab8377e044a4cefca","bits":419478428,"version":9,"created_at":1667818885,"region_id":36,"region_name":"BitDeer"},{"height":709613,"is_orphaned":0,"hash":"00000000000000009ff7f02c23044a8544df7f017330a4c097f7fdc6c5bef94a","rewards":"0.99343280","size":3284,"prev_hash":"00000000000000005310067b36e69c2cf2de186608e6ebfe69893f04f666e9c1","bits":419478428,"version":9,"created_at":1667813542,"region_id":36,"region_name":"BitDeer"},{"height":709608,"is_orphaned":0,"hash":"000000000000000040009350dce0cf5513aeb44172b25c5f59e179bbf789e480","rewards":"0.99343280","size":25629,"prev_hash":"0000000000000000a4f1b446f8c718f971ff1e73ef50fffa2bbac608b153840f","bits":419478428,"version":9,"created_at":1667812321,"region_id":36,"region_name":"BitDeer"}],"first_page_url":"https:\/\/eu-api.connectbtc.com\/\/public\/v1\/pool\/blocks\/merge?order_by=desc&page_size=10&page=1","from":1,"last_page":2219,"last_page_url":"https:\/\/eu-api.connectbtc.com\/\/public\/v1\/pool\/blocks\/merge?order_by=desc&page_size=10&page=2219","next_page_url":"https:\/\/eu-api.connectbtc.com\/\/public\/v1\/pool\/blocks\/merge?order_by=desc&page_size=10&page=2","path":"https:\/\/eu-api.connectbtc.com\/\/public\/v1\/pool\/blocks\/merge","per_page":10,"prev_page_url":null,"to":10,"total":22182},"blocks_count":22182,"rewards_count":"190567.10856192"},"trace_id":"a84bd9d3-ef0f-4eaa-9869-f23091400768"},"blocks_nr":10,"lastblock":709759,"lastblocktime":"1667868548","country":"WL|CN , EU , US","blocks_1000":35,"blocks_count":5,"hashrate_average_100_count":79,"hashrate_average_100":3618807085640822.5,"hashrate_average_1h":3586833333333333.5,"history_start":1667270445,"history_interval":3600,"history_addlast":true,"history":[3929250000000000,15650000000000,33000000000000,23350000000000,28381579000000,-17381579000000,-25800000000000,-42800000000000,81250000000000,-50400000000000,-11300000000000,43300000000000,37100000000000,-57650000000000,-3400000000000,2000000000000,28450000000000,-16950000000000,10050000000000,-20550000000000,48000000000000,75950000000000,-62150000000000,-7100000000000,700000000000,12350000000000,16050000000000,-44100000000000,17118421000000,181579000000,-45850000000000,11950000000000,9800000000000,-18450000000000,-35250000000000,34000000000000,13000000000000,51250000000000,36650000000000,-73250000000000,-62950000000000,-124800000000000,8750000000000,-18250000000000,12900000000000,31850000000000,-37500000000000,-33250000000000,-11100000000000,-29000000000000,7450000000000,47900000000000,-27900000000000,-7050000000000,15400000000000,-30750000000000,-54200000000000,12950000000000,75350000000000,43850000000000,-33550000000000,-25950000000000,11350000000000,-3450000000000,19500000000000,-64650000000000,1650000000000,62050000000000,-11750000000000,-22450000000000,-96000000000000,-38950000000000,49750000000000,10150000000000,21900000000000,17500000000000,3586842000000,-50936842000000,-25500000000000,-12750000000000,65650000000000,-89000000000000,350000000000,18950000000000,18550000000000,63300000000000,29500000000000,45950000000000,11150000000000,-67450000000000,-24342105000000,-104907895000000,16850000000000,-8400000000000,15150000000000,48200000000000,-13950000000000,51400000000000,3200000000000,23950000000000,-8355882000000,-50715171000000,-18728947000000,65000000000000,35150000000000,-37150000000000,-34700000000000,36000000000000,54150000000000,24800000000000,20650000000000,71800000000000,-40400000000000,-54400000000000,-59150000000000,-39450000000000,12950000000000,79000000000000,-52500000000000,-71700000000000,-39300000000000,-16350000000000,17250000000000,20150000000000,-42650000000000,-16300000000000,63100000000000,82650000000000,-13950000000000,5650000000000,-8000000000000,36950000000000,16250000000000,-39900000000000,-37850000000000,4550000000000,-22150000000000,-23750000000000,-28450000000000,-29550000000000,-13150000000000,114200000000000,3500000000000,9400000000000,-68250000000000,-57000000000000,-23400000000000,5100000000000,67950000000000,35450000000000,-22100000000000,6750000000000,-28250000000000,30500000000000,-39900000000000,14050000000000,-69950000000000,-23650000000000,62100000000000,44800000000000,-4250000000000,-117200000000000,34900000000000,-22450000000000,27750000000000,28200000000000,-24900000000000,-5616667000000],"hashrate_average_7d":3791361613898809.5,"hashrate_average_7d_count":168,"hashrate_block":723761417128164.5,"expected_blocks":4.87,"luck":0.12703961270265118,"multipool":7},{"url":"https:\/\/www.f2pool.com","hashrate":34330990407027800,"miners":-1,"minpay":0.1,"id":14,"pool_id":"f2pool.com","fee":3,"feetype":"PPS%3","i":2445,"income":3.759752611075601e-15,"blocks_nr":6,"lastblock":709788,"lastblocktime":1667875225,"country":"WL|Global","blocks_1000":583,"blocks_count":49,"hashrate_average_100_count":79,"hashrate_average_100":34089676702188680,"hashrate_average_1h":34257478998382990,"history_start":1667270445,"history_interval":3600,"history_addlast":true,"history":[50793119720000000,-9914232340000000,-10644425470000000,8279477160000000,11937439950000000,879657710000000,-165856510000000,-74084510000000,584199450000000,177541570000000,86794620000000,-57245210000000,507112900000000,-130648410000000,-67005850000000,-242165930000000,150478570000000,377999380000000,32267880000000,-168252400000000,-147617490000000,-268129490000000,359655490000000,382413440000000,638574000000000,-322031590000000,-86557270000000,-2382166790000000,4087040370000000,2065304170000000,20560470000000,-13404820000000,161894170000000,-107551850000000,348071830000000,-789245400000000,627697670000000,-672286050000000,420918820000000,89723930000000,-175070090000000,314286840000000,-2164042290000000,986679420000000,-2001348220000000,1656619270000000,-2212356160000000,3681286920000000,-1033346310000000,-281404660000000,739915410000000,-203453310000000,-864164140000000,1099739110000000,-311237530000000,287015920000000,392493510000000,127815080000000,-239992880000000,-485128380000000,276147920000000,-757013490000000,761149190000000,-665034240000000,-1402379000000000,-444853530000000,1673817100000000,625591160000000,-113450940000000,-5943023340000000,-4638767790000000,711275910000000,2348284540000000,7483454150000000,659184830000000,-415620730000000,451120020000000,-2591259900000000,-5605630580000000,720808530000000,1384254220000000,6299577430000000,-553809970000000,-862841380000000,716821750000000,764046270000000,139318980000000,-1109852180000000,933613680000000,465450010000000,-124190080000000,-191849070000000,-2344178510000000,-8828232800000000,515881300000000,-194811830000000,-1068303320000000,4211743500000000,5904122140000000,176836230000000,117057470000000,-143154270000000,-735284810000000,2550504980000000,321013300000000,-645291310000000,473797150000000,-695795390000000,823925460000000,-305005620000000,-132879400000000,-381422070000000,1363010000000000,-58650810000000,-13141527520000000,13432778150000000,-862588220000000,-10530284040000000,16168420000000,-140570130000000,2662181340000000,7897595550000000,560889510000000,-330192550000000,501249180000000,-249051310000000,-868280210000000,1392114270000000,-111065980000000,-118031550000000,478020400000000,-142855230000000,311772740000000,-209408010000000,-166739660000000,186406980000000,-1071811500000000,859376130000000,175931700000000,-145016740000000,-5688665570000000,-6295586410000000,969154530000000,51325220000000,1240521330000000,8268778560000000,1110616650000000,1019022240000000,508478670000000,42263330000000,-8257841270000000,-14423642340000000,-2448685260000000,-150275850000000,-244080880000000,-2128079130000000,1994554810000000,314607500000000,-160225770000000,-91570350000000,153853680000000,-20395800000000,-250932950000000,22682620000000,139455200000000,76690830000000,174557530000000,-44728100000000],"hashrate_average_7d":52152851843511900,"hashrate_average_7d_count":168,"hashrate_block":695707687799769,"expected_blocks":45.9,"luck":3.0960210770333347,"multipool":33},{"url":"https:\/\/www.poolin.com","hashrate":26860000000000000,"miners":-1,"minpay":0.01,"id":3,"pool_id":"poolin.com","fee":3,"feetype":"PPS","i":13447,"json":{"err_no":0,"data":{"shares":{"shares_1m":25.88,"shares_5m":26.86,"shares_15m":27.143,"shares_1h":28.046,"shares_unit":"P"},"reject":{"1m":0,"5m":0,"15m":0.003,"1h":0.0048},"workers":1403,"users":376,"total_blocks":144159,"total_rewards":104595373686849}},"workers":1403,"netdiff":5022943443.499117,"nethash":"71911259391142133","income":4.3513600000000006e-15,"blocks_nr":17,"lastblock":709789,"lastblocktime":"1667875805","country":"US|United States","blocks_1000":319,"blocks_count":37,"hashrate_average_100_count":79,"hashrate_average_100":27571657337816456,"hashrate_average_1h":26988500000000000,"history_start":1667270445,"history_interval":3600,"history_addlast":true,"history":[25712350000000000,914950000000000,-90050000000000,332800000000000,-68681580000000,-838618420000000,675788460000000,-355188460000000,585600000000000,114450000000000,-95850000000000,763700000000000,311750000000000,-146050000000000,-122500000000000,157350000000000,-53000000000000,124850000000000,-254750000000000,-104750000000000,-63900000000000,335500000000000,-126000000000000,150881580000000,52418420000000,70100000000000,-153150000000000,359750000000000,-182644740000000,838094740000000,274300000000000,-524800000000000,262200000000000,-511350000000000,-70150000000000,-66800000000000,579800000000000,-58250000000000,10050000000000,35600000000000,-131850000000000,-176900000000000,30750000000000,114950000000000,13950000000000,-292900000000000,-1125800000000000,882050000000000,-344550000000000,-768289470000000,281239470000000,-216500000000000,-166000000000000,175950000000000,46450000000000,-118500000000000,-71800000000000,370600000000000,1950000000000,-161750000000000,-2950000000000,99800000000000,18650000000000,208000000000000,116650000000000,-101550000000000,-53600000000000,-280550000000000,-14350000000000,-409055260000000,-237894740000000,304650000000000,52850000000000,-482650000000000,22100000000000,-1238002630000000,61789470000000,1036713160000000,-355050000000000,-44450000000000,-494750000000000,113650000000000,550500000000000,-283500000000000,581850000000000,363150000000000,-26200000000000,40000000000000,-257300000000000,134900000000000,-442828950000000,-630271050000000,283150000000000,326250000000000,-490700000000000,-2034450000000000,2686350000000000,336950000000000,269700000000000,-372400000000000,-104647060000000,2804950000000,325592110000000,1050000000000,-104000000000000,110276920000000,78423080000000,49900000000000,-49150000000000,-215300000000000,71450000000000,-167000000000000,179750000000000,0,-177600000000000,-36850000000000,-663200000000000,-286700000000000,376300000000000,-34450000000000,-263000000000000,2441300000000000,5128600000000000,-188950000000000,-203975000000000,151575000000000,418550000000000,602650000000000,-570550000000000,-49750000000000,393550000000000,611700000000000,-22750000000000,-5460600000000000,-1775000000000000,-240150000000000,-282700000000000,428350000000000,-774050000000000,335250000000000,-17400000000000,-671150000000000,937500000000000,-185650000000000,-54600000000000,-50500000000000,438650000000000,-138650000000000,17833330000000,231866670000000,-94200000000000,657100000000000,-70400000000000,-44800000000000,-149650000000000,52450000000000,-45300000000000,105950000000000,-224000000000000,142200000000000,76350000000000,43750000000000,99800000000000,-228950000000000,424100000000000,543900000000000,-227600000000000,-1090800000000000],"hashrate_average_7d":27461000597202388,"hashrate_average_7d_count":168,"hashrate_block":745179928049093.4,"expected_blocks":37.13,"luck":-0.12703961270265296,"multipool":15}],"hashblock":{"hashrate_average_100":31190464423457280,"blocks_count":42,"pools":[[422633184418742.56,2,211316592209371.28,"https:\/\/www2.coinmine.pl\/dcr"],[723761417128164.5,5,144752283425632.9,"https:\/\/pool.btc.com"],[695707687799769,49,14198116077546.307,"https:\/\/www.f2pool.com"],[745179928049093.4,37,20139998055380.902,"https:\/\/www.poolin.com"]],"hashrate_block_all":711025887037456.4,"hashrate_block_min":14198116077546.307,"hashrate_block_max":211316592209371.28,"pool_hashblock_average":97601747441982.84,"hashrate_block":742630105320411.4},"time":1667876145,"hashrate":68080000000000000,"difficulty":5022943443.499117,"height":709789,"symbol":"DCR","maxhash":34330990407027800,"poolshash":69258460679633330,"nethash_estimat":74263010532041140,"poolsminers":1522,"supply":{"circulating":14488033.35603864,"total":21000000,"emission24":2301},"block_time_target":300,"block_height_ok":true,"algo":"Blake256R14","hashrate_from_diff":false,"hashrate_src":"https:\/\/lab.antpool.com","unit":"H\/s","block_time_average":334,"minerstat":[1.6717528326706e-16,26.87289360704,1.00181543,2537],"link":{"coingecko":"decred","cmc":"decred","whattomine":"152-dcr-blake (14r)","coin360":"decred-dcr","coinpaprika":"dcr-decred"},"latest_release":{"tag":"release-v1.7.5","name":"dcrd v1.7.5","t":1665429869},"price":27.08}