{"data":[{"url":"https:\/\/www.okx.com\/pool","hashrate":8790000000000,"miners":-1,"minpay":-1,"id":23,"pool_id":"okx.com","i":1612,"workers":1,"lastblock":630904,"feetype":"PPLNS","fee":2,"country":"HK|Hong Kong","hashrate_average_100_count":72,"hashrate_average_100":8924511129591.2,"hashrate_average_1h":9127777777777.777,"history_start":1666924844,"history_interval":3600,"history_addlast":true,"history":[8091000000000,1323000000000,212000000000,-278777778000,62277778000,-56000000000,482000000000,-1680500000000,-142000000000,412000000000,348000000000,-7000000000,-135500000000,601000000000,-810000000000,822000000000,191000000000,365000000000,-386000000000,-420500000000,-491000000000,184000000000,303500000000,-619500000000,-82500000000,288000000000,682000000000,-88088235000,-846411765000,1786500000000,-1021500000000,25000000000,1257500000000,-1103500000000,-144500000000,622000000000,-860000000000,-426000000000,503000000000,-583000000000,938722222000,-166222222000,-1277500000000,-306000000000,567000000000,292000000000,618000000000,-1022500000000,2141000000000,-1558000000000,-69500000000,367000000000,-264166667000,58166667000,115000000000,-427500000000,1061500000000,-1365000000000,683000000000,665000000000,-173000000000,192000000000,875000000000,-831000000000,-1089500000000,-10000000000,797500000000,1400500000000,-995000000000,-1000500000000,664500000000,-710000000000,1084500000000,-557500000000,1500000000,633500000000,565470590000,-1439102169000,-319868421000,-1050500000000,1453000000000,662500000000,-4500000000,-212500000000,742000000000,-1875500000000,1449500000000,641000000000,481500000000,-1687000000000,9000000000,1100000000000,-453000000000,-1444500000000,253500000000,-413000000000,74684211000,894315789000,879500000000,-417000000000,-432605263000,1881105263000,-1558000000000,-1423000000000,182000000000,521500000000,1342500000000,-1150500000000,-643000000000,477500000000,1031000000000,-1572000000000,376500000000,-739500000000,2627000000000,-1765500000000,-438000000000,7500000000,1718500000000,594500000000,207500000000,-781500000000,-1308000000000,-141000000000,-261842105000,403842105000,-612500000000,663000000000,237000000000,-84000000000,-357500000000,575500000000,273000000000,1026500000000,-856000000000,-875000000000,112000000000,-355500000000,762500000000,1882500000000,-1750000000000,-536000000000,5500000000,-760000000000,731500000000,959500000000,-168500000000,-534000000000,-1317000000000,1299500000000,-495500000000,844500000000,-84000000000,25500000000,-616500000000,85500000000,-26500000000,-327500000000,264000000000,530500000000,-574000000000,136000000000,-40500000000,340000000000,1349500000000,-1962000000000,221500000000,378277778000],"hashrate_average_7d":9062622280797.621,"hashrate_average_7d_count":168,"expected_blocks":0.01,"multipool":5},{"url":"https:\/\/www2.coinmine.pl\/dcr","hashrate":474409622749314,"miners":-1,"minpay":0.05,"id":5,"pool_id":"coinmine.pl","i":12342,"workers":26,"blocks_nr":5,"lastblock":708549,"lastblocktime":"1667486306","fee":1,"feetype":"PPLNS","height":708688,"country":"WL|EU , US , Asia","blocks_1000":9,"hashrate_average_100_count":72,"hashrate_average_100":548533006783986.25,"hashrate_average_1h":509032861781410,"history_start":1666924844,"history_interval":3600,"history_addlast":true,"history":[585198158000000,-2779912400000,-14110177500000,36517045500000,20868718600000,-12336798400000,17800288400000,-22483432200000,-3515182900000,21143354300000,11552157900000,-29123083600000,10235103000000,1539400800000,-37630642300000,-8678168500000,-114469300000,4341285100000,-2995712300000,13388773100000,12557252900000,6121208200000,-36347125900000,-10675109400000,-3594870100000,26187125100000,-8875414900000,5968223900000,-1425994400000,-8751358900000,10017342500000,19155233400000,-4849925600000,-3647965800000,-12013384700000,9500888600000,-377784600000,-25942289600000,24924662000000,-14021670200000,20581298300000,-603995600000,11757425500000,-35457501800000,18299247800000,-9629366700000,-27529156300000,30289391200000,-19009250300000,-2742443000000,20504269100000,-16930114700000,-695574700000,17381050300000,-21706000100000,7030595500000,-6332229000000,11518278300000,4613800700000,-15311677800000,11460181000000,-1154343500000,-7156439600000,871432300000,-35937275100000,-6501899800000,29311647600000,-89406412200000,-3535859600000,93583334300000,31916424600000,-4988798400000,-1823987700000,-4779241700000,-4355810000000,-9978753800000,-4012814200000,-7919899000000,15595239500000,-9669475000000,20311851300000,-20290896300000,15765671100000,-3913758300000,11358479400000,2392505300000,-20299996200000,18591403900000,-39123290200000,15367848600000,-20701540800000,9053224600000,-2489392100000,-11770728900000,-10052878900000,10214787600000,-8333798600000,17519137400000,-5656877700000,59461159800000,81519575500000,-33791608000000,14402758000000,-30627164900000,23055444300000,-9429611900000,18580787700000,20737727000000,-8657515400000,-33949056400000,-30668777700000,26335569800000,-35045462500000,9924846800000,-6028577200000,-11048373800000,22533281500000,-20835406600000,-5905616600000,30762637800000,12187193600000,1198115000000,-1085379000000,-15898331600000,18108305200000,4932308500000,-18142050900000,6483533000000,37416945600000,-25204767400000,-9375050100000,8583330000000,-93625329600000,-23846253400000,20122457600000,3482944000000,-22232728400000,-15815547700000,-206540500000,81633700000,10035699600000,-96143900000,-6444647500000,12899285500000,-26900381500000,17321640800000,16514177500000,13999412400000,104479751200000,-23131992500000,-8399182500000,19568060600000,-7855930100000,2815798000000,-13357626600000,1336387400000,4851885000000,-51693657600000,23147917800000,24560408500000,-65479274500000,-14635607400000,2634798100000,-14033765100000,10915897800000,1399538100000,6121579900000,-28245367400000],"hashrate_average_7d":575264165210119,"hashrate_average_7d_count":168,"expected_blocks":0.6,"multipool":6},{"url":"https:\/\/lab.antpool.com","hashrate":4040000000000000,"miners":-1,"minpay":0.1,"id":11,"pool_id":"antpool.com","i":2063,"nethash":85200000000000000,"netdiff":6437146817,"feetype":"PPS","fee":3,"income":3.0114232e-15,"lastblock":708211,"lastblocktime":"1667391040","country":"WL|Global","blocks_1000":1,"hashrate_average_100_count":72,"hashrate_average_100":4122130652533637.5,"hashrate_average_1h":4082222222222222,"history_start":1666924844,"history_interval":3600,"history_addlast":true,"history":[4331500000000000,102000000000000,-68500000000000,-16666667000000,2666667000000,-36000000000000,87000000000000,-59500000000000,-3500000000000,36500000000000,-44500000000000,-30000000000000,-65000000000000,90000000000000,-169000000000000,112000000000000,60000000000000,41500000000000,-4000000000000,-39000000000000,24000000000000,18000000000000,-18000000000000,16000000000000,45000000000000,4000000000000,-65500000000000,68444444000000,-24444444000000,7500000000000,-28500000000000,2500000000000,-104000000000000,47000000000000,127000000000000,98000000000000,-82000000000000,120500000000000,-94500000000000,118500000000000,45222222000000,20277778000000,2000000000000,1500000000000,-25000000000000,-1000000000000,-21000000000000,23000000000000,185500000000000,220500000000000,74000000000000,-100000000000000,-21444444000000,-18055556000000,80000000000000,-113500000000000,57000000000000,113500000000000,-3500000000000,46500000000000,-11500000000000,-26500000000000,-128000000000000,92500000000000,19500000000000,69000000000000,-21500000000000,-60500000000000,-36500000000000,-173000000000000,-113000000000000,-55500000000000,-993500000000000,975500000000000,69000000000000,-267500000000000,-223941176000000,61888544000000,-51947368000000,8000000000000,-46000000000000,-6500000000000,-58500000000000,50000000000000,34500000000000,-21000000000000,-80000000000000,49000000000000,-5500000000000,19500000000000,-7000000000000,36500000000000,-13000000000000,-42500000000000,61000000000000,17500000000000,-19500000000000,11000000000000,-33000000000000,-5500000000000,28210526000000,35289474000000,46500000000000,-135000000000000,126500000000000,17500000000000,21500000000000,-6500000000000,-59000000000000,20000000000000,-63500000000000,-21500000000000,-86500000000000,-216500000000000,11500000000000,-61000000000000,64000000000000,-46500000000000,332000000000000,97500000000000,16500000000000,-32500000000000,81000000000000,-60000000000000,55026316000000,-79526316000000,74500000000000,-186500000000000,31500000000000,40500000000000,36500000000000,-6000000000000,-29500000000000,79000000000000,-131500000000000,46500000000000,-28000000000000,90000000000000,4000000000000,43500000000000,25500000000000,67000000000000,-156500000000000,-146000000000000,43000000000000,-32500000000000,-30000000000000,-3000000000000,-68500000000000,68500000000000,40500000000000,-34000000000000,-5500000000000,-3500000000000,4000000000000,-3500000000000,-79500000000000,92500000000000,-89000000000000,58500000000000,-23000000000000,18000000000000,-33500000000000,33500000000000,15500000000000,-32000000000000,-17500000000000,-22277778000000],"hashrate_average_7d":4410098338160714,"hashrate_average_7d_count":168,"expected_blocks":4.5,"multipool":16},{"url":"https:\/\/pool.btc.com","hashrate":3652000000000000,"miners":-1,"minpay":0.1,"id":4,"pool_id":"pool.btc.com","feetype":"PPS","i":14356,"workers":90,"income":3.1045521650134e-15,"i_blocks":14398,"json_blocks":{"err_no":0,"data":{"blocks":{"current_page":1,"data":[{"height":708685,"is_orphaned":0,"hash":"00000000000000004bc7e244ce64d4ea00b3224f29de55801d8f733de1abd7c4","rewards":"0.99343280","size":31853,"prev_hash":"00000000000000003b66f3f90f81e1632c553f7c544197c0bdfec97e3168aa90","bits":419474126,"version":9,"created_at":1667528526,"region_id":34,"region_name":"America"},{"height":708657,"is_orphaned":0,"hash":"00000000000000001f61cd459752d1db262af7174adfe4f8f8e2c6a8909b0af7","rewards":"0.99343280","size":18344,"prev_hash":"0000000000000000141e1c6a0947f831c003570917b428a4150a5b3cbf62676c","bits":419474126,"version":9,"created_at":1667518787,"region_id":36,"region_name":"BitDeer"},{"height":708649,"is_orphaned":0,"hash":"0000000000000000866f4eea895f76b51c6191a597608dc2725745e5b827c4b3","rewards":"0.99343280","size":5966,"prev_hash":"00000000000000008d0d2fc33a43222a6f4a923d28664e09dc9b160644f56f85","bits":419474126,"version":9,"created_at":1667516636,"region_id":36,"region_name":"BitDeer"},{"height":708644,"is_orphaned":0,"hash":"00000000000000000f664fa4913ff009de866fe679a2c7258b0f8c17f80b6eee","rewards":"0.99343280","size":2157,"prev_hash":"00000000000000004e24b8c0f731a98c24c6751d96a85f366c9da3eca452a714","bits":419474126,"version":9,"created_at":1667513334,"region_id":34,"region_name":"America"},{"height":708628,"is_orphaned":0,"hash":"00000000000000009526892469ca495dbe034753711a4243631856f470e6f78b","rewards":"0.99343280","size":2373,"prev_hash":"00000000000000003568a5bf8943edeaee8097e496d220296172324b60844154","bits":419474126,"version":9,"created_at":1667508204,"region_id":34,"region_name":"America"},{"height":708615,"is_orphaned":0,"hash":"000000000000000074d09748be0ecf73a3150e96643f2da2095e2f824de8fec0","rewards":"0.99343280","size":24420,"prev_hash":"000000000000000055955b31690c223e34a064ac109cc45834dae141b8621147","bits":419476655,"version":9,"created_at":1667502632,"region_id":34,"region_name":"America"},{"height":708608,"is_orphaned":0,"hash":"00000000000000006eeae3ec15a34cf01665d1632147a3206304eb5d5806b78b","rewards":"0.99343280","size":7533,"prev_hash":"000000000000000093c98699e0229d4ab6c8ac232e6822e7c131d986fff5c4d5","bits":419476655,"version":9,"created_at":1667500233,"region_id":34,"region_name":"America"},{"height":708589,"is_orphaned":0,"hash":"00000000000000004f8087f66d87a41003712bf6cd5795fc208faee9743e4722","rewards":"0.99343280","size":2446,"prev_hash":"00000000000000004c8e7f5a5712c8c305289108ed455d3f1d5a2b96b025ff03","bits":419476655,"version":9,"created_at":1667496753,"region_id":36,"region_name":"BitDeer"},{"height":708582,"is_orphaned":0,"hash":"000000000000000058549dcc2408b527fd71e3ba963bc4ca9429efe704b245e2","rewards":"0.99343280","size":7407,"prev_hash":"00000000000000005c255d72fb2214ec92f62abc3886e3500111cc62bdc3a8ea","bits":419476655,"version":9,"created_at":1667494676,"region_id":34,"region_name":"America"},{"height":708563,"is_orphaned":0,"hash":"00000000000000005cd984cc03f628ac51908cc692840d8e5ebc0be8a3d3e42c","rewards":"0.99343280","size":2901,"prev_hash":"00000000000000000d750e8a64f38d7b07a979f2276b399db7aecbf7d30e05b9","bits":419476655,"version":9,"created_at":1667490160,"region_id":34,"region_name":"America"}],"first_page_url":"https:\/\/eu-api.connectbtc.com\/\/public\/v1\/pool\/blocks\/merge?order_by=desc&page_size=10&page=1","from":1,"last_page":2215,"last_page_url":"https:\/\/eu-api.connectbtc.com\/\/public\/v1\/pool\/blocks\/merge?order_by=desc&page_size=10&page=2215","next_page_url":"https:\/\/eu-api.connectbtc.com\/\/public\/v1\/pool\/blocks\/merge?order_by=desc&page_size=10&page=2","path":"https:\/\/eu-api.connectbtc.com\/\/public\/v1\/pool\/blocks\/merge","per_page":10,"prev_page_url":null,"to":10,"total":22143},"blocks_count":22143,"rewards_count":"190528.76205584"},"trace_id":"5a74b641-949a-45f1-acd5-f5743501bc30"},"blocks_nr":10,"lastblock":708685,"lastblocktime":"1667528526","country":"WL|CN , EU , US","blocks_1000":51,"blocks_count":8,"hashrate_average_100_count":72,"hashrate_average_100":3768380116780599,"hashrate_average_1h":3650111111111111,"history_start":1666924844,"history_interval":3600,"history_addlast":true,"history":[3542300000000000,-42350000000000,35350000000000,-17355556000000,-5994444000000,-10050000000000,-15850000000000,28250000000000,-14450000000000,-45700000000000,21400000000000,-48600000000000,45250000000000,2750000000000,-19450000000000,22450000000000,-53600000000000,51750000000000,28550000000000,71800000000000,21050000000000,950000000000,22100000000000,81450000000000,-53900000000000,2800000000000,-41200000000000,-16111765000000,9711765000000,24350000000000,-40750000000000,4150000000000,42000000000000,-17100000000000,-13600000000000,15250000000000,15350000000000,68200000000000,-9200000000000,9000000000000,43272222000000,-32472222000000,9500000000000,2600000000000,-16500000000000,1100000000000,-17950000000000,-95350000000000,33200000000000,-22900000000000,27900000000000,42650000000000,-15888889000000,25688889000000,-42500000000000,12300000000000,-5500000000000,19200000000000,9650000000000,6900000000000,4100000000000,70500000000000,-41250000000000,21900000000000,1700000000000,-40650000000000,-34500000000000,-27700000000000,33600000000000,49800000000000,-29850000000000,-6900000000000,-29200000000000,60050000000000,-82450000000000,56600000000000,44400000000000,-15000000000000,43350000000000,-12700000000000,28250000000000,-8350000000000,22150000000000,36750000000000,-35900000000000,-9150000000000,86850000000000,2500000000000,33300000000000,150000000000,77050000000000,-64000000000000,-72800000000000,91400000000000,-45700000000000,-22800000000000,57900000000000,15650000000000,33000000000000,23350000000000,28381579000000,-17381579000000,-25800000000000,-42800000000000,81250000000000,-50400000000000,-11300000000000,43300000000000,37100000000000,-57650000000000,-3400000000000,2000000000000,28450000000000,-16950000000000,10050000000000,-20550000000000,48000000000000,75950000000000,-62150000000000,-7100000000000,700000000000,12350000000000,16050000000000,-44100000000000,17118421000000,181579000000,-45850000000000,11950000000000,9800000000000,-18450000000000,-35250000000000,34000000000000,13000000000000,51250000000000,36650000000000,-73250000000000,-62950000000000,-124800000000000,8750000000000,-18250000000000,12900000000000,31850000000000,-37500000000000,-33250000000000,-11100000000000,-29000000000000,7450000000000,47900000000000,-27900000000000,-7050000000000,15400000000000,-30750000000000,-54200000000000,12950000000000,75350000000000,43850000000000,-33550000000000,-25950000000000,11350000000000,-3450000000000,19500000000000,-64650000000000,1650000000000,62050000000000,-11750000000000,-22450000000000,-96000000000000,-32688889000000],"hashrate_average_7d":3772299566208333,"hashrate_average_7d_count":168,"hashrate_block":471047514597574.9,"expected_blocks":4.11,"luck":3.888022153992643,"multipool":7},{"url":"https:\/\/www.f2pool.com","hashrate":46460146305404780,"miners":-1,"minpay":0.1,"id":14,"pool_id":"f2pool.com","fee":3,"feetype":"PPS%3","i":2445,"income":2.933757029674888e-15,"blocks_nr":12,"lastblock":708688,"lastblocktime":1667530136,"country":"WL|Global","blocks_1000":601,"blocks_count":61,"hashrate_average_100_count":72,"hashrate_average_100":53453466250597230,"hashrate_average_1h":46009141386581980,"history_start":1666924844,"history_interval":3600,"history_addlast":true,"history":[50230245330000000,-474315870000000,274847560000000,65187390000000,48350940000000,14045250000000,753436650000000,589654760000000,21696240000000,-3697840000000,-225234320000000,-136362140000000,-605960430000000,-195173410000000,39862830000000,-211253570000000,-73096610000000,474457920000000,-3288990000000,-87584940000000,-378942650000000,44897290000000,497353390000000,-332579440000000,105088490000000,-365026530000000,-120325450000000,123261530000000,-166577170000000,294370550000000,345288300000000,-74614660000000,122571900000000,194175460000000,-73461230000000,-363473420000000,348930640000000,33893990000000,242232200000000,-297708100000000,-213366010000000,223585120000000,-311052060000000,-94715990000000,-198442880000000,118550910000000,-121044420000000,307116430000000,358807750000000,-439460880000000,97173380000000,199999460000000,48541180000000,69288620000000,-229563190000000,521500290000000,-486158310000000,-81353650000000,289252900000000,-93647170000000,-8617730000000,91158270000000,-138736890000000,-32338190000000,-189870940000000,-85353640000000,173325940000000,233929150000000,-312066560000000,21607210000000,168838880000000,15529900000000,60559620000000,-541437400000000,282170850000000,98100260000000,-154311830000000,750970690000000,-612945300000000,244277410000000,159472880000000,105827960000000,-203476510000000,-347187380000000,371060550000000,-54794180000000,264321370000000,-389776790000000,129823640000000,346871370000000,-13719200000000,-402780540000000,-263759760000000,533944030000000,-406154260000000,-490718850000000,749192370000000,-9914232340000000,-10644425470000000,8279477160000000,11937439950000000,879657710000000,-165856510000000,-74084510000000,584199450000000,177541570000000,86794620000000,-57245210000000,507112900000000,-130648410000000,-67005850000000,-242165930000000,150478570000000,377999380000000,32267880000000,-168252400000000,-147617490000000,-268129490000000,359655490000000,382413440000000,638574000000000,-322031590000000,-86557270000000,-2382166790000000,4087040370000000,2065304170000000,20560470000000,-13404820000000,161894170000000,-107551850000000,348071830000000,-789245400000000,627697670000000,-672286050000000,420918820000000,89723930000000,-175070090000000,314286840000000,-2164042290000000,986679420000000,-2001348220000000,1656619270000000,-2212356160000000,3681286920000000,-1033346310000000,-281404660000000,739915410000000,-203453310000000,-864164140000000,1099739110000000,-311237530000000,287015920000000,392493510000000,127815080000000,-239992880000000,-485128380000000,276147920000000,-757013490000000,761149190000000,-665034240000000,-1402379000000000,-444853530000000,1673817100000000,625591160000000,-113450940000000,-5943023340000000,-4638767790000000,567614950000000],"hashrate_average_7d":51765223448273840,"hashrate_average_7d_count":168,"hashrate_block":876286331977003.8,"expected_blocks":58.33,"luck":2.6726916597424477,"multipool":33},{"url":"https:\/\/www.poolin.com","hashrate":27024000000000000,"miners":-1,"minpay":0.01,"id":3,"pool_id":"poolin.com","fee":3,"feetype":"PPS","i":13417,"json":{"err_no":0,"data":{"shares":{"shares_1m":26.075,"shares_5m":27.024,"shares_15m":26.342,"shares_1h":26.896,"shares_unit":"P"},"reject":{"1m":0,"5m":0,"15m":0.0026,"1h":0.003},"workers":1232,"users":375,"total_blocks":143810,"total_rewards":104560861831377}},"workers":1232,"netdiff":6437146817.530989,"nethash":"92157783528551656","income":3.3953899999999997e-15,"blocks_nr":17,"lastblock":708686,"lastblocktime":1667529331,"country":"US|United States","blocks_1000":288,"blocks_count":23,"hashrate_average_100_count":72,"hashrate_average_100":27090614382002090,"hashrate_average_1h":26666555555555556,"history_start":1666924844,"history_interval":3600,"history_addlast":true,"history":[27665750000000000,-231350000000000,210450000000000,-25627780000000,144477780000000,-185050000000000,-31450000000000,-101200000000000,-331750000000000,37013160000000,-115813160000000,248450000000000,-60050000000000,-8850000000000,48700000000000,-75450000000000,39150000000000,95800000000000,-109650000000000,299850000000000,-91250000000000,-13000000000000,-202600000000000,-25100000000000,90500000000000,4827550000000000,2169200000000000,152947060000000,393802940000000,-42818420000000,449068420000000,-227700000000000,53100000000000,-182300000000000,66350000000000,221550000000000,-482350000000000,26700000000000,116950000000000,-108500000000000,72055560000000,37394440000000,-22650000000000,4250000000000,-514750000000000,307750000000000,-2645250000000000,-442700000000000,233800000000000,-387100000000000,2379900000000000,702957890000000,67529610000000,-101937500000000,-122000000000000,-483050000000000,370223080000000,-51273080000000,603100000000000,-511050000000000,481850000000000,-235600000000000,-2907300000000000,-4042950000000000,-10550000000000,-17050000000000,-243950000000000,-94050000000000,104250000000000,143350000000000,-339084620000000,168784620000000,-472100000000000,229050000000000,-476750000000000,103600000000000,472623530000000,355755420000000,-179278950000000,-145600000000000,123750000000000,-149450000000000,229350000000000,-254100000000000,-823800000000000,865250000000000,313650000000000,-277850000000000,-16450000000000,260500000000000,-1067100000000000,107500000000000,-215200000000000,133557690000000,-498657690000000,-78050000000000,-38250000000000,914950000000000,-90050000000000,332800000000000,-68681580000000,-838618420000000,675788460000000,-355188460000000,585600000000000,114450000000000,-95850000000000,763700000000000,311750000000000,-146050000000000,-122500000000000,157350000000000,-53000000000000,124850000000000,-254750000000000,-104750000000000,-63900000000000,335500000000000,-126000000000000,150881580000000,52418420000000,70100000000000,-153150000000000,359750000000000,-182644740000000,838094740000000,274300000000000,-524800000000000,262200000000000,-511350000000000,-70150000000000,-66800000000000,579800000000000,-58250000000000,10050000000000,35600000000000,-131850000000000,-176900000000000,30750000000000,114950000000000,13950000000000,-292900000000000,-1125800000000000,882050000000000,-344550000000000,-768289470000000,281239470000000,-216500000000000,-166000000000000,175950000000000,46450000000000,-118500000000000,-71800000000000,370600000000000,1950000000000,-161750000000000,-2950000000000,99800000000000,18650000000000,208000000000000,116650000000000,-101550000000000,-53600000000000,-280550000000000,-14350000000000,-409055260000000,-237894740000000,204555560000000],"hashrate_average_7d":28903964691369056,"hashrate_average_7d_count":168,"hashrate_block":1177852799217482,"expected_blocks":29.56,"luck":-6.560713813735081,"multipool":15}],"hashblock":{"hashrate_average_100":84312460749379920,"blocks_count":92,"pools":[[471047514597574.9,8,58880939324696.86,"https:\/\/pool.btc.com"],[876286331977003.8,61,14365349704541.045,"https:\/\/www.f2pool.com"],[1177852799217482,23,51210991270325.305,"https:\/\/www.poolin.com"]],"hashrate_block_all":916439790754129.6,"hashrate_block_min":14365349704541.045,"hashrate_block_max":58880939324696.86,"pool_hashblock_average":41485760099854.41,"hashrate_block":916439790754129.6},"time":1667531085,"hashrate":85200000000000000,"difficulty":6437146817.530989,"height":708688,"symbol":"DCR","maxhash":46460146305404780,"poolshash":81659345928154100,"nethash_estimat":91643979075412960,"poolsminers":1349,"supply":{"circulating":14478241.2876156,"total":21000000,"emission24":2573},"block_time_target":300,"block_height_ok":true,"algo":"Blake256R14","hashrate_from_diff":false,"hashrate_src":"https:\/\/lab.antpool.com","unit":"H\/s","block_time_average":297.9,"minerstat":[1.2967623071481e-16,27.064212807093,0.9958895,572],"link":{"coingecko":"decred","cmc":"decred","whattomine":"152-dcr-blake (14r)","coin360":"decred-dcr","coinpaprika":"dcr-decred"},"latest_release":{"tag":"release-v1.7.5","name":"dcrd v1.7.5","t":1665429869},"price":26.93}