{"data":[{"url":"https:\/\/www.okx.com\/pool","hashrate":0,"miners":-1,"minpay":-1,"id":23,"pool_id":"okx.com","i":1617,"workers":0,"lastblock":630904,"feetype":"PPLNS","fee":2,"country":"HK|Hong Kong","hashrate_average_100_count":68,"hashrate_average_100":0,"hashrate_average_1h":0,"history_start":1668559426,"history_interval":3600,"history_addlast":true,"history":[8031000000000,679000000000,-200000000000,774500000000,-125500000000,300473684000,208026316000,-820500000000,-93500000000,353000000000,116000000000,152000000000,687000000000,-488500000000,597000000000,-635500000000,721000000000,-222500000000,-28000000000,-337500000000,-1488000000000,1012000000000,-843078947000,2406578947000,-1659500000000,32000000000,697500000000,1436000000000,-1862000000000,-1642000000000,1876571429000,-191571429000,-1038500000000,-199000000000,268000000000,1497000000000,-240500000000,-1307500000000,-1084000000000,1147500000000,236000000000,-144500000000,198000000000,677500000000,-1318000000000,286000000000,56500000000,1938000000000,-905500000000,-174500000000,1317500000000,-2071000000000,-171500000000,-167500000000,387230769000,952269231000,-787500000000,320000000000,413500000000,22500000000,-330500000000,-155000000000,615000000000,-1151000000000,423000000000,-455500000000,625500000000,-761500000000,247000000000,669500000000,-441500000000,-308000000000,978000000000,-59000000000,-800500000000,97000000000,-283500000000,-111500000000,758500000000,-229000000000,1360500000000,-482000000000,-1618500000000,-466000000000,429000000000,122000000000,188500000000,-137500000000,167000000000,-194500000000,2107000000000,-1074500000000,-264000000000,-275000000000,-361500000000,-610500000000,459000000000,586000000000,524000000000,607000000000,-681000000000,-1157000000000,640294118000,-1240794118000,1244000000000,230000000000,-299000000000,105500000000,124500000000,-359000000000,249000000000,538500000000,-701500000000,-440000000000,879500000000,-277500000000,1002500000000,-1000000000,-1147500000000,152500000000,261500000000,-293000000000,232000000000,541500000000,68000000000,-1224500000000,615970588000,431029412000,-6634000000000,-2803500000000,0,0,0,0,0,0,0,0,0,0,0,0,0,0,0,0,0,0,0,0,0,0,0,0,0,0,0,0,0,0,0,0,0,0,0,0,0,0,0],"hashrate_average_7d":6830212790775.149,"hashrate_average_7d_count":169,"expected_blocks":0,"multipool":5},{"url":"https:\/\/www2.coinmine.pl\/dcr","hashrate":263656566545886,"miners":-1,"minpay":0.05,"id":5,"pool_id":"coinmine.pl","i":12413,"workers":26,"blocks_nr":5,"lastblock":714004,"lastblocktime":"1669140218","fee":1,"feetype":"PPLNS","height":714105,"country":"WL|EU , US , Asia","blocks_1000":4,"hashrate_average_100_count":68,"hashrate_average_100":198431071112220.9,"hashrate_average_1h":240376464405954.5,"history_start":1668559426,"history_interval":3600,"history_addlast":true,"history":[893799191800000,-13165148500000,11422437400000,5583919700000,11340149000000,-9883006700000,-16729759400000,9461877400000,30889810600000,-19330374300000,6342680800000,-15509057700000,6897511100000,29139532300000,-6996666600000,-5140138600000,-19552423500000,4143733400000,4758849800000,-16078392500000,-9940067600000,12945595000000,15820494800000,-15013606700000,4391897700000,19794210800000,-13670197900000,-30238032600000,24367891100000,-14194557000000,34449057500000,-16780978700000,2291015000000,246482700000,-8183149700000,6700078600000,10771670700000,-30325984400000,12323877000000,8591563200000,3726629400000,-7820241100000,11607216200000,-146828059600000,-32246293700000,161617014400000,11144024500000,-5437441400000,1467579000000,-32213274600000,10655943500000,483848800000,27876757800000,-26829447200000,24522102500000,2261392700000,7478426900000,-17960821300000,-20537545000000,-246846769300000,-613419443070000,314181249270000,-11677736600000,-64998634500000,-22715912700000,53267650800000,-29015342800000,-31672615400000,15879687400000,-46906023400000,-38805281300000,32588048000000,37014244000000,77569935100000,8416176400000,54240327900000,-82479089500000,107880285700000,51553119000000,-31856152900000,65317807100000,-116636883600000,-56913766100000,19819722800000,-38906228400000,18040728600000,19692950400000,-38372166800000,33005630500000,28134933000000,-35665318100000,39767588300000,34656964100000,-38063682600000,39146675800000,-16267448600000,21040766200000,-55101467100000,-15085547900000,51169377400000,-7316276600000,3837254300000,-58493708600000,-27225648600000,-9188565900000,9676167800000,-52570432600000,-7388414300000,54103014500000,48743218800000,-2621771100000,120343590500000,-113622201700000,-17966025400000,-2113856600000,25727388000000,-22838119400000,9501891500000,22152549100000,-49001606800000,34189415000000,-4357547100000,-32850163000000,4826476300000,-19536939400000,81531762600000,-20893343800000,-32753100700000,-15094533500000,-42934415300000,-4973361400000,-19443851400000,44047586800000,-6063009900000,9733095300000,-6794318800000,-6423751800000,-40595578600000,-34005517400000,37728606500000,-43543693100000,50570908100000,-17373332800000,-456395800000,6281979400000,5278832600000,10337353000000,6384521000000,61757638900000,-50611534800000,32371008900000,-30715596300000,-54888497900000,-1029349700000,3652682700000,-17132639500000,-24755257500000,9153226400000,68020450800000,16145201300000,-65281933000000,55023360400000,-34755522100000,-36055645700000,-18941345800000,25803939000000,-19610784900000,53259156700000,32723622900000],"hashrate_average_7d":494026135217337.56,"hashrate_average_7d_count":169,"expected_blocks":0.28,"multipool":6},{"url":"https:\/\/lab.antpool.com","hashrate":14000000000000000,"miners":-1,"minpay":0.1,"id":11,"pool_id":"antpool.com","i":2068,"nethash":66950000000000000,"netdiff":5027339461,"feetype":"PPS","fee":3,"income":3.8177163e-15,"lastblock":712107,"lastblocktime":"1668580440","country":"WL|Global","hashrate_average_100_count":68,"hashrate_average_100":14339684353996724,"hashrate_average_1h":14311250000000000,"history_start":1668559426,"history_interval":3600,"history_addlast":true,"history":[3655000000000000,-80500000000000,112000000000000,-2500000000000,41500000000000,-11815789000000,-208684211000000,383000000000000,-1000000000000,1500000000000,34500000000000,36500000000000,-69000000000000,24000000000000,-11500000000000,9500000000000,-60500000000000,-33500000000000,-45500000000000,72500000000000,6500000000000,-32000000000000,-34736842000000,-2263158000000,-44000000000000,113500000000000,-14500000000000,11500000000000,-44000000000000,66500000000000,-34857143000000,2276857143000000,7754500000000000,-173500000000000,108000000000000,-203000000000000,-84000000000000,223500000000000,-36500000000000,13000000000000,-198000000000000,247000000000000,-184500000000000,-102500000000000,53500000000000,-23000000000000,43000000000000,206000000000000,-312500000000000,344500000000000,-186000000000000,89000000000000,-42000000000000,107500000000000,190461540000000,-213961540000000,-41000000000000,1500000000000,41500000000000,74500000000000,-132000000000000,-63500000000000,-234000000000000,294500000000000,22000000000000,-44500000000000,15500000000000,-99500000000000,46000000000000,166000000000000,22000000000000,-157500000000000,85000000000000,35000000000000,-294000000000000,95000000000000,102000000000000,-230500000000000,224166670000000,82833330000000,-31000000000000,66000000000000,98500000000000,33500000000000,-251500000000000,571000000000000,-66500000000000,89000000000000,-169500000000000,97500000000000,19000000000000,-177500000000000,21500000000000,127000000000000,-103000000000000,47500000000000,29000000000000,-42000000000000,15500000000000,-14000000000000,61000000000000,156000000000000,-121323530000000,36823530000000,-32000000000000,-127500000000000,49000000000000,31000000000000,8000000000000,-112500000000000,163000000000000,-108500000000000,-1500000000000,203500000000000,-119000000000000,-15000000000000,-14500000000000,87000000000000,-14000000000000,-27500000000000,112500000000000,94500000000000,-149000000000000,-1499500000000000,-372000000000000,1445000000000000,-231352940000000,229852940000000,-82000000000000,63000000000000,28000000000000,-96500000000000,-47000000000000,-13000000000000,40500000000000,3000000000000,24000000000000,-81500000000000,-182000000000000,197500000000000,-35500000000000,30842110000000,-9342110000000,73000000000000,-44500000000000,-181000000000000,130500000000000,16000000000000,-103500000000000,99368420000000,25409360000000,96722220000000,472500000000000,-120500000000000,37500000000000,178368420000000,-166315790000000,64947370000000,72500000000000,-50722220000000,-39356730000000,124078950000000,-180500000000000,246500000000000,-123500000000000,49500000000000,25000000000000,-119000000000000,50750000000000],"hashrate_average_7d":11985120710982250,"hashrate_average_7d_count":169,"expected_blocks":19.98,"multipool":16},{"url":"https:\/\/pool.btc.com","hashrate":4203000000000000.5,"miners":-1,"minpay":0.1,"id":4,"pool_id":"pool.btc.com","feetype":"PPS","i":14459,"workers":102,"income":3.9357979079743e-15,"i_blocks":14501,"json_blocks":{"err_no":0,"data":{"blocks":{"current_page":1,"data":[{"height":714099,"is_orphaned":0,"hash":"00000000000000007772c99ab24326ba190cc1aacc4171573699040e9c904d53","rewards":"0.98359683","size":3891,"prev_hash":"00000000000000003f4106f7015578b8092c17ceda6e9cae2fe9a8fad5c4886d","bits":419486388,"version":9,"created_at":1669168244,"region_id":34,"region_name":"America"},{"height":714098,"is_orphaned":0,"hash":"00000000000000003f4106f7015578b8092c17ceda6e9cae2fe9a8fad5c4886d","rewards":"0.98359683","size":10603,"prev_hash":"0000000000000000883dbffc91aebcd6d38090c2b7b3ca2bbe61fa49221b44ac","bits":419486388,"version":9,"created_at":1669168207,"region_id":34,"region_name":"America"},{"height":714096,"is_orphaned":0,"hash":"0000000000000000410ecaca6731a315680ce25f0708992965440605ace4b41a","rewards":"0.98359683","size":3330,"prev_hash":"00000000000000009adec154e7b4fb9772822a8a98adf0ad5d4acd17f0955058","bits":419486388,"version":9,"created_at":1669167447,"region_id":34,"region_name":"America"},{"height":714061,"is_orphaned":0,"hash":"000000000000000079b948fc349f98dee81c8f97a38414345852a720442c8152","rewards":"0.98359683","size":57477,"prev_hash":"0000000000000000d152ab4cc62ff45c03112a55d4a117764053b1671d02a35f","bits":419486568,"version":9,"created_at":1669158250,"region_id":34,"region_name":"America"},{"height":714059,"is_orphaned":0,"hash":"00000000000000005aa038221a8c6ecec5c16862c5ed13d72df8b449e9db4576","rewards":"0.98359683","size":4898,"prev_hash":"00000000000000000b76c23bb8cad6ff953fca7017543bd39291ba81fe7ca28c","bits":419486568,"version":9,"created_at":1669157842,"region_id":34,"region_name":"America"},{"height":714039,"is_orphaned":0,"hash":"00000000000000005d9dbb8b21f0e1c49623bfcae0e3a40f28240620c4ec5cbc","rewards":"0.98359683","size":4440,"prev_hash":"0000000000000000d00ce1339e7dcbe93b8270ec69d019d75ed77f166ea43f36","bits":419486568,"version":9,"created_at":1669149782,"region_id":36,"region_name":"BitDeer"},{"height":714020,"is_orphaned":0,"hash":"00000000000000001dc6563766df8e43f5df846763d7f4b3a776ad69e20fe3e8","rewards":"0.78687746","size":41138,"prev_hash":"0000000000000000662bb21ee2ffc9afc8f0c824ee5a6e2f1dbd2294afe2e698","bits":419486568,"version":9,"created_at":1669144380,"region_id":36,"region_name":"BitDeer"},{"height":714007,"is_orphaned":0,"hash":"00000000000000007d1972c271ca4121b6048e1437fc4eaca6d22be60748e4de","rewards":"0.98359683","size":7652,"prev_hash":"00000000000000005c2c7281ef12cb306c60f28698a50d779d88350af93c8f85","bits":419486568,"version":9,"created_at":1669140772,"region_id":36,"region_name":"BitDeer"},{"height":713978,"is_orphaned":0,"hash":"00000000000000003c934e5a2adeca59e2053ac1fca10fe85ce25b2f609811ca","rewards":"0.98359683","size":9687,"prev_hash":"0000000000000000106de9217f76208843158c3e4a53f6241493f1276f1ddc4c","bits":419486568,"version":9,"created_at":1669129399,"region_id":34,"region_name":"America"},{"height":713967,"is_orphaned":0,"hash":"000000000000000035a1ee4f17e312d60b438b9e7db77f90b06a523f6e66d7ed","rewards":"0.98359683","size":20124,"prev_hash":"00000000000000003f1b22a8542a450986f32897206b795def15d5d6e23c3670","bits":419486568,"version":9,"created_at":1669127175,"region_id":36,"region_name":"BitDeer"}],"first_page_url":"https:\/\/eu-api.connectbtc.com\/\/public\/v1\/pool\/blocks\/merge?order_by=desc&page_size=10&page=1","from":1,"last_page":2247,"last_page_url":"https:\/\/eu-api.connectbtc.com\/\/public\/v1\/pool\/blocks\/merge?order_by=desc&page_size=10&page=2247","next_page_url":"https:\/\/eu-api.connectbtc.com\/\/public\/v1\/pool\/blocks\/merge?order_by=desc&page_size=10&page=2","path":"https:\/\/eu-api.connectbtc.com\/\/public\/v1\/pool\/blocks\/merge","per_page":10,"prev_page_url":null,"to":10,"total":22470},"blocks_count":22470,"rewards_count":"190847.89791648"},"trace_id":"5a132d7e-59fb-4bcb-ad43-cc886a7f3949"},"blocks_nr":10,"lastblock":714099,"lastblocktime":"1669168209","country":"WL|CN , EU , US","blocks_1000":81,"blocks_count":8,"hashrate_average_100_count":68,"hashrate_average_100":4171967123816995,"hashrate_average_1h":4219125000000000,"history_start":1668559426,"history_interval":3600,"history_addlast":true,"history":[4207650000000000,-20850000000000,-58450000000000,54550000000000,-21850000000000,27844737000000,-120978070000000,18633333000000,-5500000000000,39850000000000,12000000000000,15000000000000,22250000000000,-17600000000000,48050000000000,-7350000000000,20900000000000,5950000000000,-55000000000000,-24100000000000,107250000000000,-52600000000000,-111650000000000,-52700000000000,45850000000000,-26750000000000,-24400000000000,29850000000000,-38700000000000,-51500000000000,-3292857000000,-63157143000000,12221053000000,140128947000000,37900000000000,-64200000000000,62900000000000,39650000000000,-45050000000000,-20900000000000,-42050000000000,-22750000000000,16850000000000,-36850000000000,7100000000000,20950000000000,-87700000000000,90100000000000,-54700000000000,-21700000000000,17650000000000,28550000000000,-3150000000000,-79850000000000,-34223077000000,2023077000000,82550000000000,14600000000000,22700000000000,20750000000000,43350000000000,-19850000000000,-6700000000000,35600000000000,-96450000000000,-16000000000000,85450000000000,-38150000000000,24300000000000,-8350000000000,-30400000000000,9850000000000,-94650000000000,64950000000000,-58650000000000,31500000000000,-31500000000000,-3000000000000,-6200000000000,16750000000000,52550000000000,15350000000000,38800000000000,-18550000000000,70400000000000,35850000000000,41150000000000,12350000000000,23550000000000,-60300000000000,5600000000000,-8800000000000,800000000000,9250000000000,11500000000000,-16250000000000,15550000000000,-35200000000000,-75200000000000,-27200000000000,4250000000000,8500000000000,-49676471000000,-6423529000000,17450000000000,-15250000000000,39850000000000,-6500000000000,44750000000000,79050000000000,-53000000000000,83550000000000,-4200000000000,-52350000000000,-26800000000000,42550000000000,-52050000000000,47550000000000,-14650000000000,32900000000000,-44400000000000,-45250000000000,22250000000000,-22550000000000,-27100000000000,24400000000000,26223529000000,23426471000000,5050000000000,53100000000000,13000000000000,-61950000000000,121100000000000,-29450000000000,-17550000000000,8250000000000,41300000000000,-13600000000000,-45250000000000,8550000000000,29400000000000,-33200000000000,-94700000000000,4250000000000,-10400000000000,65650000000000,-119450000000000,71700000000000,-25800000000000,61960526000000,-13488304000000,-7772222000000,-32300000000000,-200000000000,30700000000000,77271053000000,78684210000000,5594737000000,-100500000000000,-20977778000000,37146199000000,17931579000000,-38250000000000,50000000000,2650000000000,-6850000000000,17900000000000,88500000000000,-21175000000000],"hashrate_average_7d":4065006735431955.5,"hashrate_average_7d_count":169,"hashrate_block":521495890477124.4,"expected_blocks":5.81,"luck":2.1858975641491867,"multipool":7},{"url":"https:\/\/www.f2pool.com","hashrate":23787278456642840,"miners":-1,"minpay":0.1,"id":14,"pool_id":"f2pool.com","fee":3,"feetype":"PPS%3","i":2437,"income":3.71927227057871e-15,"blocks_nr":5,"lastblock":714102,"lastblocktime":1669169016,"country":"WL|Global","blocks_1000":298,"blocks_count":31,"hashrate_average_100_count":68,"hashrate_average_100":23507890159537290,"hashrate_average_1h":23844917682250744,"history_start":1668559426,"history_interval":3600,"history_addlast":true,"history":[24166959960000000,-45121560000000,-201246090000000,-151461980000000,-207960210000000,359236760000000,213659920000000,264061820000000,4155490260000000,1050132160000000,44755790000000,-123238210000000,-97354780000000,139037600000000,87586860000000,-24305100000000,-70009790000000,-116587510000000,127957620000000,-107887200000000,-49380520000000,-179175860000000,292863970000000,524005850000000,-10106290000000,-88618220000000,-108014950000000,-152888660000000,-158208970000000,3560700000000,29242490000000,-2208393340000000,-48465750000000,13288150000000,-6642240000000,558852960000000,158678140000000,64976150000000,196410950000000,-153815410000000,24218070000000,34306600000000,-95651970000000,100412480000000,-15477110000000,-157908720000000,212635080000000,258797400000000,-180655990000000,144056240000000,119783810000000,-50308240000000,-1032409650000000,-1653096490000000,-1555451640000000,-220981700000000,-60385920000000,-117581490000000,-31631080000000,30871650000000,-72700600000000,12040410000000,-75657110000000,-163758390000000,27190620000000,-93867440000000,-88484210000000,-119260450000000,170482570000000,-54629220000000,-71192930000000,51212680000000,171882980000000,-47595660000000,108656720000000,-89699050000000,-79878970000000,121884630000000,-43249820000000,89786640000000,-18191860000000,-172219090000000,-9655220000000,8136190000000,7380080000000,97826850000000,18328610000000,-237299830000000,47676040000000,-68828950000000,-14156580000000,7298370000000,-115714510000000,175282100000000,-113763110000000,61383280000000,112481940000000,-52886210000000,69929990000000,-21553990000000,107806500000000,-8381920000000,-20809630000000,-88160860000000,26082060000000,52030980000000,53805010000000,-109436000000000,55716920000000,5725450000000,-155512880000000,4065340000000,92365930000000,-71875350000000,-3110130000000,103901960000000,-23931990000000,38298280000000,-34352970000000,268179970000000,130182700000000,41964940000000,-9607500000000,-58903100000000,123281330000000,-416687450000000,-18644330000000,-116184350000000,33242480000000,155201910000000,-225059510000000,113254600000000,180769030000000,-79631070000000,-90642420000000,4770880000000,30479370000000,-20266270000000,95463850000000,-189391950000000,-125638800000000,97927180000000,-72183350000000,185500900000000,167419210000000,-62908720000000,96921140000000,158625160000000,-14197340000000,-9728940000000,24851380000000,57249830000000,-124017520000000,-99054970000000,-5491420000000,-133352650000000,161693810000000,-36058940000000,-90386300000000,-112397430000000,-35170550000000,138669330000000,-48218390000000,-88908260000000,-51060690000000,123213900000000,-155238270000000,183282740000000,307541530000000],"hashrate_average_7d":24993651630532540,"hashrate_average_7d_count":169,"hashrate_block":758319037404428.6,"expected_blocks":32.76,"luck":-1.7608721214540708,"multipool":33},{"url":"https:\/\/www.poolin.com","hashrate":34347000000000000,"miners":-1,"minpay":0.01,"id":3,"pool_id":"poolin.com","fee":3,"feetype":"PPS","i":13520,"json":{"err_no":0,"data":{"shares":{"shares_1m":32.096,"shares_5m":34.347,"shares_15m":34.332,"shares_1h":35.039,"shares_unit":"P"},"reject":{"1m":0,"5m":0,"15m":0.0068,"1h":0.0044},"workers":1466,"users":384,"total_blocks":146148,"total_rewards":104791515485007}},"workers":1466,"netdiff":5027339461.015932,"nethash":"71974195236284224","income":4.34756e-15,"blocks_nr":21,"lastblock":714104,"lastblocktime":1669170133,"country":"US|United States","blocks_1000":492,"blocks_count":49,"hashrate_average_100_count":68,"hashrate_average_100":35465419386022236,"hashrate_average_1h":34723562500000000,"history_start":1668559426,"history_interval":3600,"history_addlast":true,"history":[27290550000000000,841100000000000,316200000000000,-6100000000000,-210700000000000,-742050000000000,231846150000000,634653850000000,-40250000000000,-132800000000000,91550000000000,56900000000000,-152450000000000,166750000000000,449450000000000,-721000000000000,26150000000000,687200000000000,-98150000000000,189550000000000,-267850000000000,29050000000000,-1088126320000000,-5222373680000000,-430200000000000,-1318850000000000,-414150000000000,-150000000000,-209850000000000,52850000000000,936964290000000,-56264290000000,71550000000000,5170950000000000,926450000000000,-98650000000000,-176200000000000,-1017050000000000,-215500000000000,72350000000000,8050000000000,-313150000000000,-494500000000000,679800000000000,73700000000000,-477200000000000,370350000000000,-77100000000000,14000000000000,331250000000000,-75900000000000,-326600000000000,646300000000000,94700000000000,-1280978570000000,990828570000000,2355450000000000,-1871200000000000,724200000000000,1800600000000000,615950000000000,-190600000000000,-780350000000000,1617400000000000,-63850000000000,117000000000000,-1419250000000000,-2448500000000000,-129250000000000,-76350000000000,96550000000000,1260500000000000,-203100000000000,2217100000000000,399550000000000,363350000000000,950650000000000,-104750000000000,-1301466670000000,-1645483330000000,103450000000000,621450000000000,-448100000000000,2401200000000000,460900000000000,228900000000000,133800000000000,395700000000000,16150000000000,121000000000000,-27750000000000,-191600000000000,-362900000000000,-147350000000000,-110150000000000,260400000000000,-90100000000000,136850000000000,164050000000000,-1856450000000000,-1211550000000000,394550000000000,98342110000000,186357890000000,2953800000000000,-2205550000000000,948150000000000,1143050000000000,1449450000000000,84500000000000,455200000000000,-274100000000000,430500000000000,194800000000000,-120850000000000,-44450000000000,-94250000000000,-604450000000000,-1225750000000000,23900000000000,99700000000000,-1758350000000000,-1071050000000000,512450000000000,652700000000000,1052400000000000,809470590000000,-427820590000000,2717750000000000,214550000000000,-5095300000000000,4556250000000000,829000000000000,-112250000000000,340850000000000,60200000000000,-91100000000000,-6100000000000,-130800000000000,185900000000000,-55900000000000,45036840000000,-147836840000000,132200000000000,-16250000000000,-1282800000000000,746150000000000,492600000000000,-62700000000000,276900000000000,-200666670000000,139816670000000,241950000000000,28950000000000,-321950000000000,-16310530000000,-40526310000000,-446913160000000,-871000000000000,1233538890000000,4479530000000,130231580000000,-96450000000000,-347700000000000,268900000000000,8350000000000,37200000000000,-811450000000000,-144887500000000],"hashrate_average_7d":30211214462662724,"hashrate_average_7d_count":169,"hashrate_block":723784069102494.6,"expected_blocks":49.43,"luck":-0.4250254426951159,"multipool":15}],"hashblock":{"hashrate_average_100":63145276669376520,"blocks_count":88,"pools":[[521495890477124.4,8,65186986309640.55,"https:\/\/pool.btc.com"],[758319037404428.6,31,24461904432400.92,"https:\/\/www.f2pool.com"],[723784069102494.6,49,14771103451071.318,"https:\/\/www.poolin.com"]],"hashrate_block_all":717559962152005.9,"hashrate_block_min":14771103451071.318,"hashrate_block_max":65186986309640.55,"pool_hashblock_average":34806664731037.594,"hashrate_block":717559962152005.9},"time":1669170528,"hashrate":66950000000000000,"difficulty":5027339461.015932,"height":714105,"symbol":"DCR","maxhash":34347000000000000,"poolshash":76600935023188740,"nethash_estimat":71755996215200584,"poolsminers":1594,"supply":{"circulating":14526309.38346397,"total":21000000,"emission24":2565},"block_time_target":300,"block_height_ok":true,"algo":"Blake256R14","hashrate_from_diff":false,"hashrate_src":"https:\/\/lab.antpool.com","unit":"H\/s","block_time_average":296.9,"minerstat":[1.6402928634638e-16,19.626967218926,0.98382299,557],"link":{"coingecko":"decred","cmc":"decred","whattomine":"152-dcr-blake (14r)","coin360":"decred-dcr","coinpaprika":"dcr-decred"},"latest_release":{"tag":"release-v1.7.5","name":"dcrd v1.7.5","t":1665429869},"price":19.79}