{"data":[{"url":"https:\/\/www.okx.com\/pool","hashrate":9760000000000,"miners":-1,"minpay":-1,"id":23,"pool_id":"okx.com","i":1612,"workers":1,"lastblock":630904,"feetype":"PPLNS","fee":2,"country":"HK|Hong Kong","hashrate_average_100_count":75,"hashrate_average_100":9103642708333.334,"hashrate_average_1h":9868333333333.334,"history_start":1667007645,"history_interval":3600,"history_addlast":true,"history":[8370000000000,-82500000000,288000000000,682000000000,-88088235000,-846411765000,1786500000000,-1021500000000,25000000000,1257500000000,-1103500000000,-144500000000,622000000000,-860000000000,-426000000000,503000000000,-583000000000,938722222000,-166222222000,-1277500000000,-306000000000,567000000000,292000000000,618000000000,-1022500000000,2141000000000,-1558000000000,-69500000000,367000000000,-264166667000,58166667000,115000000000,-427500000000,1061500000000,-1365000000000,683000000000,665000000000,-173000000000,192000000000,875000000000,-831000000000,-1089500000000,-10000000000,797500000000,1400500000000,-995000000000,-1000500000000,664500000000,-710000000000,1084500000000,-557500000000,1500000000,633500000000,565470590000,-1439102169000,-319868421000,-1050500000000,1453000000000,662500000000,-4500000000,-212500000000,742000000000,-1875500000000,1449500000000,641000000000,481500000000,-1687000000000,9000000000,1100000000000,-453000000000,-1444500000000,253500000000,-413000000000,74684211000,894315789000,879500000000,-417000000000,-432605263000,1881105263000,-1558000000000,-1423000000000,182000000000,521500000000,1342500000000,-1150500000000,-643000000000,477500000000,1031000000000,-1572000000000,376500000000,-739500000000,2627000000000,-1765500000000,-438000000000,7500000000,1718500000000,594500000000,207500000000,-781500000000,-1308000000000,-141000000000,-261842105000,403842105000,-612500000000,663000000000,237000000000,-84000000000,-357500000000,575500000000,273000000000,1026500000000,-856000000000,-875000000000,112000000000,-355500000000,762500000000,1882500000000,-1750000000000,-536000000000,5500000000,-760000000000,731500000000,959500000000,-168500000000,-534000000000,-1317000000000,1299500000000,-495500000000,844500000000,-84000000000,25500000000,-616500000000,85500000000,-26500000000,-327500000000,264000000000,530500000000,-574000000000,136000000000,-40500000000,340000000000,1349500000000,-1962000000000,221500000000,-221000000000,574000000000,342500000000,-725000000000,575500000000,-279710526000,90710526000,-114000000000,418000000000,-506000000000,548000000000,-372500000000,-99500000000,170000000000,-347000000000,620000000000,254000000000,-1161000000000,-548500000000,219894737000,1597605263000,-1724500000000,2235500000000,-822500000000,394333333000],"hashrate_average_7d":9077432311940.83,"hashrate_average_7d_count":169,"expected_blocks":0.01,"multipool":5},{"url":"https:\/\/www2.coinmine.pl\/dcr","hashrate":554438834859268,"miners":-1,"minpay":0.05,"id":5,"pool_id":"coinmine.pl","i":12363,"workers":26,"blocks_nr":5,"lastblock":708977,"lastblocktime":"1667613769","fee":1,"feetype":"PPLNS","height":708984,"country":"WL|EU , US , Asia","blocks_1000":7,"blocks_count":1,"hashrate_average_100_count":75,"hashrate_average_100":530607096074984.3,"hashrate_average_1h":553044357072022.5,"history_start":1667007645,"history_interval":3600,"history_addlast":true,"history":[560472931100000,-3594870100000,26187125100000,-8875414900000,5968223900000,-1425994400000,-8751358900000,10017342500000,19155233400000,-4849925600000,-3647965800000,-12013384700000,9500888600000,-377784600000,-25942289600000,24924662000000,-14021670200000,20581298300000,-603995600000,11757425500000,-35457501800000,18299247800000,-9629366700000,-27529156300000,30289391200000,-19009250300000,-2742443000000,20504269100000,-16930114700000,-695574700000,17381050300000,-21706000100000,7030595500000,-6332229000000,11518278300000,4613800700000,-15311677800000,11460181000000,-1154343500000,-7156439600000,871432300000,-35937275100000,-6501899800000,29311647600000,-89406412200000,-3535859600000,93583334300000,31916424600000,-4988798400000,-1823987700000,-4779241700000,-4355810000000,-9978753800000,-4012814200000,-7919899000000,15595239500000,-9669475000000,20311851300000,-20290896300000,15765671100000,-3913758300000,11358479400000,2392505300000,-20299996200000,18591403900000,-39123290200000,15367848600000,-20701540800000,9053224600000,-2489392100000,-11770728900000,-10052878900000,10214787600000,-8333798600000,17519137400000,-5656877700000,59461159800000,81519575500000,-33791608000000,14402758000000,-30627164900000,23055444300000,-9429611900000,18580787700000,20737727000000,-8657515400000,-33949056400000,-30668777700000,26335569800000,-35045462500000,9924846800000,-6028577200000,-11048373800000,22533281500000,-20835406600000,-5905616600000,30762637800000,12187193600000,1198115000000,-1085379000000,-15898331600000,18108305200000,4932308500000,-18142050900000,6483533000000,37416945600000,-25204767400000,-9375050100000,8583330000000,-93625329600000,-23846253400000,20122457600000,3482944000000,-22232728400000,-15815547700000,-206540500000,81633700000,10035699600000,-96143900000,-6444647500000,12899285500000,-26900381500000,17321640800000,16514177500000,13999412400000,104479751200000,-23131992500000,-8399182500000,19568060600000,-7855930100000,2815798000000,-13357626600000,1336387400000,4851885000000,-51693657600000,23147917800000,24560408500000,-65479274500000,-14635607400000,2634798100000,-14033765100000,10915897800000,1399538100000,6121579900000,-27095621100000,13593078000000,-12688463700000,15545003100000,4408702300000,8841104500000,-18206322800000,-9144574300000,37052230400000,-17747157300000,6958850400000,10207516200000,-33130950200000,18792426300000,4199391300000,-11214644700000,-5833904800000,4119887600000,12980541200000,-10890995700000,414747200000,1887013300000,8038130900000,-13819461000000,28499600800000],"hashrate_average_7d":565661763768047.2,"hashrate_average_7d_count":169,"expected_blocks":0.61,"luck":0.3947607909809824,"multipool":6},{"url":"https:\/\/lab.antpool.com","hashrate":4240000000000000,"miners":-1,"minpay":0.1,"id":11,"pool_id":"antpool.com","i":2063,"nethash":93500000000000000,"netdiff":6606982811,"feetype":"PPS","fee":3,"income":2.9339978e-15,"lastblock":708211,"lastblocktime":"1667391040","country":"WL|Global","blocks_1000":1,"hashrate_average_100_count":75,"hashrate_average_100":4100667708333333.5,"hashrate_average_1h":4093333333333333.5,"history_start":1667007645,"history_interval":3600,"history_addlast":true,"history":[4367500000000000,45000000000000,4000000000000,-65500000000000,68444444000000,-24444444000000,7500000000000,-28500000000000,2500000000000,-104000000000000,47000000000000,127000000000000,98000000000000,-82000000000000,120500000000000,-94500000000000,118500000000000,45222222000000,20277778000000,2000000000000,1500000000000,-25000000000000,-1000000000000,-21000000000000,23000000000000,185500000000000,220500000000000,74000000000000,-100000000000000,-21444444000000,-18055556000000,80000000000000,-113500000000000,57000000000000,113500000000000,-3500000000000,46500000000000,-11500000000000,-26500000000000,-128000000000000,92500000000000,19500000000000,69000000000000,-21500000000000,-60500000000000,-36500000000000,-173000000000000,-113000000000000,-55500000000000,-993500000000000,975500000000000,69000000000000,-267500000000000,-223941176000000,61888544000000,-51947368000000,8000000000000,-46000000000000,-6500000000000,-58500000000000,50000000000000,34500000000000,-21000000000000,-80000000000000,49000000000000,-5500000000000,19500000000000,-7000000000000,36500000000000,-13000000000000,-42500000000000,61000000000000,17500000000000,-19500000000000,11000000000000,-33000000000000,-5500000000000,28210526000000,35289474000000,46500000000000,-135000000000000,126500000000000,17500000000000,21500000000000,-6500000000000,-59000000000000,20000000000000,-63500000000000,-21500000000000,-86500000000000,-216500000000000,11500000000000,-61000000000000,64000000000000,-46500000000000,332000000000000,97500000000000,16500000000000,-32500000000000,81000000000000,-60000000000000,55026316000000,-79526316000000,74500000000000,-186500000000000,31500000000000,40500000000000,36500000000000,-6000000000000,-29500000000000,79000000000000,-131500000000000,46500000000000,-28000000000000,90000000000000,4000000000000,43500000000000,25500000000000,67000000000000,-156500000000000,-146000000000000,43000000000000,-32500000000000,-30000000000000,-3000000000000,-68500000000000,68500000000000,40500000000000,-34000000000000,-5500000000000,-3500000000000,4000000000000,-3500000000000,-79500000000000,92500000000000,-89000000000000,58500000000000,-23000000000000,18000000000000,-33500000000000,33500000000000,15500000000000,-32000000000000,-17500000000000,76500000000000,17500000000000,-48000000000000,4000000000000,35000000000000,-112657895000000,57657895000000,32000000000000,-37000000000000,7000000000000,-53500000000000,15500000000000,-189000000000000,17500000000000,215500000000000,-58000000000000,31000000000000,-92000000000000,61000000000000,67078947000000,-20078947000000,19000000000000,-42500000000000,10000000000000,-24666667000000],"hashrate_average_7d":4377894790775146,"hashrate_average_7d_count":169,"expected_blocks":4.68,"multipool":16},{"url":"https:\/\/pool.btc.com","hashrate":3712000000000000,"miners":-1,"minpay":0.1,"id":4,"pool_id":"pool.btc.com","feetype":"PPS","i":14377,"workers":85,"income":3.0247480065384e-15,"i_blocks":14419,"json_blocks":{"err_no":0,"data":{"blocks":{"current_page":1,"data":[{"height":708967,"is_orphaned":0,"hash":"000000000000000009295f2288b2b02840adac2e3c3429524a88c621b60df3e2","rewards":"0.99343280","size":2703,"prev_hash":"000000000000000070c6a121ecb1f5c9b5ac6ca0ca7268b63cb1547738032abc","bits":419473002,"version":9,"created_at":1667610268,"region_id":36,"region_name":"BitDeer"},{"height":708948,"is_orphaned":0,"hash":"00000000000000008d541a9123e1aca5da2407a034a971e7831ba3b149141679","rewards":"0.99343280","size":2732,"prev_hash":"00000000000000009b06bf8475a63865f8b7a85019aba2312b3dd8a2078894e6","bits":419473002,"version":9,"created_at":1667603747,"region_id":36,"region_name":"BitDeer"},{"height":708858,"is_orphaned":0,"hash":"00000000000000003be105ad4df987731750c4f9e06dc9691ce468bef28b9250","rewards":"0.79474624","size":2172,"prev_hash":"00000000000000003b72e00926098aff455529d41cade4c7d8663ae03d74770e","bits":419475535,"version":9,"created_at":1667578341,"region_id":34,"region_name":"America"},{"height":708822,"is_orphaned":0,"hash":"00000000000000009e78d8707d4ac160c0674b791fe37a26e3479172a0ceaf52","rewards":"0.99343280","size":4938,"prev_hash":"0000000000000000a00e273c54704b67eb5aaf92281e09246f88e3b9c2b19a6a","bits":419475535,"version":9,"created_at":1667567545,"region_id":34,"region_name":"America"},{"height":708812,"is_orphaned":0,"hash":"00000000000000007c68f959223fc69036ecfdbe4e35139060919d46ce35c597","rewards":"0.99343280","size":3048,"prev_hash":"000000000000000026796f8aa64c53e6094ec76bae5623061a37302fe9e0e902","bits":419475535,"version":9,"created_at":1667565757,"region_id":34,"region_name":"America"},{"height":708750,"is_orphaned":0,"hash":"00000000000000000951499608d8c375aeb93637abe6d0de0c88dc8a07e95136","rewards":"0.99343280","size":16093,"prev_hash":"0000000000000000173b5bf51fd1f23390e149f5c14d45ab8e64f895c209cdcb","bits":419474126,"version":9,"created_at":1667549626,"region_id":34,"region_name":"America"},{"height":708727,"is_orphaned":0,"hash":"000000000000000051ca5411f97d65060c05847c170ced4433f541386b3fb635","rewards":"0.99343280","size":43080,"prev_hash":"00000000000000001c9429e224826b491544b80784727cb8b7be661c1ee9b2cb","bits":419474126,"version":9,"created_at":1667540943,"region_id":34,"region_name":"America"},{"height":708703,"is_orphaned":0,"hash":"00000000000000005fc7a2e6e05971fc242b10138f191ecca9138fb346afdeea","rewards":"0.99343280","size":2157,"prev_hash":"000000000000000008fb82fefdb233c0532766001a73692554e6d0ea8f3a92b9","bits":419474126,"version":9,"created_at":1667535185,"region_id":36,"region_name":"BitDeer"},{"height":708700,"is_orphaned":0,"hash":"000000000000000098fce1b6970c3b2fb2292f4ee4cb892ae1dd457ec2284bff","rewards":"0.99343280","size":7745,"prev_hash":"0000000000000000615b784cff4921eb40bbdcae5d7725f121f454a9ca850438","bits":419474126,"version":9,"created_at":1667534292,"region_id":34,"region_name":"America"},{"height":708685,"is_orphaned":0,"hash":"00000000000000004bc7e244ce64d4ea00b3224f29de55801d8f733de1abd7c4","rewards":"0.99343280","size":31853,"prev_hash":"00000000000000003b66f3f90f81e1632c553f7c544197c0bdfec97e3168aa90","bits":419474126,"version":9,"created_at":1667528526,"region_id":34,"region_name":"America"}],"first_page_url":"https:\/\/eu-api.connectbtc.com\/\/public\/v1\/pool\/blocks\/merge?order_by=desc&page_size=10&page=1","from":1,"last_page":2216,"last_page_url":"https:\/\/eu-api.connectbtc.com\/\/public\/v1\/pool\/blocks\/merge?order_by=desc&page_size=10&page=2216","next_page_url":"https:\/\/eu-api.connectbtc.com\/\/public\/v1\/pool\/blocks\/merge?order_by=desc&page_size=10&page=2","path":"https:\/\/eu-api.connectbtc.com\/\/public\/v1\/pool\/blocks\/merge","per_page":10,"prev_page_url":null,"to":10,"total":22152},"blocks_count":22152,"rewards_count":"190537.50426448"},"trace_id":"5cb3b4c5-d823-403a-997a-2a67e2257481"},"blocks_nr":10,"lastblock":708967,"lastblocktime":"1667610227","country":"WL|CN , EU , US","blocks_1000":50,"blocks_count":2,"hashrate_average_100_count":75,"hashrate_average_100":3720096250000000,"hashrate_average_1h":3705500000000000,"history_start":1667007645,"history_interval":3600,"history_addlast":true,"history":[3702000000000000,-53900000000000,2800000000000,-41200000000000,-16111765000000,9711765000000,24350000000000,-40750000000000,4150000000000,42000000000000,-17100000000000,-13600000000000,15250000000000,15350000000000,68200000000000,-9200000000000,9000000000000,43272222000000,-32472222000000,9500000000000,2600000000000,-16500000000000,1100000000000,-17950000000000,-95350000000000,33200000000000,-22900000000000,27900000000000,42650000000000,-15888889000000,25688889000000,-42500000000000,12300000000000,-5500000000000,19200000000000,9650000000000,6900000000000,4100000000000,70500000000000,-41250000000000,21900000000000,1700000000000,-40650000000000,-34500000000000,-27700000000000,33600000000000,49800000000000,-29850000000000,-6900000000000,-29200000000000,60050000000000,-82450000000000,56600000000000,44400000000000,-15000000000000,43350000000000,-12700000000000,28250000000000,-8350000000000,22150000000000,36750000000000,-35900000000000,-9150000000000,86850000000000,2500000000000,33300000000000,150000000000,77050000000000,-64000000000000,-72800000000000,91400000000000,-45700000000000,-22800000000000,57900000000000,15650000000000,33000000000000,23350000000000,28381579000000,-17381579000000,-25800000000000,-42800000000000,81250000000000,-50400000000000,-11300000000000,43300000000000,37100000000000,-57650000000000,-3400000000000,2000000000000,28450000000000,-16950000000000,10050000000000,-20550000000000,48000000000000,75950000000000,-62150000000000,-7100000000000,700000000000,12350000000000,16050000000000,-44100000000000,17118421000000,181579000000,-45850000000000,11950000000000,9800000000000,-18450000000000,-35250000000000,34000000000000,13000000000000,51250000000000,36650000000000,-73250000000000,-62950000000000,-124800000000000,8750000000000,-18250000000000,12900000000000,31850000000000,-37500000000000,-33250000000000,-11100000000000,-29000000000000,7450000000000,47900000000000,-27900000000000,-7050000000000,15400000000000,-30750000000000,-54200000000000,12950000000000,75350000000000,43850000000000,-33550000000000,-25950000000000,11350000000000,-3450000000000,19500000000000,-64650000000000,1650000000000,62050000000000,-11750000000000,-22450000000000,-96000000000000,-38950000000000,49750000000000,10150000000000,21900000000000,17500000000000,3586842000000,-50936842000000,-25500000000000,-12750000000000,65650000000000,-89000000000000,350000000000,18950000000000,18550000000000,63300000000000,29500000000000,45950000000000,11150000000000,-67450000000000,-24342105000000,-104907895000000,16850000000000,-8400000000000,15150000000000,56650000000000],"hashrate_average_7d":3798356605355031,"hashrate_average_7d_count":169,"hashrate_block":1860048125000000,"expected_blocks":4.24,"luck":-2.243343386245308,"multipool":7},{"url":"https:\/\/www.f2pool.com","hashrate":46253770485128080,"miners":-1,"minpay":0.1,"id":14,"pool_id":"f2pool.com","fee":3,"feetype":"PPS%3","i":2445,"income":2.858343250656579e-15,"blocks_nr":12,"lastblock":708985,"lastblocktime":1667616456,"country":"WL|Global","blocks_1000":629,"blocks_count":68,"hashrate_average_100_count":75,"hashrate_average_100":53775930064637840,"hashrate_average_1h":46343174034588776,"history_start":1667007645,"history_interval":3600,"history_addlast":true,"history":[50326545340000000,105088490000000,-365026530000000,-120325450000000,123261530000000,-166577170000000,294370550000000,345288300000000,-74614660000000,122571900000000,194175460000000,-73461230000000,-363473420000000,348930640000000,33893990000000,242232200000000,-297708100000000,-213366010000000,223585120000000,-311052060000000,-94715990000000,-198442880000000,118550910000000,-121044420000000,307116430000000,358807750000000,-439460880000000,97173380000000,199999460000000,48541180000000,69288620000000,-229563190000000,521500290000000,-486158310000000,-81353650000000,289252900000000,-93647170000000,-8617730000000,91158270000000,-138736890000000,-32338190000000,-189870940000000,-85353640000000,173325940000000,233929150000000,-312066560000000,21607210000000,168838880000000,15529900000000,60559620000000,-541437400000000,282170850000000,98100260000000,-154311830000000,750970690000000,-612945300000000,244277410000000,159472880000000,105827960000000,-203476510000000,-347187380000000,371060550000000,-54794180000000,264321370000000,-389776790000000,129823640000000,346871370000000,-13719200000000,-402780540000000,-263759760000000,533944030000000,-406154260000000,-490718850000000,749192370000000,-9914232340000000,-10644425470000000,8279477160000000,11937439950000000,879657710000000,-165856510000000,-74084510000000,584199450000000,177541570000000,86794620000000,-57245210000000,507112900000000,-130648410000000,-67005850000000,-242165930000000,150478570000000,377999380000000,32267880000000,-168252400000000,-147617490000000,-268129490000000,359655490000000,382413440000000,638574000000000,-322031590000000,-86557270000000,-2382166790000000,4087040370000000,2065304170000000,20560470000000,-13404820000000,161894170000000,-107551850000000,348071830000000,-789245400000000,627697670000000,-672286050000000,420918820000000,89723930000000,-175070090000000,314286840000000,-2164042290000000,986679420000000,-2001348220000000,1656619270000000,-2212356160000000,3681286920000000,-1033346310000000,-281404660000000,739915410000000,-203453310000000,-864164140000000,1099739110000000,-311237530000000,287015920000000,392493510000000,127815080000000,-239992880000000,-485128380000000,276147920000000,-757013490000000,761149190000000,-665034240000000,-1402379000000000,-444853530000000,1673817100000000,625591160000000,-113450940000000,-5943023340000000,-4638767790000000,711275910000000,2348284540000000,7483454150000000,659184830000000,-415620730000000,451120020000000,-2591259900000000,-5605630580000000,720808530000000,1384254220000000,6299577430000000,-553809970000000,-862841380000000,716821750000000,764046270000000,139318980000000,-1109852180000000,933613680000000,465450010000000,-124190080000000,-191849070000000,-2344178510000000,-8828232800000000,515881300000000,-63978830000000],"hashrate_average_7d":52233390871420100,"hashrate_average_7d_count":169,"hashrate_block":790822500950556.5,"expected_blocks":61.34,"luck":6.660259884681423,"multipool":33},{"url":"https:\/\/www.poolin.com","hashrate":21583000000000000,"miners":-1,"minpay":0.01,"id":3,"pool_id":"poolin.com","fee":3,"feetype":"PPS","i":13438,"json":{"err_no":0,"data":{"shares":{"shares_1m":20.096,"shares_5m":21.583,"shares_15m":22.605,"shares_1h":24.934,"shares_unit":"P"},"reject":{"1m":0,"5m":0,"15m":0.0053,"1h":0.0038},"workers":1208,"users":371,"total_blocks":143883,"total_rewards":104568034416193}},"workers":1208,"netdiff":6606982811.683958,"nethash":"94589250328263830","income":3.30811e-15,"blocks_nr":15,"lastblock":708984,"lastblocktime":"1667616303","country":"US|United States","blocks_1000":266,"blocks_count":23,"hashrate_average_100_count":75,"hashrate_average_100":26002850000000000,"hashrate_average_1h":23284500000000000,"history_start":1667007645,"history_interval":3600,"history_addlast":true,"history":[27181450000000000,90500000000000,4827550000000000,2169200000000000,152947060000000,393802940000000,-42818420000000,449068420000000,-227700000000000,53100000000000,-182300000000000,66350000000000,221550000000000,-482350000000000,26700000000000,116950000000000,-108500000000000,72055560000000,37394440000000,-22650000000000,4250000000000,-514750000000000,307750000000000,-2645250000000000,-442700000000000,233800000000000,-387100000000000,2379900000000000,702957890000000,67529610000000,-101937500000000,-122000000000000,-483050000000000,370223080000000,-51273080000000,603100000000000,-511050000000000,481850000000000,-235600000000000,-2907300000000000,-4042950000000000,-10550000000000,-17050000000000,-243950000000000,-94050000000000,104250000000000,143350000000000,-339084620000000,168784620000000,-472100000000000,229050000000000,-476750000000000,103600000000000,472623530000000,355755420000000,-179278950000000,-145600000000000,123750000000000,-149450000000000,229350000000000,-254100000000000,-823800000000000,865250000000000,313650000000000,-277850000000000,-16450000000000,260500000000000,-1067100000000000,107500000000000,-215200000000000,133557690000000,-498657690000000,-78050000000000,-38250000000000,914950000000000,-90050000000000,332800000000000,-68681580000000,-838618420000000,675788460000000,-355188460000000,585600000000000,114450000000000,-95850000000000,763700000000000,311750000000000,-146050000000000,-122500000000000,157350000000000,-53000000000000,124850000000000,-254750000000000,-104750000000000,-63900000000000,335500000000000,-126000000000000,150881580000000,52418420000000,70100000000000,-153150000000000,359750000000000,-182644740000000,838094740000000,274300000000000,-524800000000000,262200000000000,-511350000000000,-70150000000000,-66800000000000,579800000000000,-58250000000000,10050000000000,35600000000000,-131850000000000,-176900000000000,30750000000000,114950000000000,13950000000000,-292900000000000,-1125800000000000,882050000000000,-344550000000000,-768289470000000,281239470000000,-216500000000000,-166000000000000,175950000000000,46450000000000,-118500000000000,-71800000000000,370600000000000,1950000000000,-161750000000000,-2950000000000,99800000000000,18650000000000,208000000000000,116650000000000,-101550000000000,-53600000000000,-280550000000000,-14350000000000,-409055260000000,-237894740000000,304650000000000,52850000000000,-482650000000000,22100000000000,-1238002630000000,61789470000000,1036713160000000,-355050000000000,-44450000000000,-494750000000000,113650000000000,550500000000000,-283500000000000,581850000000000,363150000000000,-26200000000000,40000000000000,-257300000000000,134900000000000,-442828950000000,-630271050000000,283150000000000,326250000000000,-490700000000000,-2303350000000000],"hashrate_average_7d":28687021198047332,"hashrate_average_7d_count":169,"hashrate_block":1130558695652174,"expected_blocks":29.66,"luck":-6.660259884681427,"multipool":15}],"hashblock":{"hashrate_average_100":79778780064637840,"blocks_count":91,"pools":[[1860048125000000,2,930024062500000,"https:\/\/pool.btc.com"],[790822500950556.5,68,11629742661037.596,"https:\/\/www.f2pool.com"],[1130558695652174,23,49154725897920.61,"https:\/\/www.poolin.com"]],"hashrate_block_all":897837379727288.6,"hashrate_block_min":11629742661037.596,"hashrate_block_max":930024062500000,"pool_hashblock_average":330269510352986.06,"ignored":[[1860048125000000,2,930024062500000,"https:\/\/pool.btc.com"]],"hashrate_block":876689890820196},"time":1667616944,"hashrate":93500000000000000,"difficulty":6606982811.683958,"height":708985,"symbol":"DCR","maxhash":46253770485128080,"poolshash":76352969319987340,"nethash_estimat":87668989082019600,"poolsminers":1320,"supply":{"circulating":14480882.42805768,"total":21000000,"emission24":2632},"block_time_target":300,"block_height_ok":true,"algo":"Blake256R14","hashrate_from_diff":false,"hashrate_src":"https:\/\/lab.antpool.com","unit":"H\/s","block_time_average":292.9,"minerstat":[1.2612698755262e-16,28.450230384368,0.9941881,2178],"link":{"coingecko":"decred","cmc":"decred","whattomine":"152-dcr-blake (14r)","coin360":"decred-dcr","coinpaprika":"dcr-decred"},"latest_release":{"tag":"release-v1.7.5","name":"dcrd v1.7.5","t":1665429869},"price":28.44}