{"data":[{"url":"https:\/\/www.okx.com\/pool","hashrate":9450000000000,"miners":-1,"minpay":-1,"id":23,"pool_id":"okx.com","i":1611,"workers":1,"lastblock":630904,"feetype":"PPLNS","fee":2,"country":"HK|Hong Kong","hashrate_average_100_count":89,"hashrate_average_100":9225893609550.562,"hashrate_average_1h":9710000000000,"history_start":1664592049,"history_interval":3600,"history_addlast":true,"history":[5601000000000,2962000000000,1103315789000,-1128815789000,1254000000000,-222000000000,-1139000000000,-612000000000,377000000000,680000000000,466500000000,531500000000,-719500000000,531500000000,-518500000000,313000000000,-271500000000,139500000000,-720500000000,1242500000000,-724500000000,-749000000000,585000000000,-9000000000,-18000000000,-861500000000,1038000000000,962500000000,-203000000000,-1215500000000,918000000000,767500000000,-717500000000,-1475500000000,36500000000,-94000000000,1161500000000,-324000000000,0,10174500000000,-8570000000000,-6962000000000,5659500000000,-1478500000000,820000000000,-108000000000,693000000000,-880000000000,91000000000,1247000000000,-952500000000,-518500000000,1791500000000,-1424000000000,1984000000000,-691000000000,-509500000000,521263158000,-503263158000,-95000000000,221500000000,-858500000000,398000000000,-641000000000,-251500000000,411000000000,1955078950000,-1188578950000,-906500000000,989500000000,725500000000,-1345000000000,415000000000,62500000000,-533500000000,1270500000000,-1321526316000,-88473684000,572684211000,940315789000,-1238500000000,-356500000000,571000000000,-789500000000,-391500000000,2468000000000,-246000000000,-58500000000,502500000000,-610500000000,-1196078947000,-17921053000,-657000000000,818000000000,-215000000000,627500000000,-468000000000,828000000000,-1443000000000,908500000000,-247394737000,404394737000,726000000000,-1538000000000,215500000000,2301000000000,-693500000000,-634000000000,-471000000000,-481500000000,189000000000,-353000000000,1819500000000,-1688500000000,420000000000,-363000000000,718000000000,-325500000000,-669500000000,-123000000000,342000000000,-372000000000,414000000000,942000000000,537000000000,-333500000000,-2247277778000,960277778000,-410000000000,83500000000,127947368000,-102947368000,613000000000,-346500000000,466500000000,681000000000,-333000000000,1076000000000,-1203555556000,-626444444000,-294500000000,1280500000000,-590000000000,-329000000000,820500000000,453500000000,-1377500000000,422500000000,-767000000000,632000000000,-53500000000,-248000000000,1092500000000,701000000000,-267500000000,-332500000000,2500000000,-427500000000,-249000000000,1642500000000,-1649000000000,-176500000000,349947368000,-559947368000,435000000000,1372000000000,-772500000000,26500000000],"hashrate_average_7d":9110609544702.377,"hashrate_average_7d_count":168,"expected_blocks":0.01,"multipool":5},{"url":"https:\/\/www2.coinmine.pl\/dcr","hashrate":508631502979509,"miners":-1,"minpay":0.05,"id":5,"pool_id":"coinmine.pl","i":12323,"workers":32,"blocks_nr":5,"lastblock":700692,"lastblocktime":"1665125450","fee":1,"feetype":"PPLNS","height":700923,"country":"WL|EU , US , Asia","blocks_1000":5,"hashrate_average_100_count":89,"hashrate_average_100":530617369216196.56,"hashrate_average_1h":530033350221246.56,"history_start":1664592049,"history_interval":3600,"history_addlast":true,"history":[474912377700000,-4137256400000,10327453000000,-15641599800000,9098796000000,6554568400000,-4092454700000,1150882000000,5427212100000,106308336000000,-5262084700000,7522685600000,-8933959800000,-28927395400000,13923772200000,-26136806700000,-7313313400000,-4095765700000,20044871100000,7122650100000,11998935900000,36934304500000,-32476557300000,5996864500000,-1102673800000,-1452422900000,8930087000000,765008500000,-1034611500000,2799224700000,4435571800000,5590888900000,-15121994800000,2466604900000,-17121583000000,-17777811900000,15220948200000,14972605700000,-26089075500000,10930740300000,-27312183900000,-17877688700000,2873664300000,23820537600000,33166112700000,-30605052700000,-2574500500000,12653798700000,5727940500000,3315262500000,-15990115000000,1031021900000,16503398100000,-19807131400000,18483115700000,-1120056100000,-7594643300000,-9072395200000,10354887200000,-12857668800000,-3720191600000,3546535900000,-11842513600000,18996327000000,-9475529600000,-5256074600000,11526944900000,3606250800000,-29611204400000,20952182100000,9398163000000,1599007800000,8697759200000,-19730255900000,17847291100000,-10556123500000,7870014600000,-5708192700000,7164851100000,-1719422600000,321890100000,-9005686000000,10930238800000,-20783903900000,18928904000000,-2510653400000,3478321000000,-14617659300000,18141664300000,-11405391100000,-2100618300000,6865409200000,-17458271500000,17042889700000,-8108992700000,-9677546500000,13557007200000,-2560256200000,8844996100000,-16996193500000,-2255999900000,23970224500000,-8200985500000,-20724981500000,17010162100000,-1565364200000,15984303000000,-30577273000000,30915584900000,-14279146800000,-7045804700000,35105483300000,-28883901300000,7481873900000,-23949342500000,25183487000000,-15336482900000,31745092600000,-35270968800000,-2799528700000,14534507700000,-5607068200000,17786128800000,-8525157300000,3742593300000,1385312600000,-22854031300000,9546972500000,-5833700300000,7362858600000,17642553900000,-14719564200000,-37390823900000,32185899700000,-18972957000000,21503529800000,11859415900000,-4891730100000,-13522919200000,-11799332300000,15196850400000,-9305613500000,17232987600000,-20639140200000,4475901400000,9751637600000,-2167831200000,-7108644500000,6049515500000,6872401100000,-8750950500000,-11488816700000,21712608400000,15390186800000,-2746027200000,-34397341400000,16966411300000,-818292000000,8701564400000,-4389542500000,-14778602000000,-23699001600000,-1460435400000,-14538095100000,16858928400000,1854533800000,3763386800000,5247557600000],"hashrate_average_7d":552376860851190.4,"hashrate_average_7d_count":168,"expected_blocks":0.61,"multipool":6},{"url":"https:\/\/lab.antpool.com","hashrate":1900000000000000,"miners":-1,"minpay":0.1,"id":11,"pool_id":"antpool.com","i":2062,"nethash":79180000000000000,"netdiff":6535039394,"feetype":"PPS","fee":3,"income":2.9959711000000002e-15,"country":"WL|Global","hashrate_average_100_count":89,"hashrate_average_100":2067920470505618,"hashrate_average_1h":1852857142857142.8,"history_start":1664592049,"history_interval":3600,"history_addlast":true,"history":[2757000000000000,-27000000000000,20000000000000,11000000000000,-30000000000000,73500000000000,-51000000000000,-8500000000000,22000000000000,-46500000000000,-5000000000000,-79500000000000,9500000000000,-70500000000000,-210500000000000,82000000000000,35500000000000,-3000000000000,24000000000000,5000000000000,27000000000000,-5500000000000,-65500000000000,38500000000000,87000000000000,70000000000000,-32500000000000,29000000000000,-92000000000000,61500000000000,-38000000000000,81500000000000,55500000000000,-3000000000000,-18500000000000,-18000000000000,-500000000000,-32500000000000,-90000000000000,87000000000000,9500000000000,64500000000000,-76500000000000,37500000000000,-141500000000000,-8000000000000,-8000000000000,-54500000000000,12500000000000,-23500000000000,-31000000000000,-38500000000000,3000000000000,-45000000000000,19500000000000,-9000000000000,18500000000000,107815789000000,-12815789000000,33000000000000,-4500000000000,-23000000000000,-156500000000000,78000000000000,35500000000000,59000000000000,-16578947000000,-199921053000000,-222000000000000,-6000000000000,-158000000000000,62000000000000,-12000000000000,-11000000000000,-68500000000000,15500000000000,-22184211000000,41684211000000,10947368000000,-36947368000000,12000000000000,15000000000000,11500000000000,-25500000000000,-25500000000000,-58000000000000,-32500000000000,38000000000000,48000000000000,-2500000000000,41184211000000,28315789000000,-11000000000000,-37500000000000,15000000000000,229000000000000,371000000000000,161000000000000,-86000000000000,-72500000000000,26368421000000,12131579000000,8500000000000,-39000000000000,20000000000000,24000000000000,-75500000000000,19500000000000,-78500000000000,-13000000000000,-84500000000000,79500000000000,11500000000000,-21000000000000,84000000000000,47500000000000,81500000000000,29000000000000,3000000000000,55500000000000,62500000000000,-76000000000000,-5500000000000,-25000000000000,-101500000000000,93500000000000,-220611111000000,-33388889000000,-37500000000000,-31000000000000,44052632000000,26947368000000,-61000000000000,-33500000000000,-12000000000000,145500000000000,-64500000000000,-4000000000000,59833333000000,2666667000000,38000000000000,-56000000000000,73500000000000,59000000000000,-92000000000000,166000000000000,-43500000000000,-6000000000000,-71500000000000,-77000000000000,-101000000000000,-76500000000000,59500000000000,44000000000000,-43500000000000,27000000000000,-68000000000000,-73500000000000,-151000000000000,144500000000000,147500000000000,42000000000000,9078947000000,-190578947000000,-392500000000000,17500000000000,-2000000000000,58857143000000],"hashrate_average_7d":2382656330803571.5,"hashrate_average_7d_count":168,"expected_blocks":2.36,"multipool":16},{"url":"https:\/\/www.poolin.com","hashrate":32340000000000004,"miners":-1,"minpay":0.01,"id":3,"pool_id":"poolin.com","fee":3,"feetype":"PPS","i":13398,"json":{"err_no":0,"data":{"shares":{"shares_1m":30.849,"shares_5m":32.34,"shares_15m":32.56,"shares_1h":32.513,"shares_unit":"P"},"reject":{"1m":0,"5m":0,"15m":0.0023,"1h":0.0026},"workers":1509,"users":402,"total_blocks":141084,"total_rewards":104288943974754}},"workers":1509,"netdiff":6535039394.101831,"nethash":"93559268251005528","income":3.34453e-15,"blocks_nr":19,"lastblock":700921,"lastblocktime":"1665197125","country":"US|United States","blocks_1000":404,"blocks_count":46,"hashrate_average_100_count":89,"hashrate_average_100":38734229108146060,"hashrate_average_1h":32347714285714284,"history_start":1664592049,"history_interval":3600,"history_addlast":true,"history":[25607000000000000,1614900000000000,6277678950000000,55371050000000,-460200000000000,-475800000000000,746200000000000,59200000000000,463100000000000,1584900000000000,396800000000000,460150000000000,-132600000000000,48050000000000,-631750000000000,-152900000000000,88400000000000,-54400000000000,-56950000000000,-210850000000000,-2405000000000000,-367300000000000,1338950000000000,712900000000000,367350000000000,-198100000000000,212300000000000,107100000000000,599900000000000,4315400000000000,455050000000000,52500000000000,-217400000000000,66750000000000,149600000000000,142850000000000,-126150000000000,101350000000000,-204000000000000,117550000000000,-15050000000000,-132850000000000,-70950000000000,-39550000000000,208750000000000,-182700000000000,646100000000000,234450000000000,194350000000000,340300000000000,-260950000000000,-121300000000000,262850000000000,84300000000000,135450000000000,-1588150000000000,-1218800000000000,1458428950000000,1042571050000000,78650000000000,-473750000000000,145800000000000,-216350000000000,-5350000000000,-428100000000000,73200000000000,-261355260000000,-18744740000000,-357850000000000,-4975050000000000,-4927550000000000,600650000000000,-524900000000000,-1863300000000000,-720550000000000,103650000000000,-2282050000000000,-2815100000000000,-1325047370000000,277197370000000,-10850000000000,148200000000000,-205750000000000,-184000000000000,125950000000000,-64050000000000,-149850000000000,437600000000000,-198100000000000,111200000000000,-14178950000000,16378950000000,-87950000000000,-41650000000000,2189400000000000,7884350000000000,1083750000000000,144600000000000,107050000000000,-177800000000000,-133850000000000,4850000000000,639200000000000,67550000000000,171550000000000,-89350000000000,-33000000000000,-121550000000000,-188500000000000,148100000000000,199450000000000,27650000000000,10750000000000,66000000000000,133200000000000,-238500000000000,-151150000000000,-150700000000000,-16500000000000,35550000000000,-478250000000000,6704700000000000,707500000000000,309950000000000,176750000000000,57950000000000,19537500000000,-134487500000000,47150000000000,-198750000000000,-422613160000000,246713160000000,-109700000000000,-69700000000000,-77600000000000,94550000000000,-48150000000000,100650000000000,-224611110000000,-357738890000000,283450000000000,-357950000000000,-491850000000000,425450000000000,729400000000000,-86250000000000,64200000000000,159550000000000,22200000000000,-23000000000000,-206750000000000,149550000000000,-353550000000000,531600000000000,-166050000000000,58250000000000,-167850000000000,-46650000000000,66000000000000,-376150000000000,423850000000000,-74800000000000,109305260000000,-180055260000000,-626300000000000,529050000000000,-6745900000000000,-649185710000000],"hashrate_average_7d":35445827137500000,"hashrate_average_7d_count":168,"hashrate_block":842048458872740.5,"expected_blocks":44.28,"luck":1.7224633650721373,"multipool":15},{"url":"https:\/\/pool.btc.com","hashrate":3909000000000000,"miners":-1,"minpay":0.1,"id":4,"pool_id":"pool.btc.com","feetype":"PPS","i":14334,"workers":95,"income":3.3721400476847e-15,"i_blocks":14376,"json_blocks":{"err_no":0,"data":{"blocks":{"current_page":1,"data":[{"height":700902,"is_orphaned":0,"hash":"000000000000000094c249b61b85d5026841d0e1824082656a308105b759099a","rewards":"1.00336713","size":2157,"prev_hash":"000000000000000051a245ff8ac7837eab62423d53e55c5f376dea59b3338701","bits":419473471,"version":9,"created_at":1665188976,"region_id":34,"region_name":"America"},{"height":700887,"is_orphaned":0,"hash":"00000000000000006ba90f5cbb5486ae4d91c485f634106f6300654046cca06e","rewards":"1.00336713","size":8248,"prev_hash":"000000000000000040778c7eae77ea357ddf8a9c7d679124899f8d8b8b754d24","bits":419473471,"version":9,"created_at":1665185509,"region_id":36,"region_name":"BitDeer"},{"height":700886,"is_orphaned":0,"hash":"000000000000000040778c7eae77ea357ddf8a9c7d679124899f8d8b8b754d24","rewards":"1.00336713","size":6153,"prev_hash":"00000000000000002510a04afe7ae7d021383ab73bc14c72b61014fe2c3603a5","bits":419473471,"version":9,"created_at":1665185229,"region_id":34,"region_name":"America"},{"height":700869,"is_orphaned":0,"hash":"000000000000000082dc3891cc2e0f7c3c7cd66bbc2ba0cb90f4dfa26c75199d","rewards":"1.00336713","size":2407,"prev_hash":"00000000000000004526178eb8f2885e1b0c2bc9fcb1db4d7187353aae238254","bits":419473471,"version":9,"created_at":1665179598,"region_id":34,"region_name":"America"},{"height":700853,"is_orphaned":0,"hash":"00000000000000009af8c15d3da541b36b0e337348a61878b489f0ac701f7cbb","rewards":"1.00336713","size":2722,"prev_hash":"000000000000000066e4153b94e79a14c85503966a9a87a89b43bf62a2268261","bits":419473471,"version":9,"created_at":1665174193,"region_id":36,"region_name":"BitDeer"},{"height":700807,"is_orphaned":0,"hash":"00000000000000006ad237a79fc0d3e2eed8e8f6e2e70e5253073f3b1640d216","rewards":"1.00336713","size":2999,"prev_hash":"00000000000000009c41da89db1246379e78b72ddad8f38d10bde502c19c25a7","bits":419474339,"version":9,"created_at":1665156291,"region_id":34,"region_name":"America"},{"height":700734,"is_orphaned":0,"hash":"000000000000000031d09b9e69119012a20ff16cecb19cee601bb149eb478a05","rewards":"1.00336713","size":32903,"prev_hash":"00000000000000004f2267154aa9fcd890b66fbea33b1dc42435a38eefb3e9db","bits":419474339,"version":9,"created_at":1665134106,"region_id":34,"region_name":"America"},{"height":700673,"is_orphaned":0,"hash":"0000000000000000087258ea7e4228fad6b6ac7dc71f2b58f90309d05ff50224","rewards":"1.00336713","size":45345,"prev_hash":"00000000000000000f77940d2decd86400c3b304805db634e2bdd7345c6b2d14","bits":419476845,"version":9,"created_at":1665119582,"region_id":36,"region_name":"BitDeer"},{"height":700635,"is_orphaned":0,"hash":"00000000000000009232eda358b27ab3cfb634abcd5dab4bb4a8be446e567e7d","rewards":"1.00336713","size":59677,"prev_hash":"00000000000000004a8a45510976c162eaecd3572abd8f7ff70be3bf745d8a8c","bits":419476845,"version":9,"created_at":1665109129,"region_id":36,"region_name":"BitDeer"},{"height":700616,"is_orphaned":0,"hash":"00000000000000003683934f4d568c64982673a0c9b0398f1e9cedfc2d23d35b","rewards":"1.00336713","size":44747,"prev_hash":"000000000000000029dd2d1c16a63ace2ab2e652e40a5b835c0770184ded756a","bits":419476845,"version":9,"created_at":1665104592,"region_id":34,"region_name":"America"}],"first_page_url":"https:\/\/eu-api.connectbtc.com\/\/public\/v1\/pool\/blocks\/merge?order_by=desc&page_size=10&page=1","from":1,"last_page":2181,"last_page_url":"https:\/\/eu-api.connectbtc.com\/\/public\/v1\/pool\/blocks\/merge?order_by=desc&page_size=10&page=2181","next_page_url":"https:\/\/eu-api.connectbtc.com\/\/public\/v1\/pool\/blocks\/merge?order_by=desc&page_size=10&page=2","path":"https:\/\/eu-api.connectbtc.com\/\/public\/v1\/pool\/blocks\/merge","per_page":10,"prev_page_url":null,"to":10,"total":21807},"blocks_count":21807,"rewards_count":"190196.32765064"},"trace_id":"d576893a-91d2-4ff4-81e6-dee69bd20efa"},"blocks_nr":10,"lastblock":700902,"lastblocktime":"1665188928","country":"WL|CN , EU , US","blocks_1000":45,"blocks_count":5,"hashrate_average_100_count":89,"hashrate_average_100":3923683549859551,"hashrate_average_1h":3901428571428571.5,"history_start":1664592049,"history_interval":3600,"history_addlast":true,"history":[4120900000000000,-54100000000000,83357895000000,12092105000000,-25800000000000,16450000000000,36550000000000,35100000000000,-63400000000000,-12550000000000,-8850000000000,-153250000000000,9400000000000,59000000000000,-4850000000000,-600000000000,-30700000000000,23100000000000,20550000000000,-35800000000000,-5600000000000,-9750000000000,-18650000000000,68550000000000,-49900000000000,43750000000000,-38650000000000,-51200000000000,22000000000000,141550000000000,6050000000000,-35450000000000,-96350000000000,-10850000000000,33250000000000,-7550000000000,33200000000000,-22150000000000,34050000000000,-4250000000000,25500000000000,-41600000000000,-29150000000000,-54050000000000,34850000000000,27100000000000,17750000000000,8400000000000,-19300000000000,85950000000000,-42000000000000,17900000000000,-39100000000000,-45100000000000,-23200000000000,-14950000000000,-650000000000,28789474000000,4860526000000,-93350000000000,-23150000000000,17600000000000,550000000000,-24500000000000,-12050000000000,-32500000000000,43013158000000,-11113158000000,-73300000000000,81050000000000,-7900000000000,-51400000000000,32600000000000,110450000000000,-29450000000000,-47100000000000,-32047368000000,17247368000000,64436842000000,8513158000000,-27450000000000,7250000000000,88700000000000,-91450000000000,-58350000000000,20500000000000,-52800000000000,14450000000000,-42500000000000,6950000000000,-10918421000000,-43481579000000,55250000000000,-24600000000000,37350000000000,113800000000000,2900000000000,65150000000000,-38750000000000,-65150000000000,7847368000000,-20597368000000,-12150000000000,54100000000000,43100000000000,52300000000000,43600000000000,-104700000000000,-78350000000000,53050000000000,4150000000000,39450000000000,-34650000000000,-62650000000000,-33250000000000,-13750000000000,18450000000000,54000000000000,17300000000000,-52500000000000,-38750000000000,95500000000000,38300000000000,-51550000000000,22300000000000,-51500000000000,50225000000000,74975000000000,-87900000000000,67900000000000,61439474000000,-51939474000000,-19350000000000,5150000000000,-69050000000000,-4400000000000,-59500000000000,5000000000000,21466667000000,24433333000000,-39100000000000,500000000000,36600000000000,154950000000000,14350000000000,-18300000000000,-78300000000000,-131700000000000,38250000000000,13200000000000,25100000000000,167700000000000,-32000000000000,6050000000000,8750000000000,-42600000000000,5500000000000,26750000000000,-6000000000000,-38650000000000,-75350000000000,-46000000000000,-37563158000000,4413158000000,6400000000000,58050000000000,-19950000000000,-2221429000000],"hashrate_average_7d":3963717711321427.5,"hashrate_average_7d_count":168,"hashrate_block":784736709971910.2,"expected_blocks":4.49,"luck":0.5147928299356996,"multipool":7},{"url":"https:\/\/www.f2pool.com","hashrate":43764905836796110,"miners":-1,"minpay":0.1,"id":14,"pool_id":"f2pool.com","fee":3,"feetype":"PPS%3","i":2444,"income":2.918708497684872e-15,"blocks_nr":12,"lastblock":700923,"lastblocktime":1665197315,"country":"WL|Global","blocks_1000":459,"blocks_count":47,"hashrate_average_100_count":89,"hashrate_average_100":43073018669459340,"hashrate_average_1h":43196801063905000,"history_start":1664592049,"history_interval":3600,"history_addlast":true,"history":[38904956880000000,270433930000000,-9462960000000,404821200000000,-279801050000000,-232727860000000,-277050250000000,193921170000000,-315135350000000,385553710000000,-103607880000000,-159718020000000,408493870000000,78340170000000,-214582250000000,-140636060000000,-37340430000000,537546200000000,-97712690000000,-40841450000000,-267834860000000,208972560000000,667333980000000,-182632150000000,-190571050000000,-563580470000000,384086440000000,184992210000000,-145094490000000,-84290850000000,-280876800000000,537329590000000,107473250000000,54176960000000,16064840000000,-66048530000000,199883620000000,-29495790000000,406283730000000,-303553450000000,-171615000000000,491081180000000,36764690000000,-161349700000000,-246434730000000,269976540000000,153965360000000,42159060000000,51654890000000,2392623310000000,735215140000000,-139147570000000,-450305540000000,-1544255850000000,-505817980000000,899672290000000,-2059805690000000,2373710750000000,1345297440000000,-31942900000000,455515450000000,19000720000000,-98934960000000,-353938590000000,28570050000000,11703190000000,12436300000000,221934250000000,-587643220000000,418713810000000,-3230184960000000,3125714240000000,-318002270000000,-1802805100000000,-170510810000000,1814273410000000,92950190000000,47780790000000,-119435530000000,182087480000000,144991200000000,50295160000000,-100802010000000,85953200000000,632912920000000,101364380000000,37698730000000,-605305330000000,88175480000000,168144490000000,109483850000000,131244150000000,-650592620000000,-129161860000000,338866710000000,428690890000000,-305563970000000,-289980800000000,94057860000000,235453100000000,-304994270000000,-318366900000000,-307477480000000,408081900000000,252329640000000,138067930000000,-67829300000000,-203452070000000,679978360000000,82531900000000,-199706080000000,22496280000000,28395600000000,18240080000000,204575400000000,380890620000000,-641062870000000,-81496980000000,152376390000000,-153988330000000,-163836900000000,-53249650000000,182364780000000,386990450000000,-194843580000000,32845120000000,-392007910000000,331391040000000,-281127550000000,190988580000000,-53325410000000,-125989480000000,376394790000000,286706090000000,-181847470000000,-277407630000000,245159770000000,207966150000000,-74172490000000,299934120000000,-558300740000000,70145980000000,314838580000000,-86822100000000,-166368320000000,-260533880000000,50909990000000,82790220000000,-26204870000000,-18753870000000,-553817190000000,143736500000000,301174630000000,195977180000000,-150683220000000,-369554500000000,544906640000000,-20266410000000,-108507030000000,-260821580000000,128409690000000,175983490000000,-104930470000000,190140560000000,-250714010000000,-247476030000000,-7064993140000000,6689347040000000],"hashrate_average_7d":42306330900714280,"hashrate_average_7d_count":168,"hashrate_block":916447205733177.5,"expected_blocks":49.24,"luck":-2.237256195007838,"multipool":33}],"hashblock":{"hashrate_average_100":85730931327464960,"blocks_count":98,"pools":[[842048458872740.5,46,18305401279842.184,"https:\/\/www.poolin.com"],[784736709971910.2,5,156947341994382.06,"https:\/\/pool.btc.com"],[916447205733177.5,47,19498876717727.18,"https:\/\/www.f2pool.com"]],"hashrate_block_all":874805421708826.1,"hashrate_block_min":18305401279842.184,"hashrate_block_max":156947341994382.06,"pool_hashblock_average":64917206663983.81,"hashrate_block":874805421708826.1},"time":1665197918,"hashrate":79180000000000000,"difficulty":6535039394.101831,"height":700923,"symbol":"DCR","maxhash":43764905836796110,"poolshash":82431987339775620,"nethash_estimat":87480542170882610,"poolsminers":1637,"supply":{"circulating":14408563.33544934,"total":21000000,"emission24":2510},"block_time_target":300,"block_height_ok":true,"algo":"Blake256R14","hashrate_from_diff":false,"hashrate_src":"https:\/\/lab.antpool.com","unit":"H\/s","block_time_average":310,"minerstat":[1.305845493258e-16,26.069817776922,1.01811624,3797],"link":{"coingecko":"decred","cmc":"decred","whattomine":"152-dcr-blake (14r)","coin360":"decred-dcr","coinpaprika":"dcr-decred"},"latest_release":{"tag":"release-v1.7.4","name":"dcrd v1.7.4","t":1659553036},"price":26.04}