{"data":[{"url":"https:\/\/www.okx.com\/pool","hashrate":8890000000000,"miners":-1,"minpay":-1,"id":23,"pool_id":"okx.com","i":1612,"workers":1,"lastblock":630904,"feetype":"PPLNS","fee":2,"country":"HK|Hong Kong","hashrate_average_100_count":80,"hashrate_average_100":9329179687500,"hashrate_average_1h":8990000000000,"history_start":1665715245,"history_interval":3600,"history_addlast":true,"history":[9092500000000,-238000000000,61000000000,106500000000,1528500000000,361500000000,-2576000000000,842500000000,-298500000000,295000000000,-1156000000000,920000000000,38500000000,446000000000,-655000000000,28500000000,287000000000,-520000000000,-58500000000,-420500000000,1575000000000,-787000000000,469000000000,-299500000000,-502000000000,1930000000000,-689000000000,-491000000000,-330000000000,-158500000000,291000000000,-526000000000,136000000000,397000000000,31000000000,666500000000,-937500000000,5000000000,406500000000,-162500000000,42500000000,-925000000000,301000000000,811000000000,-191000000000,152500000000,-675500000000,433000000000,-1199000000000,944000000000,1274000000000,-1477500000000,-693500000000,1698500000000,-459000000000,-19000000000,-528000000000,320000000000,1027500000000,-909500000000,744500000000,-838500000000,-415000000000,-403500000000,844500000000,1587000000000,-1292000000000,-606500000000,266000000000,625000000000,-562000000000,-431500000000,-160000000000,607000000000,-150500000000,-314000000000,-26000000000,748000000000,-732000000000,1041000000000,-365000000000,-583000000000,1118000000000,-1105500000000,391000000000,354500000000,-595500000000,-141000000000,1500000000000,-710000000000,-316000000000,-861500000000,710500000000,-32500000000,-193500000000,549000000000,222000000000,-641500000000,718500000000,-1126000000000,-662000000000,1490000000000,164500000000,-1086500000000,799500000000,69500000000,-487500000000,1029500000000,-280500000000,-565500000000,282000000000,-1125000000000,1171500000000,-924000000000,-389000000000,272000000000,1272000000000,-1933000000000,2110500000000,-662500000000,-745000000000,1460500000000,365000000000,-727111111000,-481888889000,14000000000,-294000000000,823000000000,-51500000000,803000000000,-344000000000,-625000000000,-832000000000,1572000000000,-795000000000,366500000000,-274000000000,-889500000000,123500000000,-34500000000,769500000000,56500000000,-1834000000000,1063500000000,387500000000,361000000000,-515500000000,364000000000,1597000000000,-2029500000000,-147000000000,-445500000000,1963500000000,-1326000000000,-270000000000,43500000000,81000000000,116500000000,-131000000000,-91500000000,6000000000,1385000000000,-352000000000,-154000000000,879500000000,-1000000000,-1450000000000,223500000000],"hashrate_average_7d":9017103505291.666,"hashrate_average_7d_count":168,"expected_blocks":0.01,"multipool":5},{"url":"https:\/\/www2.coinmine.pl\/dcr","hashrate":550196156244412,"miners":-1,"minpay":0.05,"id":5,"pool_id":"coinmine.pl","i":12326,"workers":28,"blocks_nr":5,"lastblock":704238,"lastblocktime":"1666196231","fee":1,"feetype":"PPLNS","height":704639,"country":"WL|EU , US , Asia","blocks_1000":2,"hashrate_average_100_count":80,"hashrate_average_100":525624163268203.6,"hashrate_average_1h":546275157016686.25,"history_start":1665715245,"history_interval":3600,"history_addlast":true,"history":[634131455200000,20876326200000,-23104135400000,19464175100000,-4774051100000,-8994840800000,-1476966500000,24102633700000,-18785449400000,27208964800000,-2039861900000,-32647873200000,33719596100000,-35043695700000,-2161145000000,7853698300000,1799780700000,-15826648100000,2239168500000,16703868400000,6589488800000,-14608942100000,2116054000000,23298062400000,-25056198400000,-1633290600000,26443696700000,-28939416700000,15715024200000,4483895300000,-29623755700000,-78635772600000,-7143692900000,13191081200000,3684076900000,-17141713900000,12985865200000,13600128500000,1660359400000,-9100872200000,-4124697900000,-16906732200000,27785780000000,-5812036400000,15093087600000,5742063900000,-24202653000000,-9197701400000,31387056700000,-32972197400000,20863210700000,-15982328500000,16756332200000,-12989547400000,4249570000000,-22558320800000,-4848761200000,30968295900000,-20562332400000,19676274000000,-6305918300000,14184984600000,-2691245200000,-72937571200000,-39524371000000,3327470000000,2066192500000,-1808369300000,5474778300000,-14855822400000,-113305900000,-3217561400000,3840481800000,1809946400000,-9656532600000,13378187100000,-8342516500000,4962953200000,24815600000,-20477725500000,26299809400000,-29281305300000,4907920100000,14877257800000,51549329800000,-24969246800000,-18263500500000,36483878500000,85236913800000,6222827100000,22714418100000,-4173710800000,4511580100000,486880900000,-19886892300000,9808797200000,1621378900000,-2110128500000,7470288800000,-12696986200000,-2144555900000,3008820800000,-33320069800000,35730187200000,12918176700000,-30131951300000,9775549800000,-10682188800000,36326811000000,-2932269800000,-34647090700000,26893850700000,-14528240000000,-23648975700000,-9491971900000,-9299065500000,4075638300000,24338281300000,-30860217300000,2287934000000,-8432054800000,8567230600000,-6902788500000,-8754780300000,24240772100000,-3560726200000,-2684622200000,-9019486300000,25953730400000,-24910049800000,-12719702100000,24896839200000,11791052200000,-15730961000000,-1620195200000,5875129400000,-20542591200000,19570846400000,-3944033200000,-950282000000,23734542100000,-29340996600000,2550181900000,4727860600000,1395568200000,9038118200000,-1319097400000,-9538007900000,4450995500000,12845538100000,-19181047700000,3567588400000,-6359400000000,-3620186400000,9418160000000,4652415100000,-39775088200000,-3727515700000,28960351300000,-15715595500000,-246206200000,349531100000,16145285800000,-17347152900000,18786639100000,-7763064100000,12588228700000,4763710800000],"hashrate_average_7d":555775711645238.2,"hashrate_average_7d_count":168,"expected_blocks":0.66,"multipool":6},{"url":"https:\/\/lab.antpool.com","hashrate":4170000000000000,"miners":-1,"minpay":0.1,"id":11,"pool_id":"antpool.com","i":2063,"nethash":74640000000000000,"netdiff":5527269690,"feetype":"PPS","fee":3,"income":3.5422072e-15,"country":"WL|Global","hashrate_average_100_count":80,"hashrate_average_100":4142085937500000,"hashrate_average_1h":4196250000000000,"history_start":1665715245,"history_interval":3600,"history_addlast":true,"history":[2204000000000000,150000000000000,-21500000000000,-281500000000000,-148500000000000,422000000000000,120500000000000,-100500000000000,126500000000000,-6000000000000,-67000000000000,-13000000000000,7500000000000,-75000000000000,-80000000000000,50500000000000,21500000000000,65500000000000,-54000000000000,-17000000000000,52000000000000,-26500000000000,-6000000000000,-52500000000000,-82500000000000,72000000000000,0,-9000000000000,-46500000000000,163000000000000,44000000000000,-80000000000000,3500000000000,-17500000000000,126500000000000,41500000000000,-9500000000000,-17500000000000,-148000000000000,120500000000000,4000000000000,5500000000000,20000000000000,-1000000000000,-49000000000000,13500000000000,18000000000000,36000000000000,18500000000000,47000000000000,9000000000000,1500000000000,-44500000000000,-88500000000000,-56000000000000,-11500000000000,12500000000000,14000000000000,16500000000000,10500000000000,-18000000000000,35500000000000,-158500000000000,41500000000000,83500000000000,-50500000000000,62000000000000,-16000000000000,-24500000000000,23500000000000,33500000000000,-36000000000000,-6000000000000,33500000000000,-53000000000000,80000000000000,11500000000000,-117000000000000,143500000000000,5000000000000,-47000000000000,56000000000000,-22500000000000,-22500000000000,-19500000000000,-23000000000000,-173000000000000,58500000000000,55000000000000,44000000000000,27500000000000,-18000000000000,-48000000000000,-25500000000000,162000000000000,132000000000000,-52000000000000,-65000000000000,46500000000000,-30000000000000,-392000000000000,24500000000000,10000000000000,-16000000000000,-94000000000000,76000000000000,-85500000000000,75000000000000,-17000000000000,10000000000000,-212000000000000,178500000000000,-11500000000000,-8500000000000,7500000000000,61500000000000,-95000000000000,42000000000000,42500000000000,24500000000000,-2500000000000,-50500000000000,-248000000000000,-252666667000000,248166667000000,18500000000000,-55500000000000,23500000000000,-2000000000000,-6000000000000,500000000000,3000000000000,18000000000000,25000000000000,-6500000000000,4500000000000,-2000000000000,34500000000000,8500000000000,-21500000000000,23000000000000,-43000000000000,-11000000000000,14000000000000,47000000000000,-21500000000000,-44000000000000,45000000000000,-15500000000000,-74000000000000,-27000000000000,24500000000000,-7000000000000,-38500000000000,1388000000000000,1031500000000000,-5500000000000,17000000000000,-121500000000000,9000000000000,24000000000000,159000000000000,-117500000000000,49000000000000,-102000000000000,187000000000000,-179500000000000,111750000000000],"hashrate_average_7d":2380366567458333,"hashrate_average_7d_count":168,"expected_blocks":5.24,"multipool":16},{"url":"https:\/\/pool.btc.com","hashrate":3319000000000000,"miners":-1,"minpay":0.1,"id":4,"pool_id":"pool.btc.com","feetype":"PPS","i":14340,"workers":73,"income":3.6517672989511e-15,"i_blocks":14382,"json_blocks":{"err_no":0,"data":{"blocks":{"current_page":1,"data":[{"height":704619,"is_orphaned":0,"hash":"000000000000000042284ac389621b34aa7844737b8f463aa169b82f480b391b","rewards":"1.00336713","size":4650,"prev_hash":"0000000000000000523407cae8d4d25034a0d668176065439464d1fe6d29c8e3","bits":419481324,"version":9,"created_at":1666316682,"region_id":34,"region_name":"America"},{"height":704557,"is_orphaned":1,"hash":"0000000000000000b85e51c6f662c46bd5aba8950f2c801ca80e442a7806cb87","rewards":0,"size":35790,"prev_hash":"fa6e070b0000000062eb1ef7307c7bc85ad8c7667d7e4a4d171fdebbd5f7854c","bits":419479695,"version":9,"created_at":1666295285,"region_id":34,"region_name":"America"},{"height":704503,"is_orphaned":0,"hash":"00000000000000007a7e5d281d1c8bba09b1dba13e66decc9b8d06c3aeb99d49","rewards":"1.00336713","size":2573,"prev_hash":"0000000000000000321bf69eb615df48ad59fa3279e93dfec25e9bc046d114bc","bits":419479695,"version":9,"created_at":1666277518,"region_id":36,"region_name":"BitDeer"},{"height":704495,"is_orphaned":0,"hash":"0000000000000000ba58b9594714868761af6a4864a7544005cf605937cd26cf","rewards":"1.00336713","size":8309,"prev_hash":"0000000000000000c0234f6cd26c13506bd54bdba6699e5b7f780b4ad50df71b","bits":419479695,"version":9,"created_at":1666275764,"region_id":36,"region_name":"BitDeer"},{"height":704449,"is_orphaned":0,"hash":"00000000000000001161a4e0444b950f5fed73b529ffba325c1f5d42ec0dc873","rewards":"1.00336713","size":3413,"prev_hash":"00000000000000009426067fcb6b117c13bad29aa1e117e40f2cbbcbc33ad8e2","bits":419479695,"version":9,"created_at":1666262181,"region_id":34,"region_name":"America"},{"height":704395,"is_orphaned":0,"hash":"00000000000000008c9bfa1d93c3227c64e41a030ce51a29dd63031bf5b432a9","rewards":"1.00336713","size":37732,"prev_hash":"0000000000000000044a47f5a751ec65a725316ea1174ef2d666856375d71452","bits":419477281,"version":9,"created_at":1666244991,"region_id":34,"region_name":"America"},{"height":704381,"is_orphaned":0,"hash":"00000000000000005491403da04cf529d7094c5676c14b782c39dad34904c8e8","rewards":"1.00336713","size":4528,"prev_hash":"000000000000000087b4a964b52e537491af4a6d10b34cf41345ab0661fe6967","bits":419477281,"version":9,"created_at":1666239775,"region_id":34,"region_name":"America"},{"height":704377,"is_orphaned":0,"hash":"00000000000000009ad5d1593d308d310f044e8aa5b87f61f5646df6180ec68c","rewards":"1.00336713","size":5372,"prev_hash":"00000000000000009673f6d06f11a4c2bded2e0d19ffa051a908323ea4dc66c5","bits":419477281,"version":9,"created_at":1666238644,"region_id":36,"region_name":"BitDeer"},{"height":704349,"is_orphaned":0,"hash":"00000000000000007e28c480007e1edd3310c979e539540ee3025da04d3a1e7d","rewards":"1.00336713","size":2153,"prev_hash":"0000000000000000a794723d522fd2d667bd54b600d1faa54da75c8b2f196d79","bits":419477281,"version":9,"created_at":1666230592,"region_id":36,"region_name":"BitDeer"},{"height":704338,"is_orphaned":0,"hash":"00000000000000003f5e422b46395d1d2c6a952ae7331a5e94a9c3031c0c3c30","rewards":"1.00336713","size":3121,"prev_hash":"0000000000000000024f6e746d4acb5052cfb91fc7fd7c703f71fa5465cfdd46","bits":419477281,"version":9,"created_at":1666227292,"region_id":34,"region_name":"America"}],"first_page_url":"https:\/\/eu-api.connectbtc.com\/\/public\/v1\/pool\/blocks\/merge?order_by=desc&page_size=10&page=1","from":1,"last_page":2198,"last_page_url":"https:\/\/eu-api.connectbtc.com\/\/public\/v1\/pool\/blocks\/merge?order_by=desc&page_size=10&page=2198","next_page_url":"https:\/\/eu-api.connectbtc.com\/\/public\/v1\/pool\/blocks\/merge?order_by=desc&page_size=10&page=2","path":"https:\/\/eu-api.connectbtc.com\/\/public\/v1\/pool\/blocks\/merge","per_page":10,"prev_page_url":null,"to":10,"total":21971},"blocks_count":21971,"rewards_count":"190358.47177884"},"trace_id":"46c39673-878b-4196-9a63-f96619be6e71"},"blocks_nr":9,"lastblock":704619,"lastblocktime":"1666316638","country":"WL|CN , EU , US","blocks_1000":33,"blocks_count":1,"hashrate_average_100_count":80,"hashrate_average_100":3244136718750000,"hashrate_average_1h":3278500000000000,"history_start":1665715245,"history_interval":3600,"history_addlast":true,"history":[3517600000000000,26350000000000,-68800000000000,41000000000000,3200000000000,-67150000000000,45650000000000,39350000000000,-89250000000000,46700000000000,36350000000000,-33000000000000,-2450000000000,10900000000000,-16250000000000,-32500000000000,-69300000000000,-86550000000000,-33750000000000,51950000000000,56700000000000,24300000000000,-27100000000000,3500000000000,-13950000000000,38850000000000,-50050000000000,-41850000000000,-3600000000000,10600000000000,2700000000000,51800000000000,84600000000000,-65650000000000,-1150000000000,-15450000000000,16300000000000,26950000000000,45450000000000,-45450000000000,-27500000000000,-35750000000000,-33500000000000,-96500000000000,129750000000000,17450000000000,48500000000000,49950000000000,-37200000000000,23200000000000,-48950000000000,-38500000000000,30250000000000,-38950000000000,53200000000000,100850000000000,-4050000000000,55150000000000,-74850000000000,-25500000000000,-31250000000000,-27500000000000,-40800000000000,2450000000000,8800000000000,-39650000000000,-30800000000000,31950000000000,-22550000000000,72950000000000,-10350000000000,57800000000000,33050000000000,-97400000000000,1150000000000,-35200000000000,14600000000000,19000000000000,-8850000000000,-20300000000000,140400000000000,-38300000000000,-10850000000000,59400000000000,-48500000000000,-28050000000000,25700000000000,-84750000000000,-36850000000000,2950000000000,950000000000,-34300000000000,25700000000000,29150000000000,-27450000000000,111850000000000,-15600000000000,-5350000000000,-66050000000000,-25500000000000,115000000000000,-37850000000000,-16500000000000,21550000000000,-8950000000000,45700000000000,46400000000000,-5700000000000,-2800000000000,-3500000000000,39600000000000,-6900000000000,-48200000000000,-63400000000000,-7150000000000,-45350000000000,17050000000000,107050000000000,34700000000000,38200000000000,-77600000000000,-64750000000000,-44850000000000,-54166667000000,-28583333000000,24900000000000,-8700000000000,5450000000000,101200000000000,57400000000000,45550000000000,-12200000000000,650000000000,28750000000000,-69850000000000,39900000000000,-50050000000000,48150000000000,-56150000000000,-111750000000000,27700000000000,18650000000000,73800000000000,-7200000000000,-71400000000000,-32250000000000,-45800000000000,-3050000000000,32700000000000,51700000000000,-12050000000000,-41800000000000,-50000000000,24200000000000,16550000000000,-102650000000000,1450000000000,-18150000000000,11300000000000,48050000000000,-2600000000000,-80800000000000,83950000000000,-28000000000000,-51400000000000,22250000000000,-44400000000000,99300000000000],"hashrate_average_7d":3386951686505951.5,"hashrate_average_7d_count":168,"expected_blocks":4.1,"luck":-3.1041720220535147,"multipool":7},{"url":"https:\/\/www.f2pool.com","hashrate":48190507266684824,"miners":-1,"minpay":0.1,"id":14,"pool_id":"f2pool.com","fee":3,"feetype":"PPS%3","i":2445,"income":3.4508674406469417e-15,"blocks_nr":9,"lastblock":704639,"lastblocktime":1666321045,"country":"WL|Global","blocks_1000":545,"blocks_count":60,"hashrate_average_100_count":80,"hashrate_average_100":48260896456718850,"hashrate_average_1h":48123943496016130,"history_start":1665715245,"history_interval":3600,"history_addlast":true,"history":[47920631520000000,-543201200000000,154234080000000,363368240000000,597265640000000,-493344730000000,-339969150000000,419512960000000,-4987840000000,-82172830000000,38050000000,-380593760000000,459437300000000,321615320000000,-24414840000000,-212905330000000,-119042940000000,92396800000000,-5524289190000000,1279099480000000,2276863140000000,-1599669040000000,3121354640000000,79060040000000,212171150000000,-223759700000000,-1210636290000000,-248773330000000,1798837760000000,41898010000000,-491914110000000,305894880000000,-325984180000000,-387501070000000,-284520550000000,-379524670000000,841488830000000,-70645150000000,67152750000000,-263756430000000,-262894700000000,440665270000000,-151441650000000,-64935220000000,-296054600000000,117400910000000,187855990000000,94181310000000,-42442930000000,-77908940000000,523750060000000,109939640000000,-110564580000000,164242490000000,-385224130000000,770826670000000,53833910000000,-286878770000000,-211696380000000,-278568950000000,686264820000000,-88868050000000,315615870000000,-423590960000000,43352190000000,361962840000000,-37823370000000,149448810000000,-641767760000000,61054190000000,-541088640000000,-575186980000000,57254970000000,-4247693800000000,3802443260000000,319259870000000,486280930000000,849023830000000,-484271450000000,164936530000000,340091210000000,356080000000,104047450000000,-514726860000000,750188470000000,36444530000000,40755830000000,-371515370000000,48384810000000,480755920000000,14496850000000,-547639970000000,-475485700000000,-729178660000000,-1916646490000000,322863030000000,-136934230000000,-528957430000000,479052980000000,86545590000000,2781365590000000,319715810000000,-703116880000000,55600570000000,299638740000000,647739810000000,-3364100000000,-92742640000000,369984630000000,-4253200000000,-301795070000000,-472109450000000,-70260050000000,360693380000000,31119150000000,135006500000000,-524643440000000,-112775200000000,350089540000000,162828920000000,45155120000000,-558330260000000,108028260000000,118953030000000,-16811460000000,-11021500000000,-347592650000000,295360280000000,10715520000000,47332590000000,134878130000000,-341929180000000,285559620000000,370626560000000,-57283730000000,-214681710000000,-294399940000000,111076660000000,126794370000000,-538908750000000,-869567790000000,197558450000000,53514390000000,-2884008580000000,2983773340000000,450654350000000,-5700418750000000,6723385690000000,-8043100000000,-269331170000000,-312513230000000,79746930000000,352627160000000,-316791220000000,139484150000000,-76377110000000,222082690000000,50246710000000,-71252100000000,-74790720000000,-102243790000000,276267260000000,-256702340000000,76768630000000,-482136800000000,190969810000000,245299520000000,-170807250000000],"hashrate_average_7d":47602279189404780,"hashrate_average_7d_count":168,"hashrate_block":804348274278647.5,"expected_blocks":61.06,"luck":-1.055078182156869,"multipool":33},{"url":"https:\/\/www.poolin.com","hashrate":26833000000000000,"miners":-1,"minpay":0.01,"id":3,"pool_id":"poolin.com","fee":3,"feetype":"PPS","i":13401,"json":{"err_no":0,"data":{"shares":{"shares_1m":25.407,"shares_5m":26.833,"shares_15m":27.312,"shares_1h":27.046,"shares_unit":"P"},"reject":{"1m":0,"5m":0,"15m":0.0025,"1h":0.0065},"workers":1387,"users":390,"total_blocks":142485,"total_rewards":104429054160778}},"workers":1387,"netdiff":5527269690.977928,"nethash":"79131475182406860","income":3.95433e-15,"blocks_nr":16,"lastblock":704638,"lastblocktime":"1666320890","country":"US|United States","blocks_1000":380,"blocks_count":35,"hashrate_average_100_count":29,"hashrate_average_100":26831713362068964,"hashrate_average_1h":27057125000000000,"history_start":1665715245,"history_interval":3600,"history_addlast":true,"history":[30447550000000000,178500000000000,78200000000000,-675750000000000,-1406400000000000,46053850000000,-53850000000,317450000000000,1711600000000000,934000000000000,-41600000000000,-209200000000000,-46000000000000,126150000000000,214200000000000,-6950000000000,-77700000000000,-124300000000000,71950000000000,-163650000000000,-28600000000000,-3100000000000,127700000000000,44800000000000,115650000000000,-503300000000000,454450000000000,36200000000000,-516850000000000,-435800000000000,-27350000000000,-337950000000000,-176400000000000,500500000000000,71450000000000,-38200000000000,39200000000000,-305550000000000,-171950000000000,41800000000000,-119800000000000,59200000000000,-192400000000000,54650000000000,82450000000000,-116750000000000,-346050000000000,-294350000000000,724510530000000,108039470000000,-970500000000000,838050000000000,39100000000000,228750000000000,216150000000000,-145050000000000,-7150000000000,-234450000000000,-75000000000000,-46550000000000,72450000000000,-121300000000000,67600000000000,-72100000000000,-189750000000000,-181300000000000,291900000000000,-37950000000000,-171000000000000,-361700000000000,-175800000000000,222900000000000,372500000000000,-668150000000000,511200000000000,-590550000000000,247950000000000,308450000000000,404900000000000,533050000000000,-809515380000000,1060915380000000,385050000000000,2874800000000000,1802850000000000,717300000000000,-45500000000000,-258650000000000,110500000000000,224350000000000,84250000000000,-27450000000000,-178300000000000,-87500000000000,380600000000000,-506500000000000,717550000000000,-269000000000000,-1112200000000000,1137900000000000,-583300000000000,423050000000000,150000000000,261150000000000,-73850000000000,-344800000000000,406100000000000,-309900000000000,124450000000000,-74950000000000,-235300000000000,295550000000000,-55000000000000,98450000000000,-47800000000000,67800000000000,-74250000000000,-89800000000000,-1547300000000000,-789500000000000,-82950000000000,-1630650000000000,162800000000000,-496833330000000,40033330000000,-323700000000000,125450000000000,287400000000000,116250000000000,-139350000000000,-435850000000000,463650000000000,-2957950000000000,-2235800000000000,-88000000000000,17950000000000,-19900000000000,110200000000000,-76850000000000,33000000000000,14850000000000,-82100000000000,-4650000000000,7853850000000,124646150000000,42100000000000,-644450000000000,161250000000000,168850000000000,541750000000000,-256900000000000,-24650000000000,-1279550000000000,1483400000000000,91300000000000,-364650000000000,187400000000000,152650000000000,-302200000000000,65550000000000,176950000000000,41150000000000,-73400000000000,15250000000000,-141100000000000,-159000000000000,-348200000000000,414825000000000],"hashrate_average_7d":31121362169761916,"hashrate_average_7d_count":168,"hashrate_block":766620381773399,"expected_blocks":33.94,"luck":1.055078182156869,"multipool":15}],"hashblock":{"hashrate_average_100":75092609818787800,"blocks_count":95,"pools":[[804348274278647.5,60,13405804571310.791,"https:\/\/www.f2pool.com"],[766620381773399,35,21903439479239.973,"https:\/\/www.poolin.com"]],"hashrate_block_all":790448524408292.8,"hashrate_block_min":13405804571310.791,"hashrate_block_max":21903439479239.973,"pool_hashblock_average":17654622025275.383,"hashrate_block":790448524408292.8},"time":1666321305,"hashrate":74640000000000000,"difficulty":5527269690.977928,"height":704639,"symbol":"DCR","maxhash":48190507266684824,"poolshash":83071593422929230,"nethash_estimat":79044852440829280,"poolsminers":1489,"supply":{"circulating":14442024.2245577,"total":21000000,"emission24":2453},"block_time_target":300,"block_height_ok":true,"algo":"Blake256R14","hashrate_from_diff":false,"hashrate_src":"https:\/\/lab.antpool.com","unit":"H\/s","block_time_average":318,"minerstat":[1.5444246337714e-16,25.405662766581,1.01843833,1817],"link":{"coingecko":"decred","cmc":"decred","whattomine":"152-dcr-blake (14r)","coin360":"decred-dcr","coinpaprika":"dcr-decred"},"latest_release":{"tag":"release-v1.7.5","name":"dcrd v1.7.5","t":1665429869},"price":25.42}