{"data":[{"url":"https:\/\/www.okx.com\/pool","hashrate":8350000000000,"miners":-1,"minpay":-1,"id":23,"pool_id":"okx.com","i":1611,"workers":1,"lastblock":630904,"feetype":"PPLNS","fee":2,"country":"HK|Hong Kong","hashrate_average_100_count":68,"hashrate_average_100":7224248621323.529,"hashrate_average_1h":8598571428571.429,"history_start":1664160045,"history_interval":3600,"history_addlast":true,"history":[9417500000000,-1440000000000,1576000000000,706500000000,308421050000,-1914921050000,-776357143000,1334436090000,-936078947000,-125500000000,1480500000000,-837500000000,772500000000,40000000000,-358500000000,86500000000,-1075500000000,-25000000000,-56333333000,946333333000,-241500000000,660500000000,-927000000000,-169500000000,451000000000,-203000000000,12000000000,-142000000000,-831500000000,707500000000,1595000000000,-1077500000000,-278500000000,-258500000000,827000000000,49000000000,-366500000000,120500000000,-340500000000,1027500000000,-943500000000,-231500000000,303500000000,651500000000,-1227000000000,169500000000,-15000000000,-11500000000,2001500000000,-1042500000000,-970000000000,958000000000,-501500000000,-434000000000,386000000000,-75000000000,1296000000000,-479000000000,-1160000000000,858500000000,-537500000000,-173000000000,-526000000000,1511500000000,-588105263000,-290394737000,1034000000000,-820500000000,-889500000000,487000000000,1051000000000,-1284000000000,571000000000,247000000000,678000000000,-317500000000,-894500000000,-368500000000,713000000000,-326105263000,1238105263000,-1171500000000,435500000000,719000000000,-593000000000,761000000000,910500000000,-1822500000000,-562000000000,-259500000000,103868421000,-194368421000,-82000000000,255000000000,1761000000000,-1430500000000,131000000000,-426000000000,204500000000,-35500000000,567500000000,-711500000000,1099500000000,-262500000000,-1073000000000,351500000000,171500000000,-655000000000,432500000000,1042500000000,-304000000000,-75500000000,-301000000000,2000000000,82000000000,60000000000,239000000000,199500000000,-400000000000,536000000000,-3890500000000,2962000000000,1103315789000,-1128815789000,1254000000000,-222000000000,-1139000000000,-612000000000,377000000000,680000000000,466500000000,531500000000,-719500000000,531500000000,-518500000000,313000000000,-271500000000,139500000000,-720500000000,1242500000000,-724500000000,-749000000000,585000000000,-9000000000,-18000000000,-861500000000,1038000000000,962500000000,-203000000000,-1215500000000,918000000000,767500000000,-717500000000,-1475500000000,36500000000,-94000000000,1161500000000,-324000000000,0,10174500000000,-8570000000000,-6962000000000,5659500000000,-1478500000000,820000000000,-108000000000,693000000000,-577428571000],"hashrate_average_7d":8956189610916.668,"hashrate_average_7d_count":168,"expected_blocks":0.01,"multipool":5},{"url":"https:\/\/www2.coinmine.pl\/dcr","hashrate":525195670138607,"miners":-1,"minpay":0.05,"id":5,"pool_id":"coinmine.pl","i":12323,"workers":32,"blocks_nr":5,"lastblock":699456,"lastblocktime":"1664760722","fee":1,"feetype":"PPLNS","height":699480,"country":"WL|EU , US , Asia","blocks_1000":2,"blocks_count":1,"hashrate_average_100_count":68,"hashrate_average_100":540960697192979.9,"hashrate_average_1h":569964136563187.4,"history_start":1664160045,"history_interval":3600,"history_addlast":true,"history":[505463891800000,7155444500000,6228485500000,18240820800000,-24516473000000,1199698900000,30769640700000,6052150300000,-12336365700000,-2646249500000,-39160190700000,-702861300000,13583084700000,-11472557800000,7740959200000,1822989300000,-3737499100000,10455611400000,-39220155500000,-1727500700000,8995339900000,-4218956100000,-11437739700000,13658174700000,-6539984300000,-3462542000000,14979594500000,18810356700000,6608278500000,-5861987800000,-6549831100000,2846564100000,-4587862600000,-22217925700000,18682709100000,4918159100000,-11458999200000,14124655300000,-6259830400000,-2274937600000,-1542812400000,13076775100000,-25971149500000,-24576411600000,11535852300000,-8723333700000,13990196300000,-20077622800000,14492182800000,6072733400000,-5608806000000,-1743912900000,-13047855900000,1715433000000,-1218599300000,27793519900000,-14373163200000,38733482500000,-41309305700000,-2953467200000,-17192104800000,13179707100000,9391860100000,24261726500000,14342415100000,-5726812900000,-3700283000000,-1632503300000,-2425498600000,30135828500000,-16835890200000,-11730064800000,29696387300000,-11812576000000,-9172084700000,9880276400000,-2041582500000,-14321071000000,12903377100000,5179554700000,-9883115900000,-16252855800000,12914954900000,-1728004300000,-9233457000000,681312000000,19010053200000,-17025189100000,-1005454200000,-3249189600000,18586516900000,-7674455100000,-6302219200000,-21972457800000,21306519300000,-19279651300000,12452022600000,-7028366300000,-5104895000000,6854402700000,3761396800000,-3517084300000,-797935600000,-7240982200000,-3399823400000,15048918300000,-28659934700000,-2322513700000,34061097600000,-10250766800000,11004815100000,1822630400000,-5775983500000,15331120900000,-52528633300000,-6851304800000,48598884900000,-4359597400000,-3519207300000,1610755900000,-3760501500000,-4137256400000,10327453000000,-15641599800000,9098796000000,6554568400000,-4092454700000,1150882000000,5427212100000,106308336000000,-5262084700000,7522685600000,-8933959800000,-28927395400000,13923772200000,-26136806700000,-7313313400000,-4095765700000,20044871100000,7122650100000,11998935900000,36934304500000,-32476557300000,5996864500000,-1102673800000,-1452422900000,8930087000000,765008500000,-1034611500000,2799224700000,4435571800000,5590888900000,-15121994800000,2466604900000,-17121583000000,-17777811900000,15220948200000,14972605700000,-26089075500000,10930740300000,-27312183900000,-17877688700000,2873664300000,23820537600000,33166112700000,-30605052700000,-2574500500000,21755226000000],"hashrate_average_7d":505372179043452.4,"hashrate_average_7d_count":168,"expected_blocks":0.62,"luck":0.3839174826944284,"multipool":6},{"url":"https:\/\/lab.antpool.com","hashrate":2500000000000000,"miners":-1,"minpay":0.1,"id":11,"pool_id":"antpool.com","i":2062,"nethash":90550000000000000,"netdiff":5101324520,"feetype":"PPS","fee":3,"income":3.8763527999999995e-15,"country":"WL|Global","hashrate_average_100_count":68,"hashrate_average_100":2613591452205882.5,"hashrate_average_1h":2454285714285714.5,"history_start":1664160045,"history_interval":3600,"history_addlast":true,"history":[1610500000000000,89000000000000,-12500000000000,36500000000000,1763158000000,1236842000000,-15785714000000,145075188000000,7710526000000,-7500000000000,40000000000000,-6000000000000,-28000000000000,16500000000000,-95000000000000,72000000000000,-22000000000000,35000000000000,-23500000000000,4000000000000,-28000000000000,10500000000000,46500000000000,-20000000000000,21000000000000,-34500000000000,9500000000000,-28500000000000,-68000000000000,57500000000000,-79000000000000,-46000000000000,-22000000000000,44500000000000,19500000000000,5000000000000,-54000000000000,56500000000000,-105000000000000,48500000000000,-16500000000000,34500000000000,-25000000000000,25000000000000,-22500000000000,-15500000000000,73500000000000,68000000000000,-232000000000000,-151000000000000,14000000000000,-40000000000000,23000000000000,-3500000000000,-8500000000000,36500000000000,1500000000000,25500000000000,98500000000000,259000000000000,-24000000000000,25500000000000,-3000000000000,-35000000000000,-29947368000000,83447368000000,-44000000000000,27500000000000,2000000000000,-7500000000000,-27000000000000,6000000000000,34000000000000,-26500000000000,47500000000000,-35500000000000,-63000000000000,34500000000000,36000000000000,199921053000000,340078947000000,174000000000000,241500000000000,-10000000000000,-16500000000000,-246500000000000,-208000000000000,381000000000000,-8000000000000,97500000000000,-26131579000000,-15368421000000,9500000000000,22000000000000,14000000000000,58000000000000,-20500000000000,-17000000000000,38000000000000,43500000000000,-86000000000000,-2000000000000,-43000000000000,26500000000000,5500000000000,-500000000000,-18000000000000,6500000000000,-13000000000000,-68000000000000,-179000000000000,95000000000000,19000000000000,5000000000000,13000000000000,51500000000000,-3000000000000,13000000000000,19500000000000,-3000000000000,38500000000000,-27000000000000,20000000000000,11000000000000,-30000000000000,73500000000000,-51000000000000,-8500000000000,22000000000000,-46500000000000,-5000000000000,-79500000000000,9500000000000,-70500000000000,-210500000000000,82000000000000,35500000000000,-3000000000000,24000000000000,5000000000000,27000000000000,-5500000000000,-65500000000000,38500000000000,87000000000000,70000000000000,-32500000000000,29000000000000,-92000000000000,61500000000000,-38000000000000,81500000000000,55500000000000,-3000000000000,-18500000000000,-18000000000000,-500000000000,-32500000000000,-90000000000000,87000000000000,9500000000000,64500000000000,-76500000000000,37500000000000,-141500000000000,-8000000000000,-8000000000000,-72214286000000],"hashrate_average_7d":2223868421059524.5,"hashrate_average_7d_count":168,"expected_blocks":2.98,"multipool":16},{"url":"https:\/\/www.poolin.com","hashrate":41126000000000000,"miners":-1,"minpay":0.01,"id":3,"pool_id":"poolin.com","fee":3,"feetype":"PPS","i":13384,"json":{"err_no":0,"data":{"shares":{"shares_1m":39.025,"shares_5m":41.126,"shares_15m":41.344,"shares_1h":41.414,"shares_unit":"P"},"reject":{"1m":0,"5m":0,"15m":0.0042,"1h":0.003},"workers":1607,"users":402,"total_blocks":140489,"total_rewards":104229074864216}},"workers":1607,"netdiff":5101324520.504567,"nethash":"73033406598942993","income":4.28451e-15,"blocks_nr":19,"lastblock":699480,"lastblocktime":1664765184,"country":"US|United States","blocks_1000":442,"blocks_count":46,"hashrate_average_100_count":68,"hashrate_average_100":40391005055147064,"hashrate_average_1h":41122857142857144,"history_start":1664160045,"history_interval":3600,"history_addlast":true,"history":[33245950000000000,73700000000000,57850000000000,-496250000000000,-30513160000000,501263160000000,113714290000000,599706760000000,303228950000000,455050000000000,-422250000000000,116550000000000,-19950000000000,79750000000000,-208650000000000,160450000000000,-22650000000000,-31900000000000,-41605560000000,213455560000000,-637900000000000,-1989950000000000,2272400000000000,34900000000000,477300000000000,177600000000000,-119700000000000,101900000000000,-362200000000000,-694550000000000,141500000000000,-26600000000000,-639550000000000,25500000000000,-32500000000000,-36550000000000,229550000000000,87250000000000,-28100000000000,-286250000000000,-2100000000000,139800000000000,-186450000000000,197400000000000,-25850000000000,-169600000000000,-266650000000000,123450000000000,106000000000000,14350000000000,-1633200000000000,1539600000000000,181100000000000,-355100000000000,366900000000000,27200000000000,-223200000000000,-54050000000000,485650000000000,350250000000000,344800000000000,359300000000000,614900000000000,-105750000000000,-348121050000000,257821050000000,187050000000000,21400000000000,-66600000000000,155950000000000,-200600000000000,315100000000000,-315600000000000,-36600000000000,-202800000000000,123750000000000,-738750000000000,-200550000000000,224550000000000,703773680000000,217476320000000,-114150000000000,-18200000000000,766150000000000,1528650000000000,277050000000000,304200000000000,122700000000000,-694900000000000,-24300000000000,21060530000000,-335960530000000,359600000000000,778500000000000,637050000000000,262550000000000,-364100000000000,321900000000000,546250000000000,97250000000000,245700000000000,-16400000000000,672600000000000,-62000000000000,157150000000000,-36950000000000,-475150000000000,599600000000000,-132100000000000,117900000000000,-53450000000000,-370150000000000,-166550000000000,3300000000000,296900000000000,-105800000000000,144050000000000,-523050000000000,-7639050000000000,-4892050000000000,-1895750000000000,1614900000000000,6277678950000000,55371050000000,-460200000000000,-475800000000000,746200000000000,59200000000000,463100000000000,1584900000000000,396800000000000,460150000000000,-132600000000000,48050000000000,-631750000000000,-152900000000000,88400000000000,-54400000000000,-56950000000000,-210850000000000,-2405000000000000,-367300000000000,1338950000000000,712900000000000,367350000000000,-198100000000000,212300000000000,107100000000000,599900000000000,4315400000000000,455050000000000,52500000000000,-217400000000000,66750000000000,149600000000000,142850000000000,-126150000000000,101350000000000,-204000000000000,117550000000000,-15050000000000,-132850000000000,-70950000000000,-39550000000000,208750000000000,-182700000000000,646100000000000,261207140000000],"hashrate_average_7d":35833346225416676,"hashrate_average_7d_count":168,"hashrate_block":878065327285805.8,"expected_blocks":46,"luck":0,"multipool":15},{"url":"https:\/\/pool.btc.com","hashrate":4096000000000000,"miners":-1,"minpay":0.1,"id":4,"pool_id":"pool.btc.com","feetype":"PPS","i":14320,"workers":97,"income":3.3721400476847e-15,"i_blocks":14362,"json_blocks":{"err_no":0,"data":{"blocks":{"current_page":1,"data":[{"height":699460,"is_orphaned":0,"hash":"0000000000000000868405d52a0c87b3d3903f5f345f39cfc1fcdd83d6a4749a","rewards":"1.01340080","size":8330,"prev_hash":"0000000000000000557a87bc9d4863faac25e9d1b828bfb29f661af5784f0346","bits":419485576,"version":9,"created_at":1664761927,"region_id":34,"region_name":"America"},{"height":699423,"is_orphaned":0,"hash":"0000000000000000bec19bc5874fa761b7a99ad05fe50c357c50d5097f8e1b6d","rewards":"1.01340080","size":19548,"prev_hash":"000000000000000011d2b266c1376dfa3db7bf05c2314c107aa21b1539d93f49","bits":419485576,"version":9,"created_at":1664750861,"region_id":34,"region_name":"America"},{"height":699342,"is_orphaned":0,"hash":"0000000000000000a26e55bdf1d2dd0e1d93fc43cc90a25dc3498dabb17e0358","rewards":"1.01340080","size":7254,"prev_hash":"00000000000000007a66f2aaa1746eda6d285b70f618077e0f124c9df7bb4450","bits":419487008,"version":9,"created_at":1664732816,"region_id":34,"region_name":"America"},{"height":699332,"is_orphaned":0,"hash":"00000000000000002528abc085bd1da56c2a5a118c42ef8352c47b7f80ff2947","rewards":"1.01340080","size":6813,"prev_hash":"000000000000000055213797ee48cdc4f14b30e232f9608022b0813980130e94","bits":419487008,"version":9,"created_at":1664730803,"region_id":34,"region_name":"America"},{"height":699306,"is_orphaned":0,"hash":"00000000000000008026f2e86c481de53e2137db28674652402a0fcf4914d5d5","rewards":"1.01340080","size":30770,"prev_hash":"0000000000000000a252694e277e34a8817b3dff24d08b24f9af9debcc2280de","bits":419487008,"version":9,"created_at":1664723619,"region_id":34,"region_name":"America"},{"height":699296,"is_orphaned":0,"hash":"0000000000000000735149d4b820153a42b694deddf20059d7c42b6dba03b88a","rewards":"1.01340080","size":10516,"prev_hash":"00000000000000008fa1454bbb996cd3f6029d6b8f0366129eec73f4e52ce752","bits":419487008,"version":9,"created_at":1664720248,"region_id":34,"region_name":"America"},{"height":699278,"is_orphaned":0,"hash":"0000000000000000bf5aaf718d7e6ee884b7fa4169cbcdc6e2d7f0358bc46339","rewards":"1.01340080","size":5674,"prev_hash":"0000000000000000ac90b0578d097774e1a49c99390ab31344c4f71f94a8b8ef","bits":419487008,"version":9,"created_at":1664717059,"region_id":34,"region_name":"America"},{"height":699267,"is_orphaned":0,"hash":"0000000000000000ba0fa64d5b160ab8514164c17933b796ba3330d66d599f93","rewards":"1.01340080","size":27629,"prev_hash":"00000000000000000c439fe2d86126f8338261486c8762f7fdce83e246c6ceb6","bits":419487008,"version":9,"created_at":1664713871,"region_id":34,"region_name":"America"},{"height":699236,"is_orphaned":0,"hash":"000000000000000074a7c5b276f58e3d57c3d46e43360c4f98e761b8717decd9","rewards":"1.01340080","size":6047,"prev_hash":"0000000000000000981069ffebb9d3b25da76dd965f06586c484d79b0d0c339c","bits":419481005,"version":9,"created_at":1664704287,"region_id":34,"region_name":"America"},{"height":699207,"is_orphaned":0,"hash":"00000000000000000082578907c71af1b10f7504e53237d958877b2c8425ce49","rewards":"1.01340080","size":6875,"prev_hash":"00000000000000000f2cf396430420d921da08f99d0b8142672883e324bf6617","bits":419481005,"version":9,"created_at":1664697670,"region_id":36,"region_name":"BitDeer"}],"first_page_url":"https:\/\/eu-api.connectbtc.com\/\/public\/v1\/pool\/blocks\/merge?order_by=desc&page_size=10&page=1","from":1,"last_page":2175,"last_page_url":"https:\/\/eu-api.connectbtc.com\/\/public\/v1\/pool\/blocks\/merge?order_by=desc&page_size=10&page=2175","next_page_url":"https:\/\/eu-api.connectbtc.com\/\/public\/v1\/pool\/blocks\/merge?order_by=desc&page_size=10&page=2","path":"https:\/\/eu-api.connectbtc.com\/\/public\/v1\/pool\/blocks\/merge","per_page":10,"prev_page_url":null,"to":10,"total":21742},"blocks_count":21742,"rewards_count":"190131.86331933"},"trace_id":"ff085e1f-aa26-4fd5-aa58-c4f4431751a4"},"blocks_nr":10,"lastblock":699460,"lastblocktime":"1664761902","country":"WL|CN , EU , US","blocks_1000":48,"blocks_count":2,"hashrate_average_100_count":68,"hashrate_average_100":4023569278492647,"hashrate_average_1h":4078000000000000,"history_start":1664160045,"history_interval":3600,"history_addlast":true,"history":[2607950000000000,-38200000000000,10300000000000,-13050000000000,4210526000000,-23310526000000,-2542857000000,4906015000000,32286842000000,500000000000,24700000000000,23050000000000,30250000000000,25200000000000,-39100000000000,-20500000000000,60600000000000,71800000000000,10894444000000,20405556000000,-36450000000000,1950000000000,4050000000000,5500000000000,19900000000000,-19700000000000,-158650000000000,87850000000000,15400000000000,11550000000000,7650000000000,-16850000000000,11350000000000,-6650000000000,-20650000000000,27300000000000,14000000000000,7050000000000,51850000000000,-33350000000000,-16450000000000,-23450000000000,-13150000000000,-19300000000000,10400000000000,-8900000000000,47850000000000,-33400000000000,16650000000000,-16150000000000,24350000000000,25000000000000,96500000000000,-174350000000000,471600000000000,428100000000000,-7100000000000,33700000000000,56550000000000,2700000000000,-50500000000000,-66250000000000,-28700000000000,-38250000000000,55152632000000,101247368000000,-38050000000000,-33400000000000,28250000000000,-25900000000000,81500000000000,-27650000000000,-24750000000000,-6200000000000,53600000000000,68950000000000,126900000000000,-47400000000000,5350000000000,7973684000000,-64923684000000,14650000000000,1750000000000,-55800000000000,-22200000000000,19400000000000,26300000000000,-38800000000000,-50950000000000,14500000000000,-9136842000000,-40963158000000,9400000000000,43200000000000,4750000000000,119050000000000,-147750000000000,105150000000000,122350000000000,240850000000000,12550000000000,47150000000000,51900000000000,-7950000000000,28600000000000,-90350000000000,72500000000000,-114500000000000,55550000000000,3300000000000,97900000000000,-155550000000000,-108750000000000,16500000000000,5800000000000,-20900000000000,41600000000000,16150000000000,14350000000000,33750000000000,24000000000000,-54100000000000,83357895000000,12092105000000,-25800000000000,16450000000000,36550000000000,35100000000000,-63400000000000,-12550000000000,-8850000000000,-153250000000000,9400000000000,59000000000000,-4850000000000,-600000000000,-30700000000000,23100000000000,20550000000000,-35800000000000,-5600000000000,-9750000000000,-18650000000000,68550000000000,-49900000000000,43750000000000,-38650000000000,-51200000000000,22000000000000,141550000000000,6050000000000,-35450000000000,-96350000000000,-10850000000000,33250000000000,-7550000000000,33200000000000,-22150000000000,34050000000000,-4250000000000,25500000000000,-41600000000000,-29150000000000,-54050000000000,34850000000000,27100000000000,17750000000000,38950000000000],"hashrate_average_7d":3516656682380950.5,"hashrate_average_7d_count":168,"hashrate_block":2011784639246323.5,"expected_blocks":4.58,"luck":-2.5823119914436568,"multipool":7},{"url":"https:\/\/www.f2pool.com","hashrate":40250085484180560,"miners":-1,"minpay":0.1,"id":14,"pool_id":"f2pool.com","fee":3,"feetype":"PPS%3","i":2444,"income":3.7763944756399956e-15,"blocks_nr":10,"lastblock":699476,"lastblocktime":1664764027,"country":"WL|Global","blocks_1000":481,"blocks_count":47,"hashrate_average_100_count":68,"hashrate_average_100":40194835097195940,"hashrate_average_1h":40479191689087300,"history_start":1664160045,"history_interval":3600,"history_addlast":true,"history":[51454983260000000,80699170000000,-263819420000000,337068340000000,-408060780000000,-88123010000000,-59417790000000,-338235050000000,361059740000000,70650700000000,-45440430000000,-406195360000000,214261680000000,31275520000000,59429340000000,-152806610000000,-30141970000000,77263550000000,-94475810000000,-66357400000000,-142432110000000,199135380000000,851404610000000,187022800000000,100504690000000,-630313390000000,313216720000000,189952720000000,101157670000000,-375120440000000,-572656970000000,-1606230230000000,-9409157980000000,-13309760000000,-344240410000000,-7576400000000,565035660000000,92340150000000,8965800000000,-133875470000000,101778410000000,23579970000000,96144010000000,38555880000000,-553132290000000,-21902760000000,223948380000000,313631160000000,-166530050000000,-446594660000000,435908230000000,-1280315030000000,1299268580000000,-129933030000000,-439422630000000,409268690000000,-112415900000000,35516480000000,-60720410000000,-290967470000000,340832840000000,-64984930000000,52784280000000,-395283600000000,356684960000000,133681720000000,15137870000000,52823490000000,-863574260000000,413824440000000,425112220000000,72760500000000,-165304140000000,-384680210000000,352757070000000,151483470000000,-197098600000000,131978020000000,14050900000000,420416670000000,-169312990000000,205834280000000,-1355732910000000,-408130860000000,1640067270000000,-313414610000000,-1336528310000000,348870520000000,104446260000000,560061860000000,371916830000000,-481788690000000,-1714270490000000,1801700940000000,727630200000000,-251818270000000,56478160000000,-297858620000000,-37017220000000,-380583090000000,-85882440000000,1292770000000,-308656360000000,123823750000000,116533050000000,-121117130000000,-135250180000000,-396681470000000,912923740000000,424368850000000,24203160000000,-408568490000000,-46868690000000,230066830000000,250706430000000,-261116400000000,-335152040000000,451030090000000,-359094430000000,-529719480000000,-158943920000000,270433930000000,-9462960000000,404821200000000,-279801050000000,-232727860000000,-277050250000000,193921170000000,-315135350000000,385553710000000,-103607880000000,-159718020000000,408493870000000,78340170000000,-214582250000000,-140636060000000,-37340430000000,537546200000000,-97712690000000,-40841450000000,-267834860000000,208972560000000,667333980000000,-182632150000000,-190571050000000,-563580470000000,384086440000000,184992210000000,-145094490000000,-84290850000000,-280876800000000,537329590000000,107473250000000,54176960000000,16064840000000,-66048530000000,199883620000000,-29495790000000,406283730000000,-303553450000000,-171615000000000,491081180000000,36764690000000,-161349700000000,-246434730000000,269976540000000,153965360000000,178733730000000],"hashrate_average_7d":41848874970416670,"hashrate_average_7d_count":168,"hashrate_block":855209257387147.6,"expected_blocks":45.78,"luck":1.22341157526116,"multipool":33}],"hashblock":{"hashrate_average_100":40391005055147064,"blocks_count":46,"pools":[[878065327285805.8,46,19088376680126.21,"https:\/\/www.poolin.com"],[2011784639246323.5,2,1005892319623161.8,"https:\/\/pool.btc.com"],[855209257387147.6,47,18195941646535.055,"https:\/\/www.f2pool.com"]],"hashrate_block_all":890625362429848.9,"hashrate_block_min":18195941646535.055,"hashrate_block_max":1005892319623161.8,"pool_hashblock_average":347725545983274.3,"ignored":[[2011784639246323.5,2,1005892319623161.8,"https:\/\/pool.btc.com"],[855209257387147.6,47,18195941646535.055,"https:\/\/www.f2pool.com"]],"hashrate_block":878065327285805.8},"time":1664765925,"hashrate":90550000000000000,"difficulty":5101324520.504567,"height":699480,"symbol":"DCR","maxhash":41126000000000000,"poolshash":88505631154319170,"nethash_estimat":87806532728580580,"poolsminers":1737,"supply":{"circulating":14395500.85594186,"total":21000000,"emission24":2946},"block_time_target":300,"block_height_ok":true,"algo":"Blake256R14","hashrate_from_diff":false,"hashrate_src":"https:\/\/lab.antpool.com","unit":"H\/s","block_time_average":267.5,"minerstat":[1.6906648907375e-16,26.112023244857,1.02895847,916],"link":{"coingecko":"decred","cmc":"decred","whattomine":"152-dcr-blake (14r)","coin360":"decred-dcr","coinpaprika":"dcr-decred"},"latest_release":{"tag":"release-v1.7.4","name":"dcrd v1.7.4","t":1659553036},"price":26.08}