{"data":[{"url":"https:\/\/www.okx.com\/pool","hashrate":8190000000000,"miners":-1,"minpay":-1,"id":23,"pool_id":"okx.com","i":1611,"workers":1,"lastblock":630904,"feetype":"PPLNS","fee":2,"country":"HK|Hong Kong","hashrate_average_100_count":80,"hashrate_average_100":9009457031250,"hashrate_average_1h":9057500000000,"history_start":1665283245,"history_interval":3600,"history_addlast":true,"history":[9851500000000,-1652500000000,1252000000000,-732000000000,-303500000000,1257441176000,227773110000,584285714000,-1806250000000,511250000000,-467647059000,-146352941000,534000000000,-668947368000,918447368000,-620000000000,192078947000,-1113453947000,498238636000,1401328672000,-1618942308000,-5750000000,1305500000000,-734500000000,-548210526000,270000000000,1044210526000,-355000000000,-340000000000,-347222222000,941111111000,-142573100000,-1140315789000,976105263000,-932605263000,-195500000000,1241000000000,269000000000,-853500000000,-230500000000,-282000000000,1170500000000,-107000000000,-661000000000,-107000000000,85000000000,466000000000,834000000000,-2150500000000,633000000000,367000000000,896500000000,-255500000000,-114000000000,-412000000000,1477000000000,-1443000000000,1333000000000,-725500000000,-399500000000,-792500000000,513500000000,1672000000000,-1259000000000,492000000000,-924000000000,417500000000,-483000000000,-425500000000,1030500000000,-403500000000,251500000000,737000000000,-495000000000,-407500000000,372000000000,-691500000000,627500000000,-217000000000,417500000000,765000000000,-1319500000000,-800000000000,220000000000,205000000000,834000000000,-42500000000,-839000000000,1239000000000,584500000000,-1136000000000,-684500000000,-121000000000,1465500000000,-534500000000,-281500000000,-254000000000,-248500000000,1199500000000,-336000000000,594000000000,-156500000000,-877000000000,1216000000000,-1339000000000,1040500000000,239500000000,-952000000000,-792500000000,511000000000,719000000000,226500000000,-1450000000000,874000000000,-553500000000,585500000000,175000000000,495000000000,-1330000000000,985000000000,-391000000000,-238000000000,61000000000,106500000000,1528500000000,361500000000,-2576000000000,842500000000,-298500000000,295000000000,-1156000000000,920000000000,38500000000,446000000000,-655000000000,28500000000,287000000000,-520000000000,-58500000000,-420500000000,1575000000000,-787000000000,469000000000,-299500000000,-502000000000,1930000000000,-689000000000,-491000000000,-330000000000,-158500000000,291000000000,-526000000000,136000000000,397000000000,31000000000,666500000000,-937500000000,5000000000,406500000000,-162500000000,42500000000,-925000000000,301000000000,811000000000,-191000000000,152500000000,-675500000000,433000000000],"hashrate_average_7d":8992306473767.86,"hashrate_average_7d_count":168,"expected_blocks":0.01,"multipool":5},{"url":"https:\/\/www2.coinmine.pl\/dcr","hashrate":602866027618195,"miners":-1,"minpay":0.05,"id":5,"pool_id":"coinmine.pl","i":12324,"workers":33,"blocks_nr":5,"lastblock":702401,"lastblocktime":"1665642584","fee":1,"feetype":"PPLNS","height":703239,"country":"WL|EU , US , Asia","blocks_1000":4,"hashrate_average_100_count":80,"hashrate_average_100":557021128436004.8,"hashrate_average_1h":543506187999161,"history_start":1665283245,"history_interval":3600,"history_addlast":true,"history":[551714825000000,6383038000000,-4720960400000,10274481000000,-20278949600000,5168318600000,5839414000000,6792919000000,-23643464800000,3951947800000,14945332100000,-832658400000,-4255796700000,-5551624300000,7026684000000,-36638919400000,24194433600000,-26131669900000,28817658500000,23474537300000,-5192543100000,12418484300000,-20310076600000,1258081000000,-7009648900000,-7628283600000,13880716800000,11698449300000,-9623236900000,-5283545900000,1840342700000,-109371400000,-16316591500000,-6917230000000,16594658000000,21301018000000,-19133851900000,9099154100000,-40098355500000,27252345000000,-12216157600000,215074000000,-6383820500000,13525113000000,22206971900000,-9932477700000,-6623953500000,-329400500000,21673435400000,-8913606700000,6896971000000,-1934109300000,-6547936600000,10098862500000,2795111500000,-8096142600000,-17991226400000,32053330100000,4588820500000,-38319046200000,-10530937500000,25066614500000,-10911089900000,-22806700500000,19000392500000,-25983086400000,11321747900000,3203550800000,-6831698800000,18144863400000,22032613300000,-2238821400000,19150310300000,-13232984700000,9212690400000,62184930800000,25722175100000,2025969400000,-11860395500000,6536303900000,-3527485000000,-10153433200000,6107580300000,-3286691500000,26318849800000,-9469804000000,168914100000,-21864246800000,-26321357000000,-3967444000000,17790257700000,15719473400000,18763956300000,16775119900000,27881108400000,22728766000000,-41829518300000,-39111201600000,32781466600000,-1084676400000,2852178400000,-18828745900000,12388400700000,-16548646000000,17414465100000,33445416300000,-28070639100000,-36088222700000,15133456000000,-16511044800000,-11000098100000,5752287400000,368044300000,16140396800000,-21937869200000,5308547000000,15942903400000,-20120042300000,14204003000000,-20467112600000,111823600000,20876326200000,-23104135400000,19464175100000,-4774051100000,-8994840800000,-1476966500000,24102633700000,-18785449400000,27208964800000,-2039861900000,-32647873200000,33719596100000,-35043695700000,-2161145000000,7853698300000,1799780700000,-15826648100000,2239168500000,16703868400000,6589488800000,-14608942100000,2116054000000,23298062400000,-25056198400000,-1633290600000,26443696700000,-28939416700000,15715024200000,4483895300000,-29623755700000,-78635772600000,-7143692900000,13191081200000,3684076900000,-17141713900000,12985865200000,13600128500000,1660359400000,-9100872200000,-4124697900000,-16906732200000,27785780000000,-5812036400000,15093087600000,5742063900000,-24202653000000,-9197701400000],"hashrate_average_7d":597099084088095,"hashrate_average_7d_count":168,"expected_blocks":0.67,"multipool":6},{"url":"https:\/\/lab.antpool.com","hashrate":2570000000000000,"miners":-1,"minpay":0.1,"id":11,"pool_id":"antpool.com","i":2062,"nethash":94080000000000000,"netdiff":6136938444,"feetype":"PPS","fee":3,"income":3.1903202999999997e-15,"country":"WL|Global","hashrate_average_100_count":80,"hashrate_average_100":2449969726562500,"hashrate_average_1h":2478500000000000,"history_start":1665283245,"history_interval":3600,"history_addlast":true,"history":[2464500000000000,12000000000000,39000000000000,29000000000000,130000000000000,76088235000000,-53445378000000,-60714286000000,51071429000000,-61785714000000,756302000000,81529412000000,-122210526000000,35263158000000,-179552632000000,166000000000000,-23815789000000,88190789000000,-15511364000000,-7902098000000,-27211538000000,47250000000000,38500000000000,63000000000000,-19473684000000,-78421053000000,-8421052000000,49815789000000,-69125000000000,79513889000000,-1111111000000,30380117000000,-6157895000000,-87000000000000,-46500000000000,-31000000000000,22000000000000,37000000000000,-136000000000000,133500000000000,-21500000000000,-75500000000000,122000000000000,-32500000000000,32000000000000,-19000000000000,65500000000000,-62500000000000,31500000000000,-27500000000000,-38500000000000,67500000000000,-25500000000000,-500000000000,81000000000000,-110500000000000,-59500000000000,12500000000000,-8500000000000,31000000000000,-39000000000000,-9000000000000,-147500000000000,109000000000000,26000000000000,5500000000000,-14000000000000,12500000000000,-127000000000000,-10500000000000,77000000000000,-43000000000000,-13500000000000,-40500000000000,36000000000000,95000000000000,10000000000000,-2000000000000,48000000000000,-60000000000000,7000000000000,-17000000000000,-30500000000000,40500000000000,-12500000000000,38000000000000,-181500000000000,101500000000000,-30000000000000,47000000000000,3500000000000,46000000000000,-127000000000000,-58500000000000,-46500000000000,34000000000000,-415000000000000,-2000000000000,75000000000000,10000000000000,122000000000000,31000000000000,189500000000000,6500000000000,0,140000000000000,-48000000000000,-15000000000000,43000000000000,22500000000000,-79500000000000,-4500000000000,-4500000000000,-22000000000000,39500000000000,29000000000000,19500000000000,-5500000000000,11000000000000,-205500000000000,-60500000000000,150000000000000,-21500000000000,-281500000000000,-148500000000000,422000000000000,120500000000000,-100500000000000,126500000000000,-6000000000000,-67000000000000,-13000000000000,7500000000000,-75000000000000,-80000000000000,50500000000000,21500000000000,65500000000000,-54000000000000,-17000000000000,52000000000000,-26500000000000,-6000000000000,-52500000000000,-82500000000000,72000000000000,0,-9000000000000,-46500000000000,163000000000000,44000000000000,-80000000000000,3500000000000,-17500000000000,126500000000000,41500000000000,-9500000000000,-17500000000000,-148000000000000,120500000000000,4000000000000,5500000000000,20000000000000,-1000000000000,-49000000000000,13500000000000,18000000000000,36000000000000],"hashrate_average_7d":2472731168928572,"hashrate_average_7d_count":168,"expected_blocks":2.93,"multipool":16},{"url":"https:\/\/pool.btc.com","hashrate":3453000000000000,"miners":-1,"minpay":0.1,"id":4,"pool_id":"pool.btc.com","feetype":"PPS","i":14338,"workers":82,"income":3.288985687817e-15,"i_blocks":14380,"json_blocks":{"err_no":0,"data":{"blocks":{"current_page":1,"data":[{"height":703238,"is_orphaned":0,"hash":"00000000000000008a0532ebc66b72d06791f254fb5f7f5ed7a67cca4e075dc9","rewards":"1.00336713","size":6971,"prev_hash":"00000000000000008964583cb2b686b72d0a4002a1611946e4112fd73e917128","bits":419476265,"version":9,"created_at":1665889638,"region_id":34,"region_name":"America"},{"height":703173,"is_orphaned":0,"hash":"00000000000000009ff15aa399398c47da5aedf2599800f4f543d6697413010d","rewards":"1.00336713","size":15823,"prev_hash":"0000000000000000069a43ba1cef72edb18b19a392b5326a7dc683fa639c5624","bits":419476265,"version":9,"created_at":1665872800,"region_id":34,"region_name":"America"},{"height":703169,"is_orphaned":0,"hash":"00000000000000007e46a2f55cd71963dc9941a4ba476a69304a02edf460f755","rewards":"1.00336713","size":8954,"prev_hash":"00000000000000001ea5a85a2b6d4d80da7dd93f495e60957d6731e903dff92e","bits":419476265,"version":9,"created_at":1665871741,"region_id":34,"region_name":"America"},{"height":703165,"is_orphaned":0,"hash":"00000000000000000bc6a83b55d8af7cc042c22f0ac0cfe3983e9079d5d510e7","rewards":"1.00336713","size":47726,"prev_hash":"000000000000000073a48bd48d4c24499ef6d38633550748d47646e6c5a0326b","bits":419476265,"version":9,"created_at":1665871171,"region_id":34,"region_name":"America"},{"height":703157,"is_orphaned":0,"hash":"00000000000000008fae372da188527fb242b2b19560f915ace3e85a4e674f4f","rewards":"1.00336713","size":6506,"prev_hash":"00000000000000008410e0b34749896c2b0fc2163f407886e982daa943b87054","bits":419476265,"version":9,"created_at":1665868438,"region_id":36,"region_name":"BitDeer"},{"height":703099,"is_orphaned":0,"hash":"000000000000000070ee0729f101ee38984c7349e34d8f76633158111c545ad4","rewards":"1.00336713","size":46071,"prev_hash":"00000000000000009f65e6a3a17f6fef5bce3a7ad47432c51708707183202e0a","bits":419477607,"version":9,"created_at":1665850654,"region_id":34,"region_name":"America"},{"height":703092,"is_orphaned":0,"hash":"000000000000000032bdf47376a0147cf8acc30e84ccdc3a294f844e9b0e55ec","rewards":"1.00336713","size":9069,"prev_hash":"000000000000000013f6abcc2604b2c404f936a62b7acd843a7f26bc5eab5abf","bits":419477607,"version":9,"created_at":1665848903,"region_id":34,"region_name":"America"},{"height":703082,"is_orphaned":0,"hash":"00000000000000004cdefa15c53cf624074f030714ff0d52d66827803ead6216","rewards":"1.00336713","size":13258,"prev_hash":"00000000000000007288d1714fd7ba3b2ee230a6e051a233838e4951d493cd21","bits":419477607,"version":9,"created_at":1665846764,"region_id":36,"region_name":"BitDeer"},{"height":703034,"is_orphaned":0,"hash":"0000000000000000861eebbdd8589f31730b62bd4e3c4181e2e5fad1db5d1593","rewards":"1.00336713","size":19165,"prev_hash":"000000000000000021dc80c832be193002ef251e0858fc299983e1ba766f8752","bits":419477607,"version":9,"created_at":1665835232,"region_id":36,"region_name":"BitDeer"},{"height":703031,"is_orphaned":0,"hash":"000000000000000008b8a07e2a52c0251b0558953266c866bf3d79b724cdefc4","rewards":"1.00336713","size":9863,"prev_hash":"000000000000000066a0e883eada9eb4ebf15faaca95dea4a1b36d61317ef136","bits":419477607,"version":9,"created_at":1665834653,"region_id":34,"region_name":"America"}],"first_page_url":"https:\/\/eu-api.connectbtc.com\/\/public\/v1\/pool\/blocks\/merge?order_by=desc&page_size=10&page=1","from":1,"last_page":2192,"last_page_url":"https:\/\/eu-api.connectbtc.com\/\/public\/v1\/pool\/blocks\/merge?order_by=desc&page_size=10&page=2192","next_page_url":"https:\/\/eu-api.connectbtc.com\/\/public\/v1\/pool\/blocks\/merge?order_by=desc&page_size=10&page=2","path":"https:\/\/eu-api.connectbtc.com\/\/public\/v1\/pool\/blocks\/merge","per_page":10,"prev_page_url":null,"to":10,"total":21916},"blocks_count":21916,"rewards_count":"190304.49062725"},"trace_id":"dff00cf2-dc07-42e4-a931-78f3ea66fc37"},"blocks_nr":10,"lastblock":703238,"lastblocktime":"1665889619","country":"WL|CN , EU , US","blocks_1000":48,"blocks_count":5,"hashrate_average_100_count":80,"hashrate_average_100":3365419262695312.5,"hashrate_average_1h":3469950000000000,"history_start":1665283245,"history_interval":3600,"history_addlast":true,"history":[3950250000000000,43700000000000,58800000000000,-51250000000000,7450000000000,-47479412000000,315126000000,46214286000000,-47375000000000,-2053571000000,-35806723000000,39835294000000,-32705263000000,14631579000000,-33276316000000,-63850000000000,-10347368000000,-11240132000000,-11721591000000,-28937063000000,23158654000000,-35262500000000,48350000000000,59700000000000,8584211000000,73157894000000,-29263158000000,-43278947000000,-140550000000000,61972222000000,124555556000000,-7383041000000,805263000000,71510526000000,-52610526000000,4350000000000,-32350000000000,-92750000000000,3200000000000,-82850000000000,26650000000000,-22300000000000,-23450000000000,-44050000000000,71850000000000,-2250000000000,73400000000000,165850000000000,24650000000000,30100000000000,-62450000000000,40900000000000,-15800000000000,15100000000000,56200000000000,36350000000000,-46550000000000,66900000000000,-32850000000000,-124400000000000,-248350000000000,-277900000000000,-59300000000000,-8550000000000,25500000000000,-1300000000000,-19800000000000,-44350000000000,89150000000000,5550000000000,40250000000000,111200000000000,-45300000000000,-41400000000000,2650000000000,-79400000000000,-17650000000000,-24900000000000,-21000000000000,-2700000000000,23500000000000,73550000000000,21350000000000,-43950000000000,300000000000,-8450000000000,8050000000000,-38650000000000,-35750000000000,-46650000000000,-19700000000000,-265900000000000,-62350000000000,364750000000000,76850000000000,45800000000000,41050000000000,-82450000000000,63550000000000,-23700000000000,-49600000000000,-51450000000000,15800000000000,85750000000000,-41400000000000,50000000000000,33850000000000,-39750000000000,13650000000000,50000000000000,-48850000000000,-26650000000000,-500000000000,-29600000000000,-16700000000000,6150000000000,31150000000000,56800000000000,-10150000000000,95650000000000,-62200000000000,26350000000000,-68800000000000,41000000000000,3200000000000,-67150000000000,45650000000000,39350000000000,-89250000000000,46700000000000,36350000000000,-33000000000000,-2450000000000,10900000000000,-16250000000000,-32500000000000,-69300000000000,-86550000000000,-33750000000000,51950000000000,56700000000000,24300000000000,-27100000000000,3500000000000,-13950000000000,38850000000000,-50050000000000,-41850000000000,-3600000000000,10600000000000,2700000000000,51800000000000,84600000000000,-65650000000000,-1150000000000,-15450000000000,16300000000000,26950000000000,45450000000000,-45450000000000,-27500000000000,-35750000000000,-33500000000000,-96500000000000,129750000000000,17450000000000,48500000000000,49950000000000],"hashrate_average_7d":3597415901208333.5,"hashrate_average_7d_count":168,"hashrate_block":673083852539062.5,"expected_blocks":4.02,"luck":0.9808178846255755,"multipool":7},{"url":"https:\/\/www.f2pool.com","hashrate":47026949895028450,"miners":-1,"minpay":0.1,"id":14,"pool_id":"f2pool.com","fee":3,"feetype":"PPS%3","i":2444,"income":3.10804404927484e-15,"blocks_nr":9,"lastblock":703237,"lastblocktime":1665889461,"country":"WL|Global","blocks_1000":556,"blocks_count":58,"hashrate_average_100_count":80,"hashrate_average_100":47078271431793500,"hashrate_average_1h":47205491568124160,"history_start":1665283245,"history_interval":3600,"history_addlast":true,"history":[45898220790000000,-216654110000000,-192197250000000,374106750000000,-117372280000000,32050460000000,-450053840000000,250068110000000,127831390000000,80624180000000,-349271190000000,38312140000000,309167260000000,144472630000000,-181799210000000,-69320620000000,-425726600000000,225616520000000,408929280000000,-132784030000000,-497626880000000,69314160000000,-32091440000000,1195643820000000,1404718500000000,-2214556860000000,1843675550000000,-429388770000000,258285300000000,9456400000000,-316052760000000,466027350000000,-88077770000000,48211550000000,-506022970000000,-266919590000000,601104670000000,-89793110000000,139455510000000,-164141230000000,5439630000000,212380860000000,113290050000000,101384100000000,-607054740000000,134891080000000,-190159490000000,-601693700000000,415680170000000,-463960140000000,760328230000000,-8095630000000,252946960000000,-727954740000000,-132092120000000,166824450000000,-97578790000000,544033840000000,-510265620000000,-229867170000000,567802010000000,-93161030000000,-150213800000000,-139469440000000,191591050000000,136112790000000,-310081630000000,102172910000000,-365238300000000,17881750000000,696669750000000,-318429150000000,84972170000000,-229033850000000,204655870000000,-9085650000000,-151238710000000,148402280000000,-477151500000000,677910250000000,-79815580000000,-46683740000000,-62748770000000,-37035870000000,159292430000000,113412620000000,74047530000000,-360552430000000,160611980000000,-149587770000000,23629300000000,453420430000000,-748532040000000,-51300780000000,291793610000000,324348710000000,-475860810000000,-680874850000000,432106470000000,678188030000000,186056110000000,20645850000000,163722640000000,643104950000000,112603680000000,-199466810000000,-322390850000000,93157390000000,432163100000000,7562550000000,-57527040000000,-417086700000000,248037150000000,416109950000000,-165288470000000,-1949598420000000,-4919460040000000,2508078660000000,4056955050000000,123008640000000,13398850000000,-543201200000000,154234080000000,363368240000000,597265640000000,-493344730000000,-339969150000000,419512960000000,-4987840000000,-82172830000000,38050000000,-380593760000000,459437300000000,321615320000000,-24414840000000,-212905330000000,-119042940000000,92396800000000,-5524289190000000,1279099480000000,2276863140000000,-1599669040000000,3121354640000000,79060040000000,212171150000000,-223759700000000,-1210636290000000,-248773330000000,1798837760000000,41898010000000,-491914110000000,305894880000000,-325984180000000,-387501070000000,-284520550000000,-379524670000000,841488830000000,-70645150000000,67152750000000,-263756430000000,-262894700000000,440665270000000,-151441650000000,-64935220000000,-296054600000000,117400910000000,187855990000000,94181310000000],"hashrate_average_7d":46840800471369060,"hashrate_average_7d_count":168,"hashrate_block":811694335030922.5,"expected_blocks":56.22,"luck":1.7763524269285753,"multipool":33},{"url":"https:\/\/www.poolin.com","hashrate":29715000000000000,"miners":-1,"minpay":0.01,"id":3,"pool_id":"poolin.com","fee":3,"feetype":"PPS","i":13399,"json":{"err_no":0,"data":{"shares":{"shares_1m":28.196,"shares_5m":29.715,"shares_15m":28.991,"shares_1h":29.694,"shares_unit":"P"},"reject":{"1m":0,"5m":0,"15m":0.005,"1h":0.0044},"workers":1269,"users":389,"total_blocks":141958,"total_rewards":104376317184428}},"workers":1269,"netdiff":6136938444.202769,"nethash":"87859833048483758","income":3.56149e-15,"blocks_nr":18,"lastblock":703240,"lastblocktime":1665891231,"country":"US|United States","blocks_1000":359,"blocks_count":33,"hashrate_average_100_count":80,"hashrate_average_100":29940885058593748,"hashrate_average_1h":29387700000000000,"history_start":1665283245,"history_interval":3600,"history_addlast":true,"history":[37259100000000000,246850000000000,1110750000000000,-446000000000000,111600000000000,1043288240000000,-339445380000000,-292857150000000,-66035710000000,-288392860000000,224672270000000,143920590000000,74392110000000,-70263160000000,24371050000000,148350000000000,-84563160000000,-283674340000000,381210230000000,-309657350000000,528451290000000,41283330000000,-161600000000000,-74850000000000,60155560000000,-25950300000000,47789480000000,706855260000000,-111750000000000,335722220000000,134111110000000,-209500000000000,-149733330000000,80557890000000,-285507890000000,-1249100000000000,-1269300000000000,738150000000000,-79700000000000,167300000000000,-50700000000000,118550000000000,-369550000000000,186450000000000,219550000000000,-4303250000000000,-3664100000000000,226600000000000,-174400000000000,67200000000000,307350000000000,-54400000000000,-7250000000000,-55650000000000,525750000000000,-196650000000000,127450000000000,-37450000000000,-143200000000000,312750000000000,108050000000000,13250000000000,150300000000000,46950000000000,-98950000000000,-23900000000000,-94100000000000,173500000000000,-217200000000000,-22350000000000,235242110000000,366004040000000,-134246150000000,-322450000000000,-411200000000000,515250000000000,-2191950000000000,-189865380000000,853965380000000,492400000000000,1364700000000000,-1353250000000000,-1611900000000000,78700000000000,1368400000000000,-99550000000000,-57550000000000,-122900000000000,-609700000000000,-176200000000000,-57000000000000,4100000000000,145800000000000,730250000000000,35750000000000,-68600000000000,-284338460000000,292838460000000,-31300000000000,645538460000000,49261540000000,-1023850000000000,2141100000000000,173550000000000,-245300000000000,-471850000000000,528550000000000,-434000000000000,294600000000000,104550000000000,-168050000000000,105250000000000,-138100000000000,-51850000000000,116600000000000,29200000000000,20400000000000,-104550000000000,-368800000000000,-72900000000000,-324800000000000,178500000000000,78200000000000,-675750000000000,-1406400000000000,46053850000000,-53850000000,317450000000000,1711600000000000,934000000000000,-41600000000000,-209200000000000,-46000000000000,126150000000000,214200000000000,-6950000000000,-77700000000000,-124300000000000,71950000000000,-163650000000000,-28600000000000,-3100000000000,127700000000000,44800000000000,115650000000000,-503300000000000,454450000000000,36200000000000,-516850000000000,-435800000000000,-27350000000000,-337950000000000,-176400000000000,500500000000000,71450000000000,-38200000000000,39200000000000,-305550000000000,-171950000000000,41800000000000,-119800000000000,59200000000000,-192400000000000,54650000000000,82450000000000,-116750000000000,-346050000000000,-294350000000000],"hashrate_average_7d":32720661057142856,"hashrate_average_7d_count":168,"hashrate_block":907299547230113.6,"expected_blocks":35.76,"luck":-2.7571703115541553,"multipool":15}],"hashblock":{"hashrate_average_100":80384575753082560,"blocks_count":96,"pools":[[673083852539062.5,5,134616770507812.5,"https:\/\/pool.btc.com"],[811694335030922.5,58,13994729914326.25,"https:\/\/www.f2pool.com"],[907299547230113.6,33,27493925673639.81,"https:\/\/www.poolin.com"]],"hashrate_block_all":837339330761276.6,"hashrate_block_min":13994729914326.25,"hashrate_block_max":134616770507812.5,"pool_hashblock_average":58701808698592.85,"hashrate_block":837339330761276.6},"time":1665891465,"hashrate":94080000000000000,"difficulty":6136938444.202769,"height":703240,"symbol":"DCR","maxhash":47026949895028450,"poolshash":83376005922646640,"nethash_estimat":83733933076127660,"poolsminers":1385,"supply":{"circulating":14429421.53204416,"total":21000000,"emission24":2752},"block_time_target":300,"block_height_ok":true,"algo":"Blake256R14","hashrate_from_diff":false,"hashrate_src":"https:\/\/lab.antpool.com","unit":"H\/s","block_time_average":283.3,"minerstat":[1.3704859594893e-16,25.755830335044,1.00342223,1816],"link":{"coingecko":"decred","cmc":"decred","whattomine":"152-dcr-blake (14r)","coin360":"decred-dcr","coinpaprika":"dcr-decred"},"latest_release":{"tag":"release-v1.7.5","name":"dcrd v1.7.5","t":1665429869},"price":25.77}