{"data":[{"url":"https:\/\/www.okx.com\/pool","hashrate":9650000000000,"miners":-1,"minpay":-1,"id":23,"pool_id":"okx.com","i":1611,"workers":1,"lastblock":630904,"feetype":"PPLNS","fee":2,"country":"HK|Hong Kong","hashrate_average_100_count":73,"hashrate_average_100":8950237585616.438,"hashrate_average_1h":9287000000000,"history_start":1665456045,"history_interval":3600,"history_addlast":true,"history":[7568000000000,633000000000,367000000000,896500000000,-255500000000,-114000000000,-412000000000,1477000000000,-1443000000000,1333000000000,-725500000000,-399500000000,-792500000000,513500000000,1672000000000,-1259000000000,492000000000,-924000000000,417500000000,-483000000000,-425500000000,1030500000000,-403500000000,251500000000,737000000000,-495000000000,-407500000000,372000000000,-691500000000,627500000000,-217000000000,417500000000,765000000000,-1319500000000,-800000000000,220000000000,205000000000,834000000000,-42500000000,-839000000000,1239000000000,584500000000,-1136000000000,-684500000000,-121000000000,1465500000000,-534500000000,-281500000000,-254000000000,-248500000000,1199500000000,-336000000000,594000000000,-156500000000,-877000000000,1216000000000,-1339000000000,1040500000000,239500000000,-952000000000,-792500000000,511000000000,719000000000,226500000000,-1450000000000,874000000000,-553500000000,585500000000,175000000000,495000000000,-1330000000000,985000000000,-391000000000,-238000000000,61000000000,106500000000,1528500000000,361500000000,-2576000000000,842500000000,-298500000000,295000000000,-1156000000000,920000000000,38500000000,446000000000,-655000000000,28500000000,287000000000,-520000000000,-58500000000,-420500000000,1575000000000,-787000000000,469000000000,-299500000000,-502000000000,1930000000000,-689000000000,-491000000000,-330000000000,-158500000000,291000000000,-526000000000,136000000000,397000000000,31000000000,666500000000,-937500000000,5000000000,406500000000,-162500000000,42500000000,-925000000000,301000000000,811000000000,-191000000000,152500000000,-675500000000,433000000000,-1199000000000,944000000000,1274000000000,-1477500000000,-693500000000,1698500000000,-459000000000,-19000000000,-528000000000,320000000000,1027500000000,-909500000000,744500000000,-838500000000,-415000000000,-403500000000,844500000000,1587000000000,-1292000000000,-606500000000,266000000000,625000000000,-562000000000,-431500000000,-160000000000,607000000000,-150500000000,-314000000000,-26000000000,748000000000,-732000000000,1041000000000,-365000000000,-583000000000,1118000000000,-1105500000000,391000000000,354500000000,-595500000000,-141000000000,1500000000000,-710000000000,-316000000000,-861500000000,710500000000,-32500000000,-193500000000,549000000000],"hashrate_average_7d":9040886904761.904,"hashrate_average_7d_count":168,"expected_blocks":0.01,"multipool":5},{"url":"https:\/\/www2.coinmine.pl\/dcr","hashrate":587454205346010,"miners":-1,"minpay":0.05,"id":5,"pool_id":"coinmine.pl","i":12324,"workers":35,"blocks_nr":5,"lastblock":703620,"lastblocktime":"1666010336","fee":1,"feetype":"PPLNS","height":703821,"country":"WL|EU , US , Asia","blocks_1000":6,"hashrate_average_100_count":73,"hashrate_average_100":594244852610943.9,"hashrate_average_1h":593157267080085.5,"history_start":1665456045,"history_interval":3600,"history_addlast":true,"history":[566384843800000,-8913606700000,6896971000000,-1934109300000,-6547936600000,10098862500000,2795111500000,-8096142600000,-17991226400000,32053330100000,4588820500000,-38319046200000,-10530937500000,25066614500000,-10911089900000,-22806700500000,19000392500000,-25983086400000,11321747900000,3203550800000,-6831698800000,18144863400000,22032613300000,-2238821400000,19150310300000,-13232984700000,9212690400000,62184930800000,25722175100000,2025969400000,-11860395500000,6536303900000,-3527485000000,-10153433200000,6107580300000,-3286691500000,26318849800000,-9469804000000,168914100000,-21864246800000,-26321357000000,-3967444000000,17790257700000,15719473400000,18763956300000,16775119900000,27881108400000,22728766000000,-41829518300000,-39111201600000,32781466600000,-1084676400000,2852178400000,-18828745900000,12388400700000,-16548646000000,17414465100000,33445416300000,-28070639100000,-36088222700000,15133456000000,-16511044800000,-11000098100000,5752287400000,368044300000,16140396800000,-21937869200000,5308547000000,15942903400000,-20120042300000,14204003000000,-20467112600000,111823600000,20876326200000,-23104135400000,19464175100000,-4774051100000,-8994840800000,-1476966500000,24102633700000,-18785449400000,27208964800000,-2039861900000,-32647873200000,33719596100000,-35043695700000,-2161145000000,7853698300000,1799780700000,-15826648100000,2239168500000,16703868400000,6589488800000,-14608942100000,2116054000000,23298062400000,-25056198400000,-1633290600000,26443696700000,-28939416700000,15715024200000,4483895300000,-29623755700000,-78635772600000,-7143692900000,13191081200000,3684076900000,-17141713900000,12985865200000,13600128500000,1660359400000,-9100872200000,-4124697900000,-16906732200000,27785780000000,-5812036400000,15093087600000,5742063900000,-24202653000000,-9197701400000,31387056700000,-32972197400000,20863210700000,-15982328500000,16756332200000,-12989547400000,4249570000000,-22558320800000,-4848761200000,30968295900000,-20562332400000,19676274000000,-6305918300000,14184984600000,-2691245200000,-72937571200000,-39524371000000,3327470000000,2066192500000,-1808369300000,5474778300000,-14855822400000,-113305900000,-3217561400000,3840481800000,1809946400000,-9656532600000,13378187100000,-8342516500000,4962953200000,24815600000,-20477725500000,26299809400000,-29281305300000,4907920100000,14877257800000,51549329800000,-24969246800000,-18263500500000,36483878500000,85236913800000,6222827100000,22714418100000,-4173710800000,4511580100000,486880900000,-19886892300000,9808797200000],"hashrate_average_7d":585294025847619,"hashrate_average_7d_count":168,"expected_blocks":0.65,"multipool":6},{"url":"https:\/\/lab.antpool.com","hashrate":2820000000000000,"miners":-1,"minpay":0.1,"id":11,"pool_id":"antpool.com","i":2062,"nethash":1.1413e+17,"netdiff":6260190421,"feetype":"PPS","fee":3,"income":3.1275031e-15,"country":"WL|Global","hashrate_average_100_count":73,"hashrate_average_100":2415049229452055,"hashrate_average_1h":2617000000000000,"history_start":1665456045,"history_interval":3600,"history_addlast":true,"history":[2679000000000000,-27500000000000,-38500000000000,67500000000000,-25500000000000,-500000000000,81000000000000,-110500000000000,-59500000000000,12500000000000,-8500000000000,31000000000000,-39000000000000,-9000000000000,-147500000000000,109000000000000,26000000000000,5500000000000,-14000000000000,12500000000000,-127000000000000,-10500000000000,77000000000000,-43000000000000,-13500000000000,-40500000000000,36000000000000,95000000000000,10000000000000,-2000000000000,48000000000000,-60000000000000,7000000000000,-17000000000000,-30500000000000,40500000000000,-12500000000000,38000000000000,-181500000000000,101500000000000,-30000000000000,47000000000000,3500000000000,46000000000000,-127000000000000,-58500000000000,-46500000000000,34000000000000,-415000000000000,-2000000000000,75000000000000,10000000000000,122000000000000,31000000000000,189500000000000,6500000000000,0,140000000000000,-48000000000000,-15000000000000,43000000000000,22500000000000,-79500000000000,-4500000000000,-4500000000000,-22000000000000,39500000000000,29000000000000,19500000000000,-5500000000000,11000000000000,-205500000000000,-60500000000000,150000000000000,-21500000000000,-281500000000000,-148500000000000,422000000000000,120500000000000,-100500000000000,126500000000000,-6000000000000,-67000000000000,-13000000000000,7500000000000,-75000000000000,-80000000000000,50500000000000,21500000000000,65500000000000,-54000000000000,-17000000000000,52000000000000,-26500000000000,-6000000000000,-52500000000000,-82500000000000,72000000000000,0,-9000000000000,-46500000000000,163000000000000,44000000000000,-80000000000000,3500000000000,-17500000000000,126500000000000,41500000000000,-9500000000000,-17500000000000,-148000000000000,120500000000000,4000000000000,5500000000000,20000000000000,-1000000000000,-49000000000000,13500000000000,18000000000000,36000000000000,18500000000000,47000000000000,9000000000000,1500000000000,-44500000000000,-88500000000000,-56000000000000,-11500000000000,12500000000000,14000000000000,16500000000000,10500000000000,-18000000000000,35500000000000,-158500000000000,41500000000000,83500000000000,-50500000000000,62000000000000,-16000000000000,-24500000000000,23500000000000,33500000000000,-36000000000000,-6000000000000,33500000000000,-53000000000000,80000000000000,11500000000000,-117000000000000,143500000000000,5000000000000,-47000000000000,56000000000000,-22500000000000,-22500000000000,-19500000000000,-23000000000000,-173000000000000,58500000000000,55000000000000,44000000000000,27500000000000,-18000000000000,-48000000000000,-25500000000000,162000000000000,132000000000000],"hashrate_average_7d":2406574404761906,"hashrate_average_7d_count":168,"expected_blocks":2.66,"multipool":16},{"url":"https:\/\/pool.btc.com","hashrate":3446000000000000,"miners":-1,"minpay":0.1,"id":4,"pool_id":"pool.btc.com","feetype":"PPS","i":14338,"workers":76,"income":3.224231429099e-15,"i_blocks":14380,"json_blocks":{"err_no":0,"data":{"blocks":{"current_page":1,"data":[{"height":703821,"is_orphaned":0,"hash":"00000000000000002354494d13f443572c5207d0ec7204c78038c31b3a74d726","rewards":"1.00336713","size":12636,"prev_hash":"00000000000000001e25d3b6a1b22933a348d5f824b8875fcb95f27c107c7607","bits":419475362,"version":9,"created_at":1666063871,"region_id":34,"region_name":"America"},{"height":703786,"is_orphaned":0,"hash":"000000000000000060a42b7d4bbd3a6a4620f561220d762390b2fbb457b65c44","rewards":"1.00336713","size":12814,"prev_hash":"0000000000000000971bb578984cfe5dd762508846038ae6b2df26cac760b04c","bits":419475362,"version":9,"created_at":1666052890,"region_id":34,"region_name":"America"},{"height":703767,"is_orphaned":0,"hash":"00000000000000003ee16f8b158672e787094aeac128a626376311f6956b93ca","rewards":"1.00336713","size":18054,"prev_hash":"00000000000000009addb23ba693e4bd7bcb842afd9d25795dbb183cd908e551","bits":419475362,"version":9,"created_at":1666049906,"region_id":36,"region_name":"BitDeer"},{"height":703745,"is_orphaned":0,"hash":"0000000000000000a63376f6e5960697123323a08c983015eed23dc725c9ced3","rewards":"0.80269370","size":3224,"prev_hash":"00000000000000009932848bb1ad787e2213d4787e6399e5eb002b081bdd11cd","bits":419475362,"version":9,"created_at":1666044141,"region_id":34,"region_name":"America"},{"height":703723,"is_orphaned":0,"hash":"0000000000000000846e8e5188123db74f29780ca5deb3c2599f35990196fe8e","rewards":"1.00336713","size":32458,"prev_hash":"000000000000000067e458f1ed27bf7288ac2561ba30b21845b2d66f7f7f7078","bits":419475111,"version":9,"created_at":1666039439,"region_id":34,"region_name":"America"},{"height":703700,"is_orphaned":0,"hash":"000000000000000092399679e65b0a3e0cc0f096593a22323f6fbb0b476f1eff","rewards":"1.00336713","size":11124,"prev_hash":"000000000000000026dfbcceebc52c3e5aaae880e556c87d5bd698201f473e79","bits":419475111,"version":9,"created_at":1666034030,"region_id":36,"region_name":"BitDeer"},{"height":703659,"is_orphaned":0,"hash":"00000000000000000435e96fb781be9c277603950ccad0c49e03024603cb9897","rewards":"1.00336713","size":14571,"prev_hash":"000000000000000002a9f5a2905a17e8fe106d27ad2f96e4549387fb491586c6","bits":419475111,"version":9,"created_at":1666022764,"region_id":34,"region_name":"America"},{"height":703628,"is_orphaned":0,"hash":"0000000000000000a907a754bcd9c54cca5aa69628c12897e021751384d62eb4","rewards":"1.00336713","size":18472,"prev_hash":"000000000000000077da7645d90767e6adce60ecaeb24f6e69f3df064cc8ad92","bits":419475111,"version":9,"created_at":1666012798,"region_id":34,"region_name":"America"},{"height":703594,"is_orphaned":0,"hash":"00000000000000007c213cbdd1f396658f968d11528a4a54d72d332d6998e63c","rewards":"1.00336713","size":2922,"prev_hash":"00000000000000000dfbbb82664f6024657ceb9ee21d7f62cadc8a393585fc23","bits":419475111,"version":9,"created_at":1666000906,"region_id":34,"region_name":"America"},{"height":703570,"is_orphaned":0,"hash":"000000000000000098613b8ecb5189d3808c08adc562badc139ba2ed50681a34","rewards":"1.00336713","size":6853,"prev_hash":"00000000000000001b809f9d1c13c62a1d366d25a54ae5fbbf0feed74e482079","bits":419472674,"version":9,"created_at":1665993734,"region_id":36,"region_name":"BitDeer"}],"first_page_url":"https:\/\/eu-api.connectbtc.com\/\/public\/v1\/pool\/blocks\/merge?order_by=desc&page_size=10&page=1","from":1,"last_page":2195,"last_page_url":"https:\/\/eu-api.connectbtc.com\/\/public\/v1\/pool\/blocks\/merge?order_by=desc&page_size=10&page=2195","next_page_url":"https:\/\/eu-api.connectbtc.com\/\/public\/v1\/pool\/blocks\/merge?order_by=desc&page_size=10&page=2","path":"https:\/\/eu-api.connectbtc.com\/\/public\/v1\/pool\/blocks\/merge","per_page":10,"prev_page_url":null,"to":10,"total":21944},"blocks_count":21944,"rewards_count":"190332.38423346"},"trace_id":"76eafef4-854f-4857-8301-650dba7f8a08"},"blocks_nr":10,"lastblock":703821,"lastblocktime":"1666063871","country":"WL|CN , EU , US","blocks_1000":48,"blocks_count":5,"hashrate_average_100_count":73,"hashrate_average_100":3329929152397260.5,"hashrate_average_1h":3428750000000000,"history_start":1665456045,"history_interval":3600,"history_addlast":true,"history":[4018550000000000,30100000000000,-62450000000000,40900000000000,-15800000000000,15100000000000,56200000000000,36350000000000,-46550000000000,66900000000000,-32850000000000,-124400000000000,-248350000000000,-277900000000000,-59300000000000,-8550000000000,25500000000000,-1300000000000,-19800000000000,-44350000000000,89150000000000,5550000000000,40250000000000,111200000000000,-45300000000000,-41400000000000,2650000000000,-79400000000000,-17650000000000,-24900000000000,-21000000000000,-2700000000000,23500000000000,73550000000000,21350000000000,-43950000000000,300000000000,-8450000000000,8050000000000,-38650000000000,-35750000000000,-46650000000000,-19700000000000,-265900000000000,-62350000000000,364750000000000,76850000000000,45800000000000,41050000000000,-82450000000000,63550000000000,-23700000000000,-49600000000000,-51450000000000,15800000000000,85750000000000,-41400000000000,50000000000000,33850000000000,-39750000000000,13650000000000,50000000000000,-48850000000000,-26650000000000,-500000000000,-29600000000000,-16700000000000,6150000000000,31150000000000,56800000000000,-10150000000000,95650000000000,-62200000000000,26350000000000,-68800000000000,41000000000000,3200000000000,-67150000000000,45650000000000,39350000000000,-89250000000000,46700000000000,36350000000000,-33000000000000,-2450000000000,10900000000000,-16250000000000,-32500000000000,-69300000000000,-86550000000000,-33750000000000,51950000000000,56700000000000,24300000000000,-27100000000000,3500000000000,-13950000000000,38850000000000,-50050000000000,-41850000000000,-3600000000000,10600000000000,2700000000000,51800000000000,84600000000000,-65650000000000,-1150000000000,-15450000000000,16300000000000,26950000000000,45450000000000,-45450000000000,-27500000000000,-35750000000000,-33500000000000,-96500000000000,129750000000000,17450000000000,48500000000000,49950000000000,-37200000000000,23200000000000,-48950000000000,-38500000000000,30250000000000,-38950000000000,53200000000000,100850000000000,-4050000000000,55150000000000,-74850000000000,-25500000000000,-31250000000000,-27500000000000,-40800000000000,2450000000000,8800000000000,-39650000000000,-30800000000000,31950000000000,-22550000000000,72950000000000,-10350000000000,57800000000000,33050000000000,-97400000000000,1150000000000,-35200000000000,14600000000000,19000000000000,-8850000000000,-20300000000000,140400000000000,-38300000000000,-10850000000000,59400000000000,-48500000000000,-28050000000000,25700000000000,-84750000000000,-36850000000000,2950000000000,950000000000,-34300000000000,25700000000000,29150000000000,-27450000000000,111850000000000],"hashrate_average_7d":3457596130952381,"hashrate_average_7d_count":168,"hashrate_block":665985830479452.1,"expected_blocks":3.67,"luck":1.333461892890976,"multipool":7},{"url":"https:\/\/www.f2pool.com","hashrate":45132943341454740,"miners":-1,"minpay":0.1,"id":14,"pool_id":"f2pool.com","fee":3,"feetype":"PPS%3","i":2444,"income":3.046852208514017e-15,"blocks_nr":9,"lastblock":703820,"lastblocktime":1666063778,"country":"WL|Global","blocks_1000":547,"blocks_count":53,"hashrate_average_100_count":73,"hashrate_average_100":47304766127623070,"hashrate_average_1h":45274597885352830,"history_start":1665456045,"history_interval":3600,"history_addlast":true,"history":[46769599770000000,-463960140000000,760328230000000,-8095630000000,252946960000000,-727954740000000,-132092120000000,166824450000000,-97578790000000,544033840000000,-510265620000000,-229867170000000,567802010000000,-93161030000000,-150213800000000,-139469440000000,191591050000000,136112790000000,-310081630000000,102172910000000,-365238300000000,17881750000000,696669750000000,-318429150000000,84972170000000,-229033850000000,204655870000000,-9085650000000,-151238710000000,148402280000000,-477151500000000,677910250000000,-79815580000000,-46683740000000,-62748770000000,-37035870000000,159292430000000,113412620000000,74047530000000,-360552430000000,160611980000000,-149587770000000,23629300000000,453420430000000,-748532040000000,-51300780000000,291793610000000,324348710000000,-475860810000000,-680874850000000,432106470000000,678188030000000,186056110000000,20645850000000,163722640000000,643104950000000,112603680000000,-199466810000000,-322390850000000,93157390000000,432163100000000,7562550000000,-57527040000000,-417086700000000,248037150000000,416109950000000,-165288470000000,-1949598420000000,-4919460040000000,2508078660000000,4056955050000000,123008640000000,13398850000000,-543201200000000,154234080000000,363368240000000,597265640000000,-493344730000000,-339969150000000,419512960000000,-4987840000000,-82172830000000,38050000000,-380593760000000,459437300000000,321615320000000,-24414840000000,-212905330000000,-119042940000000,92396800000000,-5524289190000000,1279099480000000,2276863140000000,-1599669040000000,3121354640000000,79060040000000,212171150000000,-223759700000000,-1210636290000000,-248773330000000,1798837760000000,41898010000000,-491914110000000,305894880000000,-325984180000000,-387501070000000,-284520550000000,-379524670000000,841488830000000,-70645150000000,67152750000000,-263756430000000,-262894700000000,440665270000000,-151441650000000,-64935220000000,-296054600000000,117400910000000,187855990000000,94181310000000,-42442930000000,-77908940000000,523750060000000,109939640000000,-110564580000000,164242490000000,-385224130000000,770826670000000,53833910000000,-286878770000000,-211696380000000,-278568950000000,686264820000000,-88868050000000,315615870000000,-423590960000000,43352190000000,361962840000000,-37823370000000,149448810000000,-641767760000000,61054190000000,-541088640000000,-575186980000000,57254970000000,-4247693800000000,3802443260000000,319259870000000,486280930000000,849023830000000,-484271450000000,164936530000000,340091210000000,356080000000,104047450000000,-514726860000000,750188470000000,36444530000000,40755830000000,-371515370000000,48384810000000,480755920000000,14496850000000,-547639970000000,-475485700000000,-729178660000000,-1916646490000000,322863030000000],"hashrate_average_7d":47168644898452376,"hashrate_average_7d_count":168,"hashrate_block":892542757124963.6,"expected_blocks":52.09,"luck":0.9133880281071498,"multipool":33},{"url":"https:\/\/www.poolin.com","hashrate":36933000000000000,"miners":-1,"minpay":0.01,"id":3,"pool_id":"poolin.com","fee":3,"feetype":"PPS","i":13399,"json":{"err_no":0,"data":{"shares":{"shares_1m":35.671,"shares_5m":36.933,"shares_15m":37.237,"shares_1h":36.575,"shares_unit":"P"},"reject":{"1m":0,"5m":0,"15m":0.0022,"1h":0.0035},"workers":1509,"users":384,"total_blocks":142166,"total_rewards":104397147086046}},"workers":1509,"netdiff":6260190421.764156,"nethash":"89624377083091572","income":3.49137e-15,"blocks_nr":19,"lastblock":703818,"lastblocktime":"1666063101","country":"US|United States","blocks_1000":367,"blocks_count":38,"hashrate_average_100_count":73,"hashrate_average_100":36551961258561640,"hashrate_average_1h":36254100000000000,"history_start":1665456045,"history_interval":3600,"history_addlast":true,"history":[30000150000000000,67200000000000,307350000000000,-54400000000000,-7250000000000,-55650000000000,525750000000000,-196650000000000,127450000000000,-37450000000000,-143200000000000,312750000000000,108050000000000,13250000000000,150300000000000,46950000000000,-98950000000000,-23900000000000,-94100000000000,173500000000000,-217200000000000,-22350000000000,235242110000000,366004040000000,-134246150000000,-322450000000000,-411200000000000,515250000000000,-2191950000000000,-189865380000000,853965380000000,492400000000000,1364700000000000,-1353250000000000,-1611900000000000,78700000000000,1368400000000000,-99550000000000,-57550000000000,-122900000000000,-609700000000000,-176200000000000,-57000000000000,4100000000000,145800000000000,730250000000000,35750000000000,-68600000000000,-284338460000000,292838460000000,-31300000000000,645538460000000,49261540000000,-1023850000000000,2141100000000000,173550000000000,-245300000000000,-471850000000000,528550000000000,-434000000000000,294600000000000,104550000000000,-168050000000000,105250000000000,-138100000000000,-51850000000000,116600000000000,29200000000000,20400000000000,-104550000000000,-368800000000000,-72900000000000,-324800000000000,178500000000000,78200000000000,-675750000000000,-1406400000000000,46053850000000,-53850000000,317450000000000,1711600000000000,934000000000000,-41600000000000,-209200000000000,-46000000000000,126150000000000,214200000000000,-6950000000000,-77700000000000,-124300000000000,71950000000000,-163650000000000,-28600000000000,-3100000000000,127700000000000,44800000000000,115650000000000,-503300000000000,454450000000000,36200000000000,-516850000000000,-435800000000000,-27350000000000,-337950000000000,-176400000000000,500500000000000,71450000000000,-38200000000000,39200000000000,-305550000000000,-171950000000000,41800000000000,-119800000000000,59200000000000,-192400000000000,54650000000000,82450000000000,-116750000000000,-346050000000000,-294350000000000,724510530000000,108039470000000,-970500000000000,838050000000000,39100000000000,228750000000000,216150000000000,-145050000000000,-7150000000000,-234450000000000,-75000000000000,-46550000000000,72450000000000,-121300000000000,67600000000000,-72100000000000,-189750000000000,-181300000000000,291900000000000,-37950000000000,-171000000000000,-361700000000000,-175800000000000,222900000000000,372500000000000,-668150000000000,511200000000000,-590550000000000,247950000000000,308450000000000,404900000000000,533050000000000,-809515380000000,1060915380000000,385050000000000,2874800000000000,1802850000000000,717300000000000,-45500000000000,-258650000000000,110500000000000,224350000000000,84250000000000,-27450000000000,-178300000000000,-87500000000000,380600000000000,-506500000000000],"hashrate_average_7d":30850819177857132,"hashrate_average_7d_count":168,"hashrate_block":961893717330569.5,"expected_blocks":40.25,"luck":-2.246849920998109,"multipool":15}],"hashblock":{"hashrate_average_100":87186656538581980,"blocks_count":96,"pools":[[665985830479452.1,5,133197166095890.42,"https:\/\/pool.btc.com"],[892542757124963.6,53,16840429379716.295,"https:\/\/www.f2pool.com"],[961893717330569.5,38,25312992561330.777,"https:\/\/www.poolin.com"]],"hashrate_block_all":908194338943562.4,"hashrate_block_min":16840429379716.295,"hashrate_block_max":133197166095890.42,"pool_hashblock_average":58450196012312.5,"hashrate_block":908194338943562.4},"time":1666064264,"hashrate":1.1413e+17,"difficulty":6260190421.764156,"height":703821,"symbol":"DCR","maxhash":45132943341454740,"poolshash":88929047546800740,"nethash_estimat":90819433894356240,"poolsminers":1621,"supply":{"circulating":14434648.2721035,"total":21000000,"emission24":2709},"block_time_target":300,"block_height_ok":true,"algo":"Blake256R14","hashrate_from_diff":false,"hashrate_src":"https:\/\/lab.antpool.com","unit":"H\/s","block_time_average":287,"minerstat":[1.3484090770662e-16,26.810079697714,1.00708603,3257],"link":{"coingecko":"decred","cmc":"decred","whattomine":"152-dcr-blake (14r)","coin360":"decred-dcr","coinpaprika":"dcr-decred"},"latest_release":{"tag":"release-v1.7.5","name":"dcrd v1.7.5","t":1665429869},"price":26.64}