{"data":[{"url":"https:\/\/www.okx.com\/pool","hashrate":9330000000000,"miners":-1,"minpay":-1,"id":23,"pool_id":"okx.com","i":1612,"workers":1,"lastblock":630904,"feetype":"PPLNS","fee":2,"country":"HK|Hong Kong","hashrate_average_100_count":74,"hashrate_average_100":9668338260135.135,"hashrate_average_1h":10167647058823.53,"history_start":1665888045,"history_interval":3600,"history_addlast":true,"history":[7858500000000,944000000000,1274000000000,-1477500000000,-693500000000,1698500000000,-459000000000,-19000000000,-528000000000,320000000000,1027500000000,-909500000000,744500000000,-838500000000,-415000000000,-403500000000,844500000000,1587000000000,-1292000000000,-606500000000,266000000000,625000000000,-562000000000,-431500000000,-160000000000,607000000000,-150500000000,-314000000000,-26000000000,748000000000,-732000000000,1041000000000,-365000000000,-583000000000,1118000000000,-1105500000000,391000000000,354500000000,-595500000000,-141000000000,1500000000000,-710000000000,-316000000000,-861500000000,710500000000,-32500000000,-193500000000,549000000000,222000000000,-641500000000,718500000000,-1126000000000,-662000000000,1490000000000,164500000000,-1086500000000,799500000000,69500000000,-487500000000,1029500000000,-280500000000,-565500000000,282000000000,-1125000000000,1171500000000,-924000000000,-389000000000,272000000000,1272000000000,-1933000000000,2110500000000,-662500000000,-745000000000,1460500000000,365000000000,-727111111000,-481888889000,14000000000,-294000000000,823000000000,-51500000000,803000000000,-344000000000,-625000000000,-832000000000,1572000000000,-795000000000,366500000000,-274000000000,-889500000000,123500000000,-34500000000,769500000000,56500000000,-1834000000000,1063500000000,387500000000,361000000000,-515500000000,364000000000,1597000000000,-2029500000000,-147000000000,-445500000000,1963500000000,-1326000000000,-270000000000,43500000000,81000000000,116500000000,-131000000000,-91500000000,6000000000,1385000000000,-352000000000,-154000000000,879500000000,-1000000000,-1450000000000,-275500000000,-62000000000,218500000000,27000000000,-748184211000,673184211000,2015500000000,-787500000000,-871000000000,892000000000,-419500000000,264500000000,-926500000000,-72500000000,1679500000000,-242000000000,-1652000000000,1023000000000,-102000000000,957000000000,-1770500000000,1512500000000,-994000000000,-1110500000000,138000000000,1134500000000,105500000000,-3227500000000,2479625000000,-79125000000,195500000000,536000000000,-120500000000,-76000000000,54500000000,153000000000,-766500000000,1837000000000,-2041500000000,564000000000,-496500000000,862000000000,666000000000,-373000000000,-911500000000,333000000000,741000000000,801000000000,-336352940000],"hashrate_average_7d":9034038552011.904,"hashrate_average_7d_count":168,"expected_blocks":0.01,"multipool":5},{"url":"https:\/\/www2.coinmine.pl\/dcr","hashrate":538448507510456,"miners":-1,"minpay":0.05,"id":5,"pool_id":"coinmine.pl","i":12326,"workers":28,"blocks_nr":5,"lastblock":705053,"lastblocktime":"1666441763","fee":1,"feetype":"PPLNS","height":705252,"country":"WL|EU , US , Asia","blocks_1000":1,"hashrate_average_100_count":74,"hashrate_average_100":518790410992393,"hashrate_average_1h":539086587105943.5,"history_start":1665888045,"history_interval":3600,"history_addlast":true,"history":[574893244700000,-32972197400000,20863210700000,-15982328500000,16756332200000,-12989547400000,4249570000000,-22558320800000,-4848761200000,30968295900000,-20562332400000,19676274000000,-6305918300000,14184984600000,-2691245200000,-72937571200000,-39524371000000,3327470000000,2066192500000,-1808369300000,5474778300000,-14855822400000,-113305900000,-3217561400000,3840481800000,1809946400000,-9656532600000,13378187100000,-8342516500000,4962953200000,24815600000,-20477725500000,26299809400000,-29281305300000,4907920100000,14877257800000,51549329800000,-24969246800000,-18263500500000,36483878500000,85236913800000,6222827100000,22714418100000,-4173710800000,4511580100000,486880900000,-19886892300000,9808797200000,1621378900000,-2110128500000,7470288800000,-12696986200000,-2144555900000,3008820800000,-33320069800000,35730187200000,12918176700000,-30131951300000,9775549800000,-10682188800000,36326811000000,-2932269800000,-34647090700000,26893850700000,-14528240000000,-23648975700000,-9491971900000,-9299065500000,4075638300000,24338281300000,-30860217300000,2287934000000,-8432054800000,8567230600000,-6902788500000,-8754780300000,24240772100000,-3560726200000,-2684622200000,-9019486300000,25953730400000,-24910049800000,-12719702100000,24896839200000,11791052200000,-15730961000000,-1620195200000,5875129400000,-20542591200000,19570846400000,-3944033200000,-950282000000,23734542100000,-29340996600000,2550181900000,4727860600000,1395568200000,9038118200000,-1319097400000,-9538007900000,4450995500000,12845538100000,-19181047700000,3567588400000,-6359400000000,-3620186400000,9418160000000,4652415100000,-39775088200000,-3727515700000,28960351300000,-15715595500000,-246206200000,349531100000,16145285800000,-17347152900000,18786639100000,-7763064100000,12588228700000,-3804455500000,14640787400000,-8588955300000,-7177440300000,4188009800000,-11152488700000,-3184173900000,32735430800000,-15090003700000,9932286100000,-7164245900000,-14079329500000,22675345200000,5842723800000,-7564813900000,-2276114600000,8085511900000,-22779624200000,-12227487300000,-4902011800000,-28306616400000,11702471900000,7518015300000,1184853200000,20644434900000,21706693300000,-21569704100000,8153847900000,14987411500000,-5677641900000,-21668192700000,4584542000000,6307918200000,4178219300000,7930206600000,-21181483500000,26859857100000,-11571904600000,-25728660800000,-25981899900000,11269504700000,-13243941300000,21355841100000,7527154900000,8881643200000,-23640877000000,7711934800000,-4321203900000,29853766700000],"hashrate_average_7d":533404854402381,"hashrate_average_7d_count":168,"expected_blocks":0.65,"multipool":6},{"url":"https:\/\/lab.antpool.com","hashrate":4610000000000000,"miners":-1,"minpay":0.1,"id":11,"pool_id":"antpool.com","i":2063,"nethash":1.0484e+17,"netdiff":5757224007,"feetype":"PPS","fee":3,"income":3.4007327e-15,"country":"WL|Global","hashrate_average_100_count":74,"hashrate_average_100":4409717060810811,"hashrate_average_1h":4575882352941176,"history_start":1665888045,"history_interval":3600,"history_addlast":true,"history":[2497000000000000,47000000000000,9000000000000,1500000000000,-44500000000000,-88500000000000,-56000000000000,-11500000000000,12500000000000,14000000000000,16500000000000,10500000000000,-18000000000000,35500000000000,-158500000000000,41500000000000,83500000000000,-50500000000000,62000000000000,-16000000000000,-24500000000000,23500000000000,33500000000000,-36000000000000,-6000000000000,33500000000000,-53000000000000,80000000000000,11500000000000,-117000000000000,143500000000000,5000000000000,-47000000000000,56000000000000,-22500000000000,-22500000000000,-19500000000000,-23000000000000,-173000000000000,58500000000000,55000000000000,44000000000000,27500000000000,-18000000000000,-48000000000000,-25500000000000,162000000000000,132000000000000,-52000000000000,-65000000000000,46500000000000,-30000000000000,-392000000000000,24500000000000,10000000000000,-16000000000000,-94000000000000,76000000000000,-85500000000000,75000000000000,-17000000000000,10000000000000,-212000000000000,178500000000000,-11500000000000,-8500000000000,7500000000000,61500000000000,-95000000000000,42000000000000,42500000000000,24500000000000,-2500000000000,-50500000000000,-248000000000000,-252666667000000,248166667000000,18500000000000,-55500000000000,23500000000000,-2000000000000,-6000000000000,500000000000,3000000000000,18000000000000,25000000000000,-6500000000000,4500000000000,-2000000000000,34500000000000,8500000000000,-21500000000000,23000000000000,-43000000000000,-11000000000000,14000000000000,47000000000000,-21500000000000,-44000000000000,45000000000000,-15500000000000,-74000000000000,-27000000000000,24500000000000,-7000000000000,-38500000000000,1388000000000000,1031500000000000,-5500000000000,17000000000000,-121500000000000,9000000000000,24000000000000,159000000000000,-117500000000000,49000000000000,-102000000000000,187000000000000,-179500000000000,181500000000000,-128500000000000,-134000000000000,107000000000000,67394737000000,-50894737000000,70500000000000,-142500000000000,79000000000000,-90000000000000,167000000000000,-9000000000000,-43000000000000,17500000000000,-91000000000000,-83500000000000,-30500000000000,-9000000000000,55500000000000,16000000000000,21000000000000,128000000000000,200000000000000,64500000000000,49000000000000,114500000000000,-167000000000000,-158500000000000,43250000000000,121250000000000,85500000000000,-30500000000000,54500000000000,21500000000000,-114500000000000,54000000000000,-14500000000000,-43500000000000,-30500000000000,-110000000000000,9500000000000,71000000000000,-13500000000000,14000000000000,21500000000000,-57000000000000,-40500000000000,88000000000000,160882353000000],"hashrate_average_7d":2936874169184525,"hashrate_average_7d_count":168,"expected_blocks":5.54,"multipool":16},{"url":"https:\/\/pool.btc.com","hashrate":3282000000000000,"miners":-1,"minpay":0.1,"id":4,"pool_id":"pool.btc.com","feetype":"PPS","i":14340,"workers":76,"income":3.505908869015e-15,"i_blocks":14382,"json_blocks":{"err_no":0,"data":{"blocks":{"current_page":1,"data":[{"height":705183,"is_orphaned":0,"hash":"0000000000000000ba48086e980be62f709361841d8928089ceb8008dbd5756c","rewards":"1.00336713","size":5073,"prev_hash":"00000000000000002cbff926b7afd5fb3c24d319840387b74d3c5cedd1e7b73f","bits":419479290,"version":9,"created_at":1666478526,"region_id":34,"region_name":"America"},{"height":705136,"is_orphaned":0,"hash":"0000000000000000a308341f992f618d4c527525fbb9f5b8a94e2b427eba852d","rewards":"1.00336713","size":4826,"prev_hash":"0000000000000000057ec98e751586b771a82ce0efb3c46a3c9d0cffbac1b0aa","bits":419480881,"version":9,"created_at":1666467388,"region_id":34,"region_name":"America"},{"height":705111,"is_orphaned":0,"hash":"000000000000000006c2b617ab96b228c42d9bf81678b24395f5099ec6b6a040","rewards":"1.00336713","size":2370,"prev_hash":"0000000000000000a7b75be05c4b0b2c12de9bb047f4a621f3fa350068d13d13","bits":419480881,"version":9,"created_at":1666460590,"region_id":34,"region_name":"America"},{"height":705095,"is_orphaned":0,"hash":"000000000000000077df9e384ce029ab682263abc5e9d5778c042316c05c045e","rewards":"1.00336713","size":55053,"prev_hash":"0000000000000000ab2246f59566f72d028046742929177941d36c8a6fd5b569","bits":419480881,"version":9,"created_at":1666455571,"region_id":34,"region_name":"America"},{"height":705014,"is_orphaned":0,"hash":"0000000000000000829deabeffd5314bb2e88576271044ddf4d886949b129dde","rewards":"1.00336713","size":36268,"prev_hash":"0000000000000000a63a3701287aa491c0f39c4bc9e30ac07bc9e675183a8132","bits":419481214,"version":9,"created_at":1666429973,"region_id":34,"region_name":"America"},{"height":704946,"is_orphaned":0,"hash":"00000000000000005bcc2e0f9fcfc2fe86b521bbb92302145f6f7433baad8eee","rewards":"1.00336713","size":6863,"prev_hash":"000000000000000041e3a84cfdd33df581622e32f77e3868bede8eb6237a8d02","bits":419481214,"version":9,"created_at":1666411568,"region_id":36,"region_name":"BitDeer"},{"height":704924,"is_orphaned":0,"hash":"00000000000000006b3dd614b395242f3a98364525c6abcd94cc98bec2228bfb","rewards":"1.00336713","size":39127,"prev_hash":"000000000000000041c3a92b19e475acf1c1e937e331a0063821b41d5e68d277","bits":419481214,"version":9,"created_at":1666404212,"region_id":34,"region_name":"America"},{"height":704917,"is_orphaned":0,"hash":"0000000000000000c450ee78ce63bb9098a2f67c50fe4d688811832eb66a7fef","rewards":"1.00336713","size":21042,"prev_hash":"0000000000000000b9b358b846964ea20131737013143ddd9da9fd74a1245bbb","bits":419481214,"version":9,"created_at":1666400174,"region_id":34,"region_name":"America"},{"height":704897,"is_orphaned":0,"hash":"000000000000000057979c35dbae61dfddb21a075245c44cf347e2552d747877","rewards":"1.00336713","size":11430,"prev_hash":"00000000000000000f8f707e8cc7df5a64b2ff14ca4e8c472dd7d1c0e294a032","bits":419481214,"version":9,"created_at":1666391262,"region_id":34,"region_name":"America"},{"height":704861,"is_orphaned":0,"hash":"000000000000000018a5b61a50defd65c1fcd3369ff6b28d1039f82b3180e745","rewards":"1.00336713","size":7366,"prev_hash":"0000000000000000243382086cfa1da23c4f8cf12a80631a6ecf1396b69b2847","bits":419484938,"version":9,"created_at":1666385226,"region_id":36,"region_name":"BitDeer"}],"first_page_url":"https:\/\/eu-api.connectbtc.com\/\/public\/v1\/pool\/blocks\/merge?order_by=desc&page_size=10&page=1","from":1,"last_page":2200,"last_page_url":"https:\/\/eu-api.connectbtc.com\/\/public\/v1\/pool\/blocks\/merge?order_by=desc&page_size=10&page=2200","next_page_url":"https:\/\/eu-api.connectbtc.com\/\/public\/v1\/pool\/blocks\/merge?order_by=desc&page_size=10&page=2","path":"https:\/\/eu-api.connectbtc.com\/\/public\/v1\/pool\/blocks\/merge","per_page":10,"prev_page_url":null,"to":10,"total":21994},"blocks_count":21994,"rewards_count":"190381.34854940"},"trace_id":"dd8a9219-dfee-49a5-b33f-906bc0986512"},"blocks_nr":10,"lastblock":705183,"lastblocktime":"1666478507","country":"WL|CN , EU , US","blocks_1000":34,"blocks_count":1,"hashrate_average_100_count":74,"hashrate_average_100":3234978251689189,"hashrate_average_1h":3279235294117647,"history_start":1665888045,"history_interval":3600,"history_addlast":true,"history":[3432750000000000,23200000000000,-48950000000000,-38500000000000,30250000000000,-38950000000000,53200000000000,100850000000000,-4050000000000,55150000000000,-74850000000000,-25500000000000,-31250000000000,-27500000000000,-40800000000000,2450000000000,8800000000000,-39650000000000,-30800000000000,31950000000000,-22550000000000,72950000000000,-10350000000000,57800000000000,33050000000000,-97400000000000,1150000000000,-35200000000000,14600000000000,19000000000000,-8850000000000,-20300000000000,140400000000000,-38300000000000,-10850000000000,59400000000000,-48500000000000,-28050000000000,25700000000000,-84750000000000,-36850000000000,2950000000000,950000000000,-34300000000000,25700000000000,29150000000000,-27450000000000,111850000000000,-15600000000000,-5350000000000,-66050000000000,-25500000000000,115000000000000,-37850000000000,-16500000000000,21550000000000,-8950000000000,45700000000000,46400000000000,-5700000000000,-2800000000000,-3500000000000,39600000000000,-6900000000000,-48200000000000,-63400000000000,-7150000000000,-45350000000000,17050000000000,107050000000000,34700000000000,38200000000000,-77600000000000,-64750000000000,-44850000000000,-54166667000000,-28583333000000,24900000000000,-8700000000000,5450000000000,101200000000000,57400000000000,45550000000000,-12200000000000,650000000000,28750000000000,-69850000000000,39900000000000,-50050000000000,48150000000000,-56150000000000,-111750000000000,27700000000000,18650000000000,73800000000000,-7200000000000,-71400000000000,-32250000000000,-45800000000000,-3050000000000,32700000000000,51700000000000,-12050000000000,-41800000000000,-50000000000,24200000000000,16550000000000,-102650000000000,1450000000000,-18150000000000,11300000000000,48050000000000,-2600000000000,-80800000000000,83950000000000,-28000000000000,-51400000000000,22250000000000,-44400000000000,129000000000000,-10550000000000,-23400000000000,-13600000000000,8297368000000,148552632000000,-50450000000000,-67250000000000,76150000000000,-30350000000000,27500000000000,47300000000000,-82100000000000,58550000000000,18300000000000,-65850000000000,-19800000000000,-3300000000000,-82350000000000,29700000000000,31100000000000,-4700000000000,-13900000000000,-14400000000000,2400000000000,41800000000000,-7050000000000,-44900000000000,-15775000000000,23825000000000,17250000000000,19700000000000,-83100000000000,-38550000000000,123600000000000,24950000000000,-52200000000000,31850000000000,56250000000000,-36650000000000,-91400000000000,-23650000000000,-10050000000000,-800000000000,-8450000000000,65150000000000,-8750000000000,-17300000000000,39435294000000],"hashrate_average_7d":3354800541636905.5,"hashrate_average_7d_count":168,"expected_blocks":4.07,"luck":-3.065974800891146,"multipool":7},{"url":"https:\/\/www.f2pool.com","hashrate":47977742152187450,"miners":-1,"minpay":0.1,"id":14,"pool_id":"f2pool.com","fee":3,"feetype":"PPS%3","i":2445,"income":3.3130333275710664e-15,"blocks_nr":11,"lastblock":705252,"lastblocktime":1666495620,"country":"WL|Global","blocks_1000":577,"blocks_count":55,"hashrate_average_100_count":74,"hashrate_average_100":48304675380057740,"hashrate_average_1h":48310109605560536,"history_start":1665888045,"history_interval":3600,"history_addlast":true,"history":[47163048640000000,-77908940000000,523750060000000,109939640000000,-110564580000000,164242490000000,-385224130000000,770826670000000,53833910000000,-286878770000000,-211696380000000,-278568950000000,686264820000000,-88868050000000,315615870000000,-423590960000000,43352190000000,361962840000000,-37823370000000,149448810000000,-641767760000000,61054190000000,-541088640000000,-575186980000000,57254970000000,-4247693800000000,3802443260000000,319259870000000,486280930000000,849023830000000,-484271450000000,164936530000000,340091210000000,356080000000,104047450000000,-514726860000000,750188470000000,36444530000000,40755830000000,-371515370000000,48384810000000,480755920000000,14496850000000,-547639970000000,-475485700000000,-729178660000000,-1916646490000000,322863030000000,-136934230000000,-528957430000000,479052980000000,86545590000000,2781365590000000,319715810000000,-703116880000000,55600570000000,299638740000000,647739810000000,-3364100000000,-92742640000000,369984630000000,-4253200000000,-301795070000000,-472109450000000,-70260050000000,360693380000000,31119150000000,135006500000000,-524643440000000,-112775200000000,350089540000000,162828920000000,45155120000000,-558330260000000,108028260000000,118953030000000,-16811460000000,-11021500000000,-347592650000000,295360280000000,10715520000000,47332590000000,134878130000000,-341929180000000,285559620000000,370626560000000,-57283730000000,-214681710000000,-294399940000000,111076660000000,126794370000000,-538908750000000,-869567790000000,197558450000000,53514390000000,-2884008580000000,2983773340000000,450654350000000,-5700418750000000,6723385690000000,-8043100000000,-269331170000000,-312513230000000,79746930000000,352627160000000,-316791220000000,139484150000000,-76377110000000,222082690000000,50246710000000,-71252100000000,-74790720000000,-102243790000000,276267260000000,-256702340000000,76768630000000,-482136800000000,190969810000000,245299520000000,-125744760000000,-205882960000000,-123535730000000,438249070000000,-92592800000000,-819867970000000,662583210000000,-305658700000000,505756430000000,174475610000000,-59704530000000,-218794290000000,1270600000000,164465150000000,44835880000000,69322340000000,-394162820000000,37342370000000,812527450000000,-62082430000000,-183531470000000,-235721720000000,-759174370000000,-3650445640000000,4710427390000000,3543980000000,-161433350000000,135786410000000,-55195970000000,-282598780000000,-60386500000000,-457514550000000,629558280000000,-177227530000000,214598360000000,110458770000000,-362805410000000,-1829294670000000,-3893631020000000,2876561620000000,3039536540000000,-138604090000000,70760660000000,195870180000000,28240030000000,-687861150000000,552313980000000,-233598320000000,113926080000000],"hashrate_average_7d":47790963364940450,"hashrate_average_7d_count":168,"hashrate_block":878266825091959,"expected_blocks":60.71,"luck":-5.713110747494461,"multipool":33},{"url":"https:\/\/www.poolin.com","hashrate":27200000000000000,"miners":-1,"minpay":0.01,"id":3,"pool_id":"poolin.com","fee":3,"feetype":"PPS","i":13401,"json":{"err_no":0,"data":{"shares":{"shares_1m":26.15,"shares_5m":27.2,"shares_15m":27.695,"shares_1h":27.816,"shares_unit":"P"},"reject":{"1m":0,"5m":0,"15m":0.0022,"1h":0.0022},"workers":1165,"users":381,"total_blocks":142698,"total_rewards":104450385745961}},"workers":1165,"netdiff":5757224007.841276,"nethash":"82423629419370250","income":3.79639e-15,"blocks_nr":16,"lastblock":705250,"lastblocktime":"1666495129","country":"US|United States","blocks_1000":341,"blocks_count":40,"hashrate_average_100_count":74,"hashrate_average_100":27279397065033784,"hashrate_average_1h":27538000000000000,"history_start":1665888045,"history_interval":3600,"history_addlast":true,"history":[30112210530000000,108039470000000,-970500000000000,838050000000000,39100000000000,228750000000000,216150000000000,-145050000000000,-7150000000000,-234450000000000,-75000000000000,-46550000000000,72450000000000,-121300000000000,67600000000000,-72100000000000,-189750000000000,-181300000000000,291900000000000,-37950000000000,-171000000000000,-361700000000000,-175800000000000,222900000000000,372500000000000,-668150000000000,511200000000000,-590550000000000,247950000000000,308450000000000,404900000000000,533050000000000,-809515380000000,1060915380000000,385050000000000,2874800000000000,1802850000000000,717300000000000,-45500000000000,-258650000000000,110500000000000,224350000000000,84250000000000,-27450000000000,-178300000000000,-87500000000000,380600000000000,-506500000000000,717550000000000,-269000000000000,-1112200000000000,1137900000000000,-583300000000000,423050000000000,150000000000,261150000000000,-73850000000000,-344800000000000,406100000000000,-309900000000000,124450000000000,-74950000000000,-235300000000000,295550000000000,-55000000000000,98450000000000,-47800000000000,67800000000000,-74250000000000,-89800000000000,-1547300000000000,-789500000000000,-82950000000000,-1630650000000000,162800000000000,-496833330000000,40033330000000,-323700000000000,125450000000000,287400000000000,116250000000000,-139350000000000,-435850000000000,463650000000000,-2957950000000000,-2235800000000000,-88000000000000,17950000000000,-19900000000000,110200000000000,-76850000000000,33000000000000,14850000000000,-82100000000000,-4650000000000,7853850000000,124646150000000,42100000000000,-644450000000000,161250000000000,168850000000000,541750000000000,-256900000000000,-24650000000000,-1279550000000000,1483400000000000,91300000000000,-364650000000000,187400000000000,152650000000000,-302200000000000,65550000000000,176950000000000,41150000000000,-73400000000000,15250000000000,-141100000000000,-159000000000000,-348200000000000,441000000000000,-994550000000000,-1455800000000000,471000000000000,580365790000000,-954265790000000,-1089550000000000,-518250000000000,972050000000000,886550000000000,1850150000000000,372600000000000,-97700000000000,7200000000000,159150000000000,-523150000000000,506750000000000,44250000000000,-134950000000000,20850000000000,-156850000000000,39350000000000,110650000000000,-164150000000000,91750000000000,16850000000000,124050000000000,-144850000000000,-25675000000000,165475000000000,-142800000000000,288700000000000,-2298650000000000,-818900000000000,587650000000000,2265350000000000,-345300000000000,278050000000000,353750000000000,-101950000000000,-122300000000000,176750000000000,-8900000000000,-38500000000000,-170900000000000,-85100000000000,165750000000000,240650000000000,72050000000000],"hashrate_average_7d":29947006586071436,"hashrate_average_7d_count":168,"hashrate_block":681984926625844.6,"expected_blocks":34.29,"luck":5.713110747494447,"multipool":15}],"hashblock":{"hashrate_average_100":75584072445091520,"blocks_count":95,"pools":[[878266825091959,55,15968487728944.709,"https:\/\/www.f2pool.com"],[681984926625844.6,40,17049623165646.115,"https:\/\/www.poolin.com"]],"hashrate_block_all":795621815211489.6,"hashrate_block_min":15968487728944.709,"hashrate_block_max":17049623165646.115,"pool_hashblock_average":16509055447295.412,"hashrate_block":795621815211489.6},"time":1666495723,"hashrate":1.0484e+17,"difficulty":5757224007.841276,"height":705252,"symbol":"DCR","maxhash":47977742152187450,"poolshash":83617520659697900,"nethash_estimat":79562181521148960,"poolsminers":1270,"supply":{"circulating":14447529.09798578,"total":21000000,"emission24":2823},"block_time_target":300,"block_height_ok":true,"algo":"Blake256R14","hashrate_from_diff":false,"hashrate_src":"https:\/\/lab.antpool.com","unit":"H\/s","block_time_average":275.2,"minerstat":[1.4624831790537e-16,26.354086961404,1.00452643,3798],"link":{"coingecko":"decred","cmc":"decred","whattomine":"152-dcr-blake (14r)","coin360":"decred-dcr","coinpaprika":"dcr-decred"},"latest_release":{"tag":"release-v1.7.5","name":"dcrd v1.7.5","t":1665429869},"price":26.51}