{"data":[{"url":"https:\/\/www.okx.com\/pool","hashrate":19480000000000,"miners":-1,"minpay":-1,"id":23,"pool_id":"okx.com","i":1611,"workers":1,"lastblock":630904,"feetype":"PPLNS","fee":2,"country":"HK|Hong Kong","hashrate_average_100_count":80,"hashrate_average_100":9395879394531.25,"hashrate_average_1h":10222222222222.223,"history_start":1664332835,"history_interval":3600,"history_addlast":true,"history":[10434500000000,-1042500000000,-970000000000,958000000000,-501500000000,-434000000000,386000000000,-75000000000,1296000000000,-479000000000,-1160000000000,858500000000,-537500000000,-173000000000,-526000000000,1511500000000,-588105263000,-290394737000,1034000000000,-820500000000,-889500000000,487000000000,1051000000000,-1284000000000,571000000000,247000000000,678000000000,-317500000000,-894500000000,-368500000000,713000000000,-326105263000,1238105263000,-1171500000000,435500000000,719000000000,-593000000000,761000000000,910500000000,-1822500000000,-562000000000,-259500000000,103868421000,-194368421000,-82000000000,255000000000,1761000000000,-1430500000000,131000000000,-426000000000,204500000000,-35500000000,567500000000,-711500000000,1099500000000,-262500000000,-1073000000000,351500000000,171500000000,-655000000000,432500000000,1042500000000,-304000000000,-75500000000,-301000000000,2000000000,82000000000,60000000000,239000000000,199500000000,-400000000000,536000000000,-3890500000000,2962000000000,1103315789000,-1128815789000,1254000000000,-222000000000,-1139000000000,-612000000000,377000000000,680000000000,466500000000,531500000000,-719500000000,531500000000,-518500000000,313000000000,-271500000000,139500000000,-720500000000,1242500000000,-724500000000,-749000000000,585000000000,-9000000000,-18000000000,-861500000000,1038000000000,962500000000,-203000000000,-1215500000000,918000000000,767500000000,-717500000000,-1475500000000,36500000000,-94000000000,1161500000000,-324000000000,0,10174500000000,-8570000000000,-6962000000000,5659500000000,-1478500000000,820000000000,-108000000000,693000000000,-880000000000,91000000000,1247000000000,-952500000000,-518500000000,1791500000000,-1424000000000,1984000000000,-691000000000,-509500000000,521263158000,-503263158000,-95000000000,221500000000,-858500000000,398000000000,-641000000000,-251500000000,411000000000,1955078950000,-1188578950000,-906500000000,989500000000,725500000000,-1345000000000,415000000000,62500000000,-533500000000,1270500000000,-1321526316000,-88473684000,572684211000,940315789000,-1238500000000,-356500000000,571000000000,-789500000000,-391500000000,2468000000000,-246000000000,-58500000000,502500000000,-610500000000,-1196078947000,-17921053000,-657000000000,818000000000,-215000000000,1575722220000],"hashrate_average_7d":9030878672380.957,"hashrate_average_7d_count":168,"expected_blocks":0.01,"multipool":5},{"url":"https:\/\/www2.coinmine.pl\/dcr","hashrate":544599884326502,"miners":-1,"minpay":0.05,"id":5,"pool_id":"coinmine.pl","i":12323,"workers":32,"blocks_nr":5,"lastblock":699942,"lastblocktime":"1664912441","fee":1,"feetype":"PPLNS","height":700018,"country":"WL|EU , US , Asia","blocks_1000":6,"blocks_count":2,"hashrate_average_100_count":80,"hashrate_average_100":559616672995400.7,"hashrate_average_1h":549758371531082.75,"history_start":1664332835,"history_interval":3600,"history_addlast":true,"history":[464149835700000,6072733400000,-5608806000000,-1743912900000,-13047855900000,1715433000000,-1218599300000,27793519900000,-14373163200000,38733482500000,-41309305700000,-2953467200000,-17192104800000,13179707100000,9391860100000,24261726500000,14342415100000,-5726812900000,-3700283000000,-1632503300000,-2425498600000,30135828500000,-16835890200000,-11730064800000,29696387300000,-11812576000000,-9172084700000,9880276400000,-2041582500000,-14321071000000,12903377100000,5179554700000,-9883115900000,-16252855800000,12914954900000,-1728004300000,-9233457000000,681312000000,19010053200000,-17025189100000,-1005454200000,-3249189600000,18586516900000,-7674455100000,-6302219200000,-21972457800000,21306519300000,-19279651300000,12452022600000,-7028366300000,-5104895000000,6854402700000,3761396800000,-3517084300000,-797935600000,-7240982200000,-3399823400000,15048918300000,-28659934700000,-2322513700000,34061097600000,-10250766800000,11004815100000,1822630400000,-5775983500000,15331120900000,-52528633300000,-6851304800000,48598884900000,-4359597400000,-3519207300000,1610755900000,-3760501500000,-4137256400000,10327453000000,-15641599800000,9098796000000,6554568400000,-4092454700000,1150882000000,5427212100000,106308336000000,-5262084700000,7522685600000,-8933959800000,-28927395400000,13923772200000,-26136806700000,-7313313400000,-4095765700000,20044871100000,7122650100000,11998935900000,36934304500000,-32476557300000,5996864500000,-1102673800000,-1452422900000,8930087000000,765008500000,-1034611500000,2799224700000,4435571800000,5590888900000,-15121994800000,2466604900000,-17121583000000,-17777811900000,15220948200000,14972605700000,-26089075500000,10930740300000,-27312183900000,-17877688700000,2873664300000,23820537600000,33166112700000,-30605052700000,-2574500500000,12653798700000,5727940500000,3315262500000,-15990115000000,1031021900000,16503398100000,-19807131400000,18483115700000,-1120056100000,-7594643300000,-9072395200000,10354887200000,-12857668800000,-3720191600000,3546535900000,-11842513600000,18996327000000,-9475529600000,-5256074600000,11526944900000,3606250800000,-29611204400000,20952182100000,9398163000000,1599007800000,8697759200000,-19730255900000,17847291100000,-10556123500000,7870014600000,-5708192700000,7164851100000,-1719422600000,321890100000,-9005686000000,10930238800000,-20783903900000,18928904000000,-2510653400000,3478321000000,-14617659300000,18141664300000,-11405391100000,-2100618300000,6865409200000,-17458271500000,17042889700000,-8108992700000,-3381913800000],"hashrate_average_7d":522735572714285.94,"hashrate_average_7d_count":168,"hashrate_block":279808336497700.34,"expected_blocks":0.77,"luck":1.230101704808935,"multipool":6},{"url":"https:\/\/lab.antpool.com","hashrate":2100000000000000,"miners":-1,"minpay":0.1,"id":11,"pool_id":"antpool.com","i":2062,"nethash":76730000000000000,"netdiff":5256810879,"feetype":"PPS","fee":3,"income":3.7616988000000006e-15,"country":"WL|Global","hashrate_average_100_count":80,"hashrate_average_100":1870743652343750,"hashrate_average_1h":2073333333333333.2,"history_start":1664332835,"history_interval":3600,"history_addlast":true,"history":[1572500000000000,-151000000000000,14000000000000,-40000000000000,23000000000000,-3500000000000,-8500000000000,36500000000000,1500000000000,25500000000000,98500000000000,259000000000000,-24000000000000,25500000000000,-3000000000000,-35000000000000,-29947368000000,83447368000000,-44000000000000,27500000000000,2000000000000,-7500000000000,-27000000000000,6000000000000,34000000000000,-26500000000000,47500000000000,-35500000000000,-63000000000000,34500000000000,36000000000000,199921053000000,340078947000000,174000000000000,241500000000000,-10000000000000,-16500000000000,-246500000000000,-208000000000000,381000000000000,-8000000000000,97500000000000,-26131579000000,-15368421000000,9500000000000,22000000000000,14000000000000,58000000000000,-20500000000000,-17000000000000,38000000000000,43500000000000,-86000000000000,-2000000000000,-43000000000000,26500000000000,5500000000000,-500000000000,-18000000000000,6500000000000,-13000000000000,-68000000000000,-179000000000000,95000000000000,19000000000000,5000000000000,13000000000000,51500000000000,-3000000000000,13000000000000,19500000000000,-3000000000000,38500000000000,-27000000000000,20000000000000,11000000000000,-30000000000000,73500000000000,-51000000000000,-8500000000000,22000000000000,-46500000000000,-5000000000000,-79500000000000,9500000000000,-70500000000000,-210500000000000,82000000000000,35500000000000,-3000000000000,24000000000000,5000000000000,27000000000000,-5500000000000,-65500000000000,38500000000000,87000000000000,70000000000000,-32500000000000,29000000000000,-92000000000000,61500000000000,-38000000000000,81500000000000,55500000000000,-3000000000000,-18500000000000,-18000000000000,-500000000000,-32500000000000,-90000000000000,87000000000000,9500000000000,64500000000000,-76500000000000,37500000000000,-141500000000000,-8000000000000,-8000000000000,-54500000000000,12500000000000,-23500000000000,-31000000000000,-38500000000000,3000000000000,-45000000000000,19500000000000,-9000000000000,18500000000000,107815789000000,-12815789000000,33000000000000,-4500000000000,-23000000000000,-156500000000000,78000000000000,35500000000000,59000000000000,-16578947000000,-199921053000000,-222000000000000,-6000000000000,-158000000000000,62000000000000,-12000000000000,-11000000000000,-68500000000000,15500000000000,-22184211000000,41684211000000,10947368000000,-36947368000000,12000000000000,15000000000000,11500000000000,-25500000000000,-25500000000000,-58000000000000,-32500000000000,38000000000000,48000000000000,-2500000000000,41184211000000,28315789000000,-11000000000000,-37500000000000,15000000000000,184833333000000],"hashrate_average_7d":2323022974101190.5,"hashrate_average_7d_count":168,"expected_blocks":2.57,"multipool":16},{"url":"https:\/\/www.poolin.com","hashrate":31942000000000000,"miners":-1,"minpay":0.01,"id":3,"pool_id":"poolin.com","fee":3,"feetype":"PPS","i":13384,"json":{"err_no":0,"data":{"shares":{"shares_1m":31.133,"shares_5m":31.942,"shares_15m":32.175,"shares_1h":27.633,"shares_unit":"P"},"reject":{"1m":0,"5m":0,"15m":0.0008,"1h":0.0027},"workers":1548,"users":400,"total_blocks":140698,"total_rewards":104250133332840}},"workers":1548,"netdiff":5256810879.713133,"nethash":"75259436021873377","income":4.1577799999999995e-15,"blocks_nr":16,"lastblock":700015,"lastblocktime":"1664937898","country":"US|United States","blocks_1000":411,"blocks_count":21,"hashrate_average_100_count":80,"hashrate_average_100":22301049609375000,"hashrate_average_1h":30536888888888890,"history_start":1664332835,"history_interval":3600,"history_addlast":true,"history":[33256950000000000,14350000000000,-1633200000000000,1539600000000000,181100000000000,-355100000000000,366900000000000,27200000000000,-223200000000000,-54050000000000,485650000000000,350250000000000,344800000000000,359300000000000,614900000000000,-105750000000000,-348121050000000,257821050000000,187050000000000,21400000000000,-66600000000000,155950000000000,-200600000000000,315100000000000,-315600000000000,-36600000000000,-202800000000000,123750000000000,-738750000000000,-200550000000000,224550000000000,703773680000000,217476320000000,-114150000000000,-18200000000000,766150000000000,1528650000000000,277050000000000,304200000000000,122700000000000,-694900000000000,-24300000000000,21060530000000,-335960530000000,359600000000000,778500000000000,637050000000000,262550000000000,-364100000000000,321900000000000,546250000000000,97250000000000,245700000000000,-16400000000000,672600000000000,-62000000000000,157150000000000,-36950000000000,-475150000000000,599600000000000,-132100000000000,117900000000000,-53450000000000,-370150000000000,-166550000000000,3300000000000,296900000000000,-105800000000000,144050000000000,-523050000000000,-7639050000000000,-4892050000000000,-1895750000000000,1614900000000000,6277678950000000,55371050000000,-460200000000000,-475800000000000,746200000000000,59200000000000,463100000000000,1584900000000000,396800000000000,460150000000000,-132600000000000,48050000000000,-631750000000000,-152900000000000,88400000000000,-54400000000000,-56950000000000,-210850000000000,-2405000000000000,-367300000000000,1338950000000000,712900000000000,367350000000000,-198100000000000,212300000000000,107100000000000,599900000000000,4315400000000000,455050000000000,52500000000000,-217400000000000,66750000000000,149600000000000,142850000000000,-126150000000000,101350000000000,-204000000000000,117550000000000,-15050000000000,-132850000000000,-70950000000000,-39550000000000,208750000000000,-182700000000000,646100000000000,234450000000000,194350000000000,340300000000000,-260950000000000,-121300000000000,262850000000000,84300000000000,135450000000000,-1588150000000000,-1218800000000000,1458428950000000,1042571050000000,78650000000000,-473750000000000,145800000000000,-216350000000000,-5350000000000,-428100000000000,73200000000000,-261355260000000,-18744740000000,-357850000000000,-4975050000000000,-4927550000000000,600650000000000,-524900000000000,-1863300000000000,-720550000000000,103650000000000,-2282050000000000,-2815100000000000,-1325047370000000,277197370000000,-10850000000000,148200000000000,-205750000000000,-184000000000000,125950000000000,-64050000000000,-149850000000000,437600000000000,-198100000000000,111200000000000,-14178950000000,16378950000000,-87950000000000,-41650000000000,2189400000000000,6955288890000000],"hashrate_average_7d":35160885883154776,"hashrate_average_7d_count":168,"hashrate_block":1061954743303571.4,"expected_blocks":30.68,"luck":-9.680894447493145,"multipool":15},{"url":"https:\/\/pool.btc.com","hashrate":3930000000000000,"miners":-1,"minpay":0.1,"id":4,"pool_id":"pool.btc.com","feetype":"PPS","i":14320,"workers":94,"income":3.3721400476847e-15,"i_blocks":14362,"json_blocks":{"err_no":0,"data":{"blocks":{"current_page":1,"data":[{"height":699989,"is_orphaned":0,"hash":"000000000000000072164174d6a31d86cea8219668ff171eeaf70770b1bf73be","rewards":"1.01340080","size":40738,"prev_hash":"0000000000000000603fddbb6e932be63e5bbd4028d3c4bf9555423cb0dfd81a","bits":419483944,"version":9,"created_at":1664930379,"region_id":34,"region_name":"America"},{"height":699972,"is_orphaned":0,"hash":"0000000000000000614c8d948bd7fa4d381fb95c7cc7ca99dc2fe6dacfa5b69a","rewards":"1.01340080","size":29579,"prev_hash":"000000000000000050cb71057447141810472ddc5b20ec3a985280774e487f9b","bits":419477179,"version":9,"created_at":1664924648,"region_id":34,"region_name":"America"},{"height":699971,"is_orphaned":0,"hash":"000000000000000050cb71057447141810472ddc5b20ec3a985280774e487f9b","rewards":"1.01340080","size":25066,"prev_hash":"00000000000000006aa173e99083b3caf433cf89ee76ba319d76d807134bd3df","bits":419477179,"version":9,"created_at":1664923958,"region_id":34,"region_name":"America"},{"height":699965,"is_orphaned":0,"hash":"00000000000000006ed4f0416564053faa258a00efcd16e5535fc93807891ecb","rewards":"1.01340080","size":42894,"prev_hash":"00000000000000000fc9cd61e14245464a0b37128cd6bf0ae399bfe48ccfde19","bits":419477179,"version":9,"created_at":1664921430,"region_id":34,"region_name":"America"},{"height":699958,"is_orphaned":0,"hash":"000000000000000011a23f466063822754d21d4fc49f331f922c06e19111c4af","rewards":"1.01340080","size":4550,"prev_hash":"00000000000000007653ff30f1df6ec757d5b1f6ac66d9c779eeea405938a26a","bits":419477179,"version":9,"created_at":1664917980,"region_id":36,"region_name":"BitDeer"},{"height":699949,"is_orphaned":0,"hash":"00000000000000009d6e308dc35a16e0673c622708471dd75fccba27da7f924d","rewards":"1.01340080","size":32177,"prev_hash":"0000000000000000b188c3dd96fe9908fb4c12cb52529122d5e516cbee215296","bits":419477179,"version":9,"created_at":1664914691,"region_id":34,"region_name":"America"},{"height":699941,"is_orphaned":0,"hash":"000000000000000053a9fe6d70dc9956bc96545cfb5507df6a2f11f8d9538859","rewards":"1.01340080","size":77379,"prev_hash":"00000000000000006fbe8141a1b14aae18aa5b3a2676babd1c3630b5ff4f776f","bits":419477179,"version":9,"created_at":1664911827,"region_id":34,"region_name":"America"},{"height":699926,"is_orphaned":0,"hash":"00000000000000009022efffc03fdf774e8d23c4ab2df0cf5e5b845e0b4af3a3","rewards":"1.01340080","size":9576,"prev_hash":"0000000000000000a657453084480650c838268da414c1dbe3ff721df171d811","bits":419477179,"version":9,"created_at":1664906775,"region_id":34,"region_name":"America"},{"height":699922,"is_orphaned":1,"hash":"000000000000000037bad8d2fbc263f2217ba8727d851593ffb970ec56517f82","rewards":0,"size":12313,"prev_hash":"fa6e070b000000003288896ef033ce429d002be333319a20171aee6de807b5ac","bits":419477179,"version":9,"created_at":1664905168,"region_id":34,"region_name":"America"},{"height":699907,"is_orphaned":0,"hash":"00000000000000008c88127d536f4555337402854de1c7bd41f58245d287aca5","rewards":"1.01340080","size":66849,"prev_hash":"0000000000000000290f65c81c503b2ae305bbeba6b7c5fde98dc0e538154e62","bits":419477179,"version":9,"created_at":1664901606,"region_id":34,"region_name":"America"}],"first_page_url":"https:\/\/eu-api.connectbtc.com\/\/public\/v1\/pool\/blocks\/merge?order_by=desc&page_size=10&page=1","from":1,"last_page":2177,"last_page_url":"https:\/\/eu-api.connectbtc.com\/\/public\/v1\/pool\/blocks\/merge?order_by=desc&page_size=10&page=2177","next_page_url":"https:\/\/eu-api.connectbtc.com\/\/public\/v1\/pool\/blocks\/merge?order_by=desc&page_size=10&page=2","path":"https:\/\/eu-api.connectbtc.com\/\/public\/v1\/pool\/blocks\/merge","per_page":10,"prev_page_url":null,"to":10,"total":21770},"blocks_count":21770,"rewards_count":"190159.22514093"},"trace_id":"c26980b3-42bc-45eb-9019-647f5a50af49"},"blocks_nr":9,"lastblock":699989,"lastblocktime":"1664930379","country":"WL|CN , EU , US","blocks_1000":48,"blocks_count":8,"hashrate_average_100_count":80,"hashrate_average_100":3811977734375000,"hashrate_average_1h":3911888888888889,"history_start":1664332835,"history_interval":3600,"history_addlast":true,"history":[2723700000000000,-16150000000000,24350000000000,25000000000000,96500000000000,-174350000000000,471600000000000,428100000000000,-7100000000000,33700000000000,56550000000000,2700000000000,-50500000000000,-66250000000000,-28700000000000,-38250000000000,55152632000000,101247368000000,-38050000000000,-33400000000000,28250000000000,-25900000000000,81500000000000,-27650000000000,-24750000000000,-6200000000000,53600000000000,68950000000000,126900000000000,-47400000000000,5350000000000,7973684000000,-64923684000000,14650000000000,1750000000000,-55800000000000,-22200000000000,19400000000000,26300000000000,-38800000000000,-50950000000000,14500000000000,-9136842000000,-40963158000000,9400000000000,43200000000000,4750000000000,119050000000000,-147750000000000,105150000000000,122350000000000,240850000000000,12550000000000,47150000000000,51900000000000,-7950000000000,28600000000000,-90350000000000,72500000000000,-114500000000000,55550000000000,3300000000000,97900000000000,-155550000000000,-108750000000000,16500000000000,5800000000000,-20900000000000,41600000000000,16150000000000,14350000000000,33750000000000,24000000000000,-54100000000000,83357895000000,12092105000000,-25800000000000,16450000000000,36550000000000,35100000000000,-63400000000000,-12550000000000,-8850000000000,-153250000000000,9400000000000,59000000000000,-4850000000000,-600000000000,-30700000000000,23100000000000,20550000000000,-35800000000000,-5600000000000,-9750000000000,-18650000000000,68550000000000,-49900000000000,43750000000000,-38650000000000,-51200000000000,22000000000000,141550000000000,6050000000000,-35450000000000,-96350000000000,-10850000000000,33250000000000,-7550000000000,33200000000000,-22150000000000,34050000000000,-4250000000000,25500000000000,-41600000000000,-29150000000000,-54050000000000,34850000000000,27100000000000,17750000000000,8400000000000,-19300000000000,85950000000000,-42000000000000,17900000000000,-39100000000000,-45100000000000,-23200000000000,-14950000000000,-650000000000,28789474000000,4860526000000,-93350000000000,-23150000000000,17600000000000,550000000000,-24500000000000,-12050000000000,-32500000000000,43013158000000,-11113158000000,-73300000000000,81050000000000,-7900000000000,-51400000000000,32600000000000,110450000000000,-29450000000000,-47100000000000,-32047368000000,17247368000000,64436842000000,8513158000000,-27450000000000,7250000000000,88700000000000,-91450000000000,-58350000000000,20500000000000,-52800000000000,14450000000000,-42500000000000,6950000000000,-10918421000000,-43481579000000,55250000000000,-24600000000000,37350000000000,94738889000000],"hashrate_average_7d":3863952142517854.5,"hashrate_average_7d_count":168,"hashrate_block":476497216796875,"expected_blocks":5.24,"luck":2.7556330956105537,"multipool":7},{"url":"https:\/\/www.f2pool.com","hashrate":44033485433140344,"miners":-1,"minpay":0.1,"id":14,"pool_id":"f2pool.com","fee":3,"feetype":"PPS%3","i":2444,"income":3.664695987452296e-15,"blocks_nr":15,"lastblock":700018,"lastblocktime":1664938791,"country":"WL|Global","blocks_1000":507,"blocks_count":67,"hashrate_average_100_count":80,"hashrate_average_100":43666579836995910,"hashrate_average_1h":43922876608696300,"history_start":1664332835,"history_interval":3600,"history_addlast":true,"history":[40163513420000000,-446594660000000,435908230000000,-1280315030000000,1299268580000000,-129933030000000,-439422630000000,409268690000000,-112415900000000,35516480000000,-60720410000000,-290967470000000,340832840000000,-64984930000000,52784280000000,-395283600000000,356684960000000,133681720000000,15137870000000,52823490000000,-863574260000000,413824440000000,425112220000000,72760500000000,-165304140000000,-384680210000000,352757070000000,151483470000000,-197098600000000,131978020000000,14050900000000,420416670000000,-169312990000000,205834280000000,-1355732910000000,-408130860000000,1640067270000000,-313414610000000,-1336528310000000,348870520000000,104446260000000,560061860000000,371916830000000,-481788690000000,-1714270490000000,1801700940000000,727630200000000,-251818270000000,56478160000000,-297858620000000,-37017220000000,-380583090000000,-85882440000000,1292770000000,-308656360000000,123823750000000,116533050000000,-121117130000000,-135250180000000,-396681470000000,912923740000000,424368850000000,24203160000000,-408568490000000,-46868690000000,230066830000000,250706430000000,-261116400000000,-335152040000000,451030090000000,-359094430000000,-529719480000000,-158943920000000,270433930000000,-9462960000000,404821200000000,-279801050000000,-232727860000000,-277050250000000,193921170000000,-315135350000000,385553710000000,-103607880000000,-159718020000000,408493870000000,78340170000000,-214582250000000,-140636060000000,-37340430000000,537546200000000,-97712690000000,-40841450000000,-267834860000000,208972560000000,667333980000000,-182632150000000,-190571050000000,-563580470000000,384086440000000,184992210000000,-145094490000000,-84290850000000,-280876800000000,537329590000000,107473250000000,54176960000000,16064840000000,-66048530000000,199883620000000,-29495790000000,406283730000000,-303553450000000,-171615000000000,491081180000000,36764690000000,-161349700000000,-246434730000000,269976540000000,153965360000000,42159060000000,51654890000000,2392623310000000,735215140000000,-139147570000000,-450305540000000,-1544255850000000,-505817980000000,899672290000000,-2059805690000000,2373710750000000,1345297440000000,-31942900000000,455515450000000,19000720000000,-98934960000000,-353938590000000,28570050000000,11703190000000,12436300000000,221934250000000,-587643220000000,418713810000000,-3230184960000000,3125714240000000,-318002270000000,-1802805100000000,-170510810000000,1814273410000000,92950190000000,47780790000000,-119435530000000,182087480000000,144991200000000,50295160000000,-100802010000000,85953200000000,632912920000000,101364380000000,37698730000000,-605305330000000,88175480000000,168144490000000,109483850000000,131244150000000,-650592620000000,-129161860000000,338866710000000,360868410000000],"hashrate_average_7d":40581658863630980,"hashrate_average_7d_count":168,"hashrate_block":651739997567103.1,"expected_blocks":60.07,"luck":6.92526135188259,"multipool":33}],"hashblock":{"hashrate_average_100":69779607180745910,"blocks_count":96,"pools":[[279808336497700.34,2,139904168248850.17,"https:\/\/www2.coinmine.pl\/dcr"],[1061954743303571.4,21,50569273490646.26,"https:\/\/www.poolin.com"],[476497216796875,8,59562152099609.375,"https:\/\/pool.btc.com"],[651739997567103.1,67,9727462650255.271,"https:\/\/www.f2pool.com"]],"hashrate_block_all":717747182181033.8,"hashrate_block_min":9727462650255.271,"hashrate_block_max":139904168248850.17,"pool_hashblock_average":64940764122340.27,"ignored":[[279808336497700.34,2,139904168248850.17,"https:\/\/www2.coinmine.pl\/dcr"]],"hashrate_block":726870908132769.9},"time":1664939076,"hashrate":76730000000000000,"difficulty":5256810879.713133,"height":700018,"symbol":"DCR","maxhash":44033485433140344,"poolshash":82569565317466850,"nethash_estimat":72687090813277000,"poolsminers":1675,"supply":{"circulating":14400384.02906351,"total":21000000,"emission24":2043},"block_time_target":300,"block_height_ok":true,"algo":"Blake256R14","hashrate_from_diff":false,"hashrate_src":"https:\/\/lab.antpool.com","unit":"H\/s","block_time_average":384,"minerstat":[1.636872871961e-16,26.418743963598,1.02658441,3797],"link":{"coingecko":"decred","cmc":"decred","whattomine":"152-dcr-blake (14r)","coin360":"decred-dcr","coinpaprika":"dcr-decred"},"latest_release":{"tag":"release-v1.7.4","name":"dcrd v1.7.4","t":1659553036},"price":26.39}