{"data":[{"url":"https:\/\/www.okx.com\/pool","hashrate":10480000000000,"miners":-1,"minpay":-1,"id":23,"pool_id":"okx.com","i":1611,"workers":1,"lastblock":630904,"feetype":"PPLNS","fee":2,"country":"HK|Hong Kong","hashrate_average_100_count":76,"hashrate_average_100":9412522229646.38,"hashrate_average_1h":8933333333333.334,"history_start":1664502035,"history_interval":3600,"history_addlast":true,"history":[8616500000000,131000000000,-426000000000,204500000000,-35500000000,567500000000,-711500000000,1099500000000,-262500000000,-1073000000000,351500000000,171500000000,-655000000000,432500000000,1042500000000,-304000000000,-75500000000,-301000000000,2000000000,82000000000,60000000000,239000000000,199500000000,-400000000000,536000000000,-3890500000000,2962000000000,1103315789000,-1128815789000,1254000000000,-222000000000,-1139000000000,-612000000000,377000000000,680000000000,466500000000,531500000000,-719500000000,531500000000,-518500000000,313000000000,-271500000000,139500000000,-720500000000,1242500000000,-724500000000,-749000000000,585000000000,-9000000000,-18000000000,-861500000000,1038000000000,962500000000,-203000000000,-1215500000000,918000000000,767500000000,-717500000000,-1475500000000,36500000000,-94000000000,1161500000000,-324000000000,0,10174500000000,-8570000000000,-6962000000000,5659500000000,-1478500000000,820000000000,-108000000000,693000000000,-880000000000,91000000000,1247000000000,-952500000000,-518500000000,1791500000000,-1424000000000,1984000000000,-691000000000,-509500000000,521263158000,-503263158000,-95000000000,221500000000,-858500000000,398000000000,-641000000000,-251500000000,411000000000,1955078950000,-1188578950000,-906500000000,989500000000,725500000000,-1345000000000,415000000000,62500000000,-533500000000,1270500000000,-1321526316000,-88473684000,572684211000,940315789000,-1238500000000,-356500000000,571000000000,-789500000000,-391500000000,2468000000000,-246000000000,-58500000000,502500000000,-610500000000,-1196078947000,-17921053000,-657000000000,818000000000,-215000000000,627500000000,-468000000000,828000000000,-1443000000000,908500000000,-247394737000,404394737000,726000000000,-1538000000000,215500000000,2301000000000,-693500000000,-634000000000,-471000000000,-481500000000,189000000000,-353000000000,1819500000000,-1688500000000,420000000000,-363000000000,718000000000,-325500000000,-669500000000,-123000000000,342000000000,-372000000000,414000000000,942000000000,537000000000,-333500000000,-2247277778000,960277778000,-410000000000,83500000000,127947368000,-102947368000,613000000000,-346500000000,466500000000,681000000000,-333000000000,1076000000000,-1203555556000,-626444444000,-294500000000,1280500000000,-590000000000,-35666667000],"hashrate_average_7d":9034723606360.945,"hashrate_average_7d_count":169,"expected_blocks":0.01,"multipool":5},{"url":"https:\/\/www2.coinmine.pl\/dcr","hashrate":537550905449206,"miners":-1,"minpay":0.05,"id":5,"pool_id":"coinmine.pl","i":12323,"workers":31,"blocks_nr":5,"lastblock":700564,"lastblocktime":"1665085249","fee":1,"feetype":"PPLNS","height":700648,"country":"WL|EU , US , Asia","blocks_1000":4,"blocks_count":1,"hashrate_average_100_count":76,"hashrate_average_100":551922199274809.2,"hashrate_average_1h":534960115687955.3,"history_start":1664502035,"history_interval":3600,"history_addlast":true,"history":[469483862300000,12452022600000,-7028366300000,-5104895000000,6854402700000,3761396800000,-3517084300000,-797935600000,-7240982200000,-3399823400000,15048918300000,-28659934700000,-2322513700000,34061097600000,-10250766800000,11004815100000,1822630400000,-5775983500000,15331120900000,-52528633300000,-6851304800000,48598884900000,-4359597400000,-3519207300000,1610755900000,-3760501500000,-4137256400000,10327453000000,-15641599800000,9098796000000,6554568400000,-4092454700000,1150882000000,5427212100000,106308336000000,-5262084700000,7522685600000,-8933959800000,-28927395400000,13923772200000,-26136806700000,-7313313400000,-4095765700000,20044871100000,7122650100000,11998935900000,36934304500000,-32476557300000,5996864500000,-1102673800000,-1452422900000,8930087000000,765008500000,-1034611500000,2799224700000,4435571800000,5590888900000,-15121994800000,2466604900000,-17121583000000,-17777811900000,15220948200000,14972605700000,-26089075500000,10930740300000,-27312183900000,-17877688700000,2873664300000,23820537600000,33166112700000,-30605052700000,-2574500500000,12653798700000,5727940500000,3315262500000,-15990115000000,1031021900000,16503398100000,-19807131400000,18483115700000,-1120056100000,-7594643300000,-9072395200000,10354887200000,-12857668800000,-3720191600000,3546535900000,-11842513600000,18996327000000,-9475529600000,-5256074600000,11526944900000,3606250800000,-29611204400000,20952182100000,9398163000000,1599007800000,8697759200000,-19730255900000,17847291100000,-10556123500000,7870014600000,-5708192700000,7164851100000,-1719422600000,321890100000,-9005686000000,10930238800000,-20783903900000,18928904000000,-2510653400000,3478321000000,-14617659300000,18141664300000,-11405391100000,-2100618300000,6865409200000,-17458271500000,17042889700000,-8108992700000,-9677546500000,13557007200000,-2560256200000,8844996100000,-16996193500000,-2255999900000,23970224500000,-8200985500000,-20724981500000,17010162100000,-1565364200000,15984303000000,-30577273000000,30915584900000,-14279146800000,-7045804700000,35105483300000,-28883901300000,7481873900000,-23949342500000,25183487000000,-15336482900000,31745092600000,-35270968800000,-2799528700000,14534507700000,-5607068200000,17786128800000,-8525157300000,3742593300000,1385312600000,-22854031300000,9546972500000,-5833700300000,7362858600000,17642553900000,-14719564200000,-37390823900000,32185899700000,-18972957000000,21503529800000,11859415900000,-4891730100000,-13522919200000,-11799332300000,15196850400000,-9305613500000,17232987600000,-24411321700000],"hashrate_average_7d":542037368862721.94,"hashrate_average_7d_count":169,"expected_blocks":0.65,"luck":0.351272783622924,"multipool":6},{"url":"https:\/\/lab.antpool.com","hashrate":2430000000000000,"miners":-1,"minpay":0.1,"id":11,"pool_id":"antpool.com","i":2062,"nethash":82220000000000000,"netdiff":6060301038,"feetype":"PPS","fee":3,"income":3.2306626e-15,"country":"WL|Global","hashrate_average_100_count":76,"hashrate_average_100":2412368870785361.5,"hashrate_average_1h":2531666666666666.5,"history_start":1664502035,"history_interval":3600,"history_addlast":true,"history":[2835500000000000,-20500000000000,-17000000000000,38000000000000,43500000000000,-86000000000000,-2000000000000,-43000000000000,26500000000000,5500000000000,-500000000000,-18000000000000,6500000000000,-13000000000000,-68000000000000,-179000000000000,95000000000000,19000000000000,5000000000000,13000000000000,51500000000000,-3000000000000,13000000000000,19500000000000,-3000000000000,38500000000000,-27000000000000,20000000000000,11000000000000,-30000000000000,73500000000000,-51000000000000,-8500000000000,22000000000000,-46500000000000,-5000000000000,-79500000000000,9500000000000,-70500000000000,-210500000000000,82000000000000,35500000000000,-3000000000000,24000000000000,5000000000000,27000000000000,-5500000000000,-65500000000000,38500000000000,87000000000000,70000000000000,-32500000000000,29000000000000,-92000000000000,61500000000000,-38000000000000,81500000000000,55500000000000,-3000000000000,-18500000000000,-18000000000000,-500000000000,-32500000000000,-90000000000000,87000000000000,9500000000000,64500000000000,-76500000000000,37500000000000,-141500000000000,-8000000000000,-8000000000000,-54500000000000,12500000000000,-23500000000000,-31000000000000,-38500000000000,3000000000000,-45000000000000,19500000000000,-9000000000000,18500000000000,107815789000000,-12815789000000,33000000000000,-4500000000000,-23000000000000,-156500000000000,78000000000000,35500000000000,59000000000000,-16578947000000,-199921053000000,-222000000000000,-6000000000000,-158000000000000,62000000000000,-12000000000000,-11000000000000,-68500000000000,15500000000000,-22184211000000,41684211000000,10947368000000,-36947368000000,12000000000000,15000000000000,11500000000000,-25500000000000,-25500000000000,-58000000000000,-32500000000000,38000000000000,48000000000000,-2500000000000,41184211000000,28315789000000,-11000000000000,-37500000000000,15000000000000,229000000000000,371000000000000,161000000000000,-86000000000000,-72500000000000,26368421000000,12131579000000,8500000000000,-39000000000000,20000000000000,24000000000000,-75500000000000,19500000000000,-78500000000000,-13000000000000,-84500000000000,79500000000000,11500000000000,-21000000000000,84000000000000,47500000000000,81500000000000,29000000000000,3000000000000,55500000000000,62500000000000,-76000000000000,-5500000000000,-25000000000000,-101500000000000,93500000000000,-220611111000000,-33388889000000,-37500000000000,-31000000000000,44052632000000,26947368000000,-61000000000000,-33500000000000,-12000000000000,145500000000000,-64500000000000,-4000000000000,59833333000000,2666667000000,38000000000000,-56000000000000,73500000000000,65166667000000],"hashrate_average_7d":2454816533443787.5,"hashrate_average_7d_count":169,"expected_blocks":2.84,"multipool":16},{"url":"https:\/\/www.poolin.com","hashrate":39468000000000000,"miners":-1,"minpay":0.01,"id":3,"pool_id":"poolin.com","fee":3,"feetype":"PPS","i":13398,"json":{"err_no":0,"data":{"shares":{"shares_1m":40.403,"shares_5m":39.468,"shares_15m":39.397,"shares_1h":39.36,"shares_unit":"P"},"reject":{"1m":0,"5m":0,"15m":0.0131,"1h":0.0123},"workers":1523,"users":404,"total_blocks":140964,"total_rewards":104276923636537}},"workers":1523,"netdiff":6060301038.720206,"nethash":"86762649207082844","income":3.60653e-15,"blocks_nr":23,"lastblock":700646,"lastblocktime":1665111484,"country":"US|United States","blocks_1000":406,"blocks_count":44,"hashrate_average_100_count":76,"hashrate_average_100":39498528346011510,"hashrate_average_1h":39067916666666664,"history_start":1664502035,"history_interval":3600,"history_addlast":true,"history":[39136950000000000,-364100000000000,321900000000000,546250000000000,97250000000000,245700000000000,-16400000000000,672600000000000,-62000000000000,157150000000000,-36950000000000,-475150000000000,599600000000000,-132100000000000,117900000000000,-53450000000000,-370150000000000,-166550000000000,3300000000000,296900000000000,-105800000000000,144050000000000,-523050000000000,-7639050000000000,-4892050000000000,-1895750000000000,1614900000000000,6277678950000000,55371050000000,-460200000000000,-475800000000000,746200000000000,59200000000000,463100000000000,1584900000000000,396800000000000,460150000000000,-132600000000000,48050000000000,-631750000000000,-152900000000000,88400000000000,-54400000000000,-56950000000000,-210850000000000,-2405000000000000,-367300000000000,1338950000000000,712900000000000,367350000000000,-198100000000000,212300000000000,107100000000000,599900000000000,4315400000000000,455050000000000,52500000000000,-217400000000000,66750000000000,149600000000000,142850000000000,-126150000000000,101350000000000,-204000000000000,117550000000000,-15050000000000,-132850000000000,-70950000000000,-39550000000000,208750000000000,-182700000000000,646100000000000,234450000000000,194350000000000,340300000000000,-260950000000000,-121300000000000,262850000000000,84300000000000,135450000000000,-1588150000000000,-1218800000000000,1458428950000000,1042571050000000,78650000000000,-473750000000000,145800000000000,-216350000000000,-5350000000000,-428100000000000,73200000000000,-261355260000000,-18744740000000,-357850000000000,-4975050000000000,-4927550000000000,600650000000000,-524900000000000,-1863300000000000,-720550000000000,103650000000000,-2282050000000000,-2815100000000000,-1325047370000000,277197370000000,-10850000000000,148200000000000,-205750000000000,-184000000000000,125950000000000,-64050000000000,-149850000000000,437600000000000,-198100000000000,111200000000000,-14178950000000,16378950000000,-87950000000000,-41650000000000,2189400000000000,7884350000000000,1083750000000000,144600000000000,107050000000000,-177800000000000,-133850000000000,4850000000000,639200000000000,67550000000000,171550000000000,-89350000000000,-33000000000000,-121550000000000,-188500000000000,148100000000000,199450000000000,27650000000000,10750000000000,66000000000000,133200000000000,-238500000000000,-151150000000000,-150700000000000,-16500000000000,35550000000000,-478250000000000,6704700000000000,707500000000000,309950000000000,176750000000000,57950000000000,19537500000000,-134487500000000,47150000000000,-198750000000000,-422613160000000,246713160000000,-109700000000000,-69700000000000,-77600000000000,94550000000000,-48150000000000,100650000000000,-224611110000000,-357738890000000,283450000000000,-357950000000000,-491850000000000,286116670000000],"hashrate_average_7d":35480147374082850,"hashrate_average_7d_count":169,"hashrate_block":897693826045716.1,"expected_blocks":46.43,"luck":-2.4264173076696167,"multipool":15},{"url":"https:\/\/pool.btc.com","hashrate":4077000000000000,"miners":-1,"minpay":0.1,"id":4,"pool_id":"pool.btc.com","feetype":"PPS","i":14334,"workers":96,"income":3.3721400476847e-15,"i_blocks":14376,"json_blocks":{"err_no":0,"data":{"blocks":{"current_page":1,"data":[{"height":700635,"is_orphaned":0,"hash":"00000000000000009232eda358b27ab3cfb634abcd5dab4bb4a8be446e567e7d","rewards":"1.00336713","size":59677,"prev_hash":"00000000000000004a8a45510976c162eaecd3572abd8f7ff70be3bf745d8a8c","bits":419476845,"version":9,"created_at":1665109129,"region_id":36,"region_name":"BitDeer"},{"height":700616,"is_orphaned":0,"hash":"00000000000000003683934f4d568c64982673a0c9b0398f1e9cedfc2d23d35b","rewards":"1.00336713","size":44747,"prev_hash":"000000000000000029dd2d1c16a63ace2ab2e652e40a5b835c0770184ded756a","bits":419476845,"version":9,"created_at":1665104592,"region_id":34,"region_name":"America"},{"height":700610,"is_orphaned":0,"hash":"00000000000000004c7aeaf847e74222ee8e3b420969a269b81a3ed1bfc16b82","rewards":"1.00336713","size":11276,"prev_hash":"000000000000000084bf5c7f66a9193cdc8f5e131dd02805b916c0b75b540f4d","bits":419476845,"version":9,"created_at":1665102446,"region_id":34,"region_name":"America"},{"height":700580,"is_orphaned":0,"hash":"00000000000000006d687d3b0d142ef47b6378fca545e3c4f5e47fe11b85c32a","rewards":"1.00336713","size":57756,"prev_hash":"0000000000000000338d28e4c8b8040bdc681e09d976cde59e0da672144c67d2","bits":419476845,"version":9,"created_at":1665089283,"region_id":34,"region_name":"America"},{"height":700571,"is_orphaned":0,"hash":"0000000000000000abca6d289bb6b9ae995640d9d40e437c8f8e3635e9963924","rewards":"1.00336713","size":32298,"prev_hash":"00000000000000002125020788d3f499ce467b7650b53e20f34eb7a65ff87949","bits":419476845,"version":9,"created_at":1665086580,"region_id":34,"region_name":"America"},{"height":700558,"is_orphaned":0,"hash":"00000000000000007b0a64a88c27c9b9f34d0659eaa215438212598420e22ff1","rewards":"1.00336713","size":2752,"prev_hash":"000000000000000037b8077f6431b7c5df510d1db296a3a8a2bd564bd371bcce","bits":419482411,"version":9,"created_at":1665083826,"region_id":34,"region_name":"America"},{"height":700554,"is_orphaned":0,"hash":"00000000000000008c935f39416ba353f28a0c53bf6eb2f59f98ad9834d97ada","rewards":"1.00336713","size":2408,"prev_hash":"000000000000000000b5a6e5da527bd4a4131c167969353c3381490961870ce5","bits":419482411,"version":9,"created_at":1665083094,"region_id":34,"region_name":"America"},{"height":700541,"is_orphaned":0,"hash":"000000000000000055c9fd110eb1d602da9e754745870825f02e8c35b5719c49","rewards":"1.00336713","size":9114,"prev_hash":"000000000000000004647b3e34ea019d01298e773fb5e91ec6245e8d7553f1d9","bits":419482411,"version":9,"created_at":1665079595,"region_id":34,"region_name":"America"},{"height":700473,"is_orphaned":0,"hash":"0000000000000000b3782a2485a5b3d7a49454d8f364bf511c6ebc2a9395e245","rewards":"1.00336713","size":6616,"prev_hash":"000000000000000055fbb08f0a303fe5de2f8a8aebf2a8aff18392f4e5ec0fa4","bits":419482411,"version":9,"created_at":1665060419,"region_id":34,"region_name":"America"},{"height":700466,"is_orphaned":0,"hash":"000000000000000008982c035e648b082a2c1e5a309555e9e9abf3a6267b0800","rewards":"1.00336713","size":7830,"prev_hash":"00000000000000007f64bd4a53a9e485deadb76ebe7bd4a501b47d343993ebda","bits":419482411,"version":9,"created_at":1665059277,"region_id":36,"region_name":"BitDeer"}],"first_page_url":"https:\/\/eu-api.connectbtc.com\/\/public\/v1\/pool\/blocks\/merge?order_by=desc&page_size=10&page=1","from":1,"last_page":2180,"last_page_url":"https:\/\/eu-api.connectbtc.com\/\/public\/v1\/pool\/blocks\/merge?order_by=desc&page_size=10&page=2180","next_page_url":"https:\/\/eu-api.connectbtc.com\/\/public\/v1\/pool\/blocks\/merge?order_by=desc&page_size=10&page=2","path":"https:\/\/eu-api.connectbtc.com\/\/public\/v1\/pool\/blocks\/merge","per_page":10,"prev_page_url":null,"to":10,"total":21799},"blocks_count":21799,"rewards_count":"190188.30071360"},"trace_id":"220d9f89-6d0c-4853-95bc-f1cc83ba48ba"},"blocks_nr":11,"lastblock":700635,"lastblocktime":1665109113,"country":"WL|CN , EU , US","blocks_1000":49,"blocks_count":7,"hashrate_average_100_count":76,"hashrate_average_100":3891098992598684.5,"hashrate_average_1h":4037000000000000,"history_start":1664502035,"history_interval":3600,"history_addlast":true,"history":[3776700000000000,-147750000000000,105150000000000,122350000000000,240850000000000,12550000000000,47150000000000,51900000000000,-7950000000000,28600000000000,-90350000000000,72500000000000,-114500000000000,55550000000000,3300000000000,97900000000000,-155550000000000,-108750000000000,16500000000000,5800000000000,-20900000000000,41600000000000,16150000000000,14350000000000,33750000000000,24000000000000,-54100000000000,83357895000000,12092105000000,-25800000000000,16450000000000,36550000000000,35100000000000,-63400000000000,-12550000000000,-8850000000000,-153250000000000,9400000000000,59000000000000,-4850000000000,-600000000000,-30700000000000,23100000000000,20550000000000,-35800000000000,-5600000000000,-9750000000000,-18650000000000,68550000000000,-49900000000000,43750000000000,-38650000000000,-51200000000000,22000000000000,141550000000000,6050000000000,-35450000000000,-96350000000000,-10850000000000,33250000000000,-7550000000000,33200000000000,-22150000000000,34050000000000,-4250000000000,25500000000000,-41600000000000,-29150000000000,-54050000000000,34850000000000,27100000000000,17750000000000,8400000000000,-19300000000000,85950000000000,-42000000000000,17900000000000,-39100000000000,-45100000000000,-23200000000000,-14950000000000,-650000000000,28789474000000,4860526000000,-93350000000000,-23150000000000,17600000000000,550000000000,-24500000000000,-12050000000000,-32500000000000,43013158000000,-11113158000000,-73300000000000,81050000000000,-7900000000000,-51400000000000,32600000000000,110450000000000,-29450000000000,-47100000000000,-32047368000000,17247368000000,64436842000000,8513158000000,-27450000000000,7250000000000,88700000000000,-91450000000000,-58350000000000,20500000000000,-52800000000000,14450000000000,-42500000000000,6950000000000,-10918421000000,-43481579000000,55250000000000,-24600000000000,37350000000000,113800000000000,2900000000000,65150000000000,-38750000000000,-65150000000000,7847368000000,-20597368000000,-12150000000000,54100000000000,43100000000000,52300000000000,43600000000000,-104700000000000,-78350000000000,53050000000000,4150000000000,39450000000000,-34650000000000,-62650000000000,-33250000000000,-13750000000000,18450000000000,54000000000000,17300000000000,-52500000000000,-38750000000000,95500000000000,38300000000000,-51550000000000,22300000000000,-51500000000000,50225000000000,74975000000000,-87900000000000,67900000000000,61439474000000,-51939474000000,-19350000000000,5150000000000,-69050000000000,-4400000000000,-59500000000000,5000000000000,21466667000000,24433333000000,-39100000000000,500000000000,36600000000000,136400000000000],"hashrate_average_7d":3976444142538462,"hashrate_average_7d_count":169,"hashrate_block":555871284656954.94,"expected_blocks":4.57,"luck":2.426417307669615,"multipool":7},{"url":"https:\/\/www.f2pool.com","hashrate":44400365673025880,"miners":-1,"minpay":0.1,"id":14,"pool_id":"f2pool.com","fee":3,"feetype":"PPS%3","i":2444,"income":3.1473477786671747e-15,"blocks_nr":11,"lastblock":700512,"lastblocktime":1665072021,"country":"WL|Global","blocks_1000":443,"hashrate_average_100_count":76,"hashrate_average_100":44184370328220510,"hashrate_average_1h":44199379187945736,"history_start":1664502035,"history_interval":3600,"history_addlast":true,"history":[40176040010000000,56478160000000,-297858620000000,-37017220000000,-380583090000000,-85882440000000,1292770000000,-308656360000000,123823750000000,116533050000000,-121117130000000,-135250180000000,-396681470000000,912923740000000,424368850000000,24203160000000,-408568490000000,-46868690000000,230066830000000,250706430000000,-261116400000000,-335152040000000,451030090000000,-359094430000000,-529719480000000,-158943920000000,270433930000000,-9462960000000,404821200000000,-279801050000000,-232727860000000,-277050250000000,193921170000000,-315135350000000,385553710000000,-103607880000000,-159718020000000,408493870000000,78340170000000,-214582250000000,-140636060000000,-37340430000000,537546200000000,-97712690000000,-40841450000000,-267834860000000,208972560000000,667333980000000,-182632150000000,-190571050000000,-563580470000000,384086440000000,184992210000000,-145094490000000,-84290850000000,-280876800000000,537329590000000,107473250000000,54176960000000,16064840000000,-66048530000000,199883620000000,-29495790000000,406283730000000,-303553450000000,-171615000000000,491081180000000,36764690000000,-161349700000000,-246434730000000,269976540000000,153965360000000,42159060000000,51654890000000,2392623310000000,735215140000000,-139147570000000,-450305540000000,-1544255850000000,-505817980000000,899672290000000,-2059805690000000,2373710750000000,1345297440000000,-31942900000000,455515450000000,19000720000000,-98934960000000,-353938590000000,28570050000000,11703190000000,12436300000000,221934250000000,-587643220000000,418713810000000,-3230184960000000,3125714240000000,-318002270000000,-1802805100000000,-170510810000000,1814273410000000,92950190000000,47780790000000,-119435530000000,182087480000000,144991200000000,50295160000000,-100802010000000,85953200000000,632912920000000,101364380000000,37698730000000,-605305330000000,88175480000000,168144490000000,109483850000000,131244150000000,-650592620000000,-129161860000000,338866710000000,428690890000000,-305563970000000,-289980800000000,94057860000000,235453100000000,-304994270000000,-318366900000000,-307477480000000,408081900000000,252329640000000,138067930000000,-67829300000000,-203452070000000,679978360000000,82531900000000,-199706080000000,22496280000000,28395600000000,18240080000000,204575400000000,380890620000000,-641062870000000,-81496980000000,152376390000000,-153988330000000,-163836900000000,-53249650000000,182364780000000,386990450000000,-194843580000000,32845120000000,-392007910000000,331391040000000,-281127550000000,190988580000000,-53325410000000,-125989480000000,376394790000000,286706090000000,-181847470000000,-277407630000000,245159770000000,207966150000000,-74172490000000,299934120000000,-558300740000000,70145980000000,314838580000000,-184492550000000],"hashrate_average_7d":41733643467159770,"hashrate_average_7d_count":169,"expected_blocks":51.93,"multipool":33}],"hashblock":{"hashrate_average_100":43389627338610200,"blocks_count":51,"pools":[[897693826045716.1,44,20402132410129.91,"https:\/\/www.poolin.com"],[555871284656954.94,7,79410183522422.14,"https:\/\/pool.btc.com"]],"hashrate_block_all":850777006639415.6,"hashrate_block_min":20402132410129.91,"hashrate_block_max":79410183522422.14,"pool_hashblock_average":49906157966276.02,"hashrate_block":850777006639415.6},"time":1665112414,"hashrate":82220000000000000,"difficulty":6060301038.720206,"height":700648,"symbol":"DCR","maxhash":44400365673025880,"poolshash":90923396578475090,"nethash_estimat":85077700663941570,"poolsminers":1651,"supply":{"circulating":14406089.03210404,"total":21000000,"emission24":2930},"block_time_target":300,"block_height_ok":true,"algo":"Blake256R14","hashrate_from_diff":false,"hashrate_src":"https:\/\/lab.antpool.com","unit":"H\/s","block_time_average":266.7,"minerstat":[1.3882395326381e-16,26.320709833104,1.00372783,2536],"link":{"coingecko":"decred","cmc":"decred","whattomine":"152-dcr-blake (14r)","coin360":"decred-dcr","coinpaprika":"dcr-decred"},"latest_release":{"tag":"release-v1.7.4","name":"dcrd v1.7.4","t":1659553036},"price":26.36}