{"data":[{"url":"https:\/\/www.okx.com\/pool","hashrate":7180000000000,"miners":-1,"minpay":-1,"id":23,"pool_id":"okx.com","i":1612,"workers":1,"lastblock":630904,"feetype":"PPLNS","fee":2,"country":"HK|Hong Kong","hashrate_average_100_count":74,"hashrate_average_100":8501115392736.486,"hashrate_average_1h":8045384615384.615,"history_start":1666489244,"history_interval":3600,"history_addlast":true,"history":[10039000000000,-919000000000,206000000000,127500000000,-641500000000,-385000000000,444500000000,-148000000000,-401000000000,-139000000000,920500000000,268000000000,-597000000000,-13500000000,350000000000,-160500000000,-401500000000,127500000000,1476000000000,474000000000,-363500000000,-525000000000,790000000000,-1007500000000,18500000000,-1381500000000,171000000000,639500000000,-1302500000000,1247500000000,463000000000,-467500000000,-270000000000,-533000000000,443500000000,443500000000,273500000000,531500000000,-670000000000,242000000000,205500000000,-220500000000,-332500000000,115000000000,393000000000,-894500000000,-845500000000,1403000000000,-285000000000,776500000000,-148000000000,429500000000,-383000000000,495500000000,-925500000000,-462500000000,-243500000000,262500000000,0,0,0,0,0,0,0,0,0,0,0,0,0,0,0,0,0,0,0,0,0,0,0,0,0,0,0,0,0,0,0,0,0,0,0,0,0,0,0,0,0,0,0,0,-3919500000000,-4790500000000,8934500000000,259000000000,952000000000,-990500000000,1290000000000,-1112500000000,-74500000000,-227000000000,-317000000000,529000000000,-712000000000,-562000000000,2099000000000,-353500000000,-128500000000,-462000000000,-404500000000,-628500000000,1323000000000,212000000000,-278777778000,62277778000,-56000000000,482000000000,-1680500000000,-142000000000,412000000000,348000000000,-7000000000,-135500000000,601000000000,-810000000000,822000000000,191000000000,365000000000,-386000000000,-420500000000,-491000000000,184000000000,303500000000,-619500000000,-82500000000,288000000000,682000000000,-88088235000,-846411765000,1786500000000,-1021500000000,25000000000,1257500000000,-1103500000000,-144500000000,622000000000,-860000000000,-426000000000,503000000000,-583000000000,938722222000,-166222222000,-1277500000000,-306000000000,567000000000,292000000000,618000000000,-999115385000],"hashrate_average_7d":8881143436828.406,"hashrate_average_7d_count":169,"expected_blocks":0.01,"multipool":5},{"url":"https:\/\/www2.coinmine.pl\/dcr","hashrate":552495107466240,"miners":-1,"minpay":0.05,"id":5,"pool_id":"coinmine.pl","i":12342,"workers":28,"blocks_nr":5,"lastblock":707070,"lastblocktime":"1667051303","fee":1,"feetype":"PPLNS","height":707232,"country":"WL|EU , US , Asia","blocks_1000":6,"hashrate_average_100_count":74,"hashrate_average_100":582253242352631.2,"hashrate_average_1h":566517901409108.9,"history_start":1666489244,"history_interval":3600,"history_addlast":true,"history":[537772125500000,-12367689200000,3973990600000,22450014500000,-2984236400000,11512075700000,-7900654100000,-6266280800000,-19312031500000,8506183600000,13278221900000,-6154281800000,23322588700000,-53398034500000,-13248122900000,24566679000000,-24522394100000,21605458600000,-13975815800000,-5285840700000,2811157300000,-15023130300000,2806011000000,7048242200000,-677339700000,42653402700000,-4448085900000,2936888100000,11945458100000,-7641840300000,-2362372300000,-13446577000000,3149828900000,21304736900000,-34155044400000,39799166900000,58917739500000,-43283509100000,24897952900000,2489940100000,-497351500000,-26300926700000,-24322872300000,38736324700000,-15210832600000,-21085891700000,8728652400000,-18637212400000,1549631100000,12712943700000,37270453700000,6586261200000,-2147051400000,394246000000,-20360954200000,15088233400000,-12320604200000,25308546200000,10385078400000,-20162227300000,1395555700000,-12514762600000,13771556200000,1493083700000,-4354215900000,-31816846600000,16386927800000,-27302138700000,-9109180200000,33409547400000,-10017857200000,47061651100000,-980249900000,3295175400000,26395151900000,-16349605500000,14417604800000,-36425732800000,25613084900000,10605316400000,16806365800000,-20411275600000,-13753783000000,20722737100000,-17248114400000,-2812097400000,-9779052200000,-2545479600000,35554548800000,1333306000000,-55474547800000,-15878564300000,7659019500000,-19106952000000,16758671600000,-4934183100000,-11156355200000,-1167757000000,19415842300000,-22659208300000,12497131700000,44798255900000,-12133340900000,12101467200000,12912591300000,-24882877300000,-27609160400000,-12164977200000,15050086200000,4096973200000,-5581228000000,13059963900000,-33571584200000,21688627200000,10185035000000,-9284181600000,3550011100000,3045653200000,-17349932600000,9130778300000,-20783374400000,23136024900000,-2779912400000,-14110177500000,36517045500000,20868718600000,-12336798400000,17800288400000,-22483432200000,-3515182900000,21143354300000,11552157900000,-29123083600000,10235103000000,1539400800000,-37630642300000,-8678168500000,-114469300000,4341285100000,-2995712300000,13388773100000,12557252900000,6121208200000,-36347125900000,-10675109400000,-3594870100000,26187125100000,-8875414900000,5968223900000,-1425994400000,-8751358900000,10017342500000,19155233400000,-4849925600000,-3647965800000,-12013384700000,9500888600000,-377784600000,-25942289600000,24924662000000,-14021670200000,20581298300000,-603995600000,11757425500000,-35457501800000,18299247800000,-9629366700000,-27529156300000,16374202400000],"hashrate_average_7d":579088896335503.1,"hashrate_average_7d_count":169,"expected_blocks":0.63,"multipool":6},{"url":"https:\/\/lab.antpool.com","hashrate":4710000000000000,"miners":-1,"minpay":0.1,"id":11,"pool_id":"antpool.com","i":2063,"nethash":83920000000000000,"netdiff":5624351718,"feetype":"PPS","fee":3,"income":3.4466039999999997e-15,"country":"WL|Global","hashrate_average_100_count":74,"hashrate_average_100":4649432538006756,"hashrate_average_1h":4606923076923077,"history_start":1666489244,"history_interval":3600,"history_addlast":true,"history":[4579000000000000,79000000000000,-40000000000000,87500000000000,-6000000000000,-11500000000000,17500000000000,-17000000000000,-9000000000000,19000000000000,49500000000000,-29000000000000,27500000000000,-40000000000000,28000000000000,-144500000000000,105500000000000,2500000000000,54000000000000,52500000000000,-92000000000000,5000000000000,41000000000000,-39000000000000,-25000000000000,-946500000000000,943500000000000,-34500000000000,-4500000000000,4000000000000,-38500000000000,90500000000000,-89000000000000,24500000000000,-40500000000000,51000000000000,8000000000000,64500000000000,-41000000000000,-128500000000000,87500000000000,67500000000000,24000000000000,49000000000000,-54000000000000,-5500000000000,5500000000000,-10000000000000,13500000000000,12000000000000,-45500000000000,-27000000000000,-38500000000000,22000000000000,17000000000000,-90500000000000,61500000000000,286000000000000,272500000000000,-4500000000000,87500000000000,25000000000000,-31500000000000,-151000000000000,-22500000000000,12500000000000,35500000000000,3500000000000,-93500000000000,140000000000000,-137000000000000,15000000000000,114500000000000,-38500000000000,-27500000000000,110000000000000,70500000000000,-112500000000000,42000000000000,28000000000000,46500000000000,-100500000000000,-8500000000000,-28000000000000,116500000000000,-85500000000000,104500000000000,-174000000000000,53500000000000,35500000000000,49000000000000,-49500000000000,-65000000000000,-788500000000000,-41500000000000,53500000000000,43500000000000,23500000000000,-100500000000000,15000000000000,-74763158000000,3263158000000,46000000000000,-15000000000000,24500000000000,28500000000000,215000000000000,173500000000000,54000000000000,-64500000000000,-29500000000000,-147500000000000,140500000000000,-46000000000000,77000000000000,-5500000000000,-33500000000000,-63000000000000,-270500000000000,-26000000000000,29000000000000,-53500000000000,102000000000000,-68500000000000,-16666667000000,2666667000000,-36000000000000,87000000000000,-59500000000000,-3500000000000,36500000000000,-44500000000000,-30000000000000,-65000000000000,90000000000000,-169000000000000,112000000000000,60000000000000,41500000000000,-4000000000000,-39000000000000,24000000000000,18000000000000,-18000000000000,16000000000000,45000000000000,4000000000000,-65500000000000,68444444000000,-24444444000000,7500000000000,-28500000000000,2500000000000,-104000000000000,47000000000000,127000000000000,98000000000000,-82000000000000,120500000000000,-94500000000000,118500000000000,45222222000000,20277778000000,2000000000000,1500000000000,-25000000000000,-1000000000000,-21000000000000,-22076923000000],"hashrate_average_7d":4685270177029586,"hashrate_average_7d_count":169,"expected_blocks":5.05,"multipool":16},{"url":"https:\/\/pool.btc.com","hashrate":3567000000000000,"miners":-1,"minpay":0.1,"id":4,"pool_id":"pool.btc.com","feetype":"PPS","i":14356,"workers":80,"income":3.5532020559414004e-15,"i_blocks":14398,"json_blocks":{"err_no":0,"data":{"blocks":{"current_page":1,"data":[{"height":707217,"is_orphaned":0,"hash":"0000000000000000280a77d090096f3f4a0943e2692c5181537c06d31401e392","rewards":"0.99343280","size":51667,"prev_hash":"00000000000000007db637246a069efc7ecfc6b79ace157bb78bbe0bfa5e056f","bits":419480445,"version":9,"created_at":1667094342,"region_id":36,"region_name":"BitDeer"},{"height":707209,"is_orphaned":0,"hash":"0000000000000000b0d491cbf0c3c7fdea8f50624444c909f94721ff494b6554","rewards":"0.99343280","size":5223,"prev_hash":"000000000000000057e406b64b5e45e1ea79893ab3f9a34e05672f9a30610f85","bits":419480445,"version":9,"created_at":1667091706,"region_id":34,"region_name":"America"},{"height":707203,"is_orphaned":0,"hash":"00000000000000007c55bc1fa53661b46c785728e34c1f3fa6cedc8f9888c024","rewards":"0.99343280","size":3776,"prev_hash":"0000000000000000ad61b03d90ebdf12b93aad035af0f7db6541fb63615d6148","bits":419480445,"version":9,"created_at":1667090786,"region_id":34,"region_name":"America"},{"height":707194,"is_orphaned":0,"hash":"000000000000000033686196bc2ad5619e7958144b0f60651c15533b0818f69d","rewards":"0.99343280","size":9989,"prev_hash":"00000000000000001445c8c1ab8ef368dee432c1f930c4d5a930bf3f6d31a0bb","bits":419480445,"version":9,"created_at":1667087924,"region_id":36,"region_name":"BitDeer"},{"height":707189,"is_orphaned":0,"hash":"00000000000000002287d6b8a398124e3a4f1b17dfe040c713bc8864eecb990e","rewards":"0.99343280","size":21508,"prev_hash":"000000000000000051d6ab911bf2d35bbbaa5151d3a711fd7736fcc881174b7e","bits":419480445,"version":9,"created_at":1667087025,"region_id":34,"region_name":"America"},{"height":707172,"is_orphaned":0,"hash":"0000000000000000b4870f75dacb46d418b4e046ef7e54208901967c580f615b","rewards":"0.99343280","size":41431,"prev_hash":"0000000000000000919ec49ab1a1c1d4a03c275b3cadbd1a0e7ce1d9e35ae9a1","bits":419478299,"version":9,"created_at":1667080176,"region_id":36,"region_name":"BitDeer"},{"height":707110,"is_orphaned":0,"hash":"000000000000000097d720f2a6485a187236f936eee1603935ff050334bcfab0","rewards":"0.99343280","size":58580,"prev_hash":"00000000000000000b41c9fef3ee16eb8afd74526a8c6ec96b9e318f012488e9","bits":419478299,"version":9,"created_at":1667062868,"region_id":36,"region_name":"BitDeer"},{"height":707015,"is_orphaned":0,"hash":"000000000000000071640b585b19d932e7d7b07b22cb1130f489b9a2121849c2","rewards":"0.99343280","size":8872,"prev_hash":"00000000000000001c596ba8fe0bd38c738dccf269ced8ce8f70b85b628ab007","bits":419473086,"version":9,"created_at":1667033131,"region_id":34,"region_name":"America"},{"height":707010,"is_orphaned":0,"hash":"000000000000000008506edb61513a9e417307fe66b30eb9b66d69baf866f519","rewards":"0.99343280","size":58977,"prev_hash":"00000000000000000bc134528d29f7b58f6da5cda3dd7aced70848da13e674cb","bits":419473086,"version":9,"created_at":1667030868,"region_id":36,"region_name":"BitDeer"},{"height":706941,"is_orphaned":0,"hash":"000000000000000032a0170490c042c7321f90e521ad69f44ae6090f2c1715fc","rewards":"0.99343280","size":61499,"prev_hash":"0000000000000000a1ed35f45dd2ea835dba238250bf0676d0af4530c62e27fe","bits":419473086,"version":9,"created_at":1667006447,"region_id":34,"region_name":"America"}],"first_page_url":"https:\/\/eu-api.connectbtc.com\/\/public\/v1\/pool\/blocks\/merge?order_by=desc&page_size=10&page=1","from":1,"last_page":2208,"last_page_url":"https:\/\/eu-api.connectbtc.com\/\/public\/v1\/pool\/blocks\/merge?order_by=desc&page_size=10&page=2208","next_page_url":"https:\/\/eu-api.connectbtc.com\/\/public\/v1\/pool\/blocks\/merge?order_by=desc&page_size=10&page=2","path":"https:\/\/eu-api.connectbtc.com\/\/public\/v1\/pool\/blocks\/merge","per_page":10,"prev_page_url":null,"to":10,"total":22075},"blocks_count":22075,"rewards_count":"190461.20862544"},"trace_id":"d0ead9f3-10b2-4cc1-9a50-68925eaa7a6b"},"blocks_nr":10,"lastblock":707217,"lastblocktime":"1667094326","country":"WL|CN , EU , US","blocks_1000":28,"blocks_count":6,"hashrate_average_100_count":74,"hashrate_average_100":3701179317989864.5,"hashrate_average_1h":3588692307692307.5,"history_start":1666489244,"history_interval":3600,"history_addlast":true,"history":[3275700000000000,-25900000000000,38700000000000,-102500000000000,44400000000000,58600000000000,-92700000000000,-2800000000000,22450000000000,-16750000000000,-4700000000000,34350000000000,-44650000000000,-41150000000000,21950000000000,-31800000000000,6500000000000,25950000000000,-83450000000000,27800000000000,101300000000000,-54800000000000,46100000000000,-38100000000000,-10750000000000,-2650000000000,9650000000000,-78100000000000,20600000000000,7150000000000,1100000000000,-20700000000000,6200000000000,80450000000000,-550000000000,26250000000000,-16100000000000,-25900000000000,-29250000000000,76650000000000,-11000000000000,-24250000000000,-57500000000000,50600000000000,-65250000000000,51250000000000,65250000000000,-54850000000000,-26000000000000,-48900000000000,256450000000000,15950000000000,34200000000000,-16300000000000,-1400000000000,-30400000000000,2350000000000,-7350000000000,-6700000000000,70000000000000,8850000000000,100000000000,1050000000000,41800000000000,-2200000000000,-52750000000000,-42200000000000,-17600000000000,-25200000000000,-4600000000000,149100000000000,-8100000000000,-12150000000000,66500000000000,-61150000000000,-12100000000000,62100000000000,-23500000000000,-1050000000000,-2200000000000,19900000000000,-66100000000000,55250000000000,-21300000000000,42050000000000,-50000000000000,32650000000000,62750000000000,-40750000000000,2150000000000,-86450000000000,30500000000000,-55800000000000,35650000000000,3800000000000,13550000000000,100550000000000,-58850000000000,-47750000000000,-12650000000000,-29497368000000,31647368000000,5850000000000,-105650000000000,78250000000000,24850000000000,-27900000000000,12200000000000,-40300000000000,35950000000000,64000000000000,-39800000000000,-41950000000000,12200000000000,-51200000000000,-55200000000000,-32050000000000,133850000000000,10950000000000,41900000000000,72400000000000,13250000000000,-42350000000000,35350000000000,-17355556000000,-5994444000000,-10050000000000,-15850000000000,28250000000000,-14450000000000,-45700000000000,21400000000000,-48600000000000,45250000000000,2750000000000,-19450000000000,22450000000000,-53600000000000,51750000000000,28550000000000,71800000000000,21050000000000,950000000000,22100000000000,81450000000000,-53900000000000,2800000000000,-41200000000000,-16111765000000,9711765000000,24350000000000,-40750000000000,4150000000000,42000000000000,-17100000000000,-13600000000000,15250000000000,15350000000000,68200000000000,-9200000000000,9000000000000,43272222000000,-32472222000000,9500000000000,2600000000000,-16500000000000,1100000000000,-17950000000000,-101807692000000],"hashrate_average_7d":3393287573023668,"hashrate_average_7d_count":169,"hashrate_block":616863219664977.4,"expected_blocks":4.02,"luck":1.9802431045044635,"multipool":7},{"url":"https:\/\/www.f2pool.com","hashrate":50354961833917920,"miners":-1,"minpay":0.1,"id":14,"pool_id":"f2pool.com","fee":3,"feetype":"PPS%3","i":2445,"income":3.3577247072698116e-15,"blocks_nr":12,"lastblock":707232,"lastblocktime":1667099304,"country":"WL|Global","blocks_1000":569,"blocks_count":58,"hashrate_average_100_count":74,"hashrate_average_100":50397025798682424,"hashrate_average_1h":50291396178538720,"history_start":1666489244,"history_interval":3600,"history_addlast":true,"history":[47989220240000000,-3081834650000000,3186828240000000,140317820000000,351179070000000,176384040000000,-202705970000000,-627375530000000,966575710000000,93278260000000,47160190000000,-141505960000000,-274033430000000,213276370000000,-35743000000000,127132920000000,-33548140000000,-227647150000000,175711540000000,145726370000000,-3247010000000,-498174670000000,210235450000000,-465987040000000,651009490000000,-52278090000000,-385637950000000,541974590000000,-45895250000000,8891100000000,-2457930000000,310400000000,259139000000000,39129520000000,-43626880000000,-112830690000000,-289749070000000,474512500000000,32455460000000,-153364130000000,-72265740000000,-20313810000000,382837000000000,-425237990000000,-93016900000000,-151932390000000,480524560000000,-367596630000000,-208432830000000,-61570250000000,-233893690000000,190629890000000,602762280000000,-16471080000000,-89024620000000,-389736360000000,270056020000000,204216830000000,69745780000000,-438105150000000,143821780000000,-135294910000000,399925230000000,3094970000000,-119128110000000,-113954910000000,176224210000000,-219733960000000,123588470000000,-482117340000000,157721910000000,456727400000000,-149957330000000,-18886750000000,-64527680000000,77804160000000,86182970000000,-37642230000000,71621110000000,-386958630000000,370455380000000,-155883270000000,-5523971690000000,-991477630000000,-93557150000000,5643028190000000,1070615550000000,-146607030000000,-74855420000000,-163987510000000,418591910000000,-82205310000000,-122258240000000,-143730500000000,334379460000000,-698038790000000,116618570000000,874091730000000,-872802990000000,222296270000000,262732430000000,1587730930000000,216385300000000,-473474010000000,-363172790000000,13511470000000,235847700000000,-191197960000000,-395412950000000,417976210000000,113399400000000,-164546240000000,-153301010000000,-29517770000000,17776390000000,76395310000000,-23310750000000,-711069520000000,662880850000000,-131153340000000,-21471660000000,548044790000000,-474315870000000,274847560000000,65187390000000,48350940000000,14045250000000,753436650000000,589654760000000,21696240000000,-3697840000000,-225234320000000,-136362140000000,-605960430000000,-195173410000000,39862830000000,-211253570000000,-73096610000000,474457920000000,-3288990000000,-87584940000000,-378942650000000,44897290000000,497353390000000,-332579440000000,105088490000000,-365026530000000,-120325450000000,123261530000000,-166577170000000,294370550000000,345288300000000,-74614660000000,122571900000000,194175460000000,-73461230000000,-363473420000000,348930640000000,33893990000000,242232200000000,-297708100000000,-213366010000000,223585120000000,-311052060000000,-94715990000000,-198442880000000,118550910000000,-121044420000000,212709670000000],"hashrate_average_7d":49324941384378710,"hashrate_average_7d_count":169,"hashrate_block":868914237908317.6,"expected_blocks":54.73,"luck":3.265069708445054,"multipool":33},{"url":"https:\/\/www.poolin.com","hashrate":31555000000000000,"miners":-1,"minpay":0.01,"id":3,"pool_id":"poolin.com","fee":3,"feetype":"PPS","i":13417,"json":{"err_no":0,"data":{"shares":{"shares_1m":30.74,"shares_5m":31.555,"shares_15m":31.86,"shares_1h":32.22,"shares_unit":"P"},"reject":{"1m":0,"5m":0,"15m":0.0011,"1h":0.0018},"workers":1337,"users":384,"total_blocks":143366,"total_rewards":104516932232961}},"workers":1337,"netdiff":5624351718.320711,"nethash":"80521355633371381","income":3.8860700000000004e-15,"blocks_nr":18,"lastblock":707227,"lastblocktime":"1667097536","country":"US|United States","blocks_1000":350,"blocks_count":32,"hashrate_average_100_count":74,"hashrate_average_100":34293512035472972,"hashrate_average_1h":31605538461538460,"history_start":1666489244,"history_interval":3600,"history_addlast":true,"history":[27486650000000000,-309550000000000,-677300000000000,-1814650000000000,-106250000000000,217200000000000,-197000000000000,2300300000000000,268950000000000,322250000000000,160850000000000,-398650000000000,131800000000000,-209400000000000,-75800000000000,320050000000000,-191950000000000,66000000000000,158450000000000,18000000000000,-1550000000000,-444750000000000,278850000000000,-169950000000000,288050000000000,196150000000000,50197370000000,287552630000000,-45550000000000,-208200000000000,36600000000000,-85600000000000,267900000000000,-143400000000000,-135600000000000,-906950000000000,554850000000000,30500000000000,213700000000000,105900000000000,229350000000000,146900000000000,-168050000000000,-2950000000000,-305900000000000,103500000000000,-3311900000000000,1420500000000000,1517800000000000,-2346450000000000,-1623000000000000,-530950000000000,50550000000000,787600000000000,2360100000000000,-2489950000000000,5039200000000000,310400000000000,-444800000000000,267950000000000,-20550000000000,210550000000000,180000000000000,-235100000000000,149250000000000,-67900000000000,191200000000000,-174450000000000,329550000000000,-287950000000000,13200000000000,-96050000000000,-113036840000000,-3969263160000000,1334000000000000,1185400000000000,-332050000000000,604650000000000,441750000000000,337500000000000,-211050000000000,-44500000000000,337550000000000,-90200000000000,132350000000000,626350000000000,186900000000000,3500000000000,-10100000000000,-4400000000000,178600000000000,127000000000000,-665150000000000,-821000000000000,563500000000000,5768750000000000,890700000000000,-569100000000000,555400000000000,356650000000000,-393789470000000,-2471410530000000,2985200000000000,16450000000000,-307250000000000,247100000000000,-241950000000000,-712750000000000,422650000000000,-179550000000000,-553450000000000,297450000000000,80800000000000,92200000000000,124100000000000,257900000000000,22900000000000,45250000000000,-646850000000000,-7147150000000000,18250000000000,68650000000000,-231350000000000,210450000000000,-25627780000000,144477780000000,-185050000000000,-31450000000000,-101200000000000,-331750000000000,37013160000000,-115813160000000,248450000000000,-60050000000000,-8850000000000,48700000000000,-75450000000000,39150000000000,95800000000000,-109650000000000,299850000000000,-91250000000000,-13000000000000,-202600000000000,-25100000000000,90500000000000,4827550000000000,2169200000000000,152947060000000,393802940000000,-42818420000000,449068420000000,-227700000000000,53100000000000,-182300000000000,66350000000000,221550000000000,-482350000000000,26700000000000,116950000000000,-108500000000000,72055560000000,37394440000000,-22650000000000,4250000000000,-514750000000000,307750000000000,-2645250000000000,-338761540000000],"hashrate_average_7d":29459965556804732,"hashrate_average_7d_count":169,"hashrate_block":1071672251108530.4,"expected_blocks":37.25,"luck":-5.245312812949514,"multipool":15}],"hashblock":{"hashrate_average_100":88391717152145260,"blocks_count":96,"pools":[[616863219664977.4,6,102810536610829.56,"https:\/\/pool.btc.com"],[868914237908317.6,58,14981279963936.512,"https:\/\/www.f2pool.com"],[1071672251108530.4,32,33489757847141.574,"https:\/\/www.poolin.com"]],"hashrate_block_all":920747053668179.9,"hashrate_block_min":14981279963936.512,"hashrate_block_max":102810536610829.56,"pool_hashblock_average":50427191473969.22,"hashrate_block":920747053668179.9},"time":1667099805,"hashrate":83920000000000000,"difficulty":5624351718.320711,"height":707232,"symbol":"DCR","maxhash":50354961833917920,"poolshash":90746636941384160,"nethash_estimat":92074705366817980,"poolsminers":1446,"supply":{"circulating":14465273.41321752,"total":21000000,"emission24":2402},"block_time_target":300,"block_height_ok":true,"algo":"Blake256R14","hashrate_from_diff":false,"hashrate_src":"https:\/\/lab.antpool.com","unit":"H\/s","block_time_average":320,"minerstat":[1.4812935407631e-16,27.59689191798,0.9939647,1638],"link":{"coingecko":"decred","cmc":"decred","whattomine":"152-dcr-blake (14r)","coin360":"decred-dcr","coinpaprika":"dcr-decred"},"latest_release":{"tag":"release-v1.7.5","name":"dcrd v1.7.5","t":1665429869},"price":27.59}