{"data":[{"url":"https:\/\/www.okx.com\/pool","hashrate":8480000000000,"miners":-1,"minpay":-1,"id":23,"pool_id":"okx.com","i":1611,"workers":1,"lastblock":630904,"feetype":"PPLNS","fee":2,"country":"HK|Hong Kong","hashrate_average_100_count":80,"hashrate_average_100":8655205078125,"hashrate_average_1h":8718888888888.889,"history_start":1664764846,"history_interval":3600,"history_addlast":true,"history":[8387000000000,1247000000000,-952500000000,-518500000000,1791500000000,-1424000000000,1984000000000,-691000000000,-509500000000,521263158000,-503263158000,-95000000000,221500000000,-858500000000,398000000000,-641000000000,-251500000000,411000000000,1955078950000,-1188578950000,-906500000000,989500000000,725500000000,-1345000000000,415000000000,62500000000,-533500000000,1270500000000,-1321526316000,-88473684000,572684211000,940315789000,-1238500000000,-356500000000,571000000000,-789500000000,-391500000000,2468000000000,-246000000000,-58500000000,502500000000,-610500000000,-1196078947000,-17921053000,-657000000000,818000000000,-215000000000,627500000000,-468000000000,828000000000,-1443000000000,908500000000,-247394737000,404394737000,726000000000,-1538000000000,215500000000,2301000000000,-693500000000,-634000000000,-471000000000,-481500000000,189000000000,-353000000000,1819500000000,-1688500000000,420000000000,-363000000000,718000000000,-325500000000,-669500000000,-123000000000,342000000000,-372000000000,414000000000,942000000000,537000000000,-333500000000,-2247277778000,960277778000,-410000000000,83500000000,127947368000,-102947368000,613000000000,-346500000000,466500000000,681000000000,-333000000000,1076000000000,-1203555556000,-626444444000,-294500000000,1280500000000,-590000000000,-329000000000,820500000000,453500000000,-1377500000000,422500000000,-767000000000,632000000000,-53500000000,-248000000000,1092500000000,701000000000,-267500000000,-332500000000,2500000000,-427500000000,-249000000000,1642500000000,-1649000000000,-176500000000,349947368000,-559947368000,435000000000,1372000000000,-772500000000,254500000000,-924000000000,-454000000000,1350500000000,-930000000000,293500000000,-455500000000,305500000000,-129000000000,178000000000,-1301500000000,-17000000000,-230000000000,1108500000000,1308000000000,-231000000000,737500000000,-2409500000000,-110000000000,1376000000000,-1093000000000,-94500000000,1053500000000,-1068500000000,222000000000,1428000000000,-1652500000000,1252000000000,-732000000000,-303500000000,1257441176000,227773110000,584285714000,-1806250000000,511250000000,-467647059000,-146352941000,534000000000,-668947368000,918447368000,-620000000000,192078947000,-1113453947000,498238636000,1401328672000,-1618942308000,-5750000000,1305500000000,-679611111000],"hashrate_average_7d":9062653556761.898,"hashrate_average_7d_count":168,"expected_blocks":0,"multipool":5},{"url":"https:\/\/www2.coinmine.pl\/dcr","hashrate":581679263430738,"miners":-1,"minpay":0.05,"id":5,"pool_id":"coinmine.pl","i":12324,"workers":34,"blocks_nr":5,"lastblock":701463,"lastblocktime":"1665356150","fee":1,"feetype":"PPLNS","height":701515,"country":"WL|EU , US , Asia","blocks_1000":3,"blocks_count":1,"hashrate_average_100_count":80,"hashrate_average_100":547830269216777.7,"hashrate_average_1h":552607174878159.25,"history_start":1664764846,"history_interval":3600,"history_addlast":true,"history":[566590649800000,3315262500000,-15990115000000,1031021900000,16503398100000,-19807131400000,18483115700000,-1120056100000,-7594643300000,-9072395200000,10354887200000,-12857668800000,-3720191600000,3546535900000,-11842513600000,18996327000000,-9475529600000,-5256074600000,11526944900000,3606250800000,-29611204400000,20952182100000,9398163000000,1599007800000,8697759200000,-19730255900000,17847291100000,-10556123500000,7870014600000,-5708192700000,7164851100000,-1719422600000,321890100000,-9005686000000,10930238800000,-20783903900000,18928904000000,-2510653400000,3478321000000,-14617659300000,18141664300000,-11405391100000,-2100618300000,6865409200000,-17458271500000,17042889700000,-8108992700000,-9677546500000,13557007200000,-2560256200000,8844996100000,-16996193500000,-2255999900000,23970224500000,-8200985500000,-20724981500000,17010162100000,-1565364200000,15984303000000,-30577273000000,30915584900000,-14279146800000,-7045804700000,35105483300000,-28883901300000,7481873900000,-23949342500000,25183487000000,-15336482900000,31745092600000,-35270968800000,-2799528700000,14534507700000,-5607068200000,17786128800000,-8525157300000,3742593300000,1385312600000,-22854031300000,9546972500000,-5833700300000,7362858600000,17642553900000,-14719564200000,-37390823900000,32185899700000,-18972957000000,21503529800000,11859415900000,-4891730100000,-13522919200000,-11799332300000,15196850400000,-9305613500000,17232987600000,-20639140200000,4475901400000,9751637600000,-2167831200000,-7108644500000,6049515500000,6872401100000,-8750950500000,-11488816700000,21712608400000,15390186800000,-2746027200000,-34397341400000,16966411300000,-818292000000,8701564400000,-4389542500000,-14778602000000,-23699001600000,-1460435400000,-14538095100000,16858928400000,1854533800000,3763386800000,9895066600000,-18231950300000,2063496500000,3773656700000,-4933936200000,-3884115400000,7894147400000,7970926200000,-23262625700000,30496879600000,-17354326200000,12825949600000,-30610501500000,13033845200000,4938939300000,45439791600000,569836800000,5100311900000,-9774213700000,-19538194700000,-16720623000000,14669034400000,2773174700000,-3480282400000,17868431400000,-4593686400000,6383038000000,-4720960400000,10274481000000,-20278949600000,5168318600000,5839414000000,6792919000000,-23643464800000,3951947800000,14945332100000,-832658400000,-4255796700000,-5551624300000,7026684000000,-36638919400000,24194433600000,-26131669900000,28817658500000,23474537300000,-5192543100000,12418484300000,-20310076600000,-838235100000],"hashrate_average_7d":549568763088690.3,"hashrate_average_7d_count":168,"expected_blocks":0.13,"luck":0.8669457965469533,"multipool":6},{"url":"https:\/\/lab.antpool.com","hashrate":2790000000000000,"miners":-1,"minpay":0.1,"id":11,"pool_id":"antpool.com","i":2062,"nethash":88750000000000000,"netdiff":6350156384,"feetype":"PPS","fee":3,"income":3.0832031999999995e-15,"country":"WL|Global","hashrate_average_100_count":80,"hashrate_average_100":2658382812500000,"hashrate_average_1h":2759444444444444.5,"history_start":1664764846,"history_interval":3600,"history_addlast":true,"history":[2484500000000000,-23500000000000,-31000000000000,-38500000000000,3000000000000,-45000000000000,19500000000000,-9000000000000,18500000000000,107815789000000,-12815789000000,33000000000000,-4500000000000,-23000000000000,-156500000000000,78000000000000,35500000000000,59000000000000,-16578947000000,-199921053000000,-222000000000000,-6000000000000,-158000000000000,62000000000000,-12000000000000,-11000000000000,-68500000000000,15500000000000,-22184211000000,41684211000000,10947368000000,-36947368000000,12000000000000,15000000000000,11500000000000,-25500000000000,-25500000000000,-58000000000000,-32500000000000,38000000000000,48000000000000,-2500000000000,41184211000000,28315789000000,-11000000000000,-37500000000000,15000000000000,229000000000000,371000000000000,161000000000000,-86000000000000,-72500000000000,26368421000000,12131579000000,8500000000000,-39000000000000,20000000000000,24000000000000,-75500000000000,19500000000000,-78500000000000,-13000000000000,-84500000000000,79500000000000,11500000000000,-21000000000000,84000000000000,47500000000000,81500000000000,29000000000000,3000000000000,55500000000000,62500000000000,-76000000000000,-5500000000000,-25000000000000,-101500000000000,93500000000000,-220611111000000,-33388889000000,-37500000000000,-31000000000000,44052632000000,26947368000000,-61000000000000,-33500000000000,-12000000000000,145500000000000,-64500000000000,-4000000000000,59833333000000,2666667000000,38000000000000,-56000000000000,73500000000000,59000000000000,-92000000000000,166000000000000,-43500000000000,-6000000000000,-71500000000000,-77000000000000,-101000000000000,-76500000000000,59500000000000,44000000000000,-43500000000000,27000000000000,-68000000000000,-73500000000000,-151000000000000,144500000000000,147500000000000,42000000000000,9078947000000,-190578947000000,-392500000000000,17500000000000,-2000000000000,37500000000000,17000000000000,85000000000000,-82000000000000,-8000000000000,-12500000000000,24000000000000,6000000000000,-51000000000000,372000000000000,81000000000000,7500000000000,42500000000000,85500000000000,10500000000000,-135500000000000,111000000000000,38500000000000,50500000000000,3500000000000,-6500000000000,-15000000000000,18500000000000,-29500000000000,-9500000000000,29500000000000,12000000000000,39000000000000,29000000000000,130000000000000,76088235000000,-53445378000000,-60714286000000,51071429000000,-61785714000000,756302000000,81529412000000,-122210526000000,35263158000000,-179552632000000,166000000000000,-23815789000000,88190789000000,-15511364000000,-7902098000000,-27211538000000,47250000000000,38500000000000,52444444000000],"hashrate_average_7d":2322459356571428.5,"hashrate_average_7d_count":168,"expected_blocks":0.65,"multipool":16},{"url":"https:\/\/www.poolin.com","hashrate":39254000000000000,"miners":-1,"minpay":0.01,"id":3,"pool_id":"poolin.com","fee":3,"feetype":"PPS","i":13399,"json":{"err_no":0,"data":{"shares":{"shares_1m":38.251,"shares_5m":39.254,"shares_15m":39.293,"shares_1h":39.314,"shares_unit":"P"},"reject":{"1m":0,"5m":0,"15m":0.0008,"1h":0.0013},"workers":1562,"users":403,"total_blocks":141324,"total_rewards":104312904381816}},"workers":1562,"netdiff":6350156384.508967,"nethash":"90912379979218725","income":3.44191e-15,"blocks_nr":22,"lastblock":701511,"lastblocktime":1665370520,"country":"US|United States","blocks_1000":411,"blocks_count":46,"hashrate_average_100_count":80,"hashrate_average_100":38865594433593740,"hashrate_average_1h":38961666666666664,"history_start":1664764846,"history_interval":3600,"history_addlast":true,"history":[41290450000000000,340300000000000,-260950000000000,-121300000000000,262850000000000,84300000000000,135450000000000,-1588150000000000,-1218800000000000,1458428950000000,1042571050000000,78650000000000,-473750000000000,145800000000000,-216350000000000,-5350000000000,-428100000000000,73200000000000,-261355260000000,-18744740000000,-357850000000000,-4975050000000000,-4927550000000000,600650000000000,-524900000000000,-1863300000000000,-720550000000000,103650000000000,-2282050000000000,-2815100000000000,-1325047370000000,277197370000000,-10850000000000,148200000000000,-205750000000000,-184000000000000,125950000000000,-64050000000000,-149850000000000,437600000000000,-198100000000000,111200000000000,-14178950000000,16378950000000,-87950000000000,-41650000000000,2189400000000000,7884350000000000,1083750000000000,144600000000000,107050000000000,-177800000000000,-133850000000000,4850000000000,639200000000000,67550000000000,171550000000000,-89350000000000,-33000000000000,-121550000000000,-188500000000000,148100000000000,199450000000000,27650000000000,10750000000000,66000000000000,133200000000000,-238500000000000,-151150000000000,-150700000000000,-16500000000000,35550000000000,-478250000000000,6704700000000000,707500000000000,309950000000000,176750000000000,57950000000000,19537500000000,-134487500000000,47150000000000,-198750000000000,-422613160000000,246713160000000,-109700000000000,-69700000000000,-77600000000000,94550000000000,-48150000000000,100650000000000,-224611110000000,-357738890000000,283450000000000,-357950000000000,-491850000000000,425450000000000,729400000000000,-86250000000000,64200000000000,159550000000000,22200000000000,-23000000000000,-206750000000000,149550000000000,-353550000000000,531600000000000,-166050000000000,58250000000000,-167850000000000,-46650000000000,66000000000000,-376150000000000,423850000000000,-74800000000000,109305260000000,-180055260000000,-626300000000000,529050000000000,-6745900000000000,-2318900000000000,-599750000000000,-328800000000000,-1818550000000000,-557150000000000,-546550000000000,-119450000000000,508000000000000,4102900000000000,3670700000000000,881400000000000,-466700000000000,-93500000000000,-101850000000000,-848050000000000,514150000000000,56550000000000,90900000000000,201900000000000,48600000000000,-440750000000000,397000000000000,705100000000000,2347650000000000,-1315450000000000,292800000000000,246850000000000,1110750000000000,-446000000000000,111600000000000,1043288240000000,-339445380000000,-292857150000000,-66035710000000,-288392860000000,224672270000000,143920590000000,74392110000000,-70263160000000,24371050000000,148350000000000,-84563160000000,-283674340000000,381210230000000,-309657350000000,528451290000000,41283330000000,-161600000000000,-34083330000000],"hashrate_average_7d":35238087268273810,"hashrate_average_7d_count":168,"hashrate_block":844904226817255.2,"expected_blocks":9.44,"luck":36.56052394387738,"multipool":15},{"url":"https:\/\/pool.btc.com","hashrate":3870000000000000,"miners":-1,"minpay":0.1,"id":4,"pool_id":"pool.btc.com","feetype":"PPS","i":14338,"workers":94,"income":3.6002794166039e-15,"i_blocks":14380,"json_blocks":{"err_no":0,"data":{"blocks":{"current_page":1,"data":[{"height":701458,"is_orphaned":0,"hash":"00000000000000002a5d1ed942db8fdb95db240a646b344ebe065f53ac5a9a3d","rewards":"1.00336713","size":2158,"prev_hash":"000000000000000084a9dea47727ed7619a14381a6ac2fcd1a1c458b9e6dedc1","bits":419474725,"version":9,"created_at":1665354742,"region_id":34,"region_name":"America"},{"height":701451,"is_orphaned":0,"hash":"000000000000000044f32de4c878ac63b6bda225d4aeb899f2256feba09ef439","rewards":"1.00336713","size":7064,"prev_hash":"00000000000000005c74e21504c3c8655e4e1d41e8e66f094b7be5a9f4e0f39b","bits":419474725,"version":9,"created_at":1665352278,"region_id":36,"region_name":"BitDeer"},{"height":701447,"is_orphaned":0,"hash":"0000000000000000854f922f9808d34faf488a34d3d2cf6eca77380ee15cea35","rewards":"1.00336713","size":8181,"prev_hash":"0000000000000000a9b4edbaeecb5823abc3283a57b57bd9f2800a5c1c7038ed","bits":419474725,"version":9,"created_at":1665351047,"region_id":34,"region_name":"America"},{"height":701446,"is_orphaned":0,"hash":"0000000000000000a9b4edbaeecb5823abc3283a57b57bd9f2800a5c1c7038ed","rewards":"1.00336713","size":32693,"prev_hash":"0000000000000000668c4072c5e1ee23f75c6d8d6478b5f076d80ba3e82981cf","bits":419474725,"version":9,"created_at":1665350898,"region_id":36,"region_name":"BitDeer"},{"height":701443,"is_orphaned":0,"hash":"000000000000000039b30724d7b7fe2ba0ae81bc478b9ae3e6838b098558f0ae","rewards":"1.00336713","size":2155,"prev_hash":"000000000000000067f0e29856d246b8875b772e5aac32a1925bc1daf543f789","bits":419474725,"version":9,"created_at":1665349593,"region_id":34,"region_name":"America"},{"height":701433,"is_orphaned":0,"hash":"0000000000000000488b9f92ce186398aa790b9b6dbacfe8e1504872b19a578d","rewards":"0.80269370","size":6562,"prev_hash":"00000000000000001d1a647311f8bbde8cd9131551563b80d42e071b23dbc737","bits":419474725,"version":9,"created_at":1665345332,"region_id":34,"region_name":"America"},{"height":701427,"is_orphaned":0,"hash":"00000000000000001270fb741d86593f19a57d5f00d285681b92b28a7f9092b0","rewards":"1.00336713","size":21306,"prev_hash":"0000000000000000a9ad27ee3b6c21f5508186a9f94c7308b4f98eb1e17b0cb3","bits":419474725,"version":9,"created_at":1665342924,"region_id":34,"region_name":"America"},{"height":701412,"is_orphaned":0,"hash":"00000000000000009d6fc106a4e1ef4c4e2c0bdd9fb1f05a9eb4027ab24fb7ee","rewards":"1.00336713","size":33266,"prev_hash":"000000000000000034db1ddc8a6ca4106ab0f6c66c7f223143805f08b3593a09","bits":419480606,"version":9,"created_at":1665339019,"region_id":34,"region_name":"America"},{"height":701401,"is_orphaned":0,"hash":"00000000000000008207b486374f48970d135f8212c96d4c2ba03cba1c22d73b","rewards":"1.00336713","size":2452,"prev_hash":"0000000000000000af47c138ab7f069f8c88f7c943f2b6ed296fb374814806a5","bits":419480606,"version":9,"created_at":1665336350,"region_id":34,"region_name":"America"},{"height":701385,"is_orphaned":0,"hash":"00000000000000005547a3fc1af07328e9ac81b9b2e6442b2da4e740ab88ad5a","rewards":"1.00336713","size":44939,"prev_hash":"00000000000000001ed59fd82888949bd4589cd3c5cfede59293819db5352e2a","bits":419480606,"version":9,"created_at":1665333662,"region_id":34,"region_name":"America"}],"first_page_url":"https:\/\/eu-api.connectbtc.com\/\/public\/v1\/pool\/blocks\/merge?order_by=desc&page_size=10&page=1","from":1,"last_page":2184,"last_page_url":"https:\/\/eu-api.connectbtc.com\/\/public\/v1\/pool\/blocks\/merge?order_by=desc&page_size=10&page=2184","next_page_url":"https:\/\/eu-api.connectbtc.com\/\/public\/v1\/pool\/blocks\/merge?order_by=desc&page_size=10&page=2","path":"https:\/\/eu-api.connectbtc.com\/\/public\/v1\/pool\/blocks\/merge","per_page":10,"prev_page_url":null,"to":10,"total":21836},"blocks_count":21836,"rewards_count":"190224.22125685"},"trace_id":"5c10ec97-8ac1-45c9-8434-bc0406a0c99c"},"blocks_nr":10,"lastblock":701458,"lastblocktime":"1665354703","country":"WL|CN , EU , US","blocks_1000":44,"blocks_count":7,"hashrate_average_100_count":80,"hashrate_average_100":3820209082031249.5,"hashrate_average_1h":3882722222222222,"history_start":1664764846,"history_interval":3600,"history_addlast":true,"history":[4028150000000000,85950000000000,-42000000000000,17900000000000,-39100000000000,-45100000000000,-23200000000000,-14950000000000,-650000000000,28789474000000,4860526000000,-93350000000000,-23150000000000,17600000000000,550000000000,-24500000000000,-12050000000000,-32500000000000,43013158000000,-11113158000000,-73300000000000,81050000000000,-7900000000000,-51400000000000,32600000000000,110450000000000,-29450000000000,-47100000000000,-32047368000000,17247368000000,64436842000000,8513158000000,-27450000000000,7250000000000,88700000000000,-91450000000000,-58350000000000,20500000000000,-52800000000000,14450000000000,-42500000000000,6950000000000,-10918421000000,-43481579000000,55250000000000,-24600000000000,37350000000000,113800000000000,2900000000000,65150000000000,-38750000000000,-65150000000000,7847368000000,-20597368000000,-12150000000000,54100000000000,43100000000000,52300000000000,43600000000000,-104700000000000,-78350000000000,53050000000000,4150000000000,39450000000000,-34650000000000,-62650000000000,-33250000000000,-13750000000000,18450000000000,54000000000000,17300000000000,-52500000000000,-38750000000000,95500000000000,38300000000000,-51550000000000,22300000000000,-51500000000000,50225000000000,74975000000000,-87900000000000,67900000000000,61439474000000,-51939474000000,-19350000000000,5150000000000,-69050000000000,-4400000000000,-59500000000000,5000000000000,21466667000000,24433333000000,-39100000000000,500000000000,36600000000000,154950000000000,14350000000000,-18300000000000,-78300000000000,-131700000000000,38250000000000,13200000000000,25100000000000,167700000000000,-32000000000000,6050000000000,8750000000000,-42600000000000,5500000000000,26750000000000,-6000000000000,-38650000000000,-75350000000000,-46000000000000,-37563158000000,4413158000000,6400000000000,58050000000000,-19950000000000,18150000000000,56550000000000,22950000000000,26550000000000,-101000000000000,77300000000000,6050000000000,-2900000000000,76800000000000,-59550000000000,59900000000000,40250000000000,-27950000000000,-19450000000000,68600000000000,-63900000000000,-85700000000000,-3450000000000,-21800000000000,9300000000000,-27100000000000,-39050000000000,38600000000000,-21800000000000,28050000000000,-8800000000000,43700000000000,58800000000000,-51250000000000,7450000000000,-47479412000000,315126000000,46214286000000,-47375000000000,-2053571000000,-35806723000000,39835294000000,-32705263000000,14631579000000,-33276316000000,-63850000000000,-10347368000000,-11240132000000,-11721591000000,-28937063000000,23158654000000,-35262500000000,48350000000000,61322222000000],"hashrate_average_7d":3936377215089287,"hashrate_average_7d_count":168,"hashrate_block":545744154575892.8,"expected_blocks":0.93,"luck":6.072167229531763,"multipool":7},{"url":"https:\/\/www.f2pool.com","hashrate":47617559884429670,"miners":-1,"minpay":0.1,"id":14,"pool_id":"f2pool.com","fee":3,"feetype":"PPS%3","i":2444,"income":3.0036858712331253e-15,"blocks_nr":5,"lastblock":701487,"lastblocktime":1665363303,"country":"WL|Global","blocks_1000":397,"blocks_count":5,"hashrate_average_100_count":80,"hashrate_average_100":45587949848634984,"hashrate_average_1h":46346212296465960,"history_start":1664764846,"history_interval":3600,"history_addlast":true,"history":[40394271910000000,2392623310000000,735215140000000,-139147570000000,-450305540000000,-1544255850000000,-505817980000000,899672290000000,-2059805690000000,2373710750000000,1345297440000000,-31942900000000,455515450000000,19000720000000,-98934960000000,-353938590000000,28570050000000,11703190000000,12436300000000,221934250000000,-587643220000000,418713810000000,-3230184960000000,3125714240000000,-318002270000000,-1802805100000000,-170510810000000,1814273410000000,92950190000000,47780790000000,-119435530000000,182087480000000,144991200000000,50295160000000,-100802010000000,85953200000000,632912920000000,101364380000000,37698730000000,-605305330000000,88175480000000,168144490000000,109483850000000,131244150000000,-650592620000000,-129161860000000,338866710000000,428690890000000,-305563970000000,-289980800000000,94057860000000,235453100000000,-304994270000000,-318366900000000,-307477480000000,408081900000000,252329640000000,138067930000000,-67829300000000,-203452070000000,679978360000000,82531900000000,-199706080000000,22496280000000,28395600000000,18240080000000,204575400000000,380890620000000,-641062870000000,-81496980000000,152376390000000,-153988330000000,-163836900000000,-53249650000000,182364780000000,386990450000000,-194843580000000,32845120000000,-392007910000000,331391040000000,-281127550000000,190988580000000,-53325410000000,-125989480000000,376394790000000,286706090000000,-181847470000000,-277407630000000,245159770000000,207966150000000,-74172490000000,299934120000000,-558300740000000,70145980000000,314838580000000,-86822100000000,-166368320000000,-260533880000000,50909990000000,82790220000000,-26204870000000,-18753870000000,-553817190000000,143736500000000,301174630000000,195977180000000,-150683220000000,-369554500000000,544906640000000,-20266410000000,-108507030000000,-260821580000000,128409690000000,175983490000000,-104930470000000,190140560000000,-250714010000000,-247476030000000,-7064993140000000,6666214540000000,-2942619080000000,1825633230000000,1916286290000000,958443100000000,301106550000000,119500900000000,-25302510000000,449067180000000,195995570000000,-95929590000000,-296600570000000,-632003150000000,-1054747520000000,2037103690000000,-139998310000000,-84567160000000,441630460000000,94347890000000,-78935830000000,125564650000000,-544829790000000,49897710000000,243509590000000,15438230000000,-153439300000000,-216654110000000,-192197250000000,374106750000000,-117372280000000,32050460000000,-450053840000000,250068110000000,127831390000000,80624180000000,-349271190000000,38312140000000,309167260000000,144472630000000,-181799210000000,-69320620000000,-425726600000000,225616520000000,408929280000000,-132784030000000,-497626880000000,69314160000000,-32091440000000,1052396080000000],"hashrate_average_7d":44013936453095210,"hashrate_average_7d_count":168,"hashrate_block":9117589969726996,"expected_blocks":11.07,"luck":-6.072167229531766,"multipool":33}],"hashblock":{"hashrate_average_100":49408158930666220,"blocks_count":12,"pools":[[844904226817255.2,46,18367483191679.46,"https:\/\/www.poolin.com"],[545744154575892.8,7,77963450653698.97,"https:\/\/pool.btc.com"],[9117589969726996,5,1823517993945399.2,"https:\/\/www.f2pool.com"]],"hashrate_block_all":1521961264901034,"hashrate_block_min":18367483191679.46,"hashrate_block_max":1823517993945399.2,"pool_hashblock_average":639949642596925.9,"ignored":[[844904226817255.2,46,18367483191679.46,"https:\/\/www.poolin.com"]],"hashrate_block":4117346577555518.5},"time":1665372703,"hashrate":88750000000000000,"difficulty":6350156384.508967,"height":701515,"symbol":"DCR","maxhash":47617559884429670,"poolshash":94121719147860420,"nethash_estimat":4.117346577555519e+17,"poolsminers":1691,"supply":{"circulating":14413883.99067214,"total":21000000,"emission24":2825},"block_time_target":300,"block_height_ok":true,"algo":"Blake256R14","hashrate_from_diff":false,"hashrate_src":"https:\/\/lab.antpool.com","unit":"H\/s","block_time_average":274.3,"minerstat":[1.3376286883926e-16,26.403959364715,1.01339173,3981],"link":{"coingecko":"decred","cmc":"decred","whattomine":"152-dcr-blake (14r)","coin360":"decred-dcr","coinpaprika":"dcr-decred"},"latest_release":{"tag":"release-v1.7.4","name":"dcrd v1.7.4","t":1659553036},"price":26.25}