{"data":[{"url":"https:\/\/www.okx.com\/pool","hashrate":8400000000000,"miners":-1,"minpay":-1,"id":23,"pool_id":"okx.com","i":1611,"workers":1,"lastblock":630904,"feetype":"PPLNS","fee":2,"country":"HK|Hong Kong","hashrate_average_100_count":87,"hashrate_average_100":8997723150143.678,"hashrate_average_1h":8400000000000,"history_start":1664077237,"history_interval":3600,"history_addlast":true,"history":[10094500000000,-360000000000,-173000000000,101000000000,-1218500000000,623000000000,-1194500000000,1789500000000,504000000000,-878000000000,1093000000000,155500000000,-2324500000000,477000000000,272500000000,-111000000000,813500000000,-1023000000000,335000000000,36000000000,233000000000,-481000000000,1157000000000,-503500000000,-1440000000000,1576000000000,706500000000,308421050000,-1914921050000,-776357143000,1334436090000,-936078947000,-125500000000,1480500000000,-837500000000,772500000000,40000000000,-358500000000,86500000000,-1075500000000,-25000000000,-56333333000,946333333000,-241500000000,660500000000,-927000000000,-169500000000,451000000000,-203000000000,12000000000,-142000000000,-831500000000,707500000000,1595000000000,-1077500000000,-278500000000,-258500000000,827000000000,49000000000,-366500000000,120500000000,-340500000000,1027500000000,-943500000000,-231500000000,303500000000,651500000000,-1227000000000,169500000000,-15000000000,-11500000000,2001500000000,-1042500000000,-970000000000,958000000000,-501500000000,-434000000000,386000000000,-75000000000,1296000000000,-479000000000,-1160000000000,858500000000,-537500000000,-173000000000,-526000000000,1511500000000,-588105263000,-290394737000,1034000000000,-820500000000,-889500000000,487000000000,1051000000000,-1284000000000,571000000000,247000000000,678000000000,-317500000000,-894500000000,-368500000000,713000000000,-326105263000,1238105263000,-1171500000000,435500000000,719000000000,-593000000000,761000000000,910500000000,-1822500000000,-562000000000,-259500000000,103868421000,-194368421000,-82000000000,255000000000,1761000000000,-1430500000000,131000000000,-426000000000,204500000000,-35500000000,567500000000,-711500000000,1099500000000,-262500000000,-1073000000000,351500000000,171500000000,-655000000000,432500000000,1042500000000,-304000000000,-75500000000,-301000000000,2000000000,82000000000,60000000000,239000000000,199500000000,-400000000000,536000000000,-3890500000000,2962000000000,1103315789000,-1128815789000,1254000000000,-222000000000,-1139000000000,-612000000000,377000000000,680000000000,466500000000,531500000000,-719500000000,531500000000,-518500000000,313000000000,-271500000000,139500000000,-720500000000,1242500000000,-724500000000,-749000000000,585000000000,-9000000000,-572500000000],"hashrate_average_7d":8959707042886.906,"hashrate_average_7d_count":168,"expected_blocks":0.01,"multipool":5},{"url":"https:\/\/www2.coinmine.pl\/dcr","hashrate":581468344888716,"miners":-1,"minpay":0.05,"id":5,"pool_id":"coinmine.pl","i":12312,"workers":34,"blocks_nr":5,"lastblock":698368,"lastblocktime":"1664436048","fee":1,"feetype":"PPLNS","height":699162,"country":"WL|EU , US , Asia","blocks_1000":3,"hashrate_average_100_count":87,"hashrate_average_100":564244890114713.4,"hashrate_average_1h":581468344888716,"history_start":1664077237,"history_interval":3600,"history_addlast":true,"history":[527957426800000,-11701818500000,22604197600000,-9546460400000,-173594400000,-1518998700000,7684606800000,-15097464400000,6340684900000,-2925981800000,1011630400000,12865930400000,-12959896900000,4796875100000,-4578249400000,9476204300000,-41449928800000,6510430300000,-4210268200000,-7050570300000,-1668480900000,-8529358700000,16212532300000,11414444300000,7155444500000,6228485500000,18240820800000,-24516473000000,1199698900000,30769640700000,6052150300000,-12336365700000,-2646249500000,-39160190700000,-702861300000,13583084700000,-11472557800000,7740959200000,1822989300000,-3737499100000,10455611400000,-39220155500000,-1727500700000,8995339900000,-4218956100000,-11437739700000,13658174700000,-6539984300000,-3462542000000,14979594500000,18810356700000,6608278500000,-5861987800000,-6549831100000,2846564100000,-4587862600000,-22217925700000,18682709100000,4918159100000,-11458999200000,14124655300000,-6259830400000,-2274937600000,-1542812400000,13076775100000,-25971149500000,-24576411600000,11535852300000,-8723333700000,13990196300000,-20077622800000,14492182800000,6072733400000,-5608806000000,-1743912900000,-13047855900000,1715433000000,-1218599300000,27793519900000,-14373163200000,38733482500000,-41309305700000,-2953467200000,-17192104800000,13179707100000,9391860100000,24261726500000,14342415100000,-5726812900000,-3700283000000,-1632503300000,-2425498600000,30135828500000,-16835890200000,-11730064800000,29696387300000,-11812576000000,-9172084700000,9880276400000,-2041582500000,-14321071000000,12903377100000,5179554700000,-9883115900000,-16252855800000,12914954900000,-1728004300000,-9233457000000,681312000000,19010053200000,-17025189100000,-1005454200000,-3249189600000,18586516900000,-7674455100000,-6302219200000,-21972457800000,21306519300000,-19279651300000,12452022600000,-7028366300000,-5104895000000,6854402700000,3761396800000,-3517084300000,-797935600000,-7240982200000,-3399823400000,15048918300000,-28659934700000,-2322513700000,34061097600000,-10250766800000,11004815100000,1822630400000,-5775983500000,15331120900000,-52528633300000,-6851304800000,48598884900000,-4359597400000,-3519207300000,1610755900000,-3760501500000,-4137256400000,10327453000000,-15641599800000,9098796000000,6554568400000,-4092454700000,1150882000000,5427212100000,106308336000000,-5262084700000,7522685600000,-8933959800000,-28927395400000,13923772200000,-26136806700000,-7313313400000,-4095765700000,20044871100000,7122650100000,11998935900000,36934304500000,-32476557300000,5996864500000,1161829700000],"hashrate_average_7d":498337288648809.56,"hashrate_average_7d_count":168,"expected_blocks":0.72,"multipool":6},{"url":"https:\/\/lab.antpool.com","hashrate":2620000000000000,"miners":-1,"minpay":0.1,"id":11,"pool_id":"antpool.com","i":2062,"nethash":69700000000000000,"netdiff":5562112078,"feetype":"PPS","fee":3,"income":3.5552246e-15,"country":"WL|Global","hashrate_average_100_count":87,"hashrate_average_100":2468572647270115,"hashrate_average_1h":2620000000000000,"history_start":1664077237,"history_interval":3600,"history_addlast":true,"history":[1687500000000000,-13500000000000,29000000000000,-37000000000000,57000000000000,-29500000000000,-1500000000000,-30000000000000,-33000000000000,22000000000000,3000000000000,35000000000000,-8000000000000,-79000000000000,102000000000000,-35000000000000,53500000000000,-26500000000000,-3500000000000,9500000000000,32000000000000,-35500000000000,15000000000000,-103000000000000,89000000000000,-12500000000000,36500000000000,1763158000000,1236842000000,-15785714000000,145075188000000,7710526000000,-7500000000000,40000000000000,-6000000000000,-28000000000000,16500000000000,-95000000000000,72000000000000,-22000000000000,35000000000000,-23500000000000,4000000000000,-28000000000000,10500000000000,46500000000000,-20000000000000,21000000000000,-34500000000000,9500000000000,-28500000000000,-68000000000000,57500000000000,-79000000000000,-46000000000000,-22000000000000,44500000000000,19500000000000,5000000000000,-54000000000000,56500000000000,-105000000000000,48500000000000,-16500000000000,34500000000000,-25000000000000,25000000000000,-22500000000000,-15500000000000,73500000000000,68000000000000,-232000000000000,-151000000000000,14000000000000,-40000000000000,23000000000000,-3500000000000,-8500000000000,36500000000000,1500000000000,25500000000000,98500000000000,259000000000000,-24000000000000,25500000000000,-3000000000000,-35000000000000,-29947368000000,83447368000000,-44000000000000,27500000000000,2000000000000,-7500000000000,-27000000000000,6000000000000,34000000000000,-26500000000000,47500000000000,-35500000000000,-63000000000000,34500000000000,36000000000000,199921053000000,340078947000000,174000000000000,241500000000000,-10000000000000,-16500000000000,-246500000000000,-208000000000000,381000000000000,-8000000000000,97500000000000,-26131579000000,-15368421000000,9500000000000,22000000000000,14000000000000,58000000000000,-20500000000000,-17000000000000,38000000000000,43500000000000,-86000000000000,-2000000000000,-43000000000000,26500000000000,5500000000000,-500000000000,-18000000000000,6500000000000,-13000000000000,-68000000000000,-179000000000000,95000000000000,19000000000000,5000000000000,13000000000000,51500000000000,-3000000000000,13000000000000,19500000000000,-3000000000000,38500000000000,-27000000000000,20000000000000,11000000000000,-30000000000000,73500000000000,-51000000000000,-8500000000000,22000000000000,-46500000000000,-5000000000000,-79500000000000,9500000000000,-70500000000000,-210500000000000,82000000000000,35500000000000,-3000000000000,24000000000000,5000000000000,27000000000000,-5500000000000,-65500000000000,38500000000000,117500000000000],"hashrate_average_7d":2094283387047619,"hashrate_average_7d_count":168,"expected_blocks":3.14,"multipool":16},{"url":"https:\/\/www.poolin.com","hashrate":35354999999999996,"miners":-1,"minpay":0.01,"id":3,"pool_id":"poolin.com","fee":3,"feetype":"PPS","i":13373,"json":{"err_no":0,"data":{"shares":{"shares_1m":34.602,"shares_5m":35.355,"shares_15m":35.12,"shares_1h":34.902,"shares_unit":"P"},"reject":{"1m":0,"5m":0,"15m":0.0007,"1h":0.0018},"workers":1593,"users":404,"total_blocks":140343,"total_rewards":104214319748568}},"workers":1593,"netdiff":5562112078.714751,"nethash":"79630298238988670","income":3.929560000000001e-15,"blocks_nr":18,"lastblock":699162,"lastblocktime":1664680925,"country":"US|United States","blocks_1000":438,"blocks_count":38,"hashrate_average_100_count":87,"hashrate_average_100":34589374910201148,"hashrate_average_1h":35354999999999996,"history_start":1664077237,"history_interval":3600,"history_addlast":true,"history":[31037200000000000,-166750000000000,-297750000000000,158250000000000,-101800000000000,201200000000000,239600000000000,110050000000000,-235550000000000,267000000000000,300300000000000,-193900000000000,10200000000000,58950000000000,-165400000000000,-104650000000000,-108050000000000,40400000000000,122100000000000,-530800000000000,-2490050000000000,1529350000000000,1943050000000000,1623000000000000,73700000000000,57850000000000,-496250000000000,-30513160000000,501263160000000,113714290000000,599706760000000,303228950000000,455050000000000,-422250000000000,116550000000000,-19950000000000,79750000000000,-208650000000000,160450000000000,-22650000000000,-31900000000000,-41605560000000,213455560000000,-637900000000000,-1989950000000000,2272400000000000,34900000000000,477300000000000,177600000000000,-119700000000000,101900000000000,-362200000000000,-694550000000000,141500000000000,-26600000000000,-639550000000000,25500000000000,-32500000000000,-36550000000000,229550000000000,87250000000000,-28100000000000,-286250000000000,-2100000000000,139800000000000,-186450000000000,197400000000000,-25850000000000,-169600000000000,-266650000000000,123450000000000,106000000000000,14350000000000,-1633200000000000,1539600000000000,181100000000000,-355100000000000,366900000000000,27200000000000,-223200000000000,-54050000000000,485650000000000,350250000000000,344800000000000,359300000000000,614900000000000,-105750000000000,-348121050000000,257821050000000,187050000000000,21400000000000,-66600000000000,155950000000000,-200600000000000,315100000000000,-315600000000000,-36600000000000,-202800000000000,123750000000000,-738750000000000,-200550000000000,224550000000000,703773680000000,217476320000000,-114150000000000,-18200000000000,766150000000000,1528650000000000,277050000000000,304200000000000,122700000000000,-694900000000000,-24300000000000,21060530000000,-335960530000000,359600000000000,778500000000000,637050000000000,262550000000000,-364100000000000,321900000000000,546250000000000,97250000000000,245700000000000,-16400000000000,672600000000000,-62000000000000,157150000000000,-36950000000000,-475150000000000,599600000000000,-132100000000000,117900000000000,-53450000000000,-370150000000000,-166550000000000,3300000000000,296900000000000,-105800000000000,144050000000000,-523050000000000,-7639050000000000,-4892050000000000,-1895750000000000,1614900000000000,6277678950000000,55371050000000,-460200000000000,-475800000000000,746200000000000,59200000000000,463100000000000,1584900000000000,396800000000000,460150000000000,-132600000000000,48050000000000,-631750000000000,-152900000000000,88400000000000,-54400000000000,-56950000000000,-210850000000000,-2405000000000000,-367300000000000,1338950000000000,712900000000000,849150000000000],"hashrate_average_7d":34660634575773812,"hashrate_average_7d_count":168,"hashrate_block":910246708163188.1,"expected_blocks":43.98,"luck":-5.977428851812853,"multipool":15},{"url":"https:\/\/pool.btc.com","hashrate":4024000000000000,"miners":-1,"minpay":0.1,"id":4,"pool_id":"pool.btc.com","feetype":"PPS","i":14309,"workers":96,"income":3.3721400476847e-15,"i_blocks":14351,"json_blocks":{"err_no":0,"data":{"blocks":{"current_page":1,"data":[{"height":699160,"is_orphaned":0,"hash":"0000000000000000236e3875d7ee2abcc19dc67dcac9cb6c32bad44fbf1e96b6","rewards":"1.01340080","size":27766,"prev_hash":"0000000000000000a69b1a94736f692c5289a8c547e5eadf81dad84b91b69ca9","bits":419481005,"version":9,"created_at":1664680198,"region_id":36,"region_name":"BitDeer"},{"height":699155,"is_orphaned":0,"hash":"0000000000000000a9208496468e6eb072b52276dd5bc6ddbf03aabe2310d1c0","rewards":"1.01340080","size":27308,"prev_hash":"0000000000000000887a0bec9ffce1c066c545ddd89f471f25b6807e3aed84d3","bits":419481005,"version":9,"created_at":1664678357,"region_id":34,"region_name":"America"},{"height":699148,"is_orphaned":0,"hash":"000000000000000081986eb62d77e0ef3a0a9f533ca038e35b7b092ab48d8c11","rewards":"0.81072064","size":9627,"prev_hash":"00000000000000006f7c9407c946df932ee9ca75a91f73a45f630a1ca73177a8","bits":419481005,"version":9,"created_at":1664675949,"region_id":34,"region_name":"America"},{"height":699145,"is_orphaned":0,"hash":"00000000000000001f19b740741765347a2d9b36acab7b48adbb5998a4d37b61","rewards":"1.01340080","size":8559,"prev_hash":"000000000000000047bc307dedc580e4649e1bd0c7ef13b76b4ea5defab180ab","bits":419481005,"version":9,"created_at":1664674188,"region_id":34,"region_name":"America"},{"height":699139,"is_orphaned":0,"hash":"00000000000000004065a425e7bdebc3198f8d84ebb206ae243599f38a8ceb99","rewards":"1.01340080","size":6324,"prev_hash":"000000000000000047125c415594dcbfb23446097a3dfdb17387058d94c22847","bits":419481005,"version":9,"created_at":1664673396,"region_id":36,"region_name":"BitDeer"},{"height":699113,"is_orphaned":0,"hash":"00000000000000006abd485f7c62c58614ce662d332feba2d245bb38bcf9cbc8","rewards":"1.01340080","size":29473,"prev_hash":"00000000000000003c9bab6714b8c7fbee2e0b251dd6b291e5ad4399fe76c47d","bits":419473854,"version":9,"created_at":1664663285,"region_id":34,"region_name":"America"},{"height":699111,"is_orphaned":0,"hash":"0000000000000000a18f9c556aaffa1d2f2e791e83d63ccf2ea1875bbda7c199","rewards":"1.01340080","size":10138,"prev_hash":"000000000000000050c80cf59d432582beb525d33247b0ae64812ff6affcd404","bits":419473854,"version":9,"created_at":1664662400,"region_id":34,"region_name":"America"},{"height":699087,"is_orphaned":0,"hash":"00000000000000007e6f88372da487cc5452d88752e2c4d5be674a0e9db92989","rewards":"1.01340080","size":6650,"prev_hash":"00000000000000003983c015efbe1da50cf2d61e5a5568dd33d733e7ecc2ed80","bits":419473854,"version":9,"created_at":1664654296,"region_id":34,"region_name":"America"},{"height":699035,"is_orphaned":0,"hash":"00000000000000001541a4f5f3b6dda11377955e2ac3ea4aca06684b411790f3","rewards":"1.01340080","size":16730,"prev_hash":"00000000000000006af4534dc3b5650842568439100da5f9c99a0cf7b6c671d0","bits":419473854,"version":9,"created_at":1664632112,"region_id":34,"region_name":"America"},{"height":699005,"is_orphaned":0,"hash":"00000000000000009a8f20639ddb61b72403b37c4884e953e8b7747e4254ff48","rewards":"1.01340080","size":41152,"prev_hash":"00000000000000003190531bc8e5f52975f1d6ce45aaa262f445ebdb417e543e","bits":419473854,"version":9,"created_at":1664620207,"region_id":36,"region_name":"BitDeer"}],"first_page_url":"https:\/\/eu-api.connectbtc.com\/\/public\/v1\/pool\/blocks\/merge?order_by=desc&page_size=10&page=1","from":1,"last_page":2173,"last_page_url":"https:\/\/eu-api.connectbtc.com\/\/public\/v1\/pool\/blocks\/merge?order_by=desc&page_size=10&page=2173","next_page_url":"https:\/\/eu-api.connectbtc.com\/\/public\/v1\/pool\/blocks\/merge?order_by=desc&page_size=10&page=2","path":"https:\/\/eu-api.connectbtc.com\/\/public\/v1\/pool\/blocks\/merge","per_page":10,"prev_page_url":null,"to":10,"total":21730},"blocks_count":21730,"rewards_count":"190119.70250973"},"trace_id":"4f9dd509-dcbe-46fa-a70a-44caa0433fad"},"blocks_nr":10,"lastblock":699160,"lastblocktime":"1664680170","country":"WL|CN , EU , US","blocks_1000":44,"blocks_count":8,"hashrate_average_100_count":87,"hashrate_average_100":4035124371408045.5,"hashrate_average_1h":4024000000000000,"history_start":1664077237,"history_interval":3600,"history_addlast":true,"history":[2609200000000000,-7300000000000,-22600000000000,-28550000000000,32350000000000,12950000000000,4000000000000,-22250000000000,27100000000000,35100000000000,32400000000000,-3950000000000,2250000000000,-20050000000000,-50300000000000,-30600000000000,-9800000000000,32950000000000,550000000000,-34300000000000,49650000000000,-10250000000000,40400000000000,-31000000000000,-38200000000000,10300000000000,-13050000000000,4210526000000,-23310526000000,-2542857000000,4906015000000,32286842000000,500000000000,24700000000000,23050000000000,30250000000000,25200000000000,-39100000000000,-20500000000000,60600000000000,71800000000000,10894444000000,20405556000000,-36450000000000,1950000000000,4050000000000,5500000000000,19900000000000,-19700000000000,-158650000000000,87850000000000,15400000000000,11550000000000,7650000000000,-16850000000000,11350000000000,-6650000000000,-20650000000000,27300000000000,14000000000000,7050000000000,51850000000000,-33350000000000,-16450000000000,-23450000000000,-13150000000000,-19300000000000,10400000000000,-8900000000000,47850000000000,-33400000000000,16650000000000,-16150000000000,24350000000000,25000000000000,96500000000000,-174350000000000,471600000000000,428100000000000,-7100000000000,33700000000000,56550000000000,2700000000000,-50500000000000,-66250000000000,-28700000000000,-38250000000000,55152632000000,101247368000000,-38050000000000,-33400000000000,28250000000000,-25900000000000,81500000000000,-27650000000000,-24750000000000,-6200000000000,53600000000000,68950000000000,126900000000000,-47400000000000,5350000000000,7973684000000,-64923684000000,14650000000000,1750000000000,-55800000000000,-22200000000000,19400000000000,26300000000000,-38800000000000,-50950000000000,14500000000000,-9136842000000,-40963158000000,9400000000000,43200000000000,4750000000000,119050000000000,-147750000000000,105150000000000,122350000000000,240850000000000,12550000000000,47150000000000,51900000000000,-7950000000000,28600000000000,-90350000000000,72500000000000,-114500000000000,55550000000000,3300000000000,97900000000000,-155550000000000,-108750000000000,16500000000000,5800000000000,-20900000000000,41600000000000,16150000000000,14350000000000,33750000000000,24000000000000,-54100000000000,83357895000000,12092105000000,-25800000000000,16450000000000,36550000000000,35100000000000,-63400000000000,-12550000000000,-8850000000000,-153250000000000,9400000000000,59000000000000,-4850000000000,-600000000000,-30700000000000,23100000000000,20550000000000,-35800000000000,-5600000000000,-9750000000000,-18650000000000,68550000000000,-37150000000000],"hashrate_average_7d":3320715313333333,"hashrate_average_7d_count":168,"hashrate_block":504390546426005.7,"expected_blocks":5.13,"luck":2.869684826265008,"multipool":7},{"url":"https:\/\/www.f2pool.com","hashrate":39285377601479736,"miners":-1,"minpay":0.1,"id":14,"pool_id":"f2pool.com","fee":3,"feetype":"PPS%3","i":2444,"income":3.463542888932905e-15,"blocks_nr":12,"lastblock":699163,"lastblocktime":1664681451,"country":"WL|Global","blocks_1000":487,"blocks_count":53,"hashrate_average_100_count":87,"hashrate_average_100":39241538036048930,"hashrate_average_1h":39285377601479736,"history_start":1664077237,"history_interval":3600,"history_addlast":true,"history":[50402614340000000,1134671820000000,816537630000000,-384831070000000,-315059660000000,-39230200000000,-157168080000000,61261110000000,-26486970000000,-280091870000000,102787650000000,136973080000000,-192318010000000,15722480000000,-35942050000000,-127183550000000,215918680000000,9950110000000,-11200200000000,-164920250000000,-168820700000000,266918850000000,66978240000000,127901880000000,80699170000000,-263819420000000,337068340000000,-408060780000000,-88123010000000,-59417790000000,-338235050000000,361059740000000,70650700000000,-45440430000000,-406195360000000,214261680000000,31275520000000,59429340000000,-152806610000000,-30141970000000,77263550000000,-94475810000000,-66357400000000,-142432110000000,199135380000000,851404610000000,187022800000000,100504690000000,-630313390000000,313216720000000,189952720000000,101157670000000,-375120440000000,-572656970000000,-1606230230000000,-9409157980000000,-13309760000000,-344240410000000,-7576400000000,565035660000000,92340150000000,8965800000000,-133875470000000,101778410000000,23579970000000,96144010000000,38555880000000,-553132290000000,-21902760000000,223948380000000,313631160000000,-166530050000000,-446594660000000,435908230000000,-1280315030000000,1299268580000000,-129933030000000,-439422630000000,409268690000000,-112415900000000,35516480000000,-60720410000000,-290967470000000,340832840000000,-64984930000000,52784280000000,-395283600000000,356684960000000,133681720000000,15137870000000,52823490000000,-863574260000000,413824440000000,425112220000000,72760500000000,-165304140000000,-384680210000000,352757070000000,151483470000000,-197098600000000,131978020000000,14050900000000,420416670000000,-169312990000000,205834280000000,-1355732910000000,-408130860000000,1640067270000000,-313414610000000,-1336528310000000,348870520000000,104446260000000,560061860000000,371916830000000,-481788690000000,-1714270490000000,1801700940000000,727630200000000,-251818270000000,56478160000000,-297858620000000,-37017220000000,-380583090000000,-85882440000000,1292770000000,-308656360000000,123823750000000,116533050000000,-121117130000000,-135250180000000,-396681470000000,912923740000000,424368850000000,24203160000000,-408568490000000,-46868690000000,230066830000000,250706430000000,-261116400000000,-335152040000000,451030090000000,-359094430000000,-529719480000000,-158943920000000,270433930000000,-9462960000000,404821200000000,-279801050000000,-232727860000000,-277050250000000,193921170000000,-315135350000000,385553710000000,-103607880000000,-159718020000000,408493870000000,78340170000000,-214582250000000,-140636060000000,-37340430000000,537546200000000,-97712690000000,-40841450000000,-267834860000000,208972560000000,667333980000000,-182632150000000,-415912810000000],"hashrate_average_7d":43435714252619060,"hashrate_average_7d_count":168,"hashrate_block":740406378038659,"expected_blocks":49.89,"luck":3.1077440255478237,"multipool":33}],"hashblock":{"hashrate_average_100":77866037317658110,"blocks_count":99,"pools":[[910246708163188.1,38,23953860741136.53,"https:\/\/www.poolin.com"],[504390546426005.7,8,63048818303250.71,"https:\/\/pool.btc.com"],[740406378038659,53,13969931661106.773,"https:\/\/www.f2pool.com"]],"hashrate_block_all":786525629471294,"hashrate_block_min":13969931661106.773,"hashrate_block_max":63048818303250.71,"pool_hashblock_average":33657536901831.344,"hashrate_block":786525629471294},"time":1664682037,"hashrate":69700000000000000,"difficulty":5562112078.714751,"height":699163,"symbol":"DCR","maxhash":39285377601479736,"poolshash":81874245946368450,"nethash_estimat":78652562947129400,"poolsminers":1724,"supply":{"circulating":14392618.74405086,"total":21000000,"emission24":2032},"block_time_target":300,"block_height_ok":true,"algo":"Blake256R14","hashrate_from_diff":false,"hashrate_src":"https:\/\/lab.antpool.com","unit":"H\/s","block_time_average":384,"minerstat":[1.5422335756629e-16,25.527251147211,1.02340433,917],"link":{"coingecko":"decred","cmc":"decred","whattomine":"152-dcr-blake (14r)","coin360":"decred-dcr","coinpaprika":"dcr-decred"},"latest_release":{"tag":"release-v1.7.4","name":"dcrd v1.7.4","t":1659553036},"price":25.61}