{"data":[{"url":"https:\/\/www.okx.com\/pool","hashrate":9110000000000,"miners":-1,"minpay":-1,"id":23,"pool_id":"okx.com","i":1611,"workers":1,"lastblock":630904,"feetype":"PPLNS","fee":2,"country":"HK|Hong Kong","hashrate_average_100_count":81,"hashrate_average_100":9045802589699.074,"hashrate_average_1h":9110000000000,"history_start":1663990841,"history_interval":3600,"history_addlast":true,"history":[8339500000000,888000000000,771500000000,28000000000,-1194000000000,-709000000000,719500000000,144500000000,-559578947000,-121421053000,107000000000,2331000000000,-2351500000000,94500000000,-116000000000,-629000000000,1019000000000,363500000000,15500000000,146500000000,679000000000,-882500000000,1401500000000,-809000000000,418000000000,-360000000000,-173000000000,101000000000,-1218500000000,623000000000,-1194500000000,1789500000000,504000000000,-878000000000,1093000000000,155500000000,-2324500000000,477000000000,272500000000,-111000000000,813500000000,-1023000000000,335000000000,36000000000,233000000000,-481000000000,1157000000000,-503500000000,-1440000000000,1576000000000,706500000000,308421050000,-1914921050000,-776357143000,1334436090000,-936078947000,-125500000000,1480500000000,-837500000000,772500000000,40000000000,-358500000000,86500000000,-1075500000000,-25000000000,-56333333000,946333333000,-241500000000,660500000000,-927000000000,-169500000000,451000000000,-203000000000,12000000000,-142000000000,-831500000000,707500000000,1595000000000,-1077500000000,-278500000000,-258500000000,827000000000,49000000000,-366500000000,120500000000,-340500000000,1027500000000,-943500000000,-231500000000,303500000000,651500000000,-1227000000000,169500000000,-15000000000,-11500000000,2001500000000,-1042500000000,-970000000000,958000000000,-501500000000,-434000000000,386000000000,-75000000000,1296000000000,-479000000000,-1160000000000,858500000000,-537500000000,-173000000000,-526000000000,1511500000000,-588105263000,-290394737000,1034000000000,-820500000000,-889500000000,487000000000,1051000000000,-1284000000000,571000000000,247000000000,678000000000,-317500000000,-894500000000,-368500000000,713000000000,-326105263000,1238105263000,-1171500000000,435500000000,719000000000,-593000000000,761000000000,910500000000,-1822500000000,-562000000000,-259500000000,103868421000,-194368421000,-82000000000,255000000000,1761000000000,-1430500000000,131000000000,-426000000000,204500000000,-35500000000,567500000000,-711500000000,1099500000000,-262500000000,-1073000000000,351500000000,171500000000,-655000000000,432500000000,1042500000000,-304000000000,-75500000000,-301000000000,2000000000,82000000000,60000000000,239000000000,199500000000,-400000000000,536000000000,-381500000000],"hashrate_average_7d":8978814812315.477,"hashrate_average_7d_count":168,"expected_blocks":0.01,"multipool":5},{"url":"https:\/\/www2.coinmine.pl\/dcr","hashrate":484750862999333,"miners":-1,"minpay":0.05,"id":5,"pool_id":"coinmine.pl","i":12312,"workers":34,"blocks_nr":5,"lastblock":698368,"lastblocktime":"1664436048","fee":1,"feetype":"PPLNS","height":698939,"country":"WL|EU , US , Asia","blocks_1000":3,"hashrate_average_100_count":81,"hashrate_average_100":472847879209460.44,"hashrate_average_1h":469171341760912.3,"history_start":1663990841,"history_interval":3600,"history_addlast":true,"history":[519091603600000,-5218051500000,29975997800000,-29321958300000,8173649000000,-4607451000000,10429068300000,-1457424600000,-1360561000000,-3409465300000,-1704356600000,-9235676900000,-22808874300000,-654918200000,10933734600000,9678265600000,-8079879100000,-8943679900000,-1944576100000,-9436407400000,23204288400000,21177542600000,18032146900000,-11573847600000,-2981742200000,-11701818500000,22604197600000,-9546460400000,-173594400000,-1518998700000,7684606800000,-15097464400000,6340684900000,-2925981800000,1011630400000,12865930400000,-12959896900000,4796875100000,-4578249400000,9476204300000,-41449928800000,6510430300000,-4210268200000,-7050570300000,-1668480900000,-8529358700000,16212532300000,11414444300000,7155444500000,6228485500000,18240820800000,-24516473000000,1199698900000,30769640700000,6052150300000,-12336365700000,-2646249500000,-39160190700000,-702861300000,13583084700000,-11472557800000,7740959200000,1822989300000,-3737499100000,10455611400000,-39220155500000,-1727500700000,8995339900000,-4218956100000,-11437739700000,13658174700000,-6539984300000,-3462542000000,14979594500000,18810356700000,6608278500000,-5861987800000,-6549831100000,2846564100000,-4587862600000,-22217925700000,18682709100000,4918159100000,-11458999200000,14124655300000,-6259830400000,-2274937600000,-1542812400000,13076775100000,-25971149500000,-24576411600000,11535852300000,-8723333700000,13990196300000,-20077622800000,14492182800000,6072733400000,-5608806000000,-1743912900000,-13047855900000,1715433000000,-1218599300000,27793519900000,-14373163200000,38733482500000,-41309305700000,-2953467200000,-17192104800000,13179707100000,9391860100000,24261726500000,14342415100000,-5726812900000,-3700283000000,-1632503300000,-2425498600000,30135828500000,-16835890200000,-11730064800000,29696387300000,-11812576000000,-9172084700000,9880276400000,-2041582500000,-14321071000000,12903377100000,5179554700000,-9883115900000,-16252855800000,12914954900000,-1728004300000,-9233457000000,681312000000,19010053200000,-17025189100000,-1005454200000,-3249189600000,18586516900000,-7674455100000,-6302219200000,-21972457800000,21306519300000,-19279651300000,12452022600000,-7028366300000,-5104895000000,6854402700000,3761396800000,-3517084300000,-797935600000,-7240982200000,-3399823400000,15048918300000,-28659934700000,-2322513700000,34061097600000,-10250766800000,11004815100000,1822630400000,-5775983500000,15331120900000,-52528633300000,-6851304800000,48598884900000,-4359597400000,-3519207300000,1610755900000,-9501537400000],"hashrate_average_7d":494737890125595.4,"hashrate_average_7d_count":168,"expected_blocks":0.56,"multipool":6},{"url":"https:\/\/lab.antpool.com","hashrate":2670000000000000,"miners":-1,"minpay":0.1,"id":11,"pool_id":"antpool.com","i":2062,"nethash":83120000000000000,"netdiff":6598773455,"feetype":"PPS","fee":3,"income":2.9966986000000002e-15,"country":"WL|Global","hashrate_average_100_count":81,"hashrate_average_100":2645811390817901,"hashrate_average_1h":2716666666666666.5,"history_start":1663990841,"history_interval":3600,"history_addlast":true,"history":[3227000000000000,39500000000000,29500000000000,-3000000000000,-68500000000000,37500000000000,-4000000000000,-787000000000000,-178894737000000,-45105263000000,8500000000000,-136500000000000,-433000000000000,-47000000000000,32500000000000,-44000000000000,75500000000000,22000000000000,-14500000000000,-38000000000000,15500000000000,9000000000000,31500000000000,35500000000000,-76500000000000,-13500000000000,29000000000000,-37000000000000,57000000000000,-29500000000000,-1500000000000,-30000000000000,-33000000000000,22000000000000,3000000000000,35000000000000,-8000000000000,-79000000000000,102000000000000,-35000000000000,53500000000000,-26500000000000,-3500000000000,9500000000000,32000000000000,-35500000000000,15000000000000,-103000000000000,89000000000000,-12500000000000,36500000000000,1763158000000,1236842000000,-15785714000000,145075188000000,7710526000000,-7500000000000,40000000000000,-6000000000000,-28000000000000,16500000000000,-95000000000000,72000000000000,-22000000000000,35000000000000,-23500000000000,4000000000000,-28000000000000,10500000000000,46500000000000,-20000000000000,21000000000000,-34500000000000,9500000000000,-28500000000000,-68000000000000,57500000000000,-79000000000000,-46000000000000,-22000000000000,44500000000000,19500000000000,5000000000000,-54000000000000,56500000000000,-105000000000000,48500000000000,-16500000000000,34500000000000,-25000000000000,25000000000000,-22500000000000,-15500000000000,73500000000000,68000000000000,-232000000000000,-151000000000000,14000000000000,-40000000000000,23000000000000,-3500000000000,-8500000000000,36500000000000,1500000000000,25500000000000,98500000000000,259000000000000,-24000000000000,25500000000000,-3000000000000,-35000000000000,-29947368000000,83447368000000,-44000000000000,27500000000000,2000000000000,-7500000000000,-27000000000000,6000000000000,34000000000000,-26500000000000,47500000000000,-35500000000000,-63000000000000,34500000000000,36000000000000,199921053000000,340078947000000,174000000000000,241500000000000,-10000000000000,-16500000000000,-246500000000000,-208000000000000,381000000000000,-8000000000000,97500000000000,-26131579000000,-15368421000000,9500000000000,22000000000000,14000000000000,58000000000000,-20500000000000,-17000000000000,38000000000000,43500000000000,-86000000000000,-2000000000000,-43000000000000,26500000000000,5500000000000,-500000000000,-18000000000000,6500000000000,-13000000000000,-68000000000000,-179000000000000,95000000000000,19000000000000,5000000000000,13000000000000,51500000000000,-3000000000000,13000000000000,19500000000000,-3000000000000,-1833333000000],"hashrate_average_7d":2044969529488094.5,"hashrate_average_7d_count":168,"expected_blocks":3.12,"multipool":16},{"url":"https:\/\/www.poolin.com","hashrate":25219000000000000,"miners":-1,"minpay":0.01,"id":3,"pool_id":"poolin.com","fee":3,"feetype":"PPS","i":13373,"json":{"err_no":0,"data":{"shares":{"shares_1m":23.855,"shares_5m":25.219,"shares_15m":25.161,"shares_1h":27.916,"shares_unit":"P"},"reject":{"1m":0,"5m":0,"15m":0.0027,"1h":0.0021},"workers":1551,"users":410,"total_blocks":140250,"total_rewards":104204915389144}},"workers":1551,"netdiff":6598773455.476732,"nethash":"94471720609793092","income":3.31223e-15,"blocks_nr":19,"lastblock":698938,"lastblocktime":"1664595133","country":"US|United States","blocks_1000":437,"blocks_count":45,"hashrate_average_100_count":81,"hashrate_average_100":38413239715952930,"hashrate_average_1h":25121000000000000,"history_start":1663990841,"history_interval":3600,"history_addlast":true,"history":[39006750000000000,-567950000000000,720500000000000,420250000000000,-3232250000000000,-5093450000000000,-354600000000000,262800000000000,52739470000000,76760530000000,-80850000000000,150350000000000,-44250000000000,-160150000000000,12150000000000,-62000000000000,122750000000000,24800000000000,-162800000000000,273450000000000,-16600000000000,-188150000000000,-4000000000000,-383700000000000,264650000000000,-166750000000000,-297750000000000,158250000000000,-101800000000000,201200000000000,239600000000000,110050000000000,-235550000000000,267000000000000,300300000000000,-193900000000000,10200000000000,58950000000000,-165400000000000,-104650000000000,-108050000000000,40400000000000,122100000000000,-530800000000000,-2490050000000000,1529350000000000,1943050000000000,1623000000000000,73700000000000,57850000000000,-496250000000000,-30513160000000,501263160000000,113714290000000,599706760000000,303228950000000,455050000000000,-422250000000000,116550000000000,-19950000000000,79750000000000,-208650000000000,160450000000000,-22650000000000,-31900000000000,-41605560000000,213455560000000,-637900000000000,-1989950000000000,2272400000000000,34900000000000,477300000000000,177600000000000,-119700000000000,101900000000000,-362200000000000,-694550000000000,141500000000000,-26600000000000,-639550000000000,25500000000000,-32500000000000,-36550000000000,229550000000000,87250000000000,-28100000000000,-286250000000000,-2100000000000,139800000000000,-186450000000000,197400000000000,-25850000000000,-169600000000000,-266650000000000,123450000000000,106000000000000,14350000000000,-1633200000000000,1539600000000000,181100000000000,-355100000000000,366900000000000,27200000000000,-223200000000000,-54050000000000,485650000000000,350250000000000,344800000000000,359300000000000,614900000000000,-105750000000000,-348121050000000,257821050000000,187050000000000,21400000000000,-66600000000000,155950000000000,-200600000000000,315100000000000,-315600000000000,-36600000000000,-202800000000000,123750000000000,-738750000000000,-200550000000000,224550000000000,703773680000000,217476320000000,-114150000000000,-18200000000000,766150000000000,1528650000000000,277050000000000,304200000000000,122700000000000,-694900000000000,-24300000000000,21060530000000,-335960530000000,359600000000000,778500000000000,637050000000000,262550000000000,-364100000000000,321900000000000,546250000000000,97250000000000,245700000000000,-16400000000000,672600000000000,-62000000000000,157150000000000,-36950000000000,-475150000000000,599600000000000,-132100000000000,117900000000000,-53450000000000,-370150000000000,-166550000000000,3300000000000,296900000000000,-105800000000000,144050000000000,-523050000000000,-7639050000000000,-4892050000000000,-2381750000000000],"hashrate_average_7d":34434910233630944,"hashrate_average_7d_count":168,"hashrate_block":853627549243398.4,"expected_blocks":45.36,"luck":-0.3594280854949119,"multipool":15},{"url":"https:\/\/pool.btc.com","hashrate":4111000000000000,"miners":-1,"minpay":0.1,"id":4,"pool_id":"pool.btc.com","feetype":"PPS","i":14309,"workers":97,"income":3.3721400476847e-15,"i_blocks":14351,"json_blocks":{"err_no":0,"data":{"blocks":{"current_page":1,"data":[{"height":698937,"is_orphaned":0,"hash":"00000000000000000a22063018d654dd6eaca12327b44cc2b2a9821da9304c26","rewards":"1.01340080","size":29412,"prev_hash":"00000000000000000829fa236fa2c4bdd30abf73f3ae683aa461f90402db9985","bits":419473055,"version":9,"created_at":1664594995,"region_id":34,"region_name":"America"},{"height":698935,"is_orphaned":0,"hash":"0000000000000000554e824adbd1aba4f0e8bcc5dab3c666392b251a5a16149b","rewards":"1.01340080","size":6509,"prev_hash":"00000000000000005e11fa6e9f6b546c12342f61014e2cb3c75463ccbdaa34dd","bits":419473055,"version":9,"created_at":1664594664,"region_id":34,"region_name":"America"},{"height":698920,"is_orphaned":0,"hash":"000000000000000044673f756727d5050245ccae9a112277f1b21119d671924e","rewards":"1.01340080","size":17978,"prev_hash":"0000000000000000472a580ee329882b88b8d751959049d209de9481cb9df9d6","bits":419473055,"version":9,"created_at":1664586161,"region_id":34,"region_name":"America"},{"height":698918,"is_orphaned":0,"hash":"0000000000000000632404c7c71d8c9b9ccc2ba9fb1bcf1c388a2ce1df627ab0","rewards":"1.01340080","size":23174,"prev_hash":"000000000000000007622b36fd0d3785a596d7cfb3e4f5b17a37696b63f08ed8","bits":419473055,"version":9,"created_at":1664585393,"region_id":36,"region_name":"BitDeer"},{"height":698914,"is_orphaned":0,"hash":"000000000000000020638c76584d3f0ac8fe08df07994fb16ed69786438c83a7","rewards":"1.01340080","size":20565,"prev_hash":"00000000000000000125bde8368793cf4d22426f94795a8b47ffb68edd3273b7","bits":419473055,"version":9,"created_at":1664583715,"region_id":34,"region_name":"America"},{"height":698908,"is_orphaned":0,"hash":"00000000000000007385acc7aad9188d7d867a7b05f584d696e348b25b4b644c","rewards":"1.01340080","size":37273,"prev_hash":"00000000000000009fb1306d89ee1ba436c2f28ac98b5a50f91a650ca752189e","bits":419473055,"version":9,"created_at":1664582880,"region_id":34,"region_name":"America"},{"height":698897,"is_orphaned":0,"hash":"000000000000000076d9e3bb3c81023fd921cf890ea2a617964d940cf8a8d118","rewards":"1.01340080","size":8209,"prev_hash":"000000000000000083a307819e50e3da13172e4dd169b954a8ee95bb956c92d5","bits":419473055,"version":9,"created_at":1664579396,"region_id":36,"region_name":"BitDeer"},{"height":698867,"is_orphaned":0,"hash":"0000000000000000787b9e16b15c8daf9e3024d60470e0f4a74f2101db7acc9b","rewards":"1.01340080","size":3076,"prev_hash":"00000000000000009649c16f0aa7dc5186e13478cb55a6a94f59c18c36a595f7","bits":419473055,"version":9,"created_at":1664567001,"region_id":34,"region_name":"America"},{"height":698761,"is_orphaned":0,"hash":"000000000000000031ae6b340697dc92114ccdd9d851002838f7abd23968d8d4","rewards":"1.01340080","size":36912,"prev_hash":"0000000000000000bcf971929bd58bfa23771be60e930175d2934755b1966de8","bits":419482233,"version":9,"created_at":1664543897,"region_id":34,"region_name":"America"},{"height":698752,"is_orphaned":0,"hash":"0000000000000000658a33f7139d1d2bfbaac12d628ec3f903bc6d99c33d474c","rewards":"1.01340080","size":44375,"prev_hash":"000000000000000049757a3f54ba666da8dd75bd94562823a3281c87b790c5ff","bits":419482233,"version":9,"created_at":1664542386,"region_id":36,"region_name":"BitDeer"}],"first_page_url":"https:\/\/eu-api.connectbtc.com\/\/public\/v1\/pool\/blocks\/merge?order_by=desc&page_size=10&page=1","from":1,"last_page":2172,"last_page_url":"https:\/\/eu-api.connectbtc.com\/\/public\/v1\/pool\/blocks\/merge?order_by=desc&page_size=10&page=2172","next_page_url":"https:\/\/eu-api.connectbtc.com\/\/public\/v1\/pool\/blocks\/merge?order_by=desc&page_size=10&page=2","path":"https:\/\/eu-api.connectbtc.com\/\/public\/v1\/pool\/blocks\/merge","per_page":10,"prev_page_url":null,"to":10,"total":21719},"blocks_count":21719,"rewards_count":"190108.75778109"},"trace_id":"db51df7d-97c5-4714-9966-2a598200282a"},"blocks_nr":10,"lastblock":698937,"lastblocktime":"1664594948","country":"WL|CN , EU , US","blocks_1000":41,"blocks_count":8,"hashrate_average_100_count":81,"hashrate_average_100":4070967604648919.5,"hashrate_average_1h":4107666666666666.5,"history_start":1663990841,"history_interval":3600,"history_addlast":true,"history":[2397750000000000,100650000000000,1250000000000,-6100000000000,-11550000000000,-10750000000000,18400000000000,-18700000000000,25839474000000,65810526000000,24350000000000,-71750000000000,-44450000000000,25700000000000,-2250000000000,-850000000000,39050000000000,22100000000000,-13700000000000,950000000000,-10850000000000,-7750000000000,10300000000000,71250000000000,4500000000000,-7300000000000,-22600000000000,-28550000000000,32350000000000,12950000000000,4000000000000,-22250000000000,27100000000000,35100000000000,32400000000000,-3950000000000,2250000000000,-20050000000000,-50300000000000,-30600000000000,-9800000000000,32950000000000,550000000000,-34300000000000,49650000000000,-10250000000000,40400000000000,-31000000000000,-38200000000000,10300000000000,-13050000000000,4210526000000,-23310526000000,-2542857000000,4906015000000,32286842000000,500000000000,24700000000000,23050000000000,30250000000000,25200000000000,-39100000000000,-20500000000000,60600000000000,71800000000000,10894444000000,20405556000000,-36450000000000,1950000000000,4050000000000,5500000000000,19900000000000,-19700000000000,-158650000000000,87850000000000,15400000000000,11550000000000,7650000000000,-16850000000000,11350000000000,-6650000000000,-20650000000000,27300000000000,14000000000000,7050000000000,51850000000000,-33350000000000,-16450000000000,-23450000000000,-13150000000000,-19300000000000,10400000000000,-8900000000000,47850000000000,-33400000000000,16650000000000,-16150000000000,24350000000000,25000000000000,96500000000000,-174350000000000,471600000000000,428100000000000,-7100000000000,33700000000000,56550000000000,2700000000000,-50500000000000,-66250000000000,-28700000000000,-38250000000000,55152632000000,101247368000000,-38050000000000,-33400000000000,28250000000000,-25900000000000,81500000000000,-27650000000000,-24750000000000,-6200000000000,53600000000000,68950000000000,126900000000000,-47400000000000,5350000000000,7973684000000,-64923684000000,14650000000000,1750000000000,-55800000000000,-22200000000000,19400000000000,26300000000000,-38800000000000,-50950000000000,14500000000000,-9136842000000,-40963158000000,9400000000000,43200000000000,4750000000000,119050000000000,-147750000000000,105150000000000,122350000000000,240850000000000,12550000000000,47150000000000,51900000000000,-7950000000000,28600000000000,-90350000000000,72500000000000,-114500000000000,55550000000000,3300000000000,97900000000000,-155550000000000,-108750000000000,16500000000000,5800000000000,-20900000000000,41600000000000,16150000000000,14350000000000,33750000000000,10766667000000],"hashrate_average_7d":3096545362416665.5,"hashrate_average_7d_count":168,"hashrate_block":508870950581114.94,"expected_blocks":4.81,"luck":3.192887565149454,"multipool":7},{"url":"https:\/\/www.f2pool.com","hashrate":38560777114662550,"miners":-1,"minpay":0.1,"id":14,"pool_id":"f2pool.com","fee":3,"feetype":"PPS%3","i":2444,"income":2.9194234152244453e-15,"blocks_nr":9,"lastblock":698939,"lastblocktime":1664595360,"country":"WL|Global","blocks_1000":484,"blocks_count":44,"hashrate_average_100_count":81,"hashrate_average_100":39661542961442936,"hashrate_average_1h":38469349160426536,"history_start":1663990841,"history_interval":3600,"history_addlast":true,"history":[51757189360000000,-122590030000000,440767660000000,227876940000000,-192485930000000,-162336380000000,-224530980000000,123357630000000,197705560000000,209072880000000,-421122120000000,381666800000000,59599370000000,-195583720000000,52162070000000,-549181380000000,404374730000000,73264400000000,102143260000000,-89663310000000,-603592680000000,404141870000000,175967750000000,47207190000000,-1692796600000000,1134671820000000,816537630000000,-384831070000000,-315059660000000,-39230200000000,-157168080000000,61261110000000,-26486970000000,-280091870000000,102787650000000,136973080000000,-192318010000000,15722480000000,-35942050000000,-127183550000000,215918680000000,9950110000000,-11200200000000,-164920250000000,-168820700000000,266918850000000,66978240000000,127901880000000,80699170000000,-263819420000000,337068340000000,-408060780000000,-88123010000000,-59417790000000,-338235050000000,361059740000000,70650700000000,-45440430000000,-406195360000000,214261680000000,31275520000000,59429340000000,-152806610000000,-30141970000000,77263550000000,-94475810000000,-66357400000000,-142432110000000,199135380000000,851404610000000,187022800000000,100504690000000,-630313390000000,313216720000000,189952720000000,101157670000000,-375120440000000,-572656970000000,-1606230230000000,-9409157980000000,-13309760000000,-344240410000000,-7576400000000,565035660000000,92340150000000,8965800000000,-133875470000000,101778410000000,23579970000000,96144010000000,38555880000000,-553132290000000,-21902760000000,223948380000000,313631160000000,-166530050000000,-446594660000000,435908230000000,-1280315030000000,1299268580000000,-129933030000000,-439422630000000,409268690000000,-112415900000000,35516480000000,-60720410000000,-290967470000000,340832840000000,-64984930000000,52784280000000,-395283600000000,356684960000000,133681720000000,15137870000000,52823490000000,-863574260000000,413824440000000,425112220000000,72760500000000,-165304140000000,-384680210000000,352757070000000,151483470000000,-197098600000000,131978020000000,14050900000000,420416670000000,-169312990000000,205834280000000,-1355732910000000,-408130860000000,1640067270000000,-313414610000000,-1336528310000000,348870520000000,104446260000000,560061860000000,371916830000000,-481788690000000,-1714270490000000,1801700940000000,727630200000000,-251818270000000,56478160000000,-297858620000000,-37017220000000,-380583090000000,-85882440000000,1292770000000,-308656360000000,123823750000000,116533050000000,-121117130000000,-135250180000000,-396681470000000,912923740000000,424368850000000,24203160000000,-408568490000000,-46868690000000,230066830000000,250706430000000,-261116400000000,-335152040000000,451030090000000,-359094430000000,-529719480000000,-594551640000000],"hashrate_average_7d":45264802311726190,"hashrate_average_7d_count":168,"hashrate_block":901398703669157.6,"expected_blocks":46.83,"luck":-2.833459479654536,"multipool":33}],"hashblock":{"hashrate_average_100":82145750282044780,"blocks_count":97,"pools":[[853627549243398.4,45,18969501094297.742,"https:\/\/www.poolin.com"],[508870950581114.94,8,63608868822639.37,"https:\/\/pool.btc.com"],[901398703669157.6,44,20486334174299.035,"https:\/\/www.f2pool.com"]],"hashrate_block_all":846863404969533.9,"hashrate_block_min":18969501094297.742,"hashrate_block_max":63608868822639.37,"pool_hashblock_average":34354901363745.38,"hashrate_block":846863404969533.9},"time":1664595998,"hashrate":83120000000000000,"difficulty":6598773455.476732,"height":698939,"symbol":"DCR","maxhash":38560777114662550,"poolshash":71054637977661890,"nethash_estimat":84686340496953390,"poolsminers":1683,"supply":{"circulating":14390586.67275556,"total":21000000,"emission24":2866},"block_time_target":300,"block_height_ok":true,"algo":"Blake256R14","hashrate_from_diff":false,"hashrate_src":"https:\/\/lab.antpool.com","unit":"H\/s","block_time_average":274.3,"minerstat":[1.3038231377182e-16,25.29819355961,1.02645346,2357],"link":{"coingecko":"decred","cmc":"decred","whattomine":"152-dcr-blake (14r)","coin360":"decred-dcr","coinpaprika":"dcr-decred"},"latest_release":{"tag":"release-v1.7.4","name":"dcrd v1.7.4","t":1659553036},"price":25.32}