{"data":[{"url":"https:\/\/www.okx.com\/pool","hashrate":8690000000000,"miners":-1,"minpay":-1,"id":23,"pool_id":"okx.com","i":1611,"workers":1,"lastblock":630904,"feetype":"PPLNS","fee":2,"country":"HK|Hong Kong","hashrate_average_100_count":71,"hashrate_average_100":8470557328345.07,"hashrate_average_1h":8484117647058.823,"history_start":1665628847,"history_interval":3600,"history_addlast":true,"history":[8658000000000,-248500000000,1199500000000,-336000000000,594000000000,-156500000000,-877000000000,1216000000000,-1339000000000,1040500000000,239500000000,-952000000000,-792500000000,511000000000,719000000000,226500000000,-1450000000000,874000000000,-553500000000,585500000000,175000000000,495000000000,-1330000000000,985000000000,-391000000000,-238000000000,61000000000,106500000000,1528500000000,361500000000,-2576000000000,842500000000,-298500000000,295000000000,-1156000000000,920000000000,38500000000,446000000000,-655000000000,28500000000,287000000000,-520000000000,-58500000000,-420500000000,1575000000000,-787000000000,469000000000,-299500000000,-502000000000,1930000000000,-689000000000,-491000000000,-330000000000,-158500000000,291000000000,-526000000000,136000000000,397000000000,31000000000,666500000000,-937500000000,5000000000,406500000000,-162500000000,42500000000,-925000000000,301000000000,811000000000,-191000000000,152500000000,-675500000000,433000000000,-1199000000000,944000000000,1274000000000,-1477500000000,-693500000000,1698500000000,-459000000000,-19000000000,-528000000000,320000000000,1027500000000,-909500000000,744500000000,-838500000000,-415000000000,-403500000000,844500000000,1587000000000,-1292000000000,-606500000000,266000000000,625000000000,-562000000000,-431500000000,-160000000000,607000000000,-150500000000,-314000000000,-26000000000,748000000000,-732000000000,1041000000000,-365000000000,-583000000000,1118000000000,-1105500000000,391000000000,354500000000,-595500000000,-141000000000,1500000000000,-710000000000,-316000000000,-861500000000,710500000000,-32500000000,-193500000000,549000000000,222000000000,-641500000000,718500000000,-1126000000000,-662000000000,1490000000000,164500000000,-1086500000000,799500000000,69500000000,-487500000000,1029500000000,-280500000000,-565500000000,282000000000,-1125000000000,1171500000000,-924000000000,-389000000000,272000000000,1272000000000,-1933000000000,2110500000000,-662500000000,-745000000000,1460500000000,365000000000,-727111111000,-481888889000,14000000000,-294000000000,823000000000,-51500000000,803000000000,-344000000000,-625000000000,-832000000000,1572000000000,-795000000000,366500000000,-274000000000,-889500000000,123500000000,-34500000000,769500000000,56500000000,-1834000000000,1052617647000],"hashrate_average_7d":9036440515095.236,"hashrate_average_7d_count":168,"expected_blocks":0.01,"multipool":5},{"url":"https:\/\/www2.coinmine.pl\/dcr","hashrate":541953276487001,"miners":-1,"minpay":0.05,"id":5,"pool_id":"coinmine.pl","i":12324,"workers":27,"blocks_nr":5,"lastblock":704238,"lastblocktime":"1666196231","fee":1,"feetype":"PPLNS","height":704370,"country":"WL|EU , US , Asia","blocks_1000":6,"hashrate_average_100_count":71,"hashrate_average_100":538446054552381.44,"hashrate_average_1h":544618978759015.06,"history_start":1665628847,"history_interval":3600,"history_addlast":true,"history":[692056365300000,-39111201600000,32781466600000,-1084676400000,2852178400000,-18828745900000,12388400700000,-16548646000000,17414465100000,33445416300000,-28070639100000,-36088222700000,15133456000000,-16511044800000,-11000098100000,5752287400000,368044300000,16140396800000,-21937869200000,5308547000000,15942903400000,-20120042300000,14204003000000,-20467112600000,111823600000,20876326200000,-23104135400000,19464175100000,-4774051100000,-8994840800000,-1476966500000,24102633700000,-18785449400000,27208964800000,-2039861900000,-32647873200000,33719596100000,-35043695700000,-2161145000000,7853698300000,1799780700000,-15826648100000,2239168500000,16703868400000,6589488800000,-14608942100000,2116054000000,23298062400000,-25056198400000,-1633290600000,26443696700000,-28939416700000,15715024200000,4483895300000,-29623755700000,-78635772600000,-7143692900000,13191081200000,3684076900000,-17141713900000,12985865200000,13600128500000,1660359400000,-9100872200000,-4124697900000,-16906732200000,27785780000000,-5812036400000,15093087600000,5742063900000,-24202653000000,-9197701400000,31387056700000,-32972197400000,20863210700000,-15982328500000,16756332200000,-12989547400000,4249570000000,-22558320800000,-4848761200000,30968295900000,-20562332400000,19676274000000,-6305918300000,14184984600000,-2691245200000,-72937571200000,-39524371000000,3327470000000,2066192500000,-1808369300000,5474778300000,-14855822400000,-113305900000,-3217561400000,3840481800000,1809946400000,-9656532600000,13378187100000,-8342516500000,4962953200000,24815600000,-20477725500000,26299809400000,-29281305300000,4907920100000,14877257800000,51549329800000,-24969246800000,-18263500500000,36483878500000,85236913800000,6222827100000,22714418100000,-4173710800000,4511580100000,486880900000,-19886892300000,9808797200000,1621378900000,-2110128500000,7470288800000,-12696986200000,-2144555900000,3008820800000,-33320069800000,35730187200000,12918176700000,-30131951300000,9775549800000,-10682188800000,36326811000000,-2932269800000,-34647090700000,26893850700000,-14528240000000,-23648975700000,-9491971900000,-9299065500000,4075638300000,24338281300000,-30860217300000,2287934000000,-8432054800000,8567230600000,-6902788500000,-8754780300000,24240772100000,-3560726200000,-2684622200000,-9019486300000,25953730400000,-24910049800000,-12719702100000,24896839200000,11791052200000,-15730961000000,-1620195200000,5875129400000,-20542591200000,19570846400000,-3944033200000,-950282000000,23734542100000,-29340996600000,2550181900000,5441450700000],"hashrate_average_7d":573985216413690.8,"hashrate_average_7d_count":168,"expected_blocks":0.67,"multipool":6},{"url":"https:\/\/lab.antpool.com","hashrate":1920000000000000,"miners":-1,"minpay":0.1,"id":11,"pool_id":"antpool.com","i":2062,"nethash":86220000000000000,"netdiff":6003939372,"feetype":"PPS","fee":3,"income":3.2609848e-15,"country":"WL|Global","hashrate_average_100_count":71,"hashrate_average_100":1862041153169014,"hashrate_average_1h":1847647058823529.5,"history_start":1665628847,"history_interval":3600,"history_addlast":true,"history":[1912500000000000,-2000000000000,75000000000000,10000000000000,122000000000000,31000000000000,189500000000000,6500000000000,0,140000000000000,-48000000000000,-15000000000000,43000000000000,22500000000000,-79500000000000,-4500000000000,-4500000000000,-22000000000000,39500000000000,29000000000000,19500000000000,-5500000000000,11000000000000,-205500000000000,-60500000000000,150000000000000,-21500000000000,-281500000000000,-148500000000000,422000000000000,120500000000000,-100500000000000,126500000000000,-6000000000000,-67000000000000,-13000000000000,7500000000000,-75000000000000,-80000000000000,50500000000000,21500000000000,65500000000000,-54000000000000,-17000000000000,52000000000000,-26500000000000,-6000000000000,-52500000000000,-82500000000000,72000000000000,0,-9000000000000,-46500000000000,163000000000000,44000000000000,-80000000000000,3500000000000,-17500000000000,126500000000000,41500000000000,-9500000000000,-17500000000000,-148000000000000,120500000000000,4000000000000,5500000000000,20000000000000,-1000000000000,-49000000000000,13500000000000,18000000000000,36000000000000,18500000000000,47000000000000,9000000000000,1500000000000,-44500000000000,-88500000000000,-56000000000000,-11500000000000,12500000000000,14000000000000,16500000000000,10500000000000,-18000000000000,35500000000000,-158500000000000,41500000000000,83500000000000,-50500000000000,62000000000000,-16000000000000,-24500000000000,23500000000000,33500000000000,-36000000000000,-6000000000000,33500000000000,-53000000000000,80000000000000,11500000000000,-117000000000000,143500000000000,5000000000000,-47000000000000,56000000000000,-22500000000000,-22500000000000,-19500000000000,-23000000000000,-173000000000000,58500000000000,55000000000000,44000000000000,27500000000000,-18000000000000,-48000000000000,-25500000000000,162000000000000,132000000000000,-52000000000000,-65000000000000,46500000000000,-30000000000000,-392000000000000,24500000000000,10000000000000,-16000000000000,-94000000000000,76000000000000,-85500000000000,75000000000000,-17000000000000,10000000000000,-212000000000000,178500000000000,-11500000000000,-8500000000000,7500000000000,61500000000000,-95000000000000,42000000000000,42500000000000,24500000000000,-2500000000000,-50500000000000,-248000000000000,-252666667000000,248166667000000,18500000000000,-55500000000000,23500000000000,-2000000000000,-6000000000000,500000000000,3000000000000,18000000000000,25000000000000,-6500000000000,4500000000000,-2000000000000,34500000000000,8500000000000,-21500000000000,23000000000000,-43000000000000,-11000000000000,4647059000000],"hashrate_average_7d":2262529645190476,"hashrate_average_7d_count":168,"expected_blocks":2.31,"multipool":16},{"url":"https:\/\/pool.btc.com","hashrate":3377000000000000,"miners":-1,"minpay":0.1,"id":4,"pool_id":"pool.btc.com","feetype":"PPS","i":14338,"workers":76,"income":3.3618431926425e-15,"i_blocks":14380,"json_blocks":{"err_no":0,"data":{"blocks":{"current_page":1,"data":[{"height":704349,"is_orphaned":0,"hash":"00000000000000007e28c480007e1edd3310c979e539540ee3025da04d3a1e7d","rewards":"1.00336713","size":2153,"prev_hash":"0000000000000000a794723d522fd2d667bd54b600d1faa54da75c8b2f196d79","bits":419477281,"version":9,"created_at":1666230592,"region_id":36,"region_name":"BitDeer"},{"height":704338,"is_orphaned":0,"hash":"00000000000000003f5e422b46395d1d2c6a952ae7331a5e94a9c3031c0c3c30","rewards":"1.00336713","size":3121,"prev_hash":"0000000000000000024f6e746d4acb5052cfb91fc7fd7c703f71fa5465cfdd46","bits":419477281,"version":9,"created_at":1666227292,"region_id":34,"region_name":"America"},{"height":704297,"is_orphaned":0,"hash":"000000000000000030df5d8e6ff4e42718f2c20f0ad9633d7c69b05357255fd8","rewards":"1.00336713","size":2156,"prev_hash":"000000000000000050ac3d54d77794ff2a2ea38f43b700d49779ba5929d6ff59","bits":419473878,"version":9,"created_at":1666214057,"region_id":34,"region_name":"America"},{"height":704292,"is_orphaned":0,"hash":"00000000000000002f3b20fa58f551bf35ca8a0fd6062275d92e4cd6815070fb","rewards":"1.00336713","size":65329,"prev_hash":"000000000000000001f2ab270b7011c1527cb8133455c6cf6ff438bb4bc51a9a","bits":419473878,"version":9,"created_at":1666213349,"region_id":36,"region_name":"BitDeer"},{"height":704246,"is_orphaned":0,"hash":"00000000000000005b5a6b1f35e90605e262fae21f4192516fbb085c9432bac1","rewards":"1.00336713","size":9639,"prev_hash":"00000000000000003fea6c800ce1ef628e6c3ce79eb61070c016a47c64d75577","bits":419473878,"version":9,"created_at":1666197631,"region_id":36,"region_name":"BitDeer"},{"height":704211,"is_orphaned":0,"hash":"000000000000000005cf3189b15071dc5d5e1af78963c5dd5f47e7f9f2bdbf4d","rewards":"1.00336713","size":31388,"prev_hash":"00000000000000009529ec5da613adcabb63bb3981660ef43396a36265c5fd78","bits":419473878,"version":9,"created_at":1666186661,"region_id":34,"region_name":"America"},{"height":704192,"is_orphaned":0,"hash":"0000000000000000204b886f219bb297aa116f30669df339832478e8e04600ef","rewards":"1.00336713","size":40467,"prev_hash":"0000000000000000a177b76cc10c8f3d69b9b38be82b65feb40986040b252954","bits":419473878,"version":9,"created_at":1666180366,"region_id":34,"region_name":"America"},{"height":704143,"is_orphaned":0,"hash":"00000000000000007a5dbda012f3e43ed49b4319d53081fb3d8a3e1e1f36fc5e","rewards":"1.00336713","size":34908,"prev_hash":"00000000000000004f0fabeb945508fc7e639cf38748ba256cc52bd040b19af5","bits":419473768,"version":9,"created_at":1666163427,"region_id":34,"region_name":"America"},{"height":704125,"is_orphaned":0,"hash":"00000000000000003ae1931e582f71cbc56779c7fe203af0ad93c6dc5525d1b2","rewards":"1.00336713","size":33178,"prev_hash":"00000000000000003f43187f6c152d58e667bacce44accc0b1cb8e43a303a59c","bits":419473768,"version":9,"created_at":1666158309,"region_id":34,"region_name":"America"},{"height":704119,"is_orphaned":0,"hash":"000000000000000077641fc825a6be6971041cc3c7418530cd8465e520e1ef7f","rewards":"1.00336713","size":5580,"prev_hash":"000000000000000073d6102d50bf71dd6663fc3a423d9ad1469a5a090c96d206","bits":419473768,"version":9,"created_at":1666156524,"region_id":34,"region_name":"America"}],"first_page_url":"https:\/\/eu-api.connectbtc.com\/\/public\/v1\/pool\/blocks\/merge?order_by=desc&page_size=10&page=1","from":1,"last_page":2197,"last_page_url":"https:\/\/eu-api.connectbtc.com\/\/public\/v1\/pool\/blocks\/merge?order_by=desc&page_size=10&page=2197","next_page_url":"https:\/\/eu-api.connectbtc.com\/\/public\/v1\/pool\/blocks\/merge?order_by=desc&page_size=10&page=2","path":"https:\/\/eu-api.connectbtc.com\/\/public\/v1\/pool\/blocks\/merge","per_page":10,"prev_page_url":null,"to":10,"total":21963},"blocks_count":21963,"rewards_count":"190351.44820893"},"trace_id":"a5d504c4-8198-454d-a296-75291e9f5ecf"},"blocks_nr":10,"lastblock":704349,"lastblocktime":"1666230574","country":"WL|CN , EU , US","blocks_1000":39,"blocks_count":4,"hashrate_average_100_count":71,"hashrate_average_100":3399729767275528,"hashrate_average_1h":3428058823529412,"history_start":1665628847,"history_interval":3600,"history_addlast":true,"history":[3498250000000000,-82450000000000,63550000000000,-23700000000000,-49600000000000,-51450000000000,15800000000000,85750000000000,-41400000000000,50000000000000,33850000000000,-39750000000000,13650000000000,50000000000000,-48850000000000,-26650000000000,-500000000000,-29600000000000,-16700000000000,6150000000000,31150000000000,56800000000000,-10150000000000,95650000000000,-62200000000000,26350000000000,-68800000000000,41000000000000,3200000000000,-67150000000000,45650000000000,39350000000000,-89250000000000,46700000000000,36350000000000,-33000000000000,-2450000000000,10900000000000,-16250000000000,-32500000000000,-69300000000000,-86550000000000,-33750000000000,51950000000000,56700000000000,24300000000000,-27100000000000,3500000000000,-13950000000000,38850000000000,-50050000000000,-41850000000000,-3600000000000,10600000000000,2700000000000,51800000000000,84600000000000,-65650000000000,-1150000000000,-15450000000000,16300000000000,26950000000000,45450000000000,-45450000000000,-27500000000000,-35750000000000,-33500000000000,-96500000000000,129750000000000,17450000000000,48500000000000,49950000000000,-37200000000000,23200000000000,-48950000000000,-38500000000000,30250000000000,-38950000000000,53200000000000,100850000000000,-4050000000000,55150000000000,-74850000000000,-25500000000000,-31250000000000,-27500000000000,-40800000000000,2450000000000,8800000000000,-39650000000000,-30800000000000,31950000000000,-22550000000000,72950000000000,-10350000000000,57800000000000,33050000000000,-97400000000000,1150000000000,-35200000000000,14600000000000,19000000000000,-8850000000000,-20300000000000,140400000000000,-38300000000000,-10850000000000,59400000000000,-48500000000000,-28050000000000,25700000000000,-84750000000000,-36850000000000,2950000000000,950000000000,-34300000000000,25700000000000,29150000000000,-27450000000000,111850000000000,-15600000000000,-5350000000000,-66050000000000,-25500000000000,115000000000000,-37850000000000,-16500000000000,21550000000000,-8950000000000,45700000000000,46400000000000,-5700000000000,-2800000000000,-3500000000000,39600000000000,-6900000000000,-48200000000000,-63400000000000,-7150000000000,-45350000000000,17050000000000,107050000000000,34700000000000,38200000000000,-77600000000000,-64750000000000,-44850000000000,-54166667000000,-28583333000000,24900000000000,-8700000000000,5450000000000,101200000000000,57400000000000,45550000000000,-12200000000000,650000000000,28750000000000,-69850000000000,39900000000000,-50050000000000,48150000000000,-56150000000000,-111750000000000,27700000000000,18650000000000,73800000000000,-591176000000],"hashrate_average_7d":3412505012839284.5,"hashrate_average_7d_count":168,"hashrate_block":849932441818882,"expected_blocks":4.23,"luck":-0.22649921464823386,"multipool":7},{"url":"https:\/\/www.f2pool.com","hashrate":46661341413574560,"miners":-1,"minpay":0.1,"id":14,"pool_id":"f2pool.com","fee":3,"feetype":"PPS%3","i":2444,"income":3.1768933407621016e-15,"blocks_nr":12,"lastblock":704370,"lastblocktime":1666235958,"country":"WL|Global","blocks_1000":542,"blocks_count":62,"hashrate_average_100_count":71,"hashrate_average_100":47054358975042536,"hashrate_average_1h":43735639507699510,"history_start":1665628847,"history_interval":3600,"history_addlast":true,"history":[46497425630000000,-680874850000000,432106470000000,678188030000000,186056110000000,20645850000000,163722640000000,643104950000000,112603680000000,-199466810000000,-322390850000000,93157390000000,432163100000000,7562550000000,-57527040000000,-417086700000000,248037150000000,416109950000000,-165288470000000,-1949598420000000,-4919460040000000,2508078660000000,4056955050000000,123008640000000,13398850000000,-543201200000000,154234080000000,363368240000000,597265640000000,-493344730000000,-339969150000000,419512960000000,-4987840000000,-82172830000000,38050000000,-380593760000000,459437300000000,321615320000000,-24414840000000,-212905330000000,-119042940000000,92396800000000,-5524289190000000,1279099480000000,2276863140000000,-1599669040000000,3121354640000000,79060040000000,212171150000000,-223759700000000,-1210636290000000,-248773330000000,1798837760000000,41898010000000,-491914110000000,305894880000000,-325984180000000,-387501070000000,-284520550000000,-379524670000000,841488830000000,-70645150000000,67152750000000,-263756430000000,-262894700000000,440665270000000,-151441650000000,-64935220000000,-296054600000000,117400910000000,187855990000000,94181310000000,-42442930000000,-77908940000000,523750060000000,109939640000000,-110564580000000,164242490000000,-385224130000000,770826670000000,53833910000000,-286878770000000,-211696380000000,-278568950000000,686264820000000,-88868050000000,315615870000000,-423590960000000,43352190000000,361962840000000,-37823370000000,149448810000000,-641767760000000,61054190000000,-541088640000000,-575186980000000,57254970000000,-4247693800000000,3802443260000000,319259870000000,486280930000000,849023830000000,-484271450000000,164936530000000,340091210000000,356080000000,104047450000000,-514726860000000,750188470000000,36444530000000,40755830000000,-371515370000000,48384810000000,480755920000000,14496850000000,-547639970000000,-475485700000000,-729178660000000,-1916646490000000,322863030000000,-136934230000000,-528957430000000,479052980000000,86545590000000,2781365590000000,319715810000000,-703116880000000,55600570000000,299638740000000,647739810000000,-3364100000000,-92742640000000,369984630000000,-4253200000000,-301795070000000,-472109450000000,-70260050000000,360693380000000,31119150000000,135006500000000,-524643440000000,-112775200000000,350089540000000,162828920000000,45155120000000,-558330260000000,108028260000000,118953030000000,-16811460000000,-11021500000000,-347592650000000,295360280000000,10715520000000,47332590000000,134878130000000,-341929180000000,285559620000000,370626560000000,-57283730000000,-214681710000000,-294399940000000,111076660000000,126794370000000,-538908750000000,-869567790000000,197558450000000,53514390000000,-3322413910000000],"hashrate_average_7d":47467019994166700,"hashrate_average_7d_count":168,"hashrate_block":758941273791008.6,"expected_blocks":58.5,"luck":3.502641425183697,"multipool":33},{"url":"https:\/\/www.poolin.com","hashrate":27307000000000000,"miners":-1,"minpay":0.01,"id":3,"pool_id":"poolin.com","fee":3,"feetype":"PPS","i":13399,"json":{"err_no":0,"data":{"shares":{"shares_1m":26.128,"shares_5m":27.307,"shares_15m":27.28,"shares_1h":27.285,"shares_unit":"P"},"reject":{"1m":0,"5m":0,"15m":0.001,"1h":0.0024},"workers":1601,"users":397,"total_blocks":142386,"total_rewards":104419140893534}},"workers":1601,"netdiff":6003939372.951942,"nethash":"85955744166355927","income":3.64038e-15,"blocks_nr":15,"lastblock":704368,"lastblocktime":"1666235304","country":"US|United States","blocks_1000":377,"blocks_count":30,"hashrate_average_100_count":6,"hashrate_average_100":26949000000000000,"hashrate_average_1h":26942800000000000,"history_start":1665628847,"history_interval":3600,"history_addlast":true,"history":[29381461540000000,292838460000000,-31300000000000,645538460000000,49261540000000,-1023850000000000,2141100000000000,173550000000000,-245300000000000,-471850000000000,528550000000000,-434000000000000,294600000000000,104550000000000,-168050000000000,105250000000000,-138100000000000,-51850000000000,116600000000000,29200000000000,20400000000000,-104550000000000,-368800000000000,-72900000000000,-324800000000000,178500000000000,78200000000000,-675750000000000,-1406400000000000,46053850000000,-53850000000,317450000000000,1711600000000000,934000000000000,-41600000000000,-209200000000000,-46000000000000,126150000000000,214200000000000,-6950000000000,-77700000000000,-124300000000000,71950000000000,-163650000000000,-28600000000000,-3100000000000,127700000000000,44800000000000,115650000000000,-503300000000000,454450000000000,36200000000000,-516850000000000,-435800000000000,-27350000000000,-337950000000000,-176400000000000,500500000000000,71450000000000,-38200000000000,39200000000000,-305550000000000,-171950000000000,41800000000000,-119800000000000,59200000000000,-192400000000000,54650000000000,82450000000000,-116750000000000,-346050000000000,-294350000000000,724510530000000,108039470000000,-970500000000000,838050000000000,39100000000000,228750000000000,216150000000000,-145050000000000,-7150000000000,-234450000000000,-75000000000000,-46550000000000,72450000000000,-121300000000000,67600000000000,-72100000000000,-189750000000000,-181300000000000,291900000000000,-37950000000000,-171000000000000,-361700000000000,-175800000000000,222900000000000,372500000000000,-668150000000000,511200000000000,-590550000000000,247950000000000,308450000000000,404900000000000,533050000000000,-809515380000000,1060915380000000,385050000000000,2874800000000000,1802850000000000,717300000000000,-45500000000000,-258650000000000,110500000000000,224350000000000,84250000000000,-27450000000000,-178300000000000,-87500000000000,380600000000000,-506500000000000,717550000000000,-269000000000000,-1112200000000000,1137900000000000,-583300000000000,423050000000000,150000000000,261150000000000,-73850000000000,-344800000000000,406100000000000,-309900000000000,124450000000000,-74950000000000,-235300000000000,295550000000000,-55000000000000,98450000000000,-47800000000000,67800000000000,-74250000000000,-89800000000000,-1547300000000000,-789500000000000,-82950000000000,-1630650000000000,162800000000000,-496833330000000,40033330000000,-323700000000000,125450000000000,287400000000000,116250000000000,-139350000000000,-435850000000000,463650000000000,-2957950000000000,-2235800000000000,-88000000000000,17950000000000,-19900000000000,110200000000000,-76850000000000,33000000000000,14850000000000,-82100000000000,-4650000000000,-33500000000000],"hashrate_average_7d":31666232236130960,"hashrate_average_7d_count":168,"hashrate_block":898300000000000,"expected_blocks":33.5,"luck":-3.502641425183704,"multipool":15}],"hashblock":{"hashrate_average_100":74003358975042530,"blocks_count":92,"pools":[[849932441818882,4,212483110454720.5,"https:\/\/pool.btc.com"],[758941273791008.6,62,12240988286951.752,"https:\/\/www.f2pool.com"],[898300000000000,30,29943333333333.332,"https:\/\/www.poolin.com"]],"hashrate_block_all":806282174399146.5,"hashrate_block_min":12240988286951.752,"hashrate_block_max":212483110454720.5,"pool_hashblock_average":84889144025001.86,"ignored":[[849932441818882,4,212483110454720.5,"https:\/\/pool.btc.com"]],"hashrate_block":804384336685244.9},"time":1666236554,"hashrate":86220000000000000,"difficulty":6003939372.951942,"height":704370,"symbol":"DCR","maxhash":46661341413574560,"poolshash":79815984690061570,"nethash_estimat":80438433668524480,"poolsminers":1705,"supply":{"circulating":14439598.68485496,"total":21000000,"emission24":2465},"block_time_target":300,"block_height_ok":true,"algo":"Blake256R14","hashrate_from_diff":false,"hashrate_src":"https:\/\/lab.antpool.com","unit":"H\/s","block_time_average":318,"minerstat":[1.4374090106333e-16,25.542076629813,1.02961301,556],"link":{"coingecko":"decred","cmc":"decred","whattomine":"152-dcr-blake (14r)","coin360":"decred-dcr","coinpaprika":"dcr-decred"},"latest_release":{"tag":"release-v1.7.5","name":"dcrd v1.7.5","t":1665429869},"price":25.52}