{"data":[{"url":"https:\/\/www.okx.com\/pool","hashrate":7530000000000,"miners":-1,"minpay":-1,"id":23,"pool_id":"okx.com","i":1611,"workers":1,"lastblock":630904,"feetype":"PPLNS","fee":2,"country":"HK|Hong Kong","hashrate_average_100_count":76,"hashrate_average_100":8959435746042.352,"hashrate_average_1h":9223000000000,"history_start":1664246447,"history_interval":3600,"history_addlast":true,"history":[8896500000000,-203000000000,12000000000,-142000000000,-831500000000,707500000000,1595000000000,-1077500000000,-278500000000,-258500000000,827000000000,49000000000,-366500000000,120500000000,-340500000000,1027500000000,-943500000000,-231500000000,303500000000,651500000000,-1227000000000,169500000000,-15000000000,-11500000000,2001500000000,-1042500000000,-970000000000,958000000000,-501500000000,-434000000000,386000000000,-75000000000,1296000000000,-479000000000,-1160000000000,858500000000,-537500000000,-173000000000,-526000000000,1511500000000,-588105263000,-290394737000,1034000000000,-820500000000,-889500000000,487000000000,1051000000000,-1284000000000,571000000000,247000000000,678000000000,-317500000000,-894500000000,-368500000000,713000000000,-326105263000,1238105263000,-1171500000000,435500000000,719000000000,-593000000000,761000000000,910500000000,-1822500000000,-562000000000,-259500000000,103868421000,-194368421000,-82000000000,255000000000,1761000000000,-1430500000000,131000000000,-426000000000,204500000000,-35500000000,567500000000,-711500000000,1099500000000,-262500000000,-1073000000000,351500000000,171500000000,-655000000000,432500000000,1042500000000,-304000000000,-75500000000,-301000000000,2000000000,82000000000,60000000000,239000000000,199500000000,-400000000000,536000000000,-3890500000000,2962000000000,1103315789000,-1128815789000,1254000000000,-222000000000,-1139000000000,-612000000000,377000000000,680000000000,466500000000,531500000000,-719500000000,531500000000,-518500000000,313000000000,-271500000000,139500000000,-720500000000,1242500000000,-724500000000,-749000000000,585000000000,-9000000000,-18000000000,-861500000000,1038000000000,962500000000,-203000000000,-1215500000000,918000000000,767500000000,-717500000000,-1475500000000,36500000000,-94000000000,1161500000000,-324000000000,0,10174500000000,-8570000000000,-6962000000000,5659500000000,-1478500000000,820000000000,-108000000000,693000000000,-880000000000,91000000000,1247000000000,-952500000000,-518500000000,1791500000000,-1424000000000,1984000000000,-691000000000,-509500000000,521263158000,-503263158000,-95000000000,221500000000,-858500000000,398000000000,-641000000000,-251500000000,411000000000,1955078950000,-1188578950000,-906500000000,989500000000,725500000000,-868500000000],"hashrate_average_7d":8983314379714.287,"hashrate_average_7d_count":168,"expected_blocks":0.01,"multipool":5},{"url":"https:\/\/www2.coinmine.pl\/dcr","hashrate":609595520058655,"miners":-1,"minpay":0.05,"id":5,"pool_id":"coinmine.pl","i":12323,"workers":33,"blocks_nr":5,"lastblock":699616,"lastblocktime":"1664796281","fee":1,"feetype":"PPLNS","height":699789,"country":"WL|EU , US , Asia","blocks_1000":4,"hashrate_average_100_count":76,"hashrate_average_100":547226010223163.5,"hashrate_average_1h":571546627805326,"history_start":1664246447,"history_interval":3600,"history_addlast":true,"history":[473649758300000,-3462542000000,14979594500000,18810356700000,6608278500000,-5861987800000,-6549831100000,2846564100000,-4587862600000,-22217925700000,18682709100000,4918159100000,-11458999200000,14124655300000,-6259830400000,-2274937600000,-1542812400000,13076775100000,-25971149500000,-24576411600000,11535852300000,-8723333700000,13990196300000,-20077622800000,14492182800000,6072733400000,-5608806000000,-1743912900000,-13047855900000,1715433000000,-1218599300000,27793519900000,-14373163200000,38733482500000,-41309305700000,-2953467200000,-17192104800000,13179707100000,9391860100000,24261726500000,14342415100000,-5726812900000,-3700283000000,-1632503300000,-2425498600000,30135828500000,-16835890200000,-11730064800000,29696387300000,-11812576000000,-9172084700000,9880276400000,-2041582500000,-14321071000000,12903377100000,5179554700000,-9883115900000,-16252855800000,12914954900000,-1728004300000,-9233457000000,681312000000,19010053200000,-17025189100000,-1005454200000,-3249189600000,18586516900000,-7674455100000,-6302219200000,-21972457800000,21306519300000,-19279651300000,12452022600000,-7028366300000,-5104895000000,6854402700000,3761396800000,-3517084300000,-797935600000,-7240982200000,-3399823400000,15048918300000,-28659934700000,-2322513700000,34061097600000,-10250766800000,11004815100000,1822630400000,-5775983500000,15331120900000,-52528633300000,-6851304800000,48598884900000,-4359597400000,-3519207300000,1610755900000,-3760501500000,-4137256400000,10327453000000,-15641599800000,9098796000000,6554568400000,-4092454700000,1150882000000,5427212100000,106308336000000,-5262084700000,7522685600000,-8933959800000,-28927395400000,13923772200000,-26136806700000,-7313313400000,-4095765700000,20044871100000,7122650100000,11998935900000,36934304500000,-32476557300000,5996864500000,-1102673800000,-1452422900000,8930087000000,765008500000,-1034611500000,2799224700000,4435571800000,5590888900000,-15121994800000,2466604900000,-17121583000000,-17777811900000,15220948200000,14972605700000,-26089075500000,10930740300000,-27312183900000,-17877688700000,2873664300000,23820537600000,33166112700000,-30605052700000,-2574500500000,12653798700000,5727940500000,3315262500000,-15990115000000,1031021900000,16503398100000,-19807131400000,18483115700000,-1120056100000,-7594643300000,-9072395200000,10354887200000,-12857668800000,-3720191600000,3546535900000,-11842513600000,18996327000000,-9475529600000,-5256074600000,11526944900000,3606250800000,-29611204400000,20952182100000,9398163000000,13589412500000],"hashrate_average_7d":512315690145833.5,"hashrate_average_7d_count":168,"expected_blocks":0.65,"multipool":6},{"url":"https:\/\/lab.antpool.com","hashrate":2110000000000000,"miners":-1,"minpay":0.1,"id":11,"pool_id":"antpool.com","i":2062,"nethash":81480000000000000,"netdiff":6624398252,"feetype":"PPS","fee":3,"income":2.9851071e-15,"country":"WL|Global","hashrate_average_100_count":76,"hashrate_average_100":2267635915655838.5,"hashrate_average_1h":1920000000000000,"history_start":1664246447,"history_interval":3600,"history_addlast":true,"history":[1879000000000000,-34500000000000,9500000000000,-28500000000000,-68000000000000,57500000000000,-79000000000000,-46000000000000,-22000000000000,44500000000000,19500000000000,5000000000000,-54000000000000,56500000000000,-105000000000000,48500000000000,-16500000000000,34500000000000,-25000000000000,25000000000000,-22500000000000,-15500000000000,73500000000000,68000000000000,-232000000000000,-151000000000000,14000000000000,-40000000000000,23000000000000,-3500000000000,-8500000000000,36500000000000,1500000000000,25500000000000,98500000000000,259000000000000,-24000000000000,25500000000000,-3000000000000,-35000000000000,-29947368000000,83447368000000,-44000000000000,27500000000000,2000000000000,-7500000000000,-27000000000000,6000000000000,34000000000000,-26500000000000,47500000000000,-35500000000000,-63000000000000,34500000000000,36000000000000,199921053000000,340078947000000,174000000000000,241500000000000,-10000000000000,-16500000000000,-246500000000000,-208000000000000,381000000000000,-8000000000000,97500000000000,-26131579000000,-15368421000000,9500000000000,22000000000000,14000000000000,58000000000000,-20500000000000,-17000000000000,38000000000000,43500000000000,-86000000000000,-2000000000000,-43000000000000,26500000000000,5500000000000,-500000000000,-18000000000000,6500000000000,-13000000000000,-68000000000000,-179000000000000,95000000000000,19000000000000,5000000000000,13000000000000,51500000000000,-3000000000000,13000000000000,19500000000000,-3000000000000,38500000000000,-27000000000000,20000000000000,11000000000000,-30000000000000,73500000000000,-51000000000000,-8500000000000,22000000000000,-46500000000000,-5000000000000,-79500000000000,9500000000000,-70500000000000,-210500000000000,82000000000000,35500000000000,-3000000000000,24000000000000,5000000000000,27000000000000,-5500000000000,-65500000000000,38500000000000,87000000000000,70000000000000,-32500000000000,29000000000000,-92000000000000,61500000000000,-38000000000000,81500000000000,55500000000000,-3000000000000,-18500000000000,-18000000000000,-500000000000,-32500000000000,-90000000000000,87000000000000,9500000000000,64500000000000,-76500000000000,37500000000000,-141500000000000,-8000000000000,-8000000000000,-54500000000000,12500000000000,-23500000000000,-31000000000000,-38500000000000,3000000000000,-45000000000000,19500000000000,-9000000000000,18500000000000,107815789000000,-12815789000000,33000000000000,-4500000000000,-23000000000000,-156500000000000,78000000000000,35500000000000,59000000000000,-16578947000000,-199921053000000,-222000000000000,-6000000000000,-158000000000000,27500000000000],"hashrate_average_7d":2301283208023810,"hashrate_average_7d_count":168,"expected_blocks":2.68,"multipool":16},{"url":"https:\/\/www.poolin.com","hashrate":30842000000000000,"miners":-1,"minpay":0.01,"id":3,"pool_id":"poolin.com","fee":3,"feetype":"PPS","i":13384,"json":{"err_no":0,"data":{"shares":{"shares_1m":29.832,"shares_5m":30.842,"shares_15m":31.076,"shares_1h":30.947,"shares_unit":"P"},"reject":{"1m":0,"5m":0,"15m":0.0019,"1h":0.0024},"workers":1571,"users":408,"total_blocks":140628,"total_rewards":104243080063272}},"workers":1571,"netdiff":6624398252.373735,"nethash":"94838579493398555","income":3.29942e-15,"blocks_nr":21,"lastblock":699790,"lastblocktime":1664852696,"country":"US|United States","blocks_1000":443,"blocks_count":51,"hashrate_average_100_count":76,"hashrate_average_100":38895625668174344,"hashrate_average_1h":30918000000000000,"history_start":1664246447,"history_interval":3600,"history_addlast":true,"history":[34803650000000000,177600000000000,-119700000000000,101900000000000,-362200000000000,-694550000000000,141500000000000,-26600000000000,-639550000000000,25500000000000,-32500000000000,-36550000000000,229550000000000,87250000000000,-28100000000000,-286250000000000,-2100000000000,139800000000000,-186450000000000,197400000000000,-25850000000000,-169600000000000,-266650000000000,123450000000000,106000000000000,14350000000000,-1633200000000000,1539600000000000,181100000000000,-355100000000000,366900000000000,27200000000000,-223200000000000,-54050000000000,485650000000000,350250000000000,344800000000000,359300000000000,614900000000000,-105750000000000,-348121050000000,257821050000000,187050000000000,21400000000000,-66600000000000,155950000000000,-200600000000000,315100000000000,-315600000000000,-36600000000000,-202800000000000,123750000000000,-738750000000000,-200550000000000,224550000000000,703773680000000,217476320000000,-114150000000000,-18200000000000,766150000000000,1528650000000000,277050000000000,304200000000000,122700000000000,-694900000000000,-24300000000000,21060530000000,-335960530000000,359600000000000,778500000000000,637050000000000,262550000000000,-364100000000000,321900000000000,546250000000000,97250000000000,245700000000000,-16400000000000,672600000000000,-62000000000000,157150000000000,-36950000000000,-475150000000000,599600000000000,-132100000000000,117900000000000,-53450000000000,-370150000000000,-166550000000000,3300000000000,296900000000000,-105800000000000,144050000000000,-523050000000000,-7639050000000000,-4892050000000000,-1895750000000000,1614900000000000,6277678950000000,55371050000000,-460200000000000,-475800000000000,746200000000000,59200000000000,463100000000000,1584900000000000,396800000000000,460150000000000,-132600000000000,48050000000000,-631750000000000,-152900000000000,88400000000000,-54400000000000,-56950000000000,-210850000000000,-2405000000000000,-367300000000000,1338950000000000,712900000000000,367350000000000,-198100000000000,212300000000000,107100000000000,599900000000000,4315400000000000,455050000000000,52500000000000,-217400000000000,66750000000000,149600000000000,142850000000000,-126150000000000,101350000000000,-204000000000000,117550000000000,-15050000000000,-132850000000000,-70950000000000,-39550000000000,208750000000000,-182700000000000,646100000000000,234450000000000,194350000000000,340300000000000,-260950000000000,-121300000000000,262850000000000,84300000000000,135450000000000,-1588150000000000,-1218800000000000,1458428950000000,1042571050000000,78650000000000,-473750000000000,145800000000000,-216350000000000,-5350000000000,-428100000000000,73200000000000,-261355260000000,-18744740000000,-357850000000000,-4975050000000000,-4927550000000000,859300000000000],"hashrate_average_7d":36661934320238120,"hashrate_average_7d_count":168,"hashrate_block":762659326826947.9,"expected_blocks":45.93,"luck":5.067912176304276,"multipool":15},{"url":"https:\/\/pool.btc.com","hashrate":3791000000000000,"miners":-1,"minpay":0.1,"id":4,"pool_id":"pool.btc.com","feetype":"PPS","i":14320,"workers":92,"income":3.3721400476847e-15,"i_blocks":14362,"json_blocks":{"err_no":0,"data":{"blocks":{"current_page":1,"data":[{"height":699779,"is_orphaned":0,"hash":"00000000000000001dce466f42910bfb92d32158690b2b3c67118c604acf61e6","rewards":"1.01340080","size":7009,"prev_hash":"000000000000000076948d97f734110df486e7c50df5bfba08bf3f503232a816","bits":419472890,"version":9,"created_at":1664847952,"region_id":36,"region_name":"BitDeer"},{"height":699734,"is_orphaned":0,"hash":"00000000000000007863a37f6a4047f8b582d60218500af273d21fe0cca14cf0","rewards":"1.01340080","size":4876,"prev_hash":"000000000000000080730e595234ace645504f73a3e0b8c50b6c789933cc1182","bits":419472890,"version":9,"created_at":1664829204,"region_id":34,"region_name":"America"},{"height":699625,"is_orphaned":0,"hash":"00000000000000004a9ef3b201292e70647738b1eeb46f85c6c704daa9bf1904","rewards":"1.01340080","size":3148,"prev_hash":"0000000000000000989b5083e0b52c892da57ed1a3e99243745fdb4888855995","bits":419478535,"version":9,"created_at":1664798619,"region_id":34,"region_name":"America"},{"height":699594,"is_orphaned":0,"hash":"00000000000000007cde36b0e4e4c9dfc14759d9de1446d71f56146fa58db798","rewards":"1.01340080","size":8503,"prev_hash":"00000000000000008055bd23d8e342c9f8f87d7d3d931227541abc55e5ee2917","bits":419478535,"version":9,"created_at":1664790361,"region_id":36,"region_name":"BitDeer"},{"height":699571,"is_orphaned":0,"hash":"0000000000000000930fc9c2e99b0ec07b4cbd72fdebf7ca3dd57e13ae1325c7","rewards":"1.01340080","size":35230,"prev_hash":"000000000000000001392e3d64e745d42bc166dac73e7e503acd92c0659aa425","bits":419478535,"version":9,"created_at":1664786273,"region_id":34,"region_name":"America"},{"height":699562,"is_orphaned":0,"hash":"0000000000000000694c0e40087495799b6d788dc4a63d8146990233691ddbca","rewards":"1.01340080","size":2659,"prev_hash":"00000000000000004eb6980d0d7109b0204c63e6dd81ac5ead0837ad534688d4","bits":419478535,"version":9,"created_at":1664784894,"region_id":34,"region_name":"America"},{"height":699556,"is_orphaned":0,"hash":"0000000000000000010ac693da01fd0cbea62b93730eb3c5f3c30509782700b0","rewards":"1.01340080","size":33273,"prev_hash":"00000000000000007767a758a39f616c1dc27091b04e95051aeb2d7604c40389","bits":419478535,"version":9,"created_at":1664783349,"region_id":34,"region_name":"America"},{"height":699539,"is_orphaned":0,"hash":"000000000000000042903909e1c62d6f598685162348b5779ab010e9ed652150","rewards":"1.01340080","size":7116,"prev_hash":"00000000000000008b1bed97f2158c17131b891cc1059706e527c7975ec60941","bits":419485576,"version":9,"created_at":1664778369,"region_id":34,"region_name":"America"},{"height":699504,"is_orphaned":0,"hash":"00000000000000008ea86d9ecb5c5c5e1d170609a90e9e2305c71fa4d23fb2f5","rewards":"1.01340080","size":5957,"prev_hash":"00000000000000007819c1784d1e725efab3582aa2c43f6d517e03c6c4102f79","bits":419485576,"version":9,"created_at":1664770626,"region_id":34,"region_name":"America"},{"height":699460,"is_orphaned":0,"hash":"0000000000000000868405d52a0c87b3d3903f5f345f39cfc1fcdd83d6a4749a","rewards":"1.01340080","size":8330,"prev_hash":"0000000000000000557a87bc9d4863faac25e9d1b828bfb29f661af5784f0346","bits":419485576,"version":9,"created_at":1664761927,"region_id":34,"region_name":"America"}],"first_page_url":"https:\/\/eu-api.connectbtc.com\/\/public\/v1\/pool\/blocks\/merge?order_by=desc&page_size=10&page=1","from":1,"last_page":2176,"last_page_url":"https:\/\/eu-api.connectbtc.com\/\/public\/v1\/pool\/blocks\/merge?order_by=desc&page_size=10&page=2176","next_page_url":"https:\/\/eu-api.connectbtc.com\/\/public\/v1\/pool\/blocks\/merge?order_by=desc&page_size=10&page=2","path":"https:\/\/eu-api.connectbtc.com\/\/public\/v1\/pool\/blocks\/merge","per_page":10,"prev_page_url":null,"to":10,"total":21751},"blocks_count":21751,"rewards_count":"190140.98392653"},"trace_id":"691183d0-b636-4fcf-aee8-398dd32533b2"},"blocks_nr":10,"lastblock":699779,"lastblocktime":"1664847932","country":"WL|CN , EU , US","blocks_1000":40,"blocks_count":2,"hashrate_average_100_count":76,"hashrate_average_100":3859724519428454,"hashrate_average_1h":3838500000000000,"history_start":1664246447,"history_interval":3600,"history_addlast":true,"history":[2785300000000000,-19700000000000,-158650000000000,87850000000000,15400000000000,11550000000000,7650000000000,-16850000000000,11350000000000,-6650000000000,-20650000000000,27300000000000,14000000000000,7050000000000,51850000000000,-33350000000000,-16450000000000,-23450000000000,-13150000000000,-19300000000000,10400000000000,-8900000000000,47850000000000,-33400000000000,16650000000000,-16150000000000,24350000000000,25000000000000,96500000000000,-174350000000000,471600000000000,428100000000000,-7100000000000,33700000000000,56550000000000,2700000000000,-50500000000000,-66250000000000,-28700000000000,-38250000000000,55152632000000,101247368000000,-38050000000000,-33400000000000,28250000000000,-25900000000000,81500000000000,-27650000000000,-24750000000000,-6200000000000,53600000000000,68950000000000,126900000000000,-47400000000000,5350000000000,7973684000000,-64923684000000,14650000000000,1750000000000,-55800000000000,-22200000000000,19400000000000,26300000000000,-38800000000000,-50950000000000,14500000000000,-9136842000000,-40963158000000,9400000000000,43200000000000,4750000000000,119050000000000,-147750000000000,105150000000000,122350000000000,240850000000000,12550000000000,47150000000000,51900000000000,-7950000000000,28600000000000,-90350000000000,72500000000000,-114500000000000,55550000000000,3300000000000,97900000000000,-155550000000000,-108750000000000,16500000000000,5800000000000,-20900000000000,41600000000000,16150000000000,14350000000000,33750000000000,24000000000000,-54100000000000,83357895000000,12092105000000,-25800000000000,16450000000000,36550000000000,35100000000000,-63400000000000,-12550000000000,-8850000000000,-153250000000000,9400000000000,59000000000000,-4850000000000,-600000000000,-30700000000000,23100000000000,20550000000000,-35800000000000,-5600000000000,-9750000000000,-18650000000000,68550000000000,-49900000000000,43750000000000,-38650000000000,-51200000000000,22000000000000,141550000000000,6050000000000,-35450000000000,-96350000000000,-10850000000000,33250000000000,-7550000000000,33200000000000,-22150000000000,34050000000000,-4250000000000,25500000000000,-41600000000000,-29150000000000,-54050000000000,34850000000000,27100000000000,17750000000000,8400000000000,-19300000000000,85950000000000,-42000000000000,17900000000000,-39100000000000,-45100000000000,-23200000000000,-14950000000000,-650000000000,28789474000000,4860526000000,-93350000000000,-23150000000000,17600000000000,550000000000,-24500000000000,-12050000000000,-32500000000000,43013158000000,-11113158000000,-73300000000000,81050000000000,-7900000000000,-26500000000000],"hashrate_average_7d":3700702976196427,"hashrate_average_7d_count":168,"hashrate_block":1929862259714227,"expected_blocks":4.56,"luck":-2.5579728454328476,"multipool":7},{"url":"https:\/\/www.f2pool.com","hashrate":43289868767904200,"miners":-1,"minpay":0.1,"id":14,"pool_id":"f2pool.com","fee":3,"feetype":"PPS%3","i":2444,"income":2.9081303695437032e-15,"blocks_nr":10,"lastblock":699789,"lastblocktime":1664851779,"country":"WL|Global","blocks_1000":488,"blocks_count":46,"hashrate_average_100_count":76,"hashrate_average_100":43244679042001220,"hashrate_average_1h":43331870704555470,"history_start":1664246447,"history_interval":3600,"history_addlast":true,"history":[51929253040000000,-630313390000000,313216720000000,189952720000000,101157670000000,-375120440000000,-572656970000000,-1606230230000000,-9409157980000000,-13309760000000,-344240410000000,-7576400000000,565035660000000,92340150000000,8965800000000,-133875470000000,101778410000000,23579970000000,96144010000000,38555880000000,-553132290000000,-21902760000000,223948380000000,313631160000000,-166530050000000,-446594660000000,435908230000000,-1280315030000000,1299268580000000,-129933030000000,-439422630000000,409268690000000,-112415900000000,35516480000000,-60720410000000,-290967470000000,340832840000000,-64984930000000,52784280000000,-395283600000000,356684960000000,133681720000000,15137870000000,52823490000000,-863574260000000,413824440000000,425112220000000,72760500000000,-165304140000000,-384680210000000,352757070000000,151483470000000,-197098600000000,131978020000000,14050900000000,420416670000000,-169312990000000,205834280000000,-1355732910000000,-408130860000000,1640067270000000,-313414610000000,-1336528310000000,348870520000000,104446260000000,560061860000000,371916830000000,-481788690000000,-1714270490000000,1801700940000000,727630200000000,-251818270000000,56478160000000,-297858620000000,-37017220000000,-380583090000000,-85882440000000,1292770000000,-308656360000000,123823750000000,116533050000000,-121117130000000,-135250180000000,-396681470000000,912923740000000,424368850000000,24203160000000,-408568490000000,-46868690000000,230066830000000,250706430000000,-261116400000000,-335152040000000,451030090000000,-359094430000000,-529719480000000,-158943920000000,270433930000000,-9462960000000,404821200000000,-279801050000000,-232727860000000,-277050250000000,193921170000000,-315135350000000,385553710000000,-103607880000000,-159718020000000,408493870000000,78340170000000,-214582250000000,-140636060000000,-37340430000000,537546200000000,-97712690000000,-40841450000000,-267834860000000,208972560000000,667333980000000,-182632150000000,-190571050000000,-563580470000000,384086440000000,184992210000000,-145094490000000,-84290850000000,-280876800000000,537329590000000,107473250000000,54176960000000,16064840000000,-66048530000000,199883620000000,-29495790000000,406283730000000,-303553450000000,-171615000000000,491081180000000,36764690000000,-161349700000000,-246434730000000,269976540000000,153965360000000,42159060000000,51654890000000,2392623310000000,735215140000000,-139147570000000,-450305540000000,-1544255850000000,-505817980000000,899672290000000,-2059805690000000,2373710750000000,1345297440000000,-31942900000000,455515450000000,19000720000000,-98934960000000,-353938590000000,28570050000000,11703190000000,12436300000000,221934250000000,-587643220000000,418713810000000,-3230184960000000,3025183350000000],"hashrate_average_7d":40653738488392900,"hashrate_average_7d_count":168,"hashrate_block":940101718304374.2,"expected_blocks":51.07,"luck":-5.067912176304276,"multipool":33}],"hashblock":{"hashrate_average_100":82140304710175550,"blocks_count":97,"pools":[[762659326826947.9,51,14954104447587.213,"https:\/\/www.poolin.com"],[1929862259714227,2,964931129857113.5,"https:\/\/pool.btc.com"],[940101718304374.2,46,20436993876182.05,"https:\/\/www.f2pool.com"]],"hashrate_block_all":868687163935394.1,"hashrate_block_min":14954104447587.213,"hashrate_block_max":964931129857113.5,"pool_hashblock_average":333440742726960.94,"ignored":[[1929862259714227,2,964931129857113.5,"https:\/\/pool.btc.com"]],"hashrate_block":846807265053356.2},"time":1664852854,"hashrate":81480000000000000,"difficulty":6624398252.373735,"height":699790,"symbol":"DCR","maxhash":43289868767904200,"poolshash":80649994287962850,"nethash_estimat":84680726505335630,"poolsminers":1697,"supply":{"circulating":14398313.65121776,"total":21000000,"emission24":2804},"block_time_target":300,"block_height_ok":true,"algo":"Blake256R14","hashrate_from_diff":false,"hashrate_src":"https:\/\/lab.antpool.com","unit":"H\/s","block_time_average":279.6,"minerstat":[1.2960443634821e-16,25.998182377158,1.02429172,2537],"link":{"coingecko":"decred","cmc":"decred","whattomine":"152-dcr-blake (14r)","coin360":"decred-dcr","coinpaprika":"dcr-decred"},"latest_release":{"tag":"release-v1.7.4","name":"dcrd v1.7.4","t":1659553036},"price":25.94}