{"data":[{"url":"https:\/\/www.okx.com\/pool","hashrate":9720000000000,"miners":-1,"minpay":-1,"id":23,"pool_id":"okx.com","i":1611,"workers":1,"lastblock":630904,"feetype":"PPLNS","fee":2,"country":"HK|Hong Kong","hashrate_average_100_count":75,"hashrate_average_100":9180757291666.666,"hashrate_average_1h":8800555555555.555,"history_start":1665024044,"history_interval":3600,"history_addlast":true,"history":[8647000000000,-372000000000,414000000000,942000000000,537000000000,-333500000000,-2247277778000,960277778000,-410000000000,83500000000,127947368000,-102947368000,613000000000,-346500000000,466500000000,681000000000,-333000000000,1076000000000,-1203555556000,-626444444000,-294500000000,1280500000000,-590000000000,-329000000000,820500000000,453500000000,-1377500000000,422500000000,-767000000000,632000000000,-53500000000,-248000000000,1092500000000,701000000000,-267500000000,-332500000000,2500000000,-427500000000,-249000000000,1642500000000,-1649000000000,-176500000000,349947368000,-559947368000,435000000000,1372000000000,-772500000000,254500000000,-924000000000,-454000000000,1350500000000,-930000000000,293500000000,-455500000000,305500000000,-129000000000,178000000000,-1301500000000,-17000000000,-230000000000,1108500000000,1308000000000,-231000000000,737500000000,-2409500000000,-110000000000,1376000000000,-1093000000000,-94500000000,1053500000000,-1068500000000,222000000000,1428000000000,-1652500000000,1252000000000,-732000000000,-303500000000,1257441176000,227773110000,584285714000,-1806250000000,511250000000,-467647059000,-146352941000,534000000000,-668947368000,918447368000,-620000000000,192078947000,-1113453947000,498238636000,1401328672000,-1618942308000,-5750000000,1305500000000,-734500000000,-548210526000,270000000000,1044210526000,-355000000000,-340000000000,-347222222000,941111111000,-142573100000,-1140315789000,976105263000,-932605263000,-195500000000,1241000000000,269000000000,-853500000000,-230500000000,-282000000000,1170500000000,-107000000000,-661000000000,-107000000000,85000000000,466000000000,834000000000,-2150500000000,633000000000,367000000000,896500000000,-255500000000,-114000000000,-412000000000,1477000000000,-1443000000000,1333000000000,-725500000000,-399500000000,-792500000000,513500000000,1672000000000,-1259000000000,492000000000,-924000000000,417500000000,-483000000000,-425500000000,1030500000000,-403500000000,251500000000,737000000000,-495000000000,-407500000000,372000000000,-691500000000,627500000000,-217000000000,417500000000,765000000000,-1319500000000,-800000000000,220000000000,205000000000,834000000000,-42500000000,-839000000000,1239000000000,584500000000,-1136000000000,-684500000000,-121000000000,1465500000000,-534500000000,-392944444000],"hashrate_average_7d":8962423241375,"hashrate_average_7d_count":168,"expected_blocks":0.01,"multipool":5},{"url":"https:\/\/www2.coinmine.pl\/dcr","hashrate":735735837711749,"miners":-1,"minpay":0.05,"id":5,"pool_id":"coinmine.pl","i":12324,"workers":36,"blocks_nr":5,"lastblock":702321,"lastblocktime":"1665617845","fee":1,"feetype":"PPLNS","height":702357,"country":"WL|EU , US , Asia","blocks_1000":7,"blocks_count":2,"hashrate_average_100_count":75,"hashrate_average_100":652536520239910.6,"hashrate_average_1h":731693112657590.6,"history_start":1665024044,"history_interval":3600,"history_addlast":true,"history":[557349231600000,-5607068200000,17786128800000,-8525157300000,3742593300000,1385312600000,-22854031300000,9546972500000,-5833700300000,7362858600000,17642553900000,-14719564200000,-37390823900000,32185899700000,-18972957000000,21503529800000,11859415900000,-4891730100000,-13522919200000,-11799332300000,15196850400000,-9305613500000,17232987600000,-20639140200000,4475901400000,9751637600000,-2167831200000,-7108644500000,6049515500000,6872401100000,-8750950500000,-11488816700000,21712608400000,15390186800000,-2746027200000,-34397341400000,16966411300000,-818292000000,8701564400000,-4389542500000,-14778602000000,-23699001600000,-1460435400000,-14538095100000,16858928400000,1854533800000,3763386800000,9895066600000,-18231950300000,2063496500000,3773656700000,-4933936200000,-3884115400000,7894147400000,7970926200000,-23262625700000,30496879600000,-17354326200000,12825949600000,-30610501500000,13033845200000,4938939300000,45439791600000,569836800000,5100311900000,-9774213700000,-19538194700000,-16720623000000,14669034400000,2773174700000,-3480282400000,17868431400000,-4593686400000,6383038000000,-4720960400000,10274481000000,-20278949600000,5168318600000,5839414000000,6792919000000,-23643464800000,3951947800000,14945332100000,-832658400000,-4255796700000,-5551624300000,7026684000000,-36638919400000,24194433600000,-26131669900000,28817658500000,23474537300000,-5192543100000,12418484300000,-20310076600000,1258081000000,-7009648900000,-7628283600000,13880716800000,11698449300000,-9623236900000,-5283545900000,1840342700000,-109371400000,-16316591500000,-6917230000000,16594658000000,21301018000000,-19133851900000,9099154100000,-40098355500000,27252345000000,-12216157600000,215074000000,-6383820500000,13525113000000,22206971900000,-9932477700000,-6623953500000,-329400500000,21673435400000,-8913606700000,6896971000000,-1934109300000,-6547936600000,10098862500000,2795111500000,-8096142600000,-17991226400000,32053330100000,4588820500000,-38319046200000,-10530937500000,25066614500000,-10911089900000,-22806700500000,19000392500000,-25983086400000,11321747900000,3203550800000,-6831698800000,18144863400000,22032613300000,-2238821400000,19150310300000,-13232984700000,9212690400000,62184930800000,25722175100000,2025969400000,-11860395500000,6536303900000,-3527485000000,-10153433200000,6107580300000,-3286691500000,26318849800000,-9469804000000,168914100000,-21864246800000,-26321357000000,-3967444000000,17790257700000,15719473400000,18763956300000,16775119900000,27881108400000,20535995100000],"hashrate_average_7d":560148685201785.5,"hashrate_average_7d_count":168,"hashrate_block":326268260119955.3,"expected_blocks":0.83,"luck":1.1654462275948716,"multipool":6},{"url":"https:\/\/lab.antpool.com","hashrate":2410000000000000,"miners":-1,"minpay":0.1,"id":11,"pool_id":"antpool.com","i":2062,"nethash":79870000000000000,"netdiff":5746762525,"feetype":"PPS","fee":3,"income":3.4069213e-15,"country":"WL|Global","hashrate_average_100_count":75,"hashrate_average_100":2417940885416666.5,"hashrate_average_1h":2373333333333333.5,"history_start":1665024044,"history_interval":3600,"history_addlast":true,"history":[2744000000000000,-76000000000000,-5500000000000,-25000000000000,-101500000000000,93500000000000,-220611111000000,-33388889000000,-37500000000000,-31000000000000,44052632000000,26947368000000,-61000000000000,-33500000000000,-12000000000000,145500000000000,-64500000000000,-4000000000000,59833333000000,2666667000000,38000000000000,-56000000000000,73500000000000,59000000000000,-92000000000000,166000000000000,-43500000000000,-6000000000000,-71500000000000,-77000000000000,-101000000000000,-76500000000000,59500000000000,44000000000000,-43500000000000,27000000000000,-68000000000000,-73500000000000,-151000000000000,144500000000000,147500000000000,42000000000000,9078947000000,-190578947000000,-392500000000000,17500000000000,-2000000000000,37500000000000,17000000000000,85000000000000,-82000000000000,-8000000000000,-12500000000000,24000000000000,6000000000000,-51000000000000,372000000000000,81000000000000,7500000000000,42500000000000,85500000000000,10500000000000,-135500000000000,111000000000000,38500000000000,50500000000000,3500000000000,-6500000000000,-15000000000000,18500000000000,-29500000000000,-9500000000000,29500000000000,12000000000000,39000000000000,29000000000000,130000000000000,76088235000000,-53445378000000,-60714286000000,51071429000000,-61785714000000,756302000000,81529412000000,-122210526000000,35263158000000,-179552632000000,166000000000000,-23815789000000,88190789000000,-15511364000000,-7902098000000,-27211538000000,47250000000000,38500000000000,63000000000000,-19473684000000,-78421053000000,-8421052000000,49815789000000,-69125000000000,79513889000000,-1111111000000,30380117000000,-6157895000000,-87000000000000,-46500000000000,-31000000000000,22000000000000,37000000000000,-136000000000000,133500000000000,-21500000000000,-75500000000000,122000000000000,-32500000000000,32000000000000,-19000000000000,65500000000000,-62500000000000,31500000000000,-27500000000000,-38500000000000,67500000000000,-25500000000000,-500000000000,81000000000000,-110500000000000,-59500000000000,12500000000000,-8500000000000,31000000000000,-39000000000000,-9000000000000,-147500000000000,109000000000000,26000000000000,5500000000000,-14000000000000,12500000000000,-127000000000000,-10500000000000,77000000000000,-43000000000000,-13500000000000,-40500000000000,36000000000000,95000000000000,10000000000000,-2000000000000,48000000000000,-60000000000000,7000000000000,-17000000000000,-30500000000000,40500000000000,-12500000000000,38000000000000,-181500000000000,101500000000000,-30000000000000,47000000000000,3500000000000,46000000000000,-127000000000000,-58500000000000,-46500000000000,79833333000000],"hashrate_average_7d":2456979306630951.5,"hashrate_average_7d_count":168,"expected_blocks":3.09,"multipool":16},{"url":"https:\/\/pool.btc.com","hashrate":3549000000000000,"miners":-1,"minpay":0.1,"id":4,"pool_id":"pool.btc.com","feetype":"PPS","i":14338,"workers":84,"income":3.5122910717015e-15,"i_blocks":14380,"json_blocks":{"err_no":0,"data":{"blocks":{"current_page":1,"data":[{"height":702353,"is_orphaned":0,"hash":"0000000000000000458c98dc86c255bfa2411bc6868a953eead9f59087fb8973","rewards":"1.00336713","size":9026,"prev_hash":"00000000000000009b19aaca076211fba070bcada3fb351bf25385ad82279622","bits":419479379,"version":9,"created_at":1665630216,"region_id":34,"region_name":"America"},{"height":702275,"is_orphaned":0,"hash":"000000000000000086c46b53c0d8f4a7f0260d0acacea70c73e94b7b800dcd6b","rewards":"1.00336713","size":62705,"prev_hash":"000000000000000089a9990a0390b9871c87a4344772e9e1b5678991ea7cc1ed","bits":419484645,"version":9,"created_at":1665604824,"region_id":34,"region_name":"America"},{"height":702255,"is_orphaned":0,"hash":"0000000000000000458dd72b859594982af62f0c57826742df7d8688f851a7b1","rewards":"1.00336713","size":8873,"prev_hash":"00000000000000000a4fbe3a38c096ab428904b579cf6108ba98d4f9a7be880f","bits":419484645,"version":9,"created_at":1665599431,"region_id":34,"region_name":"America"},{"height":702236,"is_orphaned":0,"hash":"00000000000000007a315be817991e5cccb4a3930c75a798063c14868c0adf83","rewards":"1.00336713","size":9172,"prev_hash":"00000000000000007dfed6f05ee68671b262c806f825f245006b09e748069157","bits":419484645,"version":9,"created_at":1665595669,"region_id":34,"region_name":"America"},{"height":702226,"is_orphaned":0,"hash":"000000000000000085da131979360872e238958eb4cafe623e25a0951c2be671","rewards":"1.00336713","size":72808,"prev_hash":"00000000000000008751351c0ef29b40d83616d6a4bbff2f21d2938b233147fb","bits":419484645,"version":9,"created_at":1665592828,"region_id":34,"region_name":"America"},{"height":702218,"is_orphaned":0,"hash":"000000000000000022290786c752363c6652a888a00531e8b9d90c53f73cc551","rewards":"1.00336713","size":38696,"prev_hash":"00000000000000005fc1c0cb2293932c805ce1870869d2f7dbe9530a3c5423e4","bits":419484645,"version":9,"created_at":1665589159,"region_id":36,"region_name":"BitDeer"},{"height":702169,"is_orphaned":0,"hash":"000000000000000041744962e14fc5852e7d2392a2b4817b3af9a332e866ab73","rewards":"1.00336713","size":79965,"prev_hash":"00000000000000000d77295309c921c4f225c43715f3e7b8f63e9e216924ade1","bits":419484645,"version":9,"created_at":1665579003,"region_id":34,"region_name":"America"},{"height":702149,"is_orphaned":0,"hash":"000000000000000098f8cf2b20b9e1ef0e62b08ad93f3b168d0bfd4538c94e33","rewards":"1.00336713","size":17046,"prev_hash":"0000000000000000703fb690457f90bb22e43089c81b191a12b04ca4a7fe1691","bits":419484645,"version":9,"created_at":1665574810,"region_id":34,"region_name":"America"},{"height":702140,"is_orphaned":0,"hash":"00000000000000009622b7d9f711607bfb1029515e11b7749326403f09b75055","rewards":"1.00336713","size":4235,"prev_hash":"000000000000000077267d07e641a217c7f69ecf856e10d64dd8a02eeeaf4fd7","bits":419482718,"version":9,"created_at":1665572909,"region_id":34,"region_name":"America"},{"height":702088,"is_orphaned":0,"hash":"00000000000000003836e1f3c47ac28f72693fe837807e70d1e29320264de783","rewards":"1.00336713","size":2156,"prev_hash":"00000000000000009aa5e2c9221080766d9f911b86af43037a6c03e71fe6eca2","bits":419482718,"version":9,"created_at":1665554755,"region_id":34,"region_name":"America"}],"first_page_url":"https:\/\/eu-api.connectbtc.com\/\/public\/v1\/pool\/blocks\/merge?order_by=desc&page_size=10&page=1","from":1,"last_page":2188,"last_page_url":"https:\/\/eu-api.connectbtc.com\/\/public\/v1\/pool\/blocks\/merge?order_by=desc&page_size=10&page=2188","next_page_url":"https:\/\/eu-api.connectbtc.com\/\/public\/v1\/pool\/blocks\/merge?order_by=desc&page_size=10&page=2","path":"https:\/\/eu-api.connectbtc.com\/\/public\/v1\/pool\/blocks\/merge","per_page":10,"prev_page_url":null,"to":10,"total":21871},"blocks_count":21871,"rewards_count":"190259.33910640"},"trace_id":"8365dc61-280c-41d7-b91a-1eed74231764"},"blocks_nr":10,"lastblock":702353,"lastblocktime":"1665630216","country":"WL|CN , EU , US","blocks_1000":45,"blocks_count":2,"hashrate_average_100_count":75,"hashrate_average_100":3302187291666666.5,"hashrate_average_1h":3446388888888889,"history_start":1665024044,"history_interval":3600,"history_addlast":true,"history":[3831100000000000,95500000000000,38300000000000,-51550000000000,22300000000000,-51500000000000,50225000000000,74975000000000,-87900000000000,67900000000000,61439474000000,-51939474000000,-19350000000000,5150000000000,-69050000000000,-4400000000000,-59500000000000,5000000000000,21466667000000,24433333000000,-39100000000000,500000000000,36600000000000,154950000000000,14350000000000,-18300000000000,-78300000000000,-131700000000000,38250000000000,13200000000000,25100000000000,167700000000000,-32000000000000,6050000000000,8750000000000,-42600000000000,5500000000000,26750000000000,-6000000000000,-38650000000000,-75350000000000,-46000000000000,-37563158000000,4413158000000,6400000000000,58050000000000,-19950000000000,18150000000000,56550000000000,22950000000000,26550000000000,-101000000000000,77300000000000,6050000000000,-2900000000000,76800000000000,-59550000000000,59900000000000,40250000000000,-27950000000000,-19450000000000,68600000000000,-63900000000000,-85700000000000,-3450000000000,-21800000000000,9300000000000,-27100000000000,-39050000000000,38600000000000,-21800000000000,28050000000000,-8800000000000,43700000000000,58800000000000,-51250000000000,7450000000000,-47479412000000,315126000000,46214286000000,-47375000000000,-2053571000000,-35806723000000,39835294000000,-32705263000000,14631579000000,-33276316000000,-63850000000000,-10347368000000,-11240132000000,-11721591000000,-28937063000000,23158654000000,-35262500000000,48350000000000,59700000000000,8584211000000,73157894000000,-29263158000000,-43278947000000,-140550000000000,61972222000000,124555556000000,-7383041000000,805263000000,71510526000000,-52610526000000,4350000000000,-32350000000000,-92750000000000,3200000000000,-82850000000000,26650000000000,-22300000000000,-23450000000000,-44050000000000,71850000000000,-2250000000000,73400000000000,165850000000000,24650000000000,30100000000000,-62450000000000,40900000000000,-15800000000000,15100000000000,56200000000000,36350000000000,-46550000000000,66900000000000,-32850000000000,-124400000000000,-248350000000000,-277900000000000,-59300000000000,-8550000000000,25500000000000,-1300000000000,-19800000000000,-44350000000000,89150000000000,5550000000000,40250000000000,111200000000000,-45300000000000,-41400000000000,2650000000000,-79400000000000,-17650000000000,-24900000000000,-21000000000000,-2700000000000,23500000000000,73550000000000,21350000000000,-43950000000000,300000000000,-8450000000000,8050000000000,-38650000000000,-35750000000000,-46650000000000,-19700000000000,-265900000000000,-62350000000000,364750000000000,76850000000000,34988889000000],"hashrate_average_7d":3831242430208333.5,"hashrate_average_7d_count":168,"hashrate_block":1651093645833333.2,"expected_blocks":4.22,"luck":-2.2232929130701793,"multipool":7},{"url":"https:\/\/www.f2pool.com","hashrate":46908440875513560,"miners":-1,"minpay":0.1,"id":14,"pool_id":"f2pool.com","fee":3,"feetype":"PPS%3","i":2444,"income":3.3190644170812694e-15,"blocks_nr":14,"lastblock":702357,"lastblocktime":1665631640,"country":"WL|Global","blocks_1000":458,"blocks_count":63,"hashrate_average_100_count":75,"hashrate_average_100":46757037158411940,"hashrate_average_1h":46989113803781544,"history_start":1665024044,"history_interval":3600,"history_addlast":true,"history":[43650418200000000,-53249650000000,182364780000000,386990450000000,-194843580000000,32845120000000,-392007910000000,331391040000000,-281127550000000,190988580000000,-53325410000000,-125989480000000,376394790000000,286706090000000,-181847470000000,-277407630000000,245159770000000,207966150000000,-74172490000000,299934120000000,-558300740000000,70145980000000,314838580000000,-86822100000000,-166368320000000,-260533880000000,50909990000000,82790220000000,-26204870000000,-18753870000000,-553817190000000,143736500000000,301174630000000,195977180000000,-150683220000000,-369554500000000,544906640000000,-20266410000000,-108507030000000,-260821580000000,128409690000000,175983490000000,-104930470000000,190140560000000,-250714010000000,-247476030000000,-7064993140000000,6666214540000000,-2942619080000000,1825633230000000,1916286290000000,958443100000000,301106550000000,119500900000000,-25302510000000,449067180000000,195995570000000,-95929590000000,-296600570000000,-632003150000000,-1054747520000000,2037103690000000,-139998310000000,-84567160000000,441630460000000,94347890000000,-78935830000000,125564650000000,-544829790000000,49897710000000,243509590000000,15438230000000,-153439300000000,-216654110000000,-192197250000000,374106750000000,-117372280000000,32050460000000,-450053840000000,250068110000000,127831390000000,80624180000000,-349271190000000,38312140000000,309167260000000,144472630000000,-181799210000000,-69320620000000,-425726600000000,225616520000000,408929280000000,-132784030000000,-497626880000000,69314160000000,-32091440000000,1195643820000000,1404718500000000,-2214556860000000,1843675550000000,-429388770000000,258285300000000,9456400000000,-316052760000000,466027350000000,-88077770000000,48211550000000,-506022970000000,-266919590000000,601104670000000,-89793110000000,139455510000000,-164141230000000,5439630000000,212380860000000,113290050000000,101384100000000,-607054740000000,134891080000000,-190159490000000,-601693700000000,415680170000000,-463960140000000,760328230000000,-8095630000000,252946960000000,-727954740000000,-132092120000000,166824450000000,-97578790000000,544033840000000,-510265620000000,-229867170000000,567802010000000,-93161030000000,-150213800000000,-139469440000000,191591050000000,136112790000000,-310081630000000,102172910000000,-365238300000000,17881750000000,696669750000000,-318429150000000,84972170000000,-229033850000000,204655870000000,-9085650000000,-151238710000000,148402280000000,-477151500000000,677910250000000,-79815580000000,-46683740000000,-62748770000000,-37035870000000,159292430000000,113412620000000,74047530000000,-360552430000000,160611980000000,-149587770000000,23629300000000,453420430000000,-748532040000000,-51300780000000,291793610000000,340176070000000],"hashrate_average_7d":45568579485595270,"hashrate_average_7d_count":168,"hashrate_block":742175192990665.6,"expected_blocks":59.8,"luck":3.200646957364256,"multipool":33},{"url":"https:\/\/www.poolin.com","hashrate":29657000000000000,"miners":-1,"minpay":0.01,"id":3,"pool_id":"poolin.com","fee":3,"feetype":"PPS","i":13399,"json":{"err_no":0,"data":{"shares":{"shares_1m":28.107,"shares_5m":29.657,"shares_15m":30.187,"shares_1h":30.035,"shares_unit":"P"},"reject":{"1m":0,"5m":0,"15m":0.0014,"1h":0.0022},"workers":1279,"users":398,"total_blocks":141638,"total_rewards":104344289705640}},"workers":1279,"netdiff":5746762525.640785,"nethash":"82273857009177941","income":3.8033e-15,"blocks_nr":17,"lastblock":702354,"lastblocktime":1665630859,"country":"US|United States","blocks_1000":381,"blocks_count":33,"hashrate_average_100_count":75,"hashrate_average_100":29216500156250000,"hashrate_average_1h":29713500000000000,"history_start":1665024044,"history_interval":3600,"history_addlast":true,"history":[32526050000000000,6704700000000000,707500000000000,309950000000000,176750000000000,57950000000000,19537500000000,-134487500000000,47150000000000,-198750000000000,-422613160000000,246713160000000,-109700000000000,-69700000000000,-77600000000000,94550000000000,-48150000000000,100650000000000,-224611110000000,-357738890000000,283450000000000,-357950000000000,-491850000000000,425450000000000,729400000000000,-86250000000000,64200000000000,159550000000000,22200000000000,-23000000000000,-206750000000000,149550000000000,-353550000000000,531600000000000,-166050000000000,58250000000000,-167850000000000,-46650000000000,66000000000000,-376150000000000,423850000000000,-74800000000000,109305260000000,-180055260000000,-626300000000000,529050000000000,-6745900000000000,-2318900000000000,-599750000000000,-328800000000000,-1818550000000000,-557150000000000,-546550000000000,-119450000000000,508000000000000,4102900000000000,3670700000000000,881400000000000,-466700000000000,-93500000000000,-101850000000000,-848050000000000,514150000000000,56550000000000,90900000000000,201900000000000,48600000000000,-440750000000000,397000000000000,705100000000000,2347650000000000,-1315450000000000,292800000000000,246850000000000,1110750000000000,-446000000000000,111600000000000,1043288240000000,-339445380000000,-292857150000000,-66035710000000,-288392860000000,224672270000000,143920590000000,74392110000000,-70263160000000,24371050000000,148350000000000,-84563160000000,-283674340000000,381210230000000,-309657350000000,528451290000000,41283330000000,-161600000000000,-74850000000000,60155560000000,-25950300000000,47789480000000,706855260000000,-111750000000000,335722220000000,134111110000000,-209500000000000,-149733330000000,80557890000000,-285507890000000,-1249100000000000,-1269300000000000,738150000000000,-79700000000000,167300000000000,-50700000000000,118550000000000,-369550000000000,186450000000000,219550000000000,-4303250000000000,-3664100000000000,226600000000000,-174400000000000,67200000000000,307350000000000,-54400000000000,-7250000000000,-55650000000000,525750000000000,-196650000000000,127450000000000,-37450000000000,-143200000000000,312750000000000,108050000000000,13250000000000,150300000000000,46950000000000,-98950000000000,-23900000000000,-94100000000000,173500000000000,-217200000000000,-22350000000000,235242110000000,366004040000000,-134246150000000,-322450000000000,-411200000000000,515250000000000,-2191950000000000,-189865380000000,853965380000000,492400000000000,1364700000000000,-1353250000000000,-1611900000000000,78700000000000,1368400000000000,-99550000000000,-57550000000000,-122900000000000,-609700000000000,-176200000000000,-57000000000000,4100000000000,145800000000000,730250000000000,35750000000000,-20900000000000],"hashrate_average_7d":35537075132380972,"hashrate_average_7d_count":168,"hashrate_block":885348489583333.4,"expected_blocks":37.37,"luck":-4.366093184959112,"multipool":15}],"hashblock":{"hashrate_average_100":76626073834901860,"blocks_count":98,"pools":[[326268260119955.3,2,163134130059977.66,"https:\/\/www2.coinmine.pl\/dcr"],[1651093645833333.2,2,825546822916666.6,"https:\/\/pool.btc.com"],[742175192990665.6,63,11780558618899.455,"https:\/\/www.f2pool.com"],[885348489583333.4,33,26828742108585.86,"https:\/\/www.poolin.com"]],"hashrate_block_all":799282611265685.1,"hashrate_block_min":11780558618899.455,"hashrate_block_max":825546822916666.6,"pool_hashblock_average":256822563426032.4,"ignored":[[1651093645833333.2,2,825546822916666.6,"https:\/\/pool.btc.com"]],"hashrate_block":781898712601039.4},"time":1665631905,"hashrate":79870000000000000,"difficulty":5746762525.640785,"height":702357,"symbol":"DCR","maxhash":46908440875513560,"poolshash":83269896713225310,"nethash_estimat":78189871260103940,"poolsminers":1400,"supply":{"circulating":14421469.4461833,"total":21000000,"emission24":2783},"block_time_target":300,"block_height_ok":true,"algo":"Blake256R14","hashrate_from_diff":false,"hashrate_src":"https:\/\/lab.antpool.com","unit":"H\/s","block_time_average":279.6,"minerstat":[1.4644699053446e-16,24.624960371799,1.00406323,1097],"link":{"coingecko":"decred","cmc":"decred","whattomine":"152-dcr-blake (14r)","coin360":"decred-dcr","coinpaprika":"dcr-decred"},"latest_release":{"tag":"release-v1.7.5","name":"dcrd v1.7.5","t":1665429869},"price":24.69}