{"data":[{"url":"https:\/\/www.okx.com\/pool","hashrate":8030000000000,"miners":-1,"minpay":-1,"id":23,"pool_id":"okx.com","i":1611,"workers":1,"lastblock":630904,"feetype":"PPLNS","fee":2,"country":"HK|Hong Kong","hashrate_average_100_count":79,"hashrate_average_100":8876316752373.418,"hashrate_average_1h":9140555555555.555,"history_start":1665193244,"history_interval":3600,"history_addlast":true,"history":[9938000000000,-924000000000,-454000000000,1350500000000,-930000000000,293500000000,-455500000000,305500000000,-129000000000,178000000000,-1301500000000,-17000000000,-230000000000,1108500000000,1308000000000,-231000000000,737500000000,-2409500000000,-110000000000,1376000000000,-1093000000000,-94500000000,1053500000000,-1068500000000,222000000000,1428000000000,-1652500000000,1252000000000,-732000000000,-303500000000,1257441176000,227773110000,584285714000,-1806250000000,511250000000,-467647059000,-146352941000,534000000000,-668947368000,918447368000,-620000000000,192078947000,-1113453947000,498238636000,1401328672000,-1618942308000,-5750000000,1305500000000,-734500000000,-548210526000,270000000000,1044210526000,-355000000000,-340000000000,-347222222000,941111111000,-142573100000,-1140315789000,976105263000,-932605263000,-195500000000,1241000000000,269000000000,-853500000000,-230500000000,-282000000000,1170500000000,-107000000000,-661000000000,-107000000000,85000000000,466000000000,834000000000,-2150500000000,633000000000,367000000000,896500000000,-255500000000,-114000000000,-412000000000,1477000000000,-1443000000000,1333000000000,-725500000000,-399500000000,-792500000000,513500000000,1672000000000,-1259000000000,492000000000,-924000000000,417500000000,-483000000000,-425500000000,1030500000000,-403500000000,251500000000,737000000000,-495000000000,-407500000000,372000000000,-691500000000,627500000000,-217000000000,417500000000,765000000000,-1319500000000,-800000000000,220000000000,205000000000,834000000000,-42500000000,-839000000000,1239000000000,584500000000,-1136000000000,-684500000000,-121000000000,1465500000000,-534500000000,-281500000000,-254000000000,-248500000000,1199500000000,-336000000000,594000000000,-156500000000,-877000000000,1216000000000,-1339000000000,1040500000000,239500000000,-952000000000,-792500000000,511000000000,719000000000,226500000000,-1450000000000,874000000000,-553500000000,585500000000,175000000000,495000000000,-1330000000000,985000000000,-391000000000,-238000000000,61000000000,106500000000,1528500000000,361500000000,-2576000000000,842500000000,-298500000000,295000000000,-1156000000000,920000000000,38500000000,446000000000,-655000000000,28500000000,287000000000,-520000000000,-58500000000,-420500000000,1575000000000,-787000000000,469000000000,-201444444000],"hashrate_average_7d":8966577178396.445,"hashrate_average_7d_count":169,"expected_blocks":0.01,"multipool":5},{"url":"https:\/\/www2.coinmine.pl\/dcr","hashrate":600092550892967,"miners":-1,"minpay":0.05,"id":5,"pool_id":"coinmine.pl","i":12324,"workers":33,"blocks_nr":5,"lastblock":702401,"lastblocktime":"1665642584","fee":1,"feetype":"PPLNS","height":702933,"country":"WL|EU , US , Asia","blocks_1000":7,"hashrate_average_100_count":79,"hashrate_average_100":637073044636223.6,"hashrate_average_1h":663372488537684,"history_start":1665193244,"history_interval":3600,"history_addlast":true,"history":[534680859200000,-18231950300000,2063496500000,3773656700000,-4933936200000,-3884115400000,7894147400000,7970926200000,-23262625700000,30496879600000,-17354326200000,12825949600000,-30610501500000,13033845200000,4938939300000,45439791600000,569836800000,5100311900000,-9774213700000,-19538194700000,-16720623000000,14669034400000,2773174700000,-3480282400000,17868431400000,-4593686400000,6383038000000,-4720960400000,10274481000000,-20278949600000,5168318600000,5839414000000,6792919000000,-23643464800000,3951947800000,14945332100000,-832658400000,-4255796700000,-5551624300000,7026684000000,-36638919400000,24194433600000,-26131669900000,28817658500000,23474537300000,-5192543100000,12418484300000,-20310076600000,1258081000000,-7009648900000,-7628283600000,13880716800000,11698449300000,-9623236900000,-5283545900000,1840342700000,-109371400000,-16316591500000,-6917230000000,16594658000000,21301018000000,-19133851900000,9099154100000,-40098355500000,27252345000000,-12216157600000,215074000000,-6383820500000,13525113000000,22206971900000,-9932477700000,-6623953500000,-329400500000,21673435400000,-8913606700000,6896971000000,-1934109300000,-6547936600000,10098862500000,2795111500000,-8096142600000,-17991226400000,32053330100000,4588820500000,-38319046200000,-10530937500000,25066614500000,-10911089900000,-22806700500000,19000392500000,-25983086400000,11321747900000,3203550800000,-6831698800000,18144863400000,22032613300000,-2238821400000,19150310300000,-13232984700000,9212690400000,62184930800000,25722175100000,2025969400000,-11860395500000,6536303900000,-3527485000000,-10153433200000,6107580300000,-3286691500000,26318849800000,-9469804000000,168914100000,-21864246800000,-26321357000000,-3967444000000,17790257700000,15719473400000,18763956300000,16775119900000,27881108400000,22728766000000,-41829518300000,-39111201600000,32781466600000,-1084676400000,2852178400000,-18828745900000,12388400700000,-16548646000000,17414465100000,33445416300000,-28070639100000,-36088222700000,15133456000000,-16511044800000,-11000098100000,5752287400000,368044300000,16140396800000,-21937869200000,5308547000000,15942903400000,-20120042300000,14204003000000,-20467112600000,111823600000,20876326200000,-23104135400000,19464175100000,-4774051100000,-8994840800000,-1476966500000,24102633700000,-18785449400000,27208964800000,-2039861900000,-32647873200000,33719596100000,-35043695700000,-2161145000000,7853698300000,1799780700000,-15826648100000,2239168500000,16703868400000,6589488800000,-14608942100000,2116054000000,26030887900000],"hashrate_average_7d":590191318863905.1,"hashrate_average_7d_count":169,"expected_blocks":0.74,"multipool":6},{"url":"https:\/\/lab.antpool.com","hashrate":2260000000000000,"miners":-1,"minpay":0.1,"id":11,"pool_id":"antpool.com","i":2062,"nethash":75410000000000000,"netdiff":6216774488,"feetype":"PPS","fee":3,"income":3.1493475e-15,"country":"WL|Global","hashrate_average_100_count":79,"hashrate_average_100":2317827333860759.5,"hashrate_average_1h":2270000000000000,"history_start":1665193244,"history_interval":3600,"history_addlast":true,"history":[1831500000000000,17000000000000,85000000000000,-82000000000000,-8000000000000,-12500000000000,24000000000000,6000000000000,-51000000000000,372000000000000,81000000000000,7500000000000,42500000000000,85500000000000,10500000000000,-135500000000000,111000000000000,38500000000000,50500000000000,3500000000000,-6500000000000,-15000000000000,18500000000000,-29500000000000,-9500000000000,29500000000000,12000000000000,39000000000000,29000000000000,130000000000000,76088235000000,-53445378000000,-60714286000000,51071429000000,-61785714000000,756302000000,81529412000000,-122210526000000,35263158000000,-179552632000000,166000000000000,-23815789000000,88190789000000,-15511364000000,-7902098000000,-27211538000000,47250000000000,38500000000000,63000000000000,-19473684000000,-78421053000000,-8421052000000,49815789000000,-69125000000000,79513889000000,-1111111000000,30380117000000,-6157895000000,-87000000000000,-46500000000000,-31000000000000,22000000000000,37000000000000,-136000000000000,133500000000000,-21500000000000,-75500000000000,122000000000000,-32500000000000,32000000000000,-19000000000000,65500000000000,-62500000000000,31500000000000,-27500000000000,-38500000000000,67500000000000,-25500000000000,-500000000000,81000000000000,-110500000000000,-59500000000000,12500000000000,-8500000000000,31000000000000,-39000000000000,-9000000000000,-147500000000000,109000000000000,26000000000000,5500000000000,-14000000000000,12500000000000,-127000000000000,-10500000000000,77000000000000,-43000000000000,-13500000000000,-40500000000000,36000000000000,95000000000000,10000000000000,-2000000000000,48000000000000,-60000000000000,7000000000000,-17000000000000,-30500000000000,40500000000000,-12500000000000,38000000000000,-181500000000000,101500000000000,-30000000000000,47000000000000,3500000000000,46000000000000,-127000000000000,-58500000000000,-46500000000000,34000000000000,-415000000000000,-2000000000000,75000000000000,10000000000000,122000000000000,31000000000000,189500000000000,6500000000000,0,140000000000000,-48000000000000,-15000000000000,43000000000000,22500000000000,-79500000000000,-4500000000000,-4500000000000,-22000000000000,39500000000000,29000000000000,19500000000000,-5500000000000,11000000000000,-205500000000000,-60500000000000,150000000000000,-21500000000000,-281500000000000,-148500000000000,422000000000000,120500000000000,-100500000000000,126500000000000,-6000000000000,-67000000000000,-13000000000000,7500000000000,-75000000000000,-80000000000000,50500000000000,21500000000000,65500000000000,-54000000000000,-17000000000000,52000000000000,-26500000000000,-6000000000000,-53500000000000],"hashrate_average_7d":2444593706390533.5,"hashrate_average_7d_count":169,"expected_blocks":2.69,"multipool":16},{"url":"https:\/\/pool.btc.com","hashrate":3351000000000000,"miners":-1,"minpay":0.1,"id":4,"pool_id":"pool.btc.com","feetype":"PPS","i":14338,"workers":81,"income":3.2467484138581e-15,"i_blocks":14380,"json_blocks":{"err_no":0,"data":{"blocks":{"current_page":1,"data":[{"height":702912,"is_orphaned":0,"hash":"00000000000000006eb0303edb694dde4a5c4d099b4ec463a33da19f5901fe36","rewards":"1.00336713","size":26854,"prev_hash":"0000000000000000600d64043a35edccf7c77398bbac1ba87f93ddf8b30e4fc5","bits":419475676,"version":9,"created_at":1665796782,"region_id":34,"region_name":"America"},{"height":702893,"is_orphaned":0,"hash":"000000000000000089fe2fb874dc975f01761e4fc788984deb9eab812c2a83fb","rewards":"1.00336713","size":2706,"prev_hash":"00000000000000001c6c0ae0865313f15f59a95ec4d6798f6e7981c7ad762e92","bits":419475676,"version":9,"created_at":1665788803,"region_id":34,"region_name":"America"},{"height":702871,"is_orphaned":0,"hash":"000000000000000053945486e50b583c52cb5b0c1219c8d21bc3309c464f2b9f","rewards":"1.00336713","size":3417,"prev_hash":"0000000000000000036c7c0cc47130eaecdf77d27176ce04de9936b553b059ac","bits":419475676,"version":9,"created_at":1665781593,"region_id":36,"region_name":"BitDeer"},{"height":702866,"is_orphaned":0,"hash":"000000000000000027759e8df5b80d9fb50fec78b99dc5a2bd2ef047c57a4f68","rewards":"1.00336713","size":8314,"prev_hash":"0000000000000000a75eea77cbc5c483465b38c61f7eb6426a252b4ca455f22e","bits":419475676,"version":9,"created_at":1665779116,"region_id":34,"region_name":"America"},{"height":702857,"is_orphaned":0,"hash":"000000000000000045e7162b186c523a07260ab877f86c67a52679f1efc039de","rewards":"1.00336713","size":31103,"prev_hash":"0000000000000000706593c3b16673d6b449579e61995bbfc4749da4bef5f2bc","bits":419477543,"version":9,"created_at":1665777111,"region_id":34,"region_name":"America"},{"height":702828,"is_orphaned":0,"hash":"00000000000000004100b44c71d0a75476fa1b5ea4421c074f84e2a50965f9b4","rewards":"1.00336713","size":45168,"prev_hash":"00000000000000002e9828da92db790449f1f68ba196e425b5c71d3a0b809164","bits":419477543,"version":9,"created_at":1665768043,"region_id":34,"region_name":"America"},{"height":702765,"is_orphaned":0,"hash":"0000000000000000183889ccf54fbf3dc651e8d5a1e920cb5db42395306ea3ac","rewards":"1.00336713","size":39345,"prev_hash":"00000000000000000e5e31987a67313050142bc5359b47f6e4aef83761959fc1","bits":419477543,"version":9,"created_at":1665748114,"region_id":34,"region_name":"America"},{"height":702755,"is_orphaned":0,"hash":"00000000000000006f9ebf02f5e190b359f88eeda8278c3dde779bfca9907dd2","rewards":"1.00336713","size":98658,"prev_hash":"00000000000000004eef78978d136f12899957dcd9c67ad8c9196ccd51b1c5e0","bits":419477543,"version":9,"created_at":1665747056,"region_id":36,"region_name":"BitDeer"},{"height":702753,"is_orphaned":0,"hash":"0000000000000000a01cabf0a87ab946863b68c5fc32994e62e8fa0b9564beb2","rewards":"1.00336713","size":12452,"prev_hash":"00000000000000006717536145c9d43c24b7b6e24c664950089db3456951def9","bits":419477543,"version":9,"created_at":1665745670,"region_id":34,"region_name":"America"},{"height":702746,"is_orphaned":0,"hash":"00000000000000007e22cf9ecef1160513f7103a04eead2c121b2c1b11472f78","rewards":"1.00336713","size":4672,"prev_hash":"000000000000000033aec9e794c259ed3af632e07701710d5d5c7f49edde3900","bits":419477543,"version":9,"created_at":1665744221,"region_id":34,"region_name":"America"}],"first_page_url":"https:\/\/eu-api.connectbtc.com\/\/public\/v1\/pool\/blocks\/merge?order_by=desc&page_size=10&page=1","from":1,"last_page":2191,"last_page_url":"https:\/\/eu-api.connectbtc.com\/\/public\/v1\/pool\/blocks\/merge?order_by=desc&page_size=10&page=2191","next_page_url":"https:\/\/eu-api.connectbtc.com\/\/public\/v1\/pool\/blocks\/merge?order_by=desc&page_size=10&page=2","path":"https:\/\/eu-api.connectbtc.com\/\/public\/v1\/pool\/blocks\/merge","per_page":10,"prev_page_url":null,"to":10,"total":21902},"blocks_count":21902,"rewards_count":"190290.44348743"},"trace_id":"ee8d8b48-d29a-4fa5-828d-c3937d9c3515"},"blocks_nr":10,"lastblock":702912,"lastblocktime":"1665796782","country":"WL|CN , EU , US","blocks_1000":50,"blocks_count":5,"hashrate_average_100_count":79,"hashrate_average_100":3376339003164557,"hashrate_average_1h":3381833333333333.5,"history_start":1665193244,"history_interval":3600,"history_addlast":true,"history":[3921800000000000,56550000000000,22950000000000,26550000000000,-101000000000000,77300000000000,6050000000000,-2900000000000,76800000000000,-59550000000000,59900000000000,40250000000000,-27950000000000,-19450000000000,68600000000000,-63900000000000,-85700000000000,-3450000000000,-21800000000000,9300000000000,-27100000000000,-39050000000000,38600000000000,-21800000000000,28050000000000,-8800000000000,43700000000000,58800000000000,-51250000000000,7450000000000,-47479412000000,315126000000,46214286000000,-47375000000000,-2053571000000,-35806723000000,39835294000000,-32705263000000,14631579000000,-33276316000000,-63850000000000,-10347368000000,-11240132000000,-11721591000000,-28937063000000,23158654000000,-35262500000000,48350000000000,59700000000000,8584211000000,73157894000000,-29263158000000,-43278947000000,-140550000000000,61972222000000,124555556000000,-7383041000000,805263000000,71510526000000,-52610526000000,4350000000000,-32350000000000,-92750000000000,3200000000000,-82850000000000,26650000000000,-22300000000000,-23450000000000,-44050000000000,71850000000000,-2250000000000,73400000000000,165850000000000,24650000000000,30100000000000,-62450000000000,40900000000000,-15800000000000,15100000000000,56200000000000,36350000000000,-46550000000000,66900000000000,-32850000000000,-124400000000000,-248350000000000,-277900000000000,-59300000000000,-8550000000000,25500000000000,-1300000000000,-19800000000000,-44350000000000,89150000000000,5550000000000,40250000000000,111200000000000,-45300000000000,-41400000000000,2650000000000,-79400000000000,-17650000000000,-24900000000000,-21000000000000,-2700000000000,23500000000000,73550000000000,21350000000000,-43950000000000,300000000000,-8450000000000,8050000000000,-38650000000000,-35750000000000,-46650000000000,-19700000000000,-265900000000000,-62350000000000,364750000000000,76850000000000,45800000000000,41050000000000,-82450000000000,63550000000000,-23700000000000,-49600000000000,-51450000000000,15800000000000,85750000000000,-41400000000000,50000000000000,33850000000000,-39750000000000,13650000000000,50000000000000,-48850000000000,-26650000000000,-500000000000,-29600000000000,-16700000000000,6150000000000,31150000000000,56800000000000,-10150000000000,95650000000000,-62200000000000,26350000000000,-68800000000000,41000000000000,3200000000000,-67150000000000,45650000000000,39350000000000,-89250000000000,46700000000000,36350000000000,-33000000000000,-2450000000000,10900000000000,-16250000000000,-32500000000000,-69300000000000,-86550000000000,-33750000000000,51950000000000,56700000000000,24300000000000,-27100000000000,7883333000000],"hashrate_average_7d":3690346181869824.5,"hashrate_average_7d_count":169,"hashrate_block":675267800632911.4,"expected_blocks":3.93,"luck":1.0744848699689467,"multipool":7},{"url":"https:\/\/www.f2pool.com","hashrate":47832252849323430,"miners":-1,"minpay":0.1,"id":14,"pool_id":"f2pool.com","fee":3,"feetype":"PPS%3","i":2444,"income":3.068130434426418e-15,"blocks_nr":11,"lastblock":702933,"lastblocktime":1665804494,"country":"WL|Global","blocks_1000":561,"blocks_count":55,"hashrate_average_100_count":79,"hashrate_average_100":46788501264177864,"hashrate_average_1h":47751357397442940,"history_start":1665193244,"history_interval":3600,"history_addlast":true,"history":[43173668560000000,-2942619080000000,1825633230000000,1916286290000000,958443100000000,301106550000000,119500900000000,-25302510000000,449067180000000,195995570000000,-95929590000000,-296600570000000,-632003150000000,-1054747520000000,2037103690000000,-139998310000000,-84567160000000,441630460000000,94347890000000,-78935830000000,125564650000000,-544829790000000,49897710000000,243509590000000,15438230000000,-153439300000000,-216654110000000,-192197250000000,374106750000000,-117372280000000,32050460000000,-450053840000000,250068110000000,127831390000000,80624180000000,-349271190000000,38312140000000,309167260000000,144472630000000,-181799210000000,-69320620000000,-425726600000000,225616520000000,408929280000000,-132784030000000,-497626880000000,69314160000000,-32091440000000,1195643820000000,1404718500000000,-2214556860000000,1843675550000000,-429388770000000,258285300000000,9456400000000,-316052760000000,466027350000000,-88077770000000,48211550000000,-506022970000000,-266919590000000,601104670000000,-89793110000000,139455510000000,-164141230000000,5439630000000,212380860000000,113290050000000,101384100000000,-607054740000000,134891080000000,-190159490000000,-601693700000000,415680170000000,-463960140000000,760328230000000,-8095630000000,252946960000000,-727954740000000,-132092120000000,166824450000000,-97578790000000,544033840000000,-510265620000000,-229867170000000,567802010000000,-93161030000000,-150213800000000,-139469440000000,191591050000000,136112790000000,-310081630000000,102172910000000,-365238300000000,17881750000000,696669750000000,-318429150000000,84972170000000,-229033850000000,204655870000000,-9085650000000,-151238710000000,148402280000000,-477151500000000,677910250000000,-79815580000000,-46683740000000,-62748770000000,-37035870000000,159292430000000,113412620000000,74047530000000,-360552430000000,160611980000000,-149587770000000,23629300000000,453420430000000,-748532040000000,-51300780000000,291793610000000,324348710000000,-475860810000000,-680874850000000,432106470000000,678188030000000,186056110000000,20645850000000,163722640000000,643104950000000,112603680000000,-199466810000000,-322390850000000,93157390000000,432163100000000,7562550000000,-57527040000000,-417086700000000,248037150000000,416109950000000,-165288470000000,-1949598420000000,-4919460040000000,2508078660000000,4056955050000000,123008640000000,13398850000000,-543201200000000,154234080000000,363368240000000,597265640000000,-493344730000000,-339969150000000,419512960000000,-4987840000000,-82172830000000,38050000000,-380593760000000,459437300000000,321615320000000,-24414840000000,-212905330000000,-119042940000000,92396800000000,-5524289190000000,1279099480000000,2276863140000000,-1599669040000000,3121354640000000,70131080000000],"hashrate_average_7d":46526260609822470,"hashrate_average_7d_count":169,"hashrate_block":850700022985052.1,"expected_blocks":54.4,"luck":0.601146848151501,"multipool":33},{"url":"https:\/\/www.poolin.com","hashrate":31225000000000000,"miners":-1,"minpay":0.01,"id":3,"pool_id":"poolin.com","fee":3,"feetype":"PPS","i":13399,"json":{"err_no":0,"data":{"shares":{"shares_1m":29.627,"shares_5m":31.225,"shares_15m":31.725,"shares_1h":31.775,"shares_unit":"P"},"reject":{"1m":0,"5m":0,"15m":0.0033,"1h":0.0032},"workers":1266,"users":393,"total_blocks":141836,"total_rewards":104364076105442}},"workers":1266,"netdiff":6216774488.544925,"nethash":"89002810375223814","income":3.5157500000000004e-15,"blocks_nr":19,"lastblock":702930,"lastblocktime":"1665803387","country":"US|United States","blocks_1000":345,"blocks_count":35,"hashrate_average_100_count":79,"hashrate_average_100":31544742978639244,"hashrate_average_1h":31522666666666668,"history_start":1665193244,"history_interval":3600,"history_addlast":true,"history":[30678000000000000,-599750000000000,-328800000000000,-1818550000000000,-557150000000000,-546550000000000,-119450000000000,508000000000000,4102900000000000,3670700000000000,881400000000000,-466700000000000,-93500000000000,-101850000000000,-848050000000000,514150000000000,56550000000000,90900000000000,201900000000000,48600000000000,-440750000000000,397000000000000,705100000000000,2347650000000000,-1315450000000000,292800000000000,246850000000000,1110750000000000,-446000000000000,111600000000000,1043288240000000,-339445380000000,-292857150000000,-66035710000000,-288392860000000,224672270000000,143920590000000,74392110000000,-70263160000000,24371050000000,148350000000000,-84563160000000,-283674340000000,381210230000000,-309657350000000,528451290000000,41283330000000,-161600000000000,-74850000000000,60155560000000,-25950300000000,47789480000000,706855260000000,-111750000000000,335722220000000,134111110000000,-209500000000000,-149733330000000,80557890000000,-285507890000000,-1249100000000000,-1269300000000000,738150000000000,-79700000000000,167300000000000,-50700000000000,118550000000000,-369550000000000,186450000000000,219550000000000,-4303250000000000,-3664100000000000,226600000000000,-174400000000000,67200000000000,307350000000000,-54400000000000,-7250000000000,-55650000000000,525750000000000,-196650000000000,127450000000000,-37450000000000,-143200000000000,312750000000000,108050000000000,13250000000000,150300000000000,46950000000000,-98950000000000,-23900000000000,-94100000000000,173500000000000,-217200000000000,-22350000000000,235242110000000,366004040000000,-134246150000000,-322450000000000,-411200000000000,515250000000000,-2191950000000000,-189865380000000,853965380000000,492400000000000,1364700000000000,-1353250000000000,-1611900000000000,78700000000000,1368400000000000,-99550000000000,-57550000000000,-122900000000000,-609700000000000,-176200000000000,-57000000000000,4100000000000,145800000000000,730250000000000,35750000000000,-68600000000000,-284338460000000,292838460000000,-31300000000000,645538460000000,49261540000000,-1023850000000000,2141100000000000,173550000000000,-245300000000000,-471850000000000,528550000000000,-434000000000000,294600000000000,104550000000000,-168050000000000,105250000000000,-138100000000000,-51850000000000,116600000000000,29200000000000,20400000000000,-104550000000000,-368800000000000,-72900000000000,-324800000000000,178500000000000,78200000000000,-675750000000000,-1406400000000000,46053850000000,-53850000000,317450000000000,1711600000000000,934000000000000,-41600000000000,-209200000000000,-46000000000000,126150000000000,214200000000000,-6950000000000,-77700000000000,-124300000000000,71950000000000,-163650000000000,-28600000000000,-3100000000000,127700000000000,52616670000000],"hashrate_average_7d":33080998368461530,"hashrate_average_7d_count":169,"hashrate_block":901278370818264.1,"expected_blocks":36.68,"luck":-1.6756317181204423,"multipool":15}],"hashblock":{"hashrate_average_100":81709583245981660,"blocks_count":95,"pools":[[675267800632911.4,5,135053560126582.28,"https:\/\/pool.btc.com"],[850700022985052.1,55,15467273145182.766,"https:\/\/www.f2pool.com"],[901278370818264.1,35,25750810594807.547,"https:\/\/www.poolin.com"]],"hashrate_block_all":860100876273491.2,"hashrate_block_min":15467273145182.766,"hashrate_block_max":135053560126582.28,"pool_hashblock_average":58757214622190.875,"hashrate_block":860100876273491.2},"time":1665804703,"hashrate":75410000000000000,"difficulty":6216774488.544925,"height":702933,"symbol":"DCR","maxhash":47832252849323430,"poolshash":85276375400216400,"nethash_estimat":86010087627349120,"poolsminers":1381,"supply":{"circulating":14426652.84078258,"total":21000000,"emission24":2633},"block_time_target":300,"block_height_ok":true,"algo":"Blake256R14","hashrate_from_diff":false,"hashrate_src":"https:\/\/lab.antpool.com","unit":"H\/s","block_time_average":294.9,"minerstat":[1.3538685473125e-16,24.648179117918,1.00415088,2898],"link":{"coingecko":"decred","cmc":"decred","whattomine":"152-dcr-blake (14r)","coin360":"decred-dcr","coinpaprika":"dcr-decred"},"latest_release":{"tag":"release-v1.7.5","name":"dcrd v1.7.5","t":1665429869},"price":24.69}