{"data":[{"url":"https:\/\/www.okx.com\/pool","hashrate":8320000000000,"miners":-1,"minpay":-1,"id":23,"pool_id":"okx.com","i":1611,"workers":1,"lastblock":630904,"feetype":"PPLNS","fee":2,"country":"HK|Hong Kong","hashrate_average_100_count":80,"hashrate_average_100":8839597290039.062,"hashrate_average_1h":8410000000000,"history_start":1665373245,"history_interval":3600,"history_addlast":true,"history":[8385789474000,1044210526000,-355000000000,-340000000000,-347222222000,941111111000,-142573100000,-1140315789000,976105263000,-932605263000,-195500000000,1241000000000,269000000000,-853500000000,-230500000000,-282000000000,1170500000000,-107000000000,-661000000000,-107000000000,85000000000,466000000000,834000000000,-2150500000000,633000000000,367000000000,896500000000,-255500000000,-114000000000,-412000000000,1477000000000,-1443000000000,1333000000000,-725500000000,-399500000000,-792500000000,513500000000,1672000000000,-1259000000000,492000000000,-924000000000,417500000000,-483000000000,-425500000000,1030500000000,-403500000000,251500000000,737000000000,-495000000000,-407500000000,372000000000,-691500000000,627500000000,-217000000000,417500000000,765000000000,-1319500000000,-800000000000,220000000000,205000000000,834000000000,-42500000000,-839000000000,1239000000000,584500000000,-1136000000000,-684500000000,-121000000000,1465500000000,-534500000000,-281500000000,-254000000000,-248500000000,1199500000000,-336000000000,594000000000,-156500000000,-877000000000,1216000000000,-1339000000000,1040500000000,239500000000,-952000000000,-792500000000,511000000000,719000000000,226500000000,-1450000000000,874000000000,-553500000000,585500000000,175000000000,495000000000,-1330000000000,985000000000,-391000000000,-238000000000,61000000000,106500000000,1528500000000,361500000000,-2576000000000,842500000000,-298500000000,295000000000,-1156000000000,920000000000,38500000000,446000000000,-655000000000,28500000000,287000000000,-520000000000,-58500000000,-420500000000,1575000000000,-787000000000,469000000000,-299500000000,-502000000000,1930000000000,-689000000000,-491000000000,-330000000000,-158500000000,291000000000,-526000000000,136000000000,397000000000,31000000000,666500000000,-937500000000,5000000000,406500000000,-162500000000,42500000000,-925000000000,301000000000,811000000000,-191000000000,152500000000,-675500000000,433000000000,-1199000000000,944000000000,1274000000000,-1477500000000,-693500000000,1698500000000,-459000000000,-19000000000,-528000000000,320000000000,1027500000000,-909500000000,744500000000,-838500000000,-415000000000,-403500000000,844500000000,1587000000000,-1292000000000,-606500000000,266000000000,625000000000,-562000000000,-431500000000,-144000000000],"hashrate_average_7d":9005305816624.996,"hashrate_average_7d_count":168,"expected_blocks":0.01,"multipool":5},{"url":"https:\/\/www2.coinmine.pl\/dcr","hashrate":405465501209504,"miners":-1,"minpay":0.05,"id":5,"pool_id":"coinmine.pl","i":12324,"workers":31,"blocks_nr":5,"lastblock":703366,"lastblocktime":"1665928789","fee":1,"feetype":"PPLNS","height":703524,"country":"WL|EU , US , Asia","blocks_1000":2,"hashrate_average_100_count":80,"hashrate_average_100":459963352624467.6,"hashrate_average_1h":441580283152725.25,"history_start":1665373245,"history_interval":3600,"history_addlast":true,"history":[540065558500000,13880716800000,11698449300000,-9623236900000,-5283545900000,1840342700000,-109371400000,-16316591500000,-6917230000000,16594658000000,21301018000000,-19133851900000,9099154100000,-40098355500000,27252345000000,-12216157600000,215074000000,-6383820500000,13525113000000,22206971900000,-9932477700000,-6623953500000,-329400500000,21673435400000,-8913606700000,6896971000000,-1934109300000,-6547936600000,10098862500000,2795111500000,-8096142600000,-17991226400000,32053330100000,4588820500000,-38319046200000,-10530937500000,25066614500000,-10911089900000,-22806700500000,19000392500000,-25983086400000,11321747900000,3203550800000,-6831698800000,18144863400000,22032613300000,-2238821400000,19150310300000,-13232984700000,9212690400000,62184930800000,25722175100000,2025969400000,-11860395500000,6536303900000,-3527485000000,-10153433200000,6107580300000,-3286691500000,26318849800000,-9469804000000,168914100000,-21864246800000,-26321357000000,-3967444000000,17790257700000,15719473400000,18763956300000,16775119900000,27881108400000,22728766000000,-41829518300000,-39111201600000,32781466600000,-1084676400000,2852178400000,-18828745900000,12388400700000,-16548646000000,17414465100000,33445416300000,-28070639100000,-36088222700000,15133456000000,-16511044800000,-11000098100000,5752287400000,368044300000,16140396800000,-21937869200000,5308547000000,15942903400000,-20120042300000,14204003000000,-20467112600000,111823600000,20876326200000,-23104135400000,19464175100000,-4774051100000,-8994840800000,-1476966500000,24102633700000,-18785449400000,27208964800000,-2039861900000,-32647873200000,33719596100000,-35043695700000,-2161145000000,7853698300000,1799780700000,-15826648100000,2239168500000,16703868400000,6589488800000,-14608942100000,2116054000000,23298062400000,-25056198400000,-1633290600000,26443696700000,-28939416700000,15715024200000,4483895300000,-29623755700000,-78635772600000,-7143692900000,13191081200000,3684076900000,-17141713900000,12985865200000,13600128500000,1660359400000,-9100872200000,-4124697900000,-16906732200000,27785780000000,-5812036400000,15093087600000,5742063900000,-24202653000000,-9197701400000,31387056700000,-32972197400000,20863210700000,-15982328500000,16756332200000,-12989547400000,4249570000000,-22558320800000,-4848761200000,30968295900000,-20562332400000,19676274000000,-6305918300000,14184984600000,-2691245200000,-72937571200000,-39524371000000,3327470000000,2066192500000,-1808369300000,5474778300000,-14855822400000,-113305900000,-3217561400000,487582700000],"hashrate_average_7d":591593028335714,"hashrate_average_7d_count":168,"expected_blocks":0.54,"multipool":6},{"url":"https:\/\/lab.antpool.com","hashrate":2410000000000000,"miners":-1,"minpay":0.1,"id":11,"pool_id":"antpool.com","i":2062,"nethash":87980000000000000,"netdiff":6658245771,"feetype":"PPS","fee":3,"income":2.9405259e-15,"country":"WL|Global","hashrate_average_100_count":80,"hashrate_average_100":2360336914062500,"hashrate_average_1h":2407500000000000,"history_start":1665373245,"history_interval":3600,"history_addlast":true,"history":[2672105263000000,-8421052000000,49815789000000,-69125000000000,79513889000000,-1111111000000,30380117000000,-6157895000000,-87000000000000,-46500000000000,-31000000000000,22000000000000,37000000000000,-136000000000000,133500000000000,-21500000000000,-75500000000000,122000000000000,-32500000000000,32000000000000,-19000000000000,65500000000000,-62500000000000,31500000000000,-27500000000000,-38500000000000,67500000000000,-25500000000000,-500000000000,81000000000000,-110500000000000,-59500000000000,12500000000000,-8500000000000,31000000000000,-39000000000000,-9000000000000,-147500000000000,109000000000000,26000000000000,5500000000000,-14000000000000,12500000000000,-127000000000000,-10500000000000,77000000000000,-43000000000000,-13500000000000,-40500000000000,36000000000000,95000000000000,10000000000000,-2000000000000,48000000000000,-60000000000000,7000000000000,-17000000000000,-30500000000000,40500000000000,-12500000000000,38000000000000,-181500000000000,101500000000000,-30000000000000,47000000000000,3500000000000,46000000000000,-127000000000000,-58500000000000,-46500000000000,34000000000000,-415000000000000,-2000000000000,75000000000000,10000000000000,122000000000000,31000000000000,189500000000000,6500000000000,0,140000000000000,-48000000000000,-15000000000000,43000000000000,22500000000000,-79500000000000,-4500000000000,-4500000000000,-22000000000000,39500000000000,29000000000000,19500000000000,-5500000000000,11000000000000,-205500000000000,-60500000000000,150000000000000,-21500000000000,-281500000000000,-148500000000000,422000000000000,120500000000000,-100500000000000,126500000000000,-6000000000000,-67000000000000,-13000000000000,7500000000000,-75000000000000,-80000000000000,50500000000000,21500000000000,65500000000000,-54000000000000,-17000000000000,52000000000000,-26500000000000,-6000000000000,-52500000000000,-82500000000000,72000000000000,0,-9000000000000,-46500000000000,163000000000000,44000000000000,-80000000000000,3500000000000,-17500000000000,126500000000000,41500000000000,-9500000000000,-17500000000000,-148000000000000,120500000000000,4000000000000,5500000000000,20000000000000,-1000000000000,-49000000000000,13500000000000,18000000000000,36000000000000,18500000000000,47000000000000,9000000000000,1500000000000,-44500000000000,-88500000000000,-56000000000000,-11500000000000,12500000000000,14000000000000,16500000000000,10500000000000,-18000000000000,35500000000000,-158500000000000,41500000000000,83500000000000,-50500000000000,62000000000000,-16000000000000,-24500000000000,23500000000000,33500000000000,-36000000000000,24000000000000],"hashrate_average_7d":2439877910928573.5,"hashrate_average_7d_count":168,"expected_blocks":2.77,"multipool":16},{"url":"https:\/\/pool.btc.com","hashrate":3544000000000000,"miners":-1,"minpay":0.1,"id":4,"pool_id":"pool.btc.com","feetype":"PPS","i":14338,"workers":82,"income":3.0314745659386e-15,"i_blocks":14380,"json_blocks":{"err_no":0,"data":{"blocks":{"current_page":1,"data":[{"height":703517,"is_orphaned":0,"hash":"00000000000000006f0e05042250a4fcd805308255279d14012e19644f83e9da","rewards":"1.00336713","size":6976,"prev_hash":"000000000000000020bdaef2551cef89812dae75889f800ec782f860740b144d","bits":419472674,"version":9,"created_at":1665975091,"region_id":34,"region_name":"America"},{"height":703506,"is_orphaned":0,"hash":"00000000000000006f59eb01e73242f38fcfed320a05207ba8a75d2eddf8f668","rewards":"1.00336713","size":8503,"prev_hash":"000000000000000052b967202d6519845275787e61c907c5a5d370ed1fb827fb","bits":419472674,"version":9,"created_at":1665971161,"region_id":34,"region_name":"America"},{"height":703460,"is_orphaned":0,"hash":"0000000000000000164507cf78c8309fb3021d54d5466725a520cf3b04692298","rewards":"1.00336713","size":55430,"prev_hash":"00000000000000006e907590171795e0250b0b5b92e80ad162b81648978b226e","bits":419472674,"version":9,"created_at":1665953049,"region_id":34,"region_name":"America"},{"height":703453,"is_orphaned":0,"hash":"000000000000000088cf21e15245c725ef9955e2c2cde98b575ace800455c30f","rewards":"1.00336713","size":40552,"prev_hash":"0000000000000000a4c8ea9a6580986c038dfc92e717f74e3cd47147e1647acf","bits":419472674,"version":9,"created_at":1665952174,"region_id":36,"region_name":"BitDeer"},{"height":703434,"is_orphaned":0,"hash":"0000000000000000465670487c17fa5349bd19134a3d50d77a4018cc764e5e9a","rewards":"1.00336713","size":8968,"prev_hash":"000000000000000049686bf898d6efcef11475ed56549926424d3ea58fec334a","bits":419475671,"version":9,"created_at":1665946314,"region_id":34,"region_name":"America"},{"height":703403,"is_orphaned":0,"hash":"0000000000000000619fba14a22775ff5317a6d04cd7e0b186d5b94726a12e68","rewards":"1.00336713","size":35227,"prev_hash":"000000000000000031d3b3193698eb54bad998ffe47e7bb346bd0335519ef551","bits":419475671,"version":9,"created_at":1665939133,"region_id":34,"region_name":"America"},{"height":703402,"is_orphaned":0,"hash":"000000000000000031d3b3193698eb54bad998ffe47e7bb346bd0335519ef551","rewards":"1.00336713","size":56110,"prev_hash":"000000000000000007a79bae99b1fc833ce84c9dd40015eb50dabc5518fdfb37","bits":419475671,"version":9,"created_at":1665939048,"region_id":36,"region_name":"BitDeer"},{"height":703383,"is_orphaned":0,"hash":"000000000000000052cdc5f323c0b4435bbf431c710c847b70d12e25a1e0d77a","rewards":"1.00336713","size":20713,"prev_hash":"0000000000000000a1c639b6f46e33cf59d7d99b03ea8a2184d94a50efe555af","bits":419475671,"version":9,"created_at":1665934864,"region_id":34,"region_name":"America"},{"height":703376,"is_orphaned":0,"hash":"000000000000000024d83f0a109c9390246f9b51c2f9f73bd1e83bd281ac7fad","rewards":"1.00336713","size":61265,"prev_hash":"000000000000000027ed7a60bc1e8744dc73e724d386dedd7ec8172f1a0cde46","bits":419475671,"version":9,"created_at":1665933030,"region_id":34,"region_name":"America"},{"height":703365,"is_orphaned":0,"hash":"00000000000000007da1733663e2c177722eba6e3eab791cc0ee97207eea3de3","rewards":"1.00336713","size":8079,"prev_hash":"00000000000000000dba04a483cf8bb7b99c946788a04286ab546061c4b038dc","bits":419475671,"version":9,"created_at":1665928782,"region_id":34,"region_name":"America"}],"first_page_url":"https:\/\/eu-api.connectbtc.com\/\/public\/v1\/pool\/blocks\/merge?order_by=desc&page_size=10&page=1","from":1,"last_page":2194,"last_page_url":"https:\/\/eu-api.connectbtc.com\/\/public\/v1\/pool\/blocks\/merge?order_by=desc&page_size=10&page=2194","next_page_url":"https:\/\/eu-api.connectbtc.com\/\/public\/v1\/pool\/blocks\/merge?order_by=desc&page_size=10&page=2","path":"https:\/\/eu-api.connectbtc.com\/\/public\/v1\/pool\/blocks\/merge","per_page":10,"prev_page_url":null,"to":10,"total":21933},"blocks_count":21933,"rewards_count":"190321.54786846"},"trace_id":"eb8b972a-1150-45c4-a79c-06280c07d11d"},"blocks_nr":10,"lastblock":703517,"lastblocktime":"1665975091","country":"WL|CN , EU , US","blocks_1000":55,"blocks_count":5,"hashrate_average_100_count":80,"hashrate_average_100":3360309960937500,"hashrate_average_1h":3533500000000000,"history_start":1665373245,"history_interval":3600,"history_addlast":true,"history":[3962842105000000,-29263158000000,-43278947000000,-140550000000000,61972222000000,124555556000000,-7383041000000,805263000000,71510526000000,-52610526000000,4350000000000,-32350000000000,-92750000000000,3200000000000,-82850000000000,26650000000000,-22300000000000,-23450000000000,-44050000000000,71850000000000,-2250000000000,73400000000000,165850000000000,24650000000000,30100000000000,-62450000000000,40900000000000,-15800000000000,15100000000000,56200000000000,36350000000000,-46550000000000,66900000000000,-32850000000000,-124400000000000,-248350000000000,-277900000000000,-59300000000000,-8550000000000,25500000000000,-1300000000000,-19800000000000,-44350000000000,89150000000000,5550000000000,40250000000000,111200000000000,-45300000000000,-41400000000000,2650000000000,-79400000000000,-17650000000000,-24900000000000,-21000000000000,-2700000000000,23500000000000,73550000000000,21350000000000,-43950000000000,300000000000,-8450000000000,8050000000000,-38650000000000,-35750000000000,-46650000000000,-19700000000000,-265900000000000,-62350000000000,364750000000000,76850000000000,45800000000000,41050000000000,-82450000000000,63550000000000,-23700000000000,-49600000000000,-51450000000000,15800000000000,85750000000000,-41400000000000,50000000000000,33850000000000,-39750000000000,13650000000000,50000000000000,-48850000000000,-26650000000000,-500000000000,-29600000000000,-16700000000000,6150000000000,31150000000000,56800000000000,-10150000000000,95650000000000,-62200000000000,26350000000000,-68800000000000,41000000000000,3200000000000,-67150000000000,45650000000000,39350000000000,-89250000000000,46700000000000,36350000000000,-33000000000000,-2450000000000,10900000000000,-16250000000000,-32500000000000,-69300000000000,-86550000000000,-33750000000000,51950000000000,56700000000000,24300000000000,-27100000000000,3500000000000,-13950000000000,38850000000000,-50050000000000,-41850000000000,-3600000000000,10600000000000,2700000000000,51800000000000,84600000000000,-65650000000000,-1150000000000,-15450000000000,16300000000000,26950000000000,45450000000000,-45450000000000,-27500000000000,-35750000000000,-33500000000000,-96500000000000,129750000000000,17450000000000,48500000000000,49950000000000,-37200000000000,23200000000000,-48950000000000,-38500000000000,30250000000000,-38950000000000,53200000000000,100850000000000,-4050000000000,55150000000000,-74850000000000,-25500000000000,-31250000000000,-27500000000000,-40800000000000,2450000000000,8800000000000,-39650000000000,-30800000000000,31950000000000,-22550000000000,72950000000000,-10350000000000,57800000000000,97850000000000],"hashrate_average_7d":3523284382827380.5,"hashrate_average_7d_count":168,"hashrate_block":672061992187500,"expected_blocks":3.94,"luck":1.0576362916522553,"multipool":7},{"url":"https:\/\/www.f2pool.com","hashrate":46828406129141224,"miners":-1,"minpay":0.1,"id":14,"pool_id":"f2pool.com","fee":3,"feetype":"PPS%3","i":2444,"income":2.8646997522957503e-15,"blocks_nr":11,"lastblock":703523,"lastblocktime":1665977441,"country":"WL|Global","blocks_1000":551,"blocks_count":52,"hashrate_average_100_count":80,"hashrate_average_100":47869130752536200,"hashrate_average_1h":46749093067371940,"history_start":1665373245,"history_interval":3600,"history_addlast":true,"history":[45679621680000000,1843675550000000,-429388770000000,258285300000000,9456400000000,-316052760000000,466027350000000,-88077770000000,48211550000000,-506022970000000,-266919590000000,601104670000000,-89793110000000,139455510000000,-164141230000000,5439630000000,212380860000000,113290050000000,101384100000000,-607054740000000,134891080000000,-190159490000000,-601693700000000,415680170000000,-463960140000000,760328230000000,-8095630000000,252946960000000,-727954740000000,-132092120000000,166824450000000,-97578790000000,544033840000000,-510265620000000,-229867170000000,567802010000000,-93161030000000,-150213800000000,-139469440000000,191591050000000,136112790000000,-310081630000000,102172910000000,-365238300000000,17881750000000,696669750000000,-318429150000000,84972170000000,-229033850000000,204655870000000,-9085650000000,-151238710000000,148402280000000,-477151500000000,677910250000000,-79815580000000,-46683740000000,-62748770000000,-37035870000000,159292430000000,113412620000000,74047530000000,-360552430000000,160611980000000,-149587770000000,23629300000000,453420430000000,-748532040000000,-51300780000000,291793610000000,324348710000000,-475860810000000,-680874850000000,432106470000000,678188030000000,186056110000000,20645850000000,163722640000000,643104950000000,112603680000000,-199466810000000,-322390850000000,93157390000000,432163100000000,7562550000000,-57527040000000,-417086700000000,248037150000000,416109950000000,-165288470000000,-1949598420000000,-4919460040000000,2508078660000000,4056955050000000,123008640000000,13398850000000,-543201200000000,154234080000000,363368240000000,597265640000000,-493344730000000,-339969150000000,419512960000000,-4987840000000,-82172830000000,38050000000,-380593760000000,459437300000000,321615320000000,-24414840000000,-212905330000000,-119042940000000,92396800000000,-5524289190000000,1279099480000000,2276863140000000,-1599669040000000,3121354640000000,79060040000000,212171150000000,-223759700000000,-1210636290000000,-248773330000000,1798837760000000,41898010000000,-491914110000000,305894880000000,-325984180000000,-387501070000000,-284520550000000,-379524670000000,841488830000000,-70645150000000,67152750000000,-263756430000000,-262894700000000,440665270000000,-151441650000000,-64935220000000,-296054600000000,117400910000000,187855990000000,94181310000000,-42442930000000,-77908940000000,523750060000000,109939640000000,-110564580000000,164242490000000,-385224130000000,770826670000000,53833910000000,-286878770000000,-211696380000000,-278568950000000,686264820000000,-88868050000000,315615870000000,-423590960000000,43352190000000,361962840000000,-37823370000000,149448810000000,-641767760000000,61054190000000,-541088640000000,-575186980000000,4920450000000],"hashrate_average_7d":47139459106309530,"hashrate_average_7d_count":168,"hashrate_block":920560206779542.2,"expected_blocks":56.16,"luck":-4.1607488662447665,"multipool":33},{"url":"https:\/\/www.poolin.com","hashrate":29989000000000000,"miners":-1,"minpay":0.01,"id":3,"pool_id":"poolin.com","fee":3,"feetype":"PPS","i":13399,"json":{"err_no":0,"data":{"shares":{"shares_1m":28.812,"shares_5m":29.989,"shares_15m":29.976,"shares_1h":29.831,"shares_unit":"P"},"reject":{"1m":0,"5m":0,"15m":0.0018,"1h":0.0031},"workers":1259,"users":382,"total_blocks":142057,"total_rewards":104386210384329}},"workers":1259,"netdiff":6658245771.475612,"nethash":"95323159450584350","income":3.28264e-15,"blocks_nr":17,"lastblock":703522,"lastblocktime":1665977064,"country":"US|United States","blocks_1000":360,"blocks_count":38,"hashrate_average_100_count":80,"hashrate_average_100":29744682910156250,"hashrate_average_1h":29885250000000000,"history_start":1665373245,"history_interval":3600,"history_addlast":true,"history":[38955105260000000,47789480000000,706855260000000,-111750000000000,335722220000000,134111110000000,-209500000000000,-149733330000000,80557890000000,-285507890000000,-1249100000000000,-1269300000000000,738150000000000,-79700000000000,167300000000000,-50700000000000,118550000000000,-369550000000000,186450000000000,219550000000000,-4303250000000000,-3664100000000000,226600000000000,-174400000000000,67200000000000,307350000000000,-54400000000000,-7250000000000,-55650000000000,525750000000000,-196650000000000,127450000000000,-37450000000000,-143200000000000,312750000000000,108050000000000,13250000000000,150300000000000,46950000000000,-98950000000000,-23900000000000,-94100000000000,173500000000000,-217200000000000,-22350000000000,235242110000000,366004040000000,-134246150000000,-322450000000000,-411200000000000,515250000000000,-2191950000000000,-189865380000000,853965380000000,492400000000000,1364700000000000,-1353250000000000,-1611900000000000,78700000000000,1368400000000000,-99550000000000,-57550000000000,-122900000000000,-609700000000000,-176200000000000,-57000000000000,4100000000000,145800000000000,730250000000000,35750000000000,-68600000000000,-284338460000000,292838460000000,-31300000000000,645538460000000,49261540000000,-1023850000000000,2141100000000000,173550000000000,-245300000000000,-471850000000000,528550000000000,-434000000000000,294600000000000,104550000000000,-168050000000000,105250000000000,-138100000000000,-51850000000000,116600000000000,29200000000000,20400000000000,-104550000000000,-368800000000000,-72900000000000,-324800000000000,178500000000000,78200000000000,-675750000000000,-1406400000000000,46053850000000,-53850000000,317450000000000,1711600000000000,934000000000000,-41600000000000,-209200000000000,-46000000000000,126150000000000,214200000000000,-6950000000000,-77700000000000,-124300000000000,71950000000000,-163650000000000,-28600000000000,-3100000000000,127700000000000,44800000000000,115650000000000,-503300000000000,454450000000000,36200000000000,-516850000000000,-435800000000000,-27350000000000,-337950000000000,-176400000000000,500500000000000,71450000000000,-38200000000000,39200000000000,-305550000000000,-171950000000000,41800000000000,-119800000000000,59200000000000,-192400000000000,54650000000000,82450000000000,-116750000000000,-346050000000000,-294350000000000,724510530000000,108039470000000,-970500000000000,838050000000000,39100000000000,228750000000000,216150000000000,-145050000000000,-7150000000000,-234450000000000,-75000000000000,-46550000000000,72450000000000,-121300000000000,67600000000000,-72100000000000,-189750000000000,-181300000000000,291900000000000,-37950000000000,-171000000000000,-361700000000000,-175800000000000,222900000000000,477700000000000],"hashrate_average_7d":31428129369226172,"hashrate_average_7d_count":168,"hashrate_block":782754813425164.4,"expected_blocks":34.9,"luck":3.103112574592508,"multipool":15}],"hashblock":{"hashrate_average_100":80974123623629950,"blocks_count":95,"pools":[[672061992187500,5,134412398437500,"https:\/\/pool.btc.com"],[920560206779542.2,52,17703080899606.582,"https:\/\/www.f2pool.com"],[782754813425164.4,38,20598810879609.59,"https:\/\/www.poolin.com"]],"hashrate_block_all":852359196038210,"hashrate_block_min":17703080899606.582,"hashrate_block_max":134412398437500,"pool_hashblock_average":57571430072238.73,"hashrate_block":852359196038210},"time":1665978585,"hashrate":87980000000000000,"difficulty":6658245771.475612,"height":703524,"symbol":"DCR","maxhash":46828406129141224,"poolshash":83185191630350720,"nethash_estimat":85235919603821000,"poolsminers":1373,"supply":{"circulating":14431975.30206624,"total":21000000,"emission24":2536},"block_time_target":300,"block_height_ok":true,"algo":"Blake256R14","hashrate_from_diff":false,"hashrate_src":"https:\/\/lab.antpool.com","unit":"H\/s","block_time_average":306,"minerstat":[1.263611154788e-16,26.462859831925,1.00376173,1457],"link":{"coingecko":"decred","cmc":"decred","whattomine":"152-dcr-blake (14r)","coin360":"decred-dcr","coinpaprika":"dcr-decred"},"latest_release":{"tag":"release-v1.7.5","name":"dcrd v1.7.5","t":1665429869},"price":26.44}