{"data":[{"url":"https:\/\/www.okx.com\/pool","hashrate":9390000000000,"miners":-1,"minpay":-1,"id":23,"pool_id":"okx.com","i":1611,"workers":1,"lastblock":630904,"feetype":"PPLNS","fee":2,"country":"HK|Hong Kong","hashrate_average_100_count":71,"hashrate_average_100":8561980633802.817,"hashrate_average_1h":8349411764705.883,"history_start":1664678436,"history_interval":3600,"history_addlast":true,"history":[8954500000000,-861500000000,1038000000000,962500000000,-203000000000,-1215500000000,918000000000,767500000000,-717500000000,-1475500000000,36500000000,-94000000000,1161500000000,-324000000000,0,10174500000000,-8570000000000,-6962000000000,5659500000000,-1478500000000,820000000000,-108000000000,693000000000,-880000000000,91000000000,1247000000000,-952500000000,-518500000000,1791500000000,-1424000000000,1984000000000,-691000000000,-509500000000,521263158000,-503263158000,-95000000000,221500000000,-858500000000,398000000000,-641000000000,-251500000000,411000000000,1955078950000,-1188578950000,-906500000000,989500000000,725500000000,-1345000000000,415000000000,62500000000,-533500000000,1270500000000,-1321526316000,-88473684000,572684211000,940315789000,-1238500000000,-356500000000,571000000000,-789500000000,-391500000000,2468000000000,-246000000000,-58500000000,502500000000,-610500000000,-1196078947000,-17921053000,-657000000000,818000000000,-215000000000,627500000000,-468000000000,828000000000,-1443000000000,908500000000,-247394737000,404394737000,726000000000,-1538000000000,215500000000,2301000000000,-693500000000,-634000000000,-471000000000,-481500000000,189000000000,-353000000000,1819500000000,-1688500000000,420000000000,-363000000000,718000000000,-325500000000,-669500000000,-123000000000,342000000000,-372000000000,414000000000,942000000000,537000000000,-333500000000,-2247277778000,960277778000,-410000000000,83500000000,127947368000,-102947368000,613000000000,-346500000000,466500000000,681000000000,-333000000000,1076000000000,-1203555556000,-626444444000,-294500000000,1280500000000,-590000000000,-329000000000,820500000000,453500000000,-1377500000000,422500000000,-767000000000,632000000000,-53500000000,-248000000000,1092500000000,701000000000,-267500000000,-332500000000,2500000000,-427500000000,-249000000000,1642500000000,-1649000000000,-176500000000,349947368000,-559947368000,435000000000,1372000000000,-772500000000,254500000000,-924000000000,-454000000000,1350500000000,-930000000000,293500000000,-455500000000,305500000000,-129000000000,178000000000,-1301500000000,-17000000000,-230000000000,1108500000000,1308000000000,-231000000000,737500000000,-2409500000000,-110000000000,1376000000000,-1093000000000,-94500000000,1053500000000,-1068500000000,147911765000],"hashrate_average_7d":9099758925511.904,"hashrate_average_7d_count":168,"expected_blocks":0.01,"multipool":5},{"url":"https:\/\/www2.coinmine.pl\/dcr","hashrate":578710462470117,"miners":-1,"minpay":0.05,"id":5,"pool_id":"coinmine.pl","i":12323,"workers":33,"blocks_nr":5,"lastblock":700692,"lastblocktime":"1665125450","fee":1,"feetype":"PPLNS","height":701211,"country":"WL|EU , US , Asia","blocks_1000":2,"hashrate_average_100_count":71,"hashrate_average_100":537696846431219.06,"hashrate_average_1h":550122506627019.5,"history_start":1664678436,"history_interval":3600,"history_addlast":true,"history":[579203841400000,-1452422900000,8930087000000,765008500000,-1034611500000,2799224700000,4435571800000,5590888900000,-15121994800000,2466604900000,-17121583000000,-17777811900000,15220948200000,14972605700000,-26089075500000,10930740300000,-27312183900000,-17877688700000,2873664300000,23820537600000,33166112700000,-30605052700000,-2574500500000,12653798700000,5727940500000,3315262500000,-15990115000000,1031021900000,16503398100000,-19807131400000,18483115700000,-1120056100000,-7594643300000,-9072395200000,10354887200000,-12857668800000,-3720191600000,3546535900000,-11842513600000,18996327000000,-9475529600000,-5256074600000,11526944900000,3606250800000,-29611204400000,20952182100000,9398163000000,1599007800000,8697759200000,-19730255900000,17847291100000,-10556123500000,7870014600000,-5708192700000,7164851100000,-1719422600000,321890100000,-9005686000000,10930238800000,-20783903900000,18928904000000,-2510653400000,3478321000000,-14617659300000,18141664300000,-11405391100000,-2100618300000,6865409200000,-17458271500000,17042889700000,-8108992700000,-9677546500000,13557007200000,-2560256200000,8844996100000,-16996193500000,-2255999900000,23970224500000,-8200985500000,-20724981500000,17010162100000,-1565364200000,15984303000000,-30577273000000,30915584900000,-14279146800000,-7045804700000,35105483300000,-28883901300000,7481873900000,-23949342500000,25183487000000,-15336482900000,31745092600000,-35270968800000,-2799528700000,14534507700000,-5607068200000,17786128800000,-8525157300000,3742593300000,1385312600000,-22854031300000,9546972500000,-5833700300000,7362858600000,17642553900000,-14719564200000,-37390823900000,32185899700000,-18972957000000,21503529800000,11859415900000,-4891730100000,-13522919200000,-11799332300000,15196850400000,-9305613500000,17232987600000,-20639140200000,4475901400000,9751637600000,-2167831200000,-7108644500000,6049515500000,6872401100000,-8750950500000,-11488816700000,21712608400000,15390186800000,-2746027200000,-34397341400000,16966411300000,-818292000000,8701564400000,-4389542500000,-14778602000000,-23699001600000,-1460435400000,-14538095100000,16858928400000,1854533800000,3763386800000,9895066600000,-18231950300000,2063496500000,3773656700000,-4933936200000,-3884115400000,7894147400000,7970926200000,-23262625700000,30496879600000,-17354326200000,12825949600000,-30610501500000,13033845200000,4938939300000,45439791600000,569836800000,5100311900000,-9774213700000,-19538194700000,-16720623000000,14669034400000,2773174700000,-3480282400000,11682426600000],"hashrate_average_7d":552155333080357,"hashrate_average_7d_count":168,"expected_blocks":0.6,"multipool":6},{"url":"https:\/\/lab.antpool.com","hashrate":2470000000000000,"miners":-1,"minpay":0.1,"id":11,"pool_id":"antpool.com","i":2062,"nethash":99670000000000000,"netdiff":5545018453,"feetype":"PPS","fee":3,"income":3.5308776e-15,"country":"WL|Global","hashrate_average_100_count":71,"hashrate_average_100":2455862676056338,"hashrate_average_1h":2441176470588235.5,"history_start":1664678436,"history_interval":3600,"history_addlast":true,"history":[2589500000000000,70000000000000,-32500000000000,29000000000000,-92000000000000,61500000000000,-38000000000000,81500000000000,55500000000000,-3000000000000,-18500000000000,-18000000000000,-500000000000,-32500000000000,-90000000000000,87000000000000,9500000000000,64500000000000,-76500000000000,37500000000000,-141500000000000,-8000000000000,-8000000000000,-54500000000000,12500000000000,-23500000000000,-31000000000000,-38500000000000,3000000000000,-45000000000000,19500000000000,-9000000000000,18500000000000,107815789000000,-12815789000000,33000000000000,-4500000000000,-23000000000000,-156500000000000,78000000000000,35500000000000,59000000000000,-16578947000000,-199921053000000,-222000000000000,-6000000000000,-158000000000000,62000000000000,-12000000000000,-11000000000000,-68500000000000,15500000000000,-22184211000000,41684211000000,10947368000000,-36947368000000,12000000000000,15000000000000,11500000000000,-25500000000000,-25500000000000,-58000000000000,-32500000000000,38000000000000,48000000000000,-2500000000000,41184211000000,28315789000000,-11000000000000,-37500000000000,15000000000000,229000000000000,371000000000000,161000000000000,-86000000000000,-72500000000000,26368421000000,12131579000000,8500000000000,-39000000000000,20000000000000,24000000000000,-75500000000000,19500000000000,-78500000000000,-13000000000000,-84500000000000,79500000000000,11500000000000,-21000000000000,84000000000000,47500000000000,81500000000000,29000000000000,3000000000000,55500000000000,62500000000000,-76000000000000,-5500000000000,-25000000000000,-101500000000000,93500000000000,-220611111000000,-33388889000000,-37500000000000,-31000000000000,44052632000000,26947368000000,-61000000000000,-33500000000000,-12000000000000,145500000000000,-64500000000000,-4000000000000,59833333000000,2666667000000,38000000000000,-56000000000000,73500000000000,59000000000000,-92000000000000,166000000000000,-43500000000000,-6000000000000,-71500000000000,-77000000000000,-101000000000000,-76500000000000,59500000000000,44000000000000,-43500000000000,27000000000000,-68000000000000,-73500000000000,-151000000000000,144500000000000,147500000000000,42000000000000,9078947000000,-190578947000000,-392500000000000,17500000000000,-2000000000000,37500000000000,17000000000000,85000000000000,-82000000000000,-8000000000000,-12500000000000,24000000000000,6000000000000,-51000000000000,372000000000000,81000000000000,7500000000000,42500000000000,85500000000000,10500000000000,-135500000000000,111000000000000,38500000000000,50500000000000,3500000000000,-6500000000000,-15000000000000,18500000000000,-29500000000000,-3323529000000],"hashrate_average_7d":2323491564898810.5,"hashrate_average_7d_count":168,"expected_blocks":2.75,"multipool":16},{"url":"https:\/\/www.poolin.com","hashrate":35542000000000000,"miners":-1,"minpay":0.01,"id":3,"pool_id":"poolin.com","fee":3,"feetype":"PPS","i":13398,"json":{"err_no":0,"data":{"shares":{"shares_1m":34.268,"shares_5m":35.542,"shares_15m":35.944,"shares_1h":37.382,"shares_unit":"P"},"reject":{"1m":0,"5m":0,"15m":0.005,"1h":0.0039},"workers":1566,"users":404,"total_blocks":141175,"total_rewards":104298074615637}},"workers":1566,"netdiff":5545018453.99736,"nethash":"79385576371171710","income":3.941670000000001e-15,"blocks_nr":19,"lastblock":701209,"lastblocktime":1665285825,"country":"US|United States","blocks_1000":405,"blocks_count":33,"hashrate_average_100_count":71,"hashrate_average_100":35954980633802816,"hashrate_average_1h":37036941176470590,"history_start":1664678436,"history_interval":3600,"history_addlast":true,"history":[34873200000000000,-198100000000000,212300000000000,107100000000000,599900000000000,4315400000000000,455050000000000,52500000000000,-217400000000000,66750000000000,149600000000000,142850000000000,-126150000000000,101350000000000,-204000000000000,117550000000000,-15050000000000,-132850000000000,-70950000000000,-39550000000000,208750000000000,-182700000000000,646100000000000,234450000000000,194350000000000,340300000000000,-260950000000000,-121300000000000,262850000000000,84300000000000,135450000000000,-1588150000000000,-1218800000000000,1458428950000000,1042571050000000,78650000000000,-473750000000000,145800000000000,-216350000000000,-5350000000000,-428100000000000,73200000000000,-261355260000000,-18744740000000,-357850000000000,-4975050000000000,-4927550000000000,600650000000000,-524900000000000,-1863300000000000,-720550000000000,103650000000000,-2282050000000000,-2815100000000000,-1325047370000000,277197370000000,-10850000000000,148200000000000,-205750000000000,-184000000000000,125950000000000,-64050000000000,-149850000000000,437600000000000,-198100000000000,111200000000000,-14178950000000,16378950000000,-87950000000000,-41650000000000,2189400000000000,7884350000000000,1083750000000000,144600000000000,107050000000000,-177800000000000,-133850000000000,4850000000000,639200000000000,67550000000000,171550000000000,-89350000000000,-33000000000000,-121550000000000,-188500000000000,148100000000000,199450000000000,27650000000000,10750000000000,66000000000000,133200000000000,-238500000000000,-151150000000000,-150700000000000,-16500000000000,35550000000000,-478250000000000,6704700000000000,707500000000000,309950000000000,176750000000000,57950000000000,19537500000000,-134487500000000,47150000000000,-198750000000000,-422613160000000,246713160000000,-109700000000000,-69700000000000,-77600000000000,94550000000000,-48150000000000,100650000000000,-224611110000000,-357738890000000,283450000000000,-357950000000000,-491850000000000,425450000000000,729400000000000,-86250000000000,64200000000000,159550000000000,22200000000000,-23000000000000,-206750000000000,149550000000000,-353550000000000,531600000000000,-166050000000000,58250000000000,-167850000000000,-46650000000000,66000000000000,-376150000000000,423850000000000,-74800000000000,109305260000000,-180055260000000,-626300000000000,529050000000000,-6745900000000000,-2318900000000000,-599750000000000,-328800000000000,-1818550000000000,-557150000000000,-546550000000000,-119450000000000,508000000000000,4102900000000000,3670700000000000,881400000000000,-466700000000000,-93500000000000,-101850000000000,-848050000000000,514150000000000,56550000000000,90900000000000,201900000000000,48600000000000,-440750000000000,397000000000000,705100000000000,2347650000000000,-1244808820000000],"hashrate_average_7d":35330205399047616,"hashrate_average_7d_count":168,"hashrate_block":1089544867690994.4,"expected_blocks":40.32,"luck":-7.321770712950638,"multipool":15},{"url":"https:\/\/pool.btc.com","hashrate":3944000000000000,"miners":-1,"minpay":0.1,"id":4,"pool_id":"pool.btc.com","feetype":"PPS","i":14334,"workers":95,"income":3.3721400476847e-15,"i_blocks":14376,"json_blocks":{"err_no":0,"data":{"blocks":{"current_page":1,"data":[{"height":701193,"is_orphaned":0,"hash":"000000000000000062d6032c63b003eaa62aaa79d04141d6fda11a6015ae757d","rewards":"1.00336713","size":83555,"prev_hash":"000000000000000024b6ba154cdc924355bc371a5bee6858e6aa1a4d0e4cba8d","bits":419481161,"version":9,"created_at":1665282063,"region_id":34,"region_name":"America"},{"height":701172,"is_orphaned":0,"hash":"0000000000000000a288f030f7fd0049712bf04faa89b378424f22597d8606a7","rewards":"1.00336713","size":4418,"prev_hash":"000000000000000020f33938410d6a4aad1fbc878f524ac6473dc3540ea1c2f2","bits":419481161,"version":9,"created_at":1665276803,"region_id":34,"region_name":"America"},{"height":701166,"is_orphaned":0,"hash":"000000000000000087fafacd9714945e10f9c4a6d96bd1f60fc89ff6c38c14f0","rewards":"1.00336713","size":26917,"prev_hash":"000000000000000026e0a95e266178917d427af5af5de84fcdfa5d67e044cc3d","bits":419481161,"version":9,"created_at":1665276249,"region_id":34,"region_name":"America"},{"height":701160,"is_orphaned":0,"hash":"00000000000000001c58e09ec1caf8ceae0cb32c5abaaba53140bed60e004aa5","rewards":"1.00336713","size":10554,"prev_hash":"000000000000000071f32f8adfe0d289763a20fac4da03c3f4f6fb2eb3cee315","bits":419481161,"version":9,"created_at":1665273369,"region_id":34,"region_name":"America"},{"height":701108,"is_orphaned":0,"hash":"00000000000000009087618b670325998a30a01d58f567074c252ef132774c35","rewards":"1.00336713","size":3919,"prev_hash":"00000000000000004bc9ed6f23a38c33f0c1ebd96ccf4a61976422377b50f4c4","bits":419477942,"version":9,"created_at":1665260972,"region_id":34,"region_name":"America"},{"height":701070,"is_orphaned":0,"hash":"000000000000000048bc0971afdd401c38de5e77c4f44e83e6b69c31b4d30be2","rewards":"1.00336713","size":17361,"prev_hash":"00000000000000003c22205e1d520c6ba550d70652f5f142fbe2d055419e80da","bits":419477942,"version":9,"created_at":1665249096,"region_id":34,"region_name":"America"},{"height":701059,"is_orphaned":0,"hash":"00000000000000003a7d08f6536c9afac2abf0b6772ce979ae9722b54b9b67ff","rewards":"1.00336713","size":29667,"prev_hash":"000000000000000044f608ff773a3c468246b00ec7dbcab1833bb883da67e3d3","bits":419477942,"version":9,"created_at":1665244902,"region_id":34,"region_name":"America"},{"height":701048,"is_orphaned":0,"hash":"000000000000000028830490a38132c86e2d5b66383d4ac84a6d3997b146b5a4","rewards":"1.00336713","size":49247,"prev_hash":"00000000000000000d115cd60481e298b1f56039d4c07cc1367acf0fc73069d3","bits":419477942,"version":9,"created_at":1665240646,"region_id":36,"region_name":"BitDeer"},{"height":701044,"is_orphaned":0,"hash":"00000000000000003c6578d9b627789ebd5c7ed07b2478387b6edd3e16f897e0","rewards":"1.00336713","size":2571,"prev_hash":"0000000000000000ad54688c9077a9eacb2b0b4894ae7a07ae1df1d74c9809cb","bits":419477942,"version":9,"created_at":1665239520,"region_id":36,"region_name":"BitDeer"},{"height":701035,"is_orphaned":0,"hash":"0000000000000000196a759d536aa46cf79f34a24b8111005472e1a0361a058d","rewards":"1.00336713","size":10688,"prev_hash":"000000000000000087140cf6a95f3b016f7dd67f8c6fd987ff867b34541348be","bits":419477942,"version":9,"created_at":1665238331,"region_id":34,"region_name":"America"}],"first_page_url":"https:\/\/eu-api.connectbtc.com\/\/public\/v1\/pool\/blocks\/merge?order_by=desc&page_size=10&page=1","from":1,"last_page":2182,"last_page_url":"https:\/\/eu-api.connectbtc.com\/\/public\/v1\/pool\/blocks\/merge?order_by=desc&page_size=10&page=2182","next_page_url":"https:\/\/eu-api.connectbtc.com\/\/public\/v1\/pool\/blocks\/merge?order_by=desc&page_size=10&page=2","path":"https:\/\/eu-api.connectbtc.com\/\/public\/v1\/pool\/blocks\/merge","per_page":10,"prev_page_url":null,"to":10,"total":21819},"blocks_count":21819,"rewards_count":"190208.36805620"},"trace_id":"9a13418f-8466-408c-83d5-38cd37c8dc07"},"blocks_nr":10,"lastblock":701193,"lastblocktime":"1665282033","country":"WL|CN , EU , US","blocks_1000":39,"blocks_count":4,"hashrate_average_100_count":71,"hashrate_average_100":3951749119718310,"hashrate_average_1h":3963176470588235.5,"history_start":1664678436,"history_interval":3600,"history_addlast":true,"history":[4011250000000000,43750000000000,-38650000000000,-51200000000000,22000000000000,141550000000000,6050000000000,-35450000000000,-96350000000000,-10850000000000,33250000000000,-7550000000000,33200000000000,-22150000000000,34050000000000,-4250000000000,25500000000000,-41600000000000,-29150000000000,-54050000000000,34850000000000,27100000000000,17750000000000,8400000000000,-19300000000000,85950000000000,-42000000000000,17900000000000,-39100000000000,-45100000000000,-23200000000000,-14950000000000,-650000000000,28789474000000,4860526000000,-93350000000000,-23150000000000,17600000000000,550000000000,-24500000000000,-12050000000000,-32500000000000,43013158000000,-11113158000000,-73300000000000,81050000000000,-7900000000000,-51400000000000,32600000000000,110450000000000,-29450000000000,-47100000000000,-32047368000000,17247368000000,64436842000000,8513158000000,-27450000000000,7250000000000,88700000000000,-91450000000000,-58350000000000,20500000000000,-52800000000000,14450000000000,-42500000000000,6950000000000,-10918421000000,-43481579000000,55250000000000,-24600000000000,37350000000000,113800000000000,2900000000000,65150000000000,-38750000000000,-65150000000000,7847368000000,-20597368000000,-12150000000000,54100000000000,43100000000000,52300000000000,43600000000000,-104700000000000,-78350000000000,53050000000000,4150000000000,39450000000000,-34650000000000,-62650000000000,-33250000000000,-13750000000000,18450000000000,54000000000000,17300000000000,-52500000000000,-38750000000000,95500000000000,38300000000000,-51550000000000,22300000000000,-51500000000000,50225000000000,74975000000000,-87900000000000,67900000000000,61439474000000,-51939474000000,-19350000000000,5150000000000,-69050000000000,-4400000000000,-59500000000000,5000000000000,21466667000000,24433333000000,-39100000000000,500000000000,36600000000000,154950000000000,14350000000000,-18300000000000,-78300000000000,-131700000000000,38250000000000,13200000000000,25100000000000,167700000000000,-32000000000000,6050000000000,8750000000000,-42600000000000,5500000000000,26750000000000,-6000000000000,-38650000000000,-75350000000000,-46000000000000,-37563158000000,4413158000000,6400000000000,58050000000000,-19950000000000,18150000000000,56550000000000,22950000000000,26550000000000,-101000000000000,77300000000000,6050000000000,-2900000000000,76800000000000,-59550000000000,59900000000000,40250000000000,-27950000000000,-19450000000000,68600000000000,-63900000000000,-85700000000000,-3450000000000,-21800000000000,9300000000000,-27100000000000,-39050000000000,38600000000000,-21800000000000,32176471000000],"hashrate_average_7d":3953751878017857.5,"hashrate_average_7d_count":168,"hashrate_block":987937279929577.5,"expected_blocks":4.43,"luck":-0.43169538994501444,"multipool":7},{"url":"https:\/\/www.f2pool.com","hashrate":46028149497939580,"miners":-1,"minpay":0.1,"id":14,"pool_id":"f2pool.com","fee":3,"feetype":"PPS%3","i":2444,"income":3.439821737386682e-15,"blocks_nr":12,"lastblock":701210,"lastblocktime":1665285861,"country":"WL|Global","blocks_1000":462,"blocks_count":59,"hashrate_average_100_count":71,"hashrate_average_100":46081550992211176,"hashrate_average_1h":46063952529087784,"history_start":1664678436,"history_interval":3600,"history_addlast":true,"history":[39510719360000000,-563580470000000,384086440000000,184992210000000,-145094490000000,-84290850000000,-280876800000000,537329590000000,107473250000000,54176960000000,16064840000000,-66048530000000,199883620000000,-29495790000000,406283730000000,-303553450000000,-171615000000000,491081180000000,36764690000000,-161349700000000,-246434730000000,269976540000000,153965360000000,42159060000000,51654890000000,2392623310000000,735215140000000,-139147570000000,-450305540000000,-1544255850000000,-505817980000000,899672290000000,-2059805690000000,2373710750000000,1345297440000000,-31942900000000,455515450000000,19000720000000,-98934960000000,-353938590000000,28570050000000,11703190000000,12436300000000,221934250000000,-587643220000000,418713810000000,-3230184960000000,3125714240000000,-318002270000000,-1802805100000000,-170510810000000,1814273410000000,92950190000000,47780790000000,-119435530000000,182087480000000,144991200000000,50295160000000,-100802010000000,85953200000000,632912920000000,101364380000000,37698730000000,-605305330000000,88175480000000,168144490000000,109483850000000,131244150000000,-650592620000000,-129161860000000,338866710000000,428690890000000,-305563970000000,-289980800000000,94057860000000,235453100000000,-304994270000000,-318366900000000,-307477480000000,408081900000000,252329640000000,138067930000000,-67829300000000,-203452070000000,679978360000000,82531900000000,-199706080000000,22496280000000,28395600000000,18240080000000,204575400000000,380890620000000,-641062870000000,-81496980000000,152376390000000,-153988330000000,-163836900000000,-53249650000000,182364780000000,386990450000000,-194843580000000,32845120000000,-392007910000000,331391040000000,-281127550000000,190988580000000,-53325410000000,-125989480000000,376394790000000,286706090000000,-181847470000000,-277407630000000,245159770000000,207966150000000,-74172490000000,299934120000000,-558300740000000,70145980000000,314838580000000,-86822100000000,-166368320000000,-260533880000000,50909990000000,82790220000000,-26204870000000,-18753870000000,-553817190000000,143736500000000,301174630000000,195977180000000,-150683220000000,-369554500000000,544906640000000,-20266410000000,-108507030000000,-260821580000000,128409690000000,175983490000000,-104930470000000,190140560000000,-250714010000000,-247476030000000,-7064993140000000,6666214540000000,-2942619080000000,1825633230000000,1916286290000000,958443100000000,301106550000000,119500900000000,-25302510000000,449067180000000,195995570000000,-95929590000000,-296600570000000,-632003150000000,-1054747520000000,2037103690000000,-139998310000000,-84567160000000,441630460000000,94347890000000,-78935830000000,125564650000000,-544829790000000,49897710000000,243509590000000,27730670000000],"hashrate_average_7d":43172690662142856,"hashrate_average_7d_count":168,"hashrate_block":781043237156121.6,"expected_blocks":51.68,"luck":7.321770712950624,"multipool":33}],"hashblock":{"hashrate_average_100":82036531626013980,"blocks_count":92,"pools":[[1089544867690994.4,33,33016511142151.344,"https:\/\/www.poolin.com"],[987937279929577.5,4,246984319982394.38,"https:\/\/pool.btc.com"],[781043237156121.6,59,13238020968747.824,"https:\/\/www.f2pool.com"]],"hashrate_block_all":895711257768044.9,"hashrate_block_min":13238020968747.824,"hashrate_block_max":246984319982394.38,"pool_hashblock_average":97746284031097.86,"ignored":[[987937279929577.5,4,246984319982394.38,"https:\/\/pool.btc.com"]],"hashrate_block":891701430717543.2},"time":1665286117,"hashrate":99670000000000000,"difficulty":5545018453.99736,"height":701211,"symbol":"DCR","maxhash":46028149497939580,"poolshash":88572249960409700,"nethash_estimat":89170143071754320,"poolsminers":1695,"supply":{"circulating":14411158.64487066,"total":21000000,"emission24":2487},"block_time_target":300,"block_height_ok":true,"algo":"Blake256R14","hashrate_from_diff":false,"hashrate_src":"https:\/\/lab.antpool.com","unit":"H\/s","block_time_average":313,"minerstat":[1.5346258444793e-16,25.687717068643,1.01522631,920],"link":{"coingecko":"decred","cmc":"decred","whattomine":"152-dcr-blake (14r)","coin360":"decred-dcr","coinpaprika":"dcr-decred"},"latest_release":{"tag":"release-v1.7.4","name":"dcrd v1.7.4","t":1659553036},"price":25.59}