{"data":[{"url":"https:\/\/www.okx.com\/pool","hashrate":9380000000000,"miners":-1,"minpay":-1,"id":23,"pool_id":"okx.com","i":1612,"workers":1,"lastblock":630904,"feetype":"PPLNS","fee":2,"country":"HK|Hong Kong","hashrate_average_100_count":82,"hashrate_average_100":9006471036585.365,"hashrate_average_1h":9380000000000,"history_start":1666064473,"history_interval":3600,"history_addlast":true,"history":[8867500000000,718500000000,-1126000000000,-662000000000,1490000000000,164500000000,-1086500000000,799500000000,69500000000,-487500000000,1029500000000,-280500000000,-565500000000,282000000000,-1125000000000,1171500000000,-924000000000,-389000000000,272000000000,1272000000000,-1933000000000,2110500000000,-662500000000,-745000000000,1460500000000,365000000000,-727111111000,-481888889000,14000000000,-294000000000,823000000000,-51500000000,803000000000,-344000000000,-625000000000,-832000000000,1572000000000,-795000000000,366500000000,-274000000000,-889500000000,123500000000,-34500000000,769500000000,56500000000,-1834000000000,1063500000000,387500000000,361000000000,-515500000000,364000000000,1597000000000,-2029500000000,-147000000000,-445500000000,1963500000000,-1326000000000,-270000000000,43500000000,81000000000,116500000000,-131000000000,-91500000000,6000000000,1385000000000,-352000000000,-154000000000,879500000000,-1000000000,-1450000000000,-275500000000,-62000000000,218500000000,27000000000,-748184211000,673184211000,2015500000000,-787500000000,-871000000000,892000000000,-419500000000,264500000000,-926500000000,-72500000000,1679500000000,-242000000000,-1652000000000,1023000000000,-102000000000,957000000000,-1770500000000,1512500000000,-994000000000,-1110500000000,138000000000,1134500000000,105500000000,-3227500000000,2479625000000,-79125000000,195500000000,536000000000,-120500000000,-76000000000,54500000000,153000000000,-766500000000,1837000000000,-2041500000000,564000000000,-496500000000,862000000000,666000000000,-373000000000,-911500000000,333000000000,741000000000,801000000000,-465000000000,-919000000000,206000000000,127500000000,-641500000000,-385000000000,444500000000,-148000000000,-401000000000,-139000000000,920500000000,268000000000,-597000000000,-13500000000,350000000000,-160500000000,-401500000000,127500000000,1476000000000,474000000000,-363500000000,-525000000000,790000000000,-1007500000000,18500000000,-1381500000000,171000000000,639500000000,-1302500000000,1247500000000,463000000000,-467500000000,-270000000000,-533000000000,443500000000,443500000000,273500000000,531500000000,-670000000000,242000000000,205500000000,-220500000000,-332500000000,115000000000,393000000000,-894500000000,-845500000000,1403000000000,-285000000000,471500000000],"hashrate_average_7d":9046025771892.854,"hashrate_average_7d_count":168,"expected_blocks":0.01,"multipool":5},{"url":"https:\/\/www2.coinmine.pl\/dcr","hashrate":546160035447002,"miners":-1,"minpay":0.05,"id":5,"pool_id":"coinmine.pl","i":12326,"workers":28,"blocks_nr":5,"lastblock":705551,"lastblocktime":"1666591530","fee":1,"feetype":"PPLNS","height":705820,"country":"WL|EU , US , Asia","blocks_1000":6,"hashrate_average_100_count":82,"hashrate_average_100":562497751271082.56,"hashrate_average_1h":546160035447002,"history_start":1666064473,"history_interval":3600,"history_addlast":true,"history":[592668517500000,7470288800000,-12696986200000,-2144555900000,3008820800000,-33320069800000,35730187200000,12918176700000,-30131951300000,9775549800000,-10682188800000,36326811000000,-2932269800000,-34647090700000,26893850700000,-14528240000000,-23648975700000,-9491971900000,-9299065500000,4075638300000,24338281300000,-30860217300000,2287934000000,-8432054800000,8567230600000,-6902788500000,-8754780300000,24240772100000,-3560726200000,-2684622200000,-9019486300000,25953730400000,-24910049800000,-12719702100000,24896839200000,11791052200000,-15730961000000,-1620195200000,5875129400000,-20542591200000,19570846400000,-3944033200000,-950282000000,23734542100000,-29340996600000,2550181900000,4727860600000,1395568200000,9038118200000,-1319097400000,-9538007900000,4450995500000,12845538100000,-19181047700000,3567588400000,-6359400000000,-3620186400000,9418160000000,4652415100000,-39775088200000,-3727515700000,28960351300000,-15715595500000,-246206200000,349531100000,16145285800000,-17347152900000,18786639100000,-7763064100000,12588228700000,-3804455500000,14640787400000,-8588955300000,-7177440300000,4188009800000,-11152488700000,-3184173900000,32735430800000,-15090003700000,9932286100000,-7164245900000,-14079329500000,22675345200000,5842723800000,-7564813900000,-2276114600000,8085511900000,-22779624200000,-12227487300000,-4902011800000,-28306616400000,11702471900000,7518015300000,1184853200000,20644434900000,21706693300000,-21569704100000,8153847900000,14987411500000,-5677641900000,-21668192700000,4584542000000,6307918200000,4178219300000,7930206600000,-21181483500000,26859857100000,-11571904600000,-25728660800000,-25981899900000,11269504700000,-13243941300000,21355841100000,7527154900000,8881643200000,-23640877000000,7711934800000,-4321203900000,28539305100000,-12367689200000,3973990600000,22450014500000,-2984236400000,11512075700000,-7900654100000,-6266280800000,-19312031500000,8506183600000,13278221900000,-6154281800000,23322588700000,-53398034500000,-13248122900000,24566679000000,-24522394100000,21605458600000,-13975815800000,-5285840700000,2811157300000,-15023130300000,2806011000000,7048242200000,-677339700000,42653402700000,-4448085900000,2936888100000,11945458100000,-7641840300000,-2362372300000,-13446577000000,3149828900000,21304736900000,-34155044400000,39799166900000,58917739500000,-43283509100000,24897952900000,2489940100000,-497351500000,-26300926700000,-24322872300000,38736324700000,-15210832600000,-21085891700000,8728652400000,-18637212400000,1549631100000,1905932500000],"hashrate_average_7d":543185590804761.94,"hashrate_average_7d_count":168,"expected_blocks":0.68,"multipool":6},{"url":"https:\/\/lab.antpool.com","hashrate":4690000000000000,"miners":-1,"minpay":0.1,"id":11,"pool_id":"antpool.com","i":2063,"nethash":94370000000000000,"netdiff":6087563677,"feetype":"PPS","fee":3,"income":3.2161999e-15,"country":"WL|Global","hashrate_average_100_count":82,"hashrate_average_100":4727930640243902,"hashrate_average_1h":4690000000000000,"history_start":1666064473,"history_interval":3600,"history_addlast":true,"history":[2500000000000000,46500000000000,-30000000000000,-392000000000000,24500000000000,10000000000000,-16000000000000,-94000000000000,76000000000000,-85500000000000,75000000000000,-17000000000000,10000000000000,-212000000000000,178500000000000,-11500000000000,-8500000000000,7500000000000,61500000000000,-95000000000000,42000000000000,42500000000000,24500000000000,-2500000000000,-50500000000000,-248000000000000,-252666667000000,248166667000000,18500000000000,-55500000000000,23500000000000,-2000000000000,-6000000000000,500000000000,3000000000000,18000000000000,25000000000000,-6500000000000,4500000000000,-2000000000000,34500000000000,8500000000000,-21500000000000,23000000000000,-43000000000000,-11000000000000,14000000000000,47000000000000,-21500000000000,-44000000000000,45000000000000,-15500000000000,-74000000000000,-27000000000000,24500000000000,-7000000000000,-38500000000000,1388000000000000,1031500000000000,-5500000000000,17000000000000,-121500000000000,9000000000000,24000000000000,159000000000000,-117500000000000,49000000000000,-102000000000000,187000000000000,-179500000000000,181500000000000,-128500000000000,-134000000000000,107000000000000,67394737000000,-50894737000000,70500000000000,-142500000000000,79000000000000,-90000000000000,167000000000000,-9000000000000,-43000000000000,17500000000000,-91000000000000,-83500000000000,-30500000000000,-9000000000000,55500000000000,16000000000000,21000000000000,128000000000000,200000000000000,64500000000000,49000000000000,114500000000000,-167000000000000,-158500000000000,43250000000000,121250000000000,85500000000000,-30500000000000,54500000000000,21500000000000,-114500000000000,54000000000000,-14500000000000,-43500000000000,-30500000000000,-110000000000000,9500000000000,71000000000000,-13500000000000,14000000000000,21500000000000,-57000000000000,-40500000000000,88000000000000,164000000000000,79000000000000,-40000000000000,87500000000000,-6000000000000,-11500000000000,17500000000000,-17000000000000,-9000000000000,19000000000000,49500000000000,-29000000000000,27500000000000,-40000000000000,28000000000000,-144500000000000,105500000000000,2500000000000,54000000000000,52500000000000,-92000000000000,5000000000000,41000000000000,-39000000000000,-25000000000000,-946500000000000,943500000000000,-34500000000000,-4500000000000,4000000000000,-38500000000000,90500000000000,-89000000000000,24500000000000,-40500000000000,51000000000000,8000000000000,64500000000000,-41000000000000,-128500000000000,87500000000000,67500000000000,24000000000000,49000000000000,-54000000000000,-5500000000000,5500000000000,-10000000000000,13500000000000,-45000000000000],"hashrate_average_7d":3596657607559522.5,"hashrate_average_7d_count":168,"expected_blocks":5.72,"multipool":16},{"url":"https:\/\/pool.btc.com","hashrate":2982000000000000,"miners":-1,"minpay":0.1,"id":4,"pool_id":"pool.btc.com","feetype":"PPS","i":14340,"workers":78,"income":3.3156618608436e-15,"i_blocks":14382,"json_blocks":{"err_no":0,"data":{"blocks":{"current_page":1,"data":[{"height":705794,"is_orphaned":0,"hash":"0000000000000000b49563a6d737baccbfa5369fbe99b0aca83a4e2228dda697","rewards":"1.00336713","size":10307,"prev_hash":"0000000000000000a4322b11953bdb5c191329cd0a2b728186133d2e4219638c","bits":419476637,"version":9,"created_at":1666659818,"region_id":34,"region_name":"America"},{"height":705790,"is_orphaned":0,"hash":"0000000000000000a2b9ccc636a693c9e5eedb67c93563cd7eee590aeb32b7ef","rewards":"1.00336713","size":9882,"prev_hash":"0000000000000000823ad551fb2fac82ae038eeeb7d2004cfe1b3f0d08d11837","bits":419476637,"version":9,"created_at":1666658703,"region_id":34,"region_name":"America"},{"height":705771,"is_orphaned":0,"hash":"00000000000000005a71c11ac969c8cb59feb89b52e0a41475413d79f6bb5676","rewards":"1.00336713","size":19508,"prev_hash":"000000000000000086cfc5a8db7bb214be21c1800784f19b4255413a56649173","bits":419476637,"version":9,"created_at":1666653302,"region_id":36,"region_name":"BitDeer"},{"height":705767,"is_orphaned":0,"hash":"000000000000000047ac4867b69805abe67766c718843189517a5fdd3df295c5","rewards":"1.00336713","size":21030,"prev_hash":"0000000000000000349c89071febd9a7ab27de36c419559a9a8b7b66428b649f","bits":419476637,"version":9,"created_at":1666651825,"region_id":34,"region_name":"America"},{"height":705759,"is_orphaned":0,"hash":"000000000000000010a4e3443195e06723174800368f39c930b5b7e63a61fa3e","rewards":"1.00336713","size":11514,"prev_hash":"00000000000000000f0570b21bb0d7c5161c95e8f01ccc5fe522dc04617b02c2","bits":419476637,"version":9,"created_at":1666649489,"region_id":34,"region_name":"America"},{"height":705753,"is_orphaned":0,"hash":"00000000000000005f13ed7feba298bbc2520f9ec65090a26b966b609ea130f0","rewards":"1.00336713","size":5557,"prev_hash":"0000000000000000931ecf771182575eff32e95b76b86e92c824b33fb1f4e0be","bits":419476637,"version":9,"created_at":1666648579,"region_id":34,"region_name":"America"},{"height":705706,"is_orphaned":0,"hash":"0000000000000000351648244b0c643eec98ecf7ab27f42b12da1bbdacc176af","rewards":"1.00336713","size":11555,"prev_hash":"0000000000000000893bbb7e5481c22407e56b1be1623e144c520dd11e274d4c","bits":419477773,"version":9,"created_at":1666636921,"region_id":34,"region_name":"America"},{"height":705693,"is_orphaned":0,"hash":"00000000000000009e389034d2f417d867b1c2d24acde9a0138315d70a223499","rewards":"1.00336713","size":40892,"prev_hash":"000000000000000020f88383696733c58fa869b4ae77fcbd55bd017054166742","bits":419477773,"version":9,"created_at":1666632706,"region_id":34,"region_name":"America"},{"height":705681,"is_orphaned":0,"hash":"000000000000000019a53f2ccd915fcb53658a929bcbdb13fa96966841f1bb9b","rewards":"1.00336713","size":23959,"prev_hash":"0000000000000000ae411e3cafdc5772878574586716bea45efce4510c4aa880","bits":419477773,"version":9,"created_at":1666630789,"region_id":34,"region_name":"America"},{"height":705680,"is_orphaned":0,"hash":"0000000000000000ae411e3cafdc5772878574586716bea45efce4510c4aa880","rewards":"1.00336713","size":42605,"prev_hash":"00000000000000008a691077fa23da1d00097ba9ff253d6ba200e83a0ea13fae","bits":419477773,"version":9,"created_at":1666630281,"region_id":34,"region_name":"America"}],"first_page_url":"https:\/\/eu-api.connectbtc.com\/\/public\/v1\/pool\/blocks\/merge?order_by=desc&page_size=10&page=1","from":1,"last_page":2203,"last_page_url":"https:\/\/eu-api.connectbtc.com\/\/public\/v1\/pool\/blocks\/merge?order_by=desc&page_size=10&page=2203","next_page_url":"https:\/\/eu-api.connectbtc.com\/\/public\/v1\/pool\/blocks\/merge?order_by=desc&page_size=10&page=2","path":"https:\/\/eu-api.connectbtc.com\/\/public\/v1\/pool\/blocks\/merge","per_page":10,"prev_page_url":null,"to":10,"total":22026},"blocks_count":22026,"rewards_count":"190412.45293043"},"trace_id":"f0886a05-e0e2-480d-afd3-cb73606d84f9"},"blocks_nr":10,"lastblock":705794,"lastblocktime":"1666659780","country":"WL|CN , EU , US","blocks_1000":43,"blocks_count":6,"hashrate_average_100_count":82,"hashrate_average_100":3154843750000000,"hashrate_average_1h":2982000000000000,"history_start":1666064473,"history_interval":3600,"history_addlast":true,"history":[3407800000000000,-66050000000000,-25500000000000,115000000000000,-37850000000000,-16500000000000,21550000000000,-8950000000000,45700000000000,46400000000000,-5700000000000,-2800000000000,-3500000000000,39600000000000,-6900000000000,-48200000000000,-63400000000000,-7150000000000,-45350000000000,17050000000000,107050000000000,34700000000000,38200000000000,-77600000000000,-64750000000000,-44850000000000,-54166667000000,-28583333000000,24900000000000,-8700000000000,5450000000000,101200000000000,57400000000000,45550000000000,-12200000000000,650000000000,28750000000000,-69850000000000,39900000000000,-50050000000000,48150000000000,-56150000000000,-111750000000000,27700000000000,18650000000000,73800000000000,-7200000000000,-71400000000000,-32250000000000,-45800000000000,-3050000000000,32700000000000,51700000000000,-12050000000000,-41800000000000,-50000000000,24200000000000,16550000000000,-102650000000000,1450000000000,-18150000000000,11300000000000,48050000000000,-2600000000000,-80800000000000,83950000000000,-28000000000000,-51400000000000,22250000000000,-44400000000000,129000000000000,-10550000000000,-23400000000000,-13600000000000,8297368000000,148552632000000,-50450000000000,-67250000000000,76150000000000,-30350000000000,27500000000000,47300000000000,-82100000000000,58550000000000,18300000000000,-65850000000000,-19800000000000,-3300000000000,-82350000000000,29700000000000,31100000000000,-4700000000000,-13900000000000,-14400000000000,2400000000000,41800000000000,-7050000000000,-44900000000000,-15775000000000,23825000000000,17250000000000,19700000000000,-83100000000000,-38550000000000,123600000000000,24950000000000,-52200000000000,31850000000000,56250000000000,-36650000000000,-91400000000000,-23650000000000,-10050000000000,-800000000000,-8450000000000,65150000000000,-8750000000000,-17300000000000,35900000000000,-25900000000000,38700000000000,-102500000000000,44400000000000,58600000000000,-92700000000000,-2800000000000,22450000000000,-16750000000000,-4700000000000,34350000000000,-44650000000000,-41150000000000,21950000000000,-31800000000000,6500000000000,25950000000000,-83450000000000,27800000000000,101300000000000,-54800000000000,46100000000000,-38100000000000,-10750000000000,-2650000000000,9650000000000,-78100000000000,20600000000000,7150000000000,1100000000000,-20700000000000,6200000000000,80450000000000,-550000000000,26250000000000,-16100000000000,-25900000000000,-29250000000000,76650000000000,-11000000000000,-24250000000000,-57500000000000,50600000000000,-65250000000000,51250000000000,65250000000000,-54850000000000,-26000000000000,-154800000000000],"hashrate_average_7d":3287274438696428,"hashrate_average_7d_count":168,"hashrate_block":525807291666666.7,"expected_blocks":3.82,"luck":2.1813762970499613,"multipool":7},{"url":"https:\/\/www.f2pool.com","hashrate":48578997571445620,"miners":-1,"minpay":0.1,"id":14,"pool_id":"f2pool.com","fee":3,"feetype":"PPS%3","i":2445,"income":2.5066021060102285e-15,"blocks_nr":12,"lastblock":705820,"lastblocktime":1666668113,"country":"WL|Global","blocks_1000":563,"blocks_count":57,"hashrate_average_100_count":82,"hashrate_average_100":49020972202054824,"hashrate_average_1h":48578997571445620,"history_start":1666064473,"history_interval":3600,"history_addlast":true,"history":[44608706230000000,479052980000000,86545590000000,2781365590000000,319715810000000,-703116880000000,55600570000000,299638740000000,647739810000000,-3364100000000,-92742640000000,369984630000000,-4253200000000,-301795070000000,-472109450000000,-70260050000000,360693380000000,31119150000000,135006500000000,-524643440000000,-112775200000000,350089540000000,162828920000000,45155120000000,-558330260000000,108028260000000,118953030000000,-16811460000000,-11021500000000,-347592650000000,295360280000000,10715520000000,47332590000000,134878130000000,-341929180000000,285559620000000,370626560000000,-57283730000000,-214681710000000,-294399940000000,111076660000000,126794370000000,-538908750000000,-869567790000000,197558450000000,53514390000000,-2884008580000000,2983773340000000,450654350000000,-5700418750000000,6723385690000000,-8043100000000,-269331170000000,-312513230000000,79746930000000,352627160000000,-316791220000000,139484150000000,-76377110000000,222082690000000,50246710000000,-71252100000000,-74790720000000,-102243790000000,276267260000000,-256702340000000,76768630000000,-482136800000000,190969810000000,245299520000000,-125744760000000,-205882960000000,-123535730000000,438249070000000,-92592800000000,-819867970000000,662583210000000,-305658700000000,505756430000000,174475610000000,-59704530000000,-218794290000000,1270600000000,164465150000000,44835880000000,69322340000000,-394162820000000,37342370000000,812527450000000,-62082430000000,-183531470000000,-235721720000000,-759174370000000,-3650445640000000,4710427390000000,3543980000000,-161433350000000,135786410000000,-55195970000000,-282598780000000,-60386500000000,-457514550000000,629558280000000,-177227530000000,214598360000000,110458770000000,-362805410000000,-1829294670000000,-3893631020000000,2876561620000000,3039536540000000,-138604090000000,70760660000000,195870180000000,28240030000000,-687861150000000,552313980000000,-233598320000000,-206963290000000,-3081834650000000,3186828240000000,140317820000000,351179070000000,176384040000000,-202705970000000,-627375530000000,966575710000000,93278260000000,47160190000000,-141505960000000,-274033430000000,213276370000000,-35743000000000,127132920000000,-33548140000000,-227647150000000,175711540000000,145726370000000,-3247010000000,-498174670000000,210235450000000,-465987040000000,651009490000000,-52278090000000,-385637950000000,541974590000000,-45895250000000,8891100000000,-2457930000000,310400000000,259139000000000,39129520000000,-43626880000000,-112830690000000,-289749070000000,474512500000000,32455460000000,-153364130000000,-72265740000000,-20313810000000,382837000000000,-425237990000000,-93016900000000,-151932390000000,480524560000000,-367596630000000,-208432830000000,-98373440000000],"hashrate_average_7d":48156059987738110,"hashrate_average_7d_count":168,"hashrate_block":860017056176400.4,"expected_blocks":59.33,"luck":-2.3349976183199317,"multipool":33},{"url":"https:\/\/www.poolin.com","hashrate":23881000000000000,"miners":-1,"minpay":0.01,"id":3,"pool_id":"poolin.com","fee":3,"feetype":"PPS","i":13401,"json":{"err_no":0,"data":{"shares":{"shares_1m":22.471,"shares_5m":23.881,"shares_15m":25.001,"shares_1h":27.148,"shares_unit":"P"},"reject":{"1m":0,"5m":0,"15m":0.0013,"1h":0.0033},"workers":1226,"users":385,"total_blocks":142876,"total_rewards":104468185478846}},"workers":1226,"netdiff":6087563677.214353,"nethash":"87152956350108357","income":3.59038e-15,"blocks_nr":17,"lastblock":705819,"lastblocktime":"1666668109","country":"US|United States","blocks_1000":328,"blocks_count":33,"hashrate_average_100_count":82,"hashrate_average_100":27136790777439024,"hashrate_average_1h":23881000000000000,"history_start":1666064473,"history_interval":3600,"history_addlast":true,"history":[36702650000000000,-1112200000000000,1137900000000000,-583300000000000,423050000000000,150000000000,261150000000000,-73850000000000,-344800000000000,406100000000000,-309900000000000,124450000000000,-74950000000000,-235300000000000,295550000000000,-55000000000000,98450000000000,-47800000000000,67800000000000,-74250000000000,-89800000000000,-1547300000000000,-789500000000000,-82950000000000,-1630650000000000,162800000000000,-496833330000000,40033330000000,-323700000000000,125450000000000,287400000000000,116250000000000,-139350000000000,-435850000000000,463650000000000,-2957950000000000,-2235800000000000,-88000000000000,17950000000000,-19900000000000,110200000000000,-76850000000000,33000000000000,14850000000000,-82100000000000,-4650000000000,7853850000000,124646150000000,42100000000000,-644450000000000,161250000000000,168850000000000,541750000000000,-256900000000000,-24650000000000,-1279550000000000,1483400000000000,91300000000000,-364650000000000,187400000000000,152650000000000,-302200000000000,65550000000000,176950000000000,41150000000000,-73400000000000,15250000000000,-141100000000000,-159000000000000,-348200000000000,441000000000000,-994550000000000,-1455800000000000,471000000000000,580365790000000,-954265790000000,-1089550000000000,-518250000000000,972050000000000,886550000000000,1850150000000000,372600000000000,-97700000000000,7200000000000,159150000000000,-523150000000000,506750000000000,44250000000000,-134950000000000,20850000000000,-156850000000000,39350000000000,110650000000000,-164150000000000,91750000000000,16850000000000,124050000000000,-144850000000000,-25675000000000,165475000000000,-142800000000000,288700000000000,-2298650000000000,-818900000000000,587650000000000,2265350000000000,-345300000000000,278050000000000,353750000000000,-101950000000000,-122300000000000,176750000000000,-8900000000000,-38500000000000,-170900000000000,-85100000000000,165750000000000,240650000000000,20700000000000,-309550000000000,-677300000000000,-1814650000000000,-106250000000000,217200000000000,-197000000000000,2300300000000000,268950000000000,322250000000000,160850000000000,-398650000000000,131800000000000,-209400000000000,-75800000000000,320050000000000,-191950000000000,66000000000000,158450000000000,18000000000000,-1550000000000,-444750000000000,278850000000000,-169950000000000,288050000000000,196150000000000,50197370000000,287552630000000,-45550000000000,-208200000000000,36600000000000,-85600000000000,267900000000000,-143400000000000,-135600000000000,-906950000000000,554850000000000,30500000000000,213700000000000,105900000000000,229350000000000,146900000000000,-168050000000000,-2950000000000,-305900000000000,103500000000000,-3311900000000000,1420500000000000,1517800000000000,-3386900000000000],"hashrate_average_7d":28575846480238096,"hashrate_average_7d_count":168,"hashrate_block":822326993255728,"expected_blocks":32.85,"luck":0.15362132126998063,"multipool":15}],"hashblock":{"hashrate_average_100":79312606729493860,"blocks_count":96,"pools":[[525807291666666.7,6,87634548611111.11,"https:\/\/pool.btc.com"],[860017056176400.4,57,15088018529410.533,"https:\/\/www.f2pool.com"],[822326993255728,33,24918999795628.12,"https:\/\/www.poolin.com"]],"hashrate_block_all":826172986765561,"hashrate_block_min":15088018529410.533,"hashrate_block_max":87634548611111.11,"pool_hashblock_average":42547188978716.586,"hashrate_block":826172986765561},"time":1666669273,"hashrate":94370000000000000,"difficulty":6087563677.214353,"height":705820,"symbol":"DCR","maxhash":48578997571445620,"poolshash":80687537606892600,"nethash_estimat":82617298676556100,"poolsminers":1333,"supply":{"circulating":14452647.47439496,"total":21000000,"emission24":2696},"block_time_target":300,"block_height_ok":true,"algo":"Blake256R14","hashrate_from_diff":false,"hashrate_src":"https:\/\/lab.antpool.com","unit":"H\/s","block_time_average":288,"minerstat":[1.4007570403611e-16,26.339655517603,1.01733431,916],"link":{"coingecko":"decred","cmc":"decred","whattomine":"152-dcr-blake (14r)","coin360":"decred-dcr","coinpaprika":"dcr-decred"},"latest_release":{"tag":"release-v1.7.5","name":"dcrd v1.7.5","t":1665429869},"price":26.33}