{"data":[{"url":"https:\/\/www.okx.com\/pool","hashrate":9150000000000,"miners":-1,"minpay":-1,"id":23,"pool_id":"okx.com","i":1612,"workers":1,"lastblock":630904,"feetype":"PPLNS","fee":2,"country":"HK|Hong Kong","hashrate_average_100_count":76,"hashrate_average_100":9878066406250,"hashrate_average_1h":8923333333333.334,"history_start":1665974444,"history_interval":3600,"history_addlast":true,"history":[8394000000000,607000000000,-150500000000,-314000000000,-26000000000,748000000000,-732000000000,1041000000000,-365000000000,-583000000000,1118000000000,-1105500000000,391000000000,354500000000,-595500000000,-141000000000,1500000000000,-710000000000,-316000000000,-861500000000,710500000000,-32500000000,-193500000000,549000000000,222000000000,-641500000000,718500000000,-1126000000000,-662000000000,1490000000000,164500000000,-1086500000000,799500000000,69500000000,-487500000000,1029500000000,-280500000000,-565500000000,282000000000,-1125000000000,1171500000000,-924000000000,-389000000000,272000000000,1272000000000,-1933000000000,2110500000000,-662500000000,-745000000000,1460500000000,365000000000,-727111111000,-481888889000,14000000000,-294000000000,823000000000,-51500000000,803000000000,-344000000000,-625000000000,-832000000000,1572000000000,-795000000000,366500000000,-274000000000,-889500000000,123500000000,-34500000000,769500000000,56500000000,-1834000000000,1063500000000,387500000000,361000000000,-515500000000,364000000000,1597000000000,-2029500000000,-147000000000,-445500000000,1963500000000,-1326000000000,-270000000000,43500000000,81000000000,116500000000,-131000000000,-91500000000,6000000000,1385000000000,-352000000000,-154000000000,879500000000,-1000000000,-1450000000000,-275500000000,-62000000000,218500000000,27000000000,-748184211000,673184211000,2015500000000,-787500000000,-871000000000,892000000000,-419500000000,264500000000,-926500000000,-72500000000,1679500000000,-242000000000,-1652000000000,1023000000000,-102000000000,957000000000,-1770500000000,1512500000000,-994000000000,-1110500000000,138000000000,1134500000000,105500000000,-3227500000000,2479625000000,-79125000000,195500000000,536000000000,-120500000000,-76000000000,54500000000,153000000000,-766500000000,1837000000000,-2041500000000,564000000000,-496500000000,862000000000,666000000000,-373000000000,-911500000000,333000000000,741000000000,801000000000,-465000000000,-919000000000,206000000000,127500000000,-641500000000,-385000000000,444500000000,-148000000000,-401000000000,-139000000000,920500000000,268000000000,-597000000000,-13500000000,350000000000,-160500000000,-401500000000,127500000000,1476000000000,474000000000,-363500000000,-525000000000,790000000000,-1007500000000,18500000000,-616166667000],"hashrate_average_7d":9059086763378.697,"hashrate_average_7d_count":169,"expected_blocks":0.01,"multipool":5},{"url":"https:\/\/www2.coinmine.pl\/dcr","hashrate":565120567872935,"miners":-1,"minpay":0.05,"id":5,"pool_id":"coinmine.pl","i":12326,"workers":28,"blocks_nr":5,"lastblock":705364,"lastblocktime":"1666528787","fee":1,"feetype":"PPLNS","height":705527,"country":"WL|EU , US , Asia","blocks_1000":5,"hashrate_average_100_count":76,"hashrate_average_100":502193016924043.7,"hashrate_average_1h":552972870035410.3,"history_start":1665974444,"history_interval":3600,"history_addlast":true,"history":[444933182300000,1809946400000,-9656532600000,13378187100000,-8342516500000,4962953200000,24815600000,-20477725500000,26299809400000,-29281305300000,4907920100000,14877257800000,51549329800000,-24969246800000,-18263500500000,36483878500000,85236913800000,6222827100000,22714418100000,-4173710800000,4511580100000,486880900000,-19886892300000,9808797200000,1621378900000,-2110128500000,7470288800000,-12696986200000,-2144555900000,3008820800000,-33320069800000,35730187200000,12918176700000,-30131951300000,9775549800000,-10682188800000,36326811000000,-2932269800000,-34647090700000,26893850700000,-14528240000000,-23648975700000,-9491971900000,-9299065500000,4075638300000,24338281300000,-30860217300000,2287934000000,-8432054800000,8567230600000,-6902788500000,-8754780300000,24240772100000,-3560726200000,-2684622200000,-9019486300000,25953730400000,-24910049800000,-12719702100000,24896839200000,11791052200000,-15730961000000,-1620195200000,5875129400000,-20542591200000,19570846400000,-3944033200000,-950282000000,23734542100000,-29340996600000,2550181900000,4727860600000,1395568200000,9038118200000,-1319097400000,-9538007900000,4450995500000,12845538100000,-19181047700000,3567588400000,-6359400000000,-3620186400000,9418160000000,4652415100000,-39775088200000,-3727515700000,28960351300000,-15715595500000,-246206200000,349531100000,16145285800000,-17347152900000,18786639100000,-7763064100000,12588228700000,-3804455500000,14640787400000,-8588955300000,-7177440300000,4188009800000,-11152488700000,-3184173900000,32735430800000,-15090003700000,9932286100000,-7164245900000,-14079329500000,22675345200000,5842723800000,-7564813900000,-2276114600000,8085511900000,-22779624200000,-12227487300000,-4902011800000,-28306616400000,11702471900000,7518015300000,1184853200000,20644434900000,21706693300000,-21569704100000,8153847900000,14987411500000,-5677641900000,-21668192700000,4584542000000,6307918200000,4178219300000,7930206600000,-21181483500000,26859857100000,-11571904600000,-25728660800000,-25981899900000,11269504700000,-13243941300000,21355841100000,7527154900000,8881643200000,-23640877000000,7711934800000,-4321203900000,28539305100000,-12367689200000,3973990600000,22450014500000,-2984236400000,11512075700000,-7900654100000,-6266280800000,-19312031500000,8506183600000,13278221900000,-6154281800000,23322588700000,-53398034500000,-13248122900000,24566679000000,-24522394100000,21605458600000,-13975815800000,-5285840700000,2811157300000,-15023130300000,2806011000000,7048242200000,-677339700000,54435973200000],"hashrate_average_7d":534703711559171.6,"hashrate_average_7d_count":169,"expected_blocks":0.59,"multipool":6},{"url":"https:\/\/lab.antpool.com","hashrate":2570000000000000,"miners":-1,"minpay":0.1,"id":11,"pool_id":"antpool.com","i":2063,"nethash":82400000000000000,"netdiff":5940079808,"feetype":"PPS","fee":3,"income":3.2960405999999997e-15,"country":"WL|Global","hashrate_average_100_count":76,"hashrate_average_100":4706854954769736,"hashrate_average_1h":2650000000000000,"history_start":1665974444,"history_interval":3600,"history_addlast":true,"history":[2377500000000000,33500000000000,-53000000000000,80000000000000,11500000000000,-117000000000000,143500000000000,5000000000000,-47000000000000,56000000000000,-22500000000000,-22500000000000,-19500000000000,-23000000000000,-173000000000000,58500000000000,55000000000000,44000000000000,27500000000000,-18000000000000,-48000000000000,-25500000000000,162000000000000,132000000000000,-52000000000000,-65000000000000,46500000000000,-30000000000000,-392000000000000,24500000000000,10000000000000,-16000000000000,-94000000000000,76000000000000,-85500000000000,75000000000000,-17000000000000,10000000000000,-212000000000000,178500000000000,-11500000000000,-8500000000000,7500000000000,61500000000000,-95000000000000,42000000000000,42500000000000,24500000000000,-2500000000000,-50500000000000,-248000000000000,-252666667000000,248166667000000,18500000000000,-55500000000000,23500000000000,-2000000000000,-6000000000000,500000000000,3000000000000,18000000000000,25000000000000,-6500000000000,4500000000000,-2000000000000,34500000000000,8500000000000,-21500000000000,23000000000000,-43000000000000,-11000000000000,14000000000000,47000000000000,-21500000000000,-44000000000000,45000000000000,-15500000000000,-74000000000000,-27000000000000,24500000000000,-7000000000000,-38500000000000,1388000000000000,1031500000000000,-5500000000000,17000000000000,-121500000000000,9000000000000,24000000000000,159000000000000,-117500000000000,49000000000000,-102000000000000,187000000000000,-179500000000000,181500000000000,-128500000000000,-134000000000000,107000000000000,67394737000000,-50894737000000,70500000000000,-142500000000000,79000000000000,-90000000000000,167000000000000,-9000000000000,-43000000000000,17500000000000,-91000000000000,-83500000000000,-30500000000000,-9000000000000,55500000000000,16000000000000,21000000000000,128000000000000,200000000000000,64500000000000,49000000000000,114500000000000,-167000000000000,-158500000000000,43250000000000,121250000000000,85500000000000,-30500000000000,54500000000000,21500000000000,-114500000000000,54000000000000,-14500000000000,-43500000000000,-30500000000000,-110000000000000,9500000000000,71000000000000,-13500000000000,14000000000000,21500000000000,-57000000000000,-40500000000000,88000000000000,164000000000000,79000000000000,-40000000000000,87500000000000,-6000000000000,-11500000000000,17500000000000,-17000000000000,-9000000000000,19000000000000,49500000000000,-29000000000000,27500000000000,-40000000000000,28000000000000,-144500000000000,105500000000000,2500000000000,54000000000000,52500000000000,-92000000000000,5000000000000,41000000000000,-39000000000000,-25000000000000,-2044500000000000],"hashrate_average_7d":3261372651301774.5,"hashrate_average_7d_count":169,"expected_blocks":5.53,"multipool":16},{"url":"https:\/\/pool.btc.com","hashrate":3139000000000000,"miners":-1,"minpay":0.1,"id":4,"pool_id":"pool.btc.com","feetype":"PPS","i":14340,"workers":74,"income":3.397985104485e-15,"i_blocks":14382,"json_blocks":{"err_no":0,"data":{"blocks":{"current_page":1,"data":[{"height":705512,"is_orphaned":0,"hash":"000000000000000018857a37ee6438f87b3deaabab9bb5e9dbac26258e000df7","rewards":"1.00336713","size":9270,"prev_hash":"000000000000000054d03d62d5151f109bb6825ada6a1ea71851ed4fa6c0a9b1","bits":419477785,"version":9,"created_at":1666578977,"region_id":36,"region_name":"BitDeer"},{"height":705507,"is_orphaned":0,"hash":"000000000000000043a90a3029a5194d0445785ee90663e0b499476fd6dfcf30","rewards":"1.00336713","size":4870,"prev_hash":"000000000000000040930399289d0cb34af5a76266fd1bccbb7c663e08d41d13","bits":419477785,"version":9,"created_at":1666577109,"region_id":34,"region_name":"America"},{"height":705503,"is_orphaned":0,"hash":"00000000000000000b5d4e4cfc139a72c26ee1d8788e5ef277c7bdadab0d3d45","rewards":"1.00336713","size":33121,"prev_hash":"000000000000000061e15a02bacb4f133f29c4243a3901d86914de7ddc276bf2","bits":419477785,"version":9,"created_at":1666576036,"region_id":36,"region_name":"BitDeer"},{"height":705496,"is_orphaned":0,"hash":"00000000000000004451024942927d887dd8a74d54bd2d98a595396bb3dd16fc","rewards":"1.00336713","size":17764,"prev_hash":"00000000000000001503edba7f4c0458b784f08f7d7a6b9996b938f95dad0664","bits":419477785,"version":9,"created_at":1666574389,"region_id":36,"region_name":"BitDeer"},{"height":705457,"is_orphaned":0,"hash":"0000000000000000329609e1972adfa2e532f2ca0218dd0cc6d4e9170efde7cc","rewards":"1.00336713","size":4329,"prev_hash":"00000000000000009e1fdda2ce35530420c258f899dac27f4aaa303bb15286ad","bits":419477785,"version":9,"created_at":1666564797,"region_id":34,"region_name":"America"},{"height":705446,"is_orphaned":0,"hash":"00000000000000006f5e9f0cc0beba6d5dba717216bece27d60d520e27bb3808","rewards":"1.00336713","size":4148,"prev_hash":"0000000000000000a963baefcac4a67524b0b73199348022449f26c937c767b1","bits":419475235,"version":9,"created_at":1666560407,"region_id":36,"region_name":"BitDeer"},{"height":705436,"is_orphaned":0,"hash":"0000000000000000a625372e30d7d69c37a57fcc4eb42f3198604869cf00b0a8","rewards":"1.00336713","size":41400,"prev_hash":"00000000000000004cb737d70a83622b17f9e6a5a559d4775d755fb02a510c4f","bits":419475235,"version":9,"created_at":1666557208,"region_id":34,"region_name":"America"},{"height":705433,"is_orphaned":0,"hash":"000000000000000098e72e71ca50ab70bdd7ca1923e76f726b6fd5e8840aeaf6","rewards":"1.00336713","size":63396,"prev_hash":"000000000000000027131398ec16b0ca124263f99e1f2012f83772967febdd6c","bits":419475235,"version":9,"created_at":1666554797,"region_id":36,"region_name":"BitDeer"},{"height":705422,"is_orphaned":0,"hash":"0000000000000000835bb2e854a55bed91116b0372d14dc8a6175db4de70763f","rewards":"1.00336713","size":40843,"prev_hash":"00000000000000008c8b228c81b79629fc0484fca15c4c06213dd84c5c02fd13","bits":419475235,"version":9,"created_at":1666550347,"region_id":34,"region_name":"America"},{"height":705419,"is_orphaned":0,"hash":"00000000000000004dcc34ecca006211dd57d7b2e28b4293462cbb1e130edbe4","rewards":"1.00336713","size":8168,"prev_hash":"000000000000000038beb7e514569dc6f42812ea303b5c97aff76fedc7e5505d","bits":419475235,"version":9,"created_at":1666549706,"region_id":34,"region_name":"America"}],"first_page_url":"https:\/\/eu-api.connectbtc.com\/\/public\/v1\/pool\/blocks\/merge?order_by=desc&page_size=10&page=1","from":1,"last_page":2202,"last_page_url":"https:\/\/eu-api.connectbtc.com\/\/public\/v1\/pool\/blocks\/merge?order_by=desc&page_size=10&page=2202","next_page_url":"https:\/\/eu-api.connectbtc.com\/\/public\/v1\/pool\/blocks\/merge?order_by=desc&page_size=10&page=2","path":"https:\/\/eu-api.connectbtc.com\/\/public\/v1\/pool\/blocks\/merge","per_page":10,"prev_page_url":null,"to":10,"total":22011},"blocks_count":22011,"rewards_count":"190397.40242348"},"trace_id":"fa82dbd9-096d-42d6-bb64-542d9465b21f"},"blocks_nr":10,"lastblock":705512,"lastblocktime":"1666578955","country":"WL|CN , EU , US","blocks_1000":40,"blocks_count":8,"hashrate_average_100_count":76,"hashrate_average_100":3161269839638158,"hashrate_average_1h":3135666666666666.5,"history_start":1665974444,"history_interval":3600,"history_addlast":true,"history":[3468700000000000,-97400000000000,1150000000000,-35200000000000,14600000000000,19000000000000,-8850000000000,-20300000000000,140400000000000,-38300000000000,-10850000000000,59400000000000,-48500000000000,-28050000000000,25700000000000,-84750000000000,-36850000000000,2950000000000,950000000000,-34300000000000,25700000000000,29150000000000,-27450000000000,111850000000000,-15600000000000,-5350000000000,-66050000000000,-25500000000000,115000000000000,-37850000000000,-16500000000000,21550000000000,-8950000000000,45700000000000,46400000000000,-5700000000000,-2800000000000,-3500000000000,39600000000000,-6900000000000,-48200000000000,-63400000000000,-7150000000000,-45350000000000,17050000000000,107050000000000,34700000000000,38200000000000,-77600000000000,-64750000000000,-44850000000000,-54166667000000,-28583333000000,24900000000000,-8700000000000,5450000000000,101200000000000,57400000000000,45550000000000,-12200000000000,650000000000,28750000000000,-69850000000000,39900000000000,-50050000000000,48150000000000,-56150000000000,-111750000000000,27700000000000,18650000000000,73800000000000,-7200000000000,-71400000000000,-32250000000000,-45800000000000,-3050000000000,32700000000000,51700000000000,-12050000000000,-41800000000000,-50000000000,24200000000000,16550000000000,-102650000000000,1450000000000,-18150000000000,11300000000000,48050000000000,-2600000000000,-80800000000000,83950000000000,-28000000000000,-51400000000000,22250000000000,-44400000000000,129000000000000,-10550000000000,-23400000000000,-13600000000000,8297368000000,148552632000000,-50450000000000,-67250000000000,76150000000000,-30350000000000,27500000000000,47300000000000,-82100000000000,58550000000000,18300000000000,-65850000000000,-19800000000000,-3300000000000,-82350000000000,29700000000000,31100000000000,-4700000000000,-13900000000000,-14400000000000,2400000000000,41800000000000,-7050000000000,-44900000000000,-15775000000000,23825000000000,17250000000000,19700000000000,-83100000000000,-38550000000000,123600000000000,24950000000000,-52200000000000,31850000000000,56250000000000,-36650000000000,-91400000000000,-23650000000000,-10050000000000,-800000000000,-8450000000000,65150000000000,-8750000000000,-17300000000000,35900000000000,-25900000000000,38700000000000,-102500000000000,44400000000000,58600000000000,-92700000000000,-2800000000000,22450000000000,-16750000000000,-4700000000000,34350000000000,-44650000000000,-41150000000000,21950000000000,-31800000000000,6500000000000,25950000000000,-83450000000000,27800000000000,101300000000000,-54800000000000,46100000000000,-38100000000000,-10750000000000,-18083333000000],"hashrate_average_7d":3321881197443788,"hashrate_average_7d_count":169,"hashrate_block":395158729954769.75,"expected_blocks":3.71,"luck":4.286100983337061,"multipool":7},{"url":"https:\/\/www.f2pool.com","hashrate":48989017265439210,"miners":-1,"minpay":0.1,"id":14,"pool_id":"f2pool.com","fee":3,"feetype":"PPS%3","i":2445,"income":3.2110469263030268e-15,"blocks_nr":12,"lastblock":705526,"lastblocktime":1666582203,"country":"WL|Global","blocks_1000":567,"blocks_count":49,"hashrate_average_100_count":76,"hashrate_average_100":48739757646542210,"hashrate_average_1h":48952848661666340,"history_start":1665974444,"history_interval":3600,"history_addlast":true,"history":[46801427590000000,-4247693800000000,3802443260000000,319259870000000,486280930000000,849023830000000,-484271450000000,164936530000000,340091210000000,356080000000,104047450000000,-514726860000000,750188470000000,36444530000000,40755830000000,-371515370000000,48384810000000,480755920000000,14496850000000,-547639970000000,-475485700000000,-729178660000000,-1916646490000000,322863030000000,-136934230000000,-528957430000000,479052980000000,86545590000000,2781365590000000,319715810000000,-703116880000000,55600570000000,299638740000000,647739810000000,-3364100000000,-92742640000000,369984630000000,-4253200000000,-301795070000000,-472109450000000,-70260050000000,360693380000000,31119150000000,135006500000000,-524643440000000,-112775200000000,350089540000000,162828920000000,45155120000000,-558330260000000,108028260000000,118953030000000,-16811460000000,-11021500000000,-347592650000000,295360280000000,10715520000000,47332590000000,134878130000000,-341929180000000,285559620000000,370626560000000,-57283730000000,-214681710000000,-294399940000000,111076660000000,126794370000000,-538908750000000,-869567790000000,197558450000000,53514390000000,-2884008580000000,2983773340000000,450654350000000,-5700418750000000,6723385690000000,-8043100000000,-269331170000000,-312513230000000,79746930000000,352627160000000,-316791220000000,139484150000000,-76377110000000,222082690000000,50246710000000,-71252100000000,-74790720000000,-102243790000000,276267260000000,-256702340000000,76768630000000,-482136800000000,190969810000000,245299520000000,-125744760000000,-205882960000000,-123535730000000,438249070000000,-92592800000000,-819867970000000,662583210000000,-305658700000000,505756430000000,174475610000000,-59704530000000,-218794290000000,1270600000000,164465150000000,44835880000000,69322340000000,-394162820000000,37342370000000,812527450000000,-62082430000000,-183531470000000,-235721720000000,-759174370000000,-3650445640000000,4710427390000000,3543980000000,-161433350000000,135786410000000,-55195970000000,-282598780000000,-60386500000000,-457514550000000,629558280000000,-177227530000000,214598360000000,110458770000000,-362805410000000,-1829294670000000,-3893631020000000,2876561620000000,3039536540000000,-138604090000000,70760660000000,195870180000000,28240030000000,-687861150000000,552313980000000,-233598320000000,-206963290000000,-3081834650000000,3186828240000000,140317820000000,351179070000000,176384040000000,-202705970000000,-627375530000000,966575710000000,93278260000000,47160190000000,-141505960000000,-274033430000000,213276370000000,-35743000000000,127132920000000,-33548140000000,-227647150000000,175711540000000,145726370000000,-3247010000000,-498174670000000,210235450000000,-465987040000000,651009490000000,70615500000000],"hashrate_average_7d":47901272771775140,"hashrate_average_7d_count":169,"hashrate_block":994688931562085.9,"expected_blocks":57.26,"luck":-8.260071799692412,"multipool":33},{"url":"https:\/\/www.poolin.com","hashrate":27450000000000000,"miners":-1,"minpay":0.01,"id":3,"pool_id":"poolin.com","fee":3,"feetype":"PPS","i":13401,"json":{"err_no":0,"data":{"shares":{"shares_1m":25.335,"shares_5m":27.45,"shares_15m":27.686,"shares_1h":27.742,"shares_unit":"P"},"reject":{"1m":0,"5m":0,"15m":0.0026,"1h":0.0042},"workers":1164,"users":380,"total_blocks":142779,"total_rewards":104458492952371}},"workers":1164,"netdiff":5940079808.871161,"nethash":"85041495036633197","income":3.67952e-15,"blocks_nr":17,"lastblock":705527,"lastblocktime":"1666582298","country":"US|United States","blocks_1000":329,"blocks_count":36,"hashrate_average_100_count":76,"hashrate_average_100":27260547388980264,"hashrate_average_1h":27393666666666668,"history_start":1665974444,"history_interval":3600,"history_addlast":true,"history":[29780050000000000,-668150000000000,511200000000000,-590550000000000,247950000000000,308450000000000,404900000000000,533050000000000,-809515380000000,1060915380000000,385050000000000,2874800000000000,1802850000000000,717300000000000,-45500000000000,-258650000000000,110500000000000,224350000000000,84250000000000,-27450000000000,-178300000000000,-87500000000000,380600000000000,-506500000000000,717550000000000,-269000000000000,-1112200000000000,1137900000000000,-583300000000000,423050000000000,150000000000,261150000000000,-73850000000000,-344800000000000,406100000000000,-309900000000000,124450000000000,-74950000000000,-235300000000000,295550000000000,-55000000000000,98450000000000,-47800000000000,67800000000000,-74250000000000,-89800000000000,-1547300000000000,-789500000000000,-82950000000000,-1630650000000000,162800000000000,-496833330000000,40033330000000,-323700000000000,125450000000000,287400000000000,116250000000000,-139350000000000,-435850000000000,463650000000000,-2957950000000000,-2235800000000000,-88000000000000,17950000000000,-19900000000000,110200000000000,-76850000000000,33000000000000,14850000000000,-82100000000000,-4650000000000,7853850000000,124646150000000,42100000000000,-644450000000000,161250000000000,168850000000000,541750000000000,-256900000000000,-24650000000000,-1279550000000000,1483400000000000,91300000000000,-364650000000000,187400000000000,152650000000000,-302200000000000,65550000000000,176950000000000,41150000000000,-73400000000000,15250000000000,-141100000000000,-159000000000000,-348200000000000,441000000000000,-994550000000000,-1455800000000000,471000000000000,580365790000000,-954265790000000,-1089550000000000,-518250000000000,972050000000000,886550000000000,1850150000000000,372600000000000,-97700000000000,7200000000000,159150000000000,-523150000000000,506750000000000,44250000000000,-134950000000000,20850000000000,-156850000000000,39350000000000,110650000000000,-164150000000000,91750000000000,16850000000000,124050000000000,-144850000000000,-25675000000000,165475000000000,-142800000000000,288700000000000,-2298650000000000,-818900000000000,587650000000000,2265350000000000,-345300000000000,278050000000000,353750000000000,-101950000000000,-122300000000000,176750000000000,-8900000000000,-38500000000000,-170900000000000,-85100000000000,165750000000000,240650000000000,20700000000000,-309550000000000,-677300000000000,-1814650000000000,-106250000000000,217200000000000,-197000000000000,2300300000000000,268950000000000,322250000000000,160850000000000,-398650000000000,131800000000000,-209400000000000,-75800000000000,320050000000000,-191950000000000,66000000000000,158450000000000,18000000000000,-1550000000000,-444750000000000,278850000000000,-169950000000000,288050000000000,-26933330000000],"hashrate_average_7d":29485063092307690,"hashrate_average_7d_count":169,"hashrate_block":757237427471674,"expected_blocks":32.03,"luck":3.9739708163553686,"multipool":15}],"hashblock":{"hashrate_average_100":79161574875160640,"blocks_count":93,"pools":[[395158729954769.75,8,49394841244346.22,"https:\/\/pool.btc.com"],[994688931562085.9,49,20299774113511.957,"https:\/\/www.f2pool.com"],[757237427471674,36,21034372985324.277,"https:\/\/www.poolin.com"]],"hashrate_block_all":851199729840437,"hashrate_block_min":20299774113511.957,"hashrate_block_max":49394841244346.22,"pool_hashblock_average":30242996114394.152,"hashrate_block":851199729840437},"time":1666583204,"hashrate":82400000000000000,"difficulty":5940079808.871161,"height":705527,"symbol":"DCR","maxhash":48989017265439210,"poolshash":82722287833312140,"nethash_estimat":85119972984043700,"poolsminers":1267,"supply":{"circulating":14450014.2376961,"total":21000000,"emission24":2440},"block_time_target":300,"block_height_ok":true,"algo":"Blake256R14","hashrate_from_diff":false,"hashrate_src":"https:\/\/lab.antpool.com","unit":"H\/s","block_time_average":319,"minerstat":[1.4398881149643e-16,26.588127145375,1.02041865,3079],"link":{"coingecko":"decred","cmc":"decred","whattomine":"152-dcr-blake (14r)","coin360":"decred-dcr","coinpaprika":"dcr-decred"},"latest_release":{"tag":"release-v1.7.5","name":"dcrd v1.7.5","t":1665429869},"price":26.6}