{"data":[{"url":"https:\/\/www.okx.com\/pool","hashrate":9050000000000,"miners":-1,"minpay":-1,"id":23,"pool_id":"okx.com","i":1611,"workers":1,"lastblock":630904,"feetype":"PPLNS","fee":2,"country":"HK|Hong Kong","hashrate_average_100_count":82,"hashrate_average_100":8625318335556.402,"hashrate_average_1h":9898823529411.766,"history_start":1664847645,"history_interval":3600,"history_addlast":true,"history":[8746500000000,415000000000,62500000000,-533500000000,1270500000000,-1321526316000,-88473684000,572684211000,940315789000,-1238500000000,-356500000000,571000000000,-789500000000,-391500000000,2468000000000,-246000000000,-58500000000,502500000000,-610500000000,-1196078947000,-17921053000,-657000000000,818000000000,-215000000000,627500000000,-468000000000,828000000000,-1443000000000,908500000000,-247394737000,404394737000,726000000000,-1538000000000,215500000000,2301000000000,-693500000000,-634000000000,-471000000000,-481500000000,189000000000,-353000000000,1819500000000,-1688500000000,420000000000,-363000000000,718000000000,-325500000000,-669500000000,-123000000000,342000000000,-372000000000,414000000000,942000000000,537000000000,-333500000000,-2247277778000,960277778000,-410000000000,83500000000,127947368000,-102947368000,613000000000,-346500000000,466500000000,681000000000,-333000000000,1076000000000,-1203555556000,-626444444000,-294500000000,1280500000000,-590000000000,-329000000000,820500000000,453500000000,-1377500000000,422500000000,-767000000000,632000000000,-53500000000,-248000000000,1092500000000,701000000000,-267500000000,-332500000000,2500000000,-427500000000,-249000000000,1642500000000,-1649000000000,-176500000000,349947368000,-559947368000,435000000000,1372000000000,-772500000000,254500000000,-924000000000,-454000000000,1350500000000,-930000000000,293500000000,-455500000000,305500000000,-129000000000,178000000000,-1301500000000,-17000000000,-230000000000,1108500000000,1308000000000,-231000000000,737500000000,-2409500000000,-110000000000,1376000000000,-1093000000000,-94500000000,1053500000000,-1068500000000,222000000000,1428000000000,-1652500000000,1252000000000,-732000000000,-303500000000,1257441176000,227773110000,584285714000,-1806250000000,511250000000,-467647059000,-146352941000,534000000000,-668947368000,918447368000,-620000000000,192078947000,-1113453947000,498238636000,1401328672000,-1618942308000,-5750000000,1305500000000,-734500000000,-548210526000,270000000000,1044210526000,-355000000000,-340000000000,-347222222000,941111111000,-142573100000,-1140315789000,976105263000,-932605263000,-195500000000,1241000000000,269000000000,-853500000000,-230500000000,-282000000000,1170500000000,-107000000000,-661000000000,-107000000000,85000000000,466000000000,1014323529000],"hashrate_average_7d":8999228146360.947,"hashrate_average_7d_count":169,"expected_blocks":0.01,"multipool":5},{"url":"https:\/\/www2.coinmine.pl\/dcr","hashrate":574862121804759,"miners":-1,"minpay":0.05,"id":5,"pool_id":"coinmine.pl","i":12324,"workers":34,"blocks_nr":5,"lastblock":701558,"lastblocktime":"1665387798","fee":1,"feetype":"PPLNS","height":701780,"country":"WL|EU , US , Asia","blocks_1000":2,"hashrate_average_100_count":82,"hashrate_average_100":541101018383515.25,"hashrate_average_1h":539564911229639.6,"history_start":1664847645,"history_interval":3600,"history_addlast":true,"history":[559556223100000,8697759200000,-19730255900000,17847291100000,-10556123500000,7870014600000,-5708192700000,7164851100000,-1719422600000,321890100000,-9005686000000,10930238800000,-20783903900000,18928904000000,-2510653400000,3478321000000,-14617659300000,18141664300000,-11405391100000,-2100618300000,6865409200000,-17458271500000,17042889700000,-8108992700000,-9677546500000,13557007200000,-2560256200000,8844996100000,-16996193500000,-2255999900000,23970224500000,-8200985500000,-20724981500000,17010162100000,-1565364200000,15984303000000,-30577273000000,30915584900000,-14279146800000,-7045804700000,35105483300000,-28883901300000,7481873900000,-23949342500000,25183487000000,-15336482900000,31745092600000,-35270968800000,-2799528700000,14534507700000,-5607068200000,17786128800000,-8525157300000,3742593300000,1385312600000,-22854031300000,9546972500000,-5833700300000,7362858600000,17642553900000,-14719564200000,-37390823900000,32185899700000,-18972957000000,21503529800000,11859415900000,-4891730100000,-13522919200000,-11799332300000,15196850400000,-9305613500000,17232987600000,-20639140200000,4475901400000,9751637600000,-2167831200000,-7108644500000,6049515500000,6872401100000,-8750950500000,-11488816700000,21712608400000,15390186800000,-2746027200000,-34397341400000,16966411300000,-818292000000,8701564400000,-4389542500000,-14778602000000,-23699001600000,-1460435400000,-14538095100000,16858928400000,1854533800000,3763386800000,9895066600000,-18231950300000,2063496500000,3773656700000,-4933936200000,-3884115400000,7894147400000,7970926200000,-23262625700000,30496879600000,-17354326200000,12825949600000,-30610501500000,13033845200000,4938939300000,45439791600000,569836800000,5100311900000,-9774213700000,-19538194700000,-16720623000000,14669034400000,2773174700000,-3480282400000,17868431400000,-4593686400000,6383038000000,-4720960400000,10274481000000,-20278949600000,5168318600000,5839414000000,6792919000000,-23643464800000,3951947800000,14945332100000,-832658400000,-4255796700000,-5551624300000,7026684000000,-36638919400000,24194433600000,-26131669900000,28817658500000,23474537300000,-5192543100000,12418484300000,-20310076600000,1258081000000,-7009648900000,-7628283600000,13880716800000,11698449300000,-9623236900000,-5283545900000,1840342700000,-109371400000,-16316591500000,-6917230000000,16594658000000,21301018000000,-19133851900000,9099154100000,-40098355500000,27252345000000,-12216157600000,215074000000,-6383820500000,13525113000000,22206971900000,-9932477700000,-6623953500000,-5475897700000],"hashrate_average_7d":548297279210059.5,"hashrate_average_7d_count":169,"expected_blocks":0.6,"multipool":6},{"url":"https:\/\/lab.antpool.com","hashrate":2590000000000000,"miners":-1,"minpay":0.1,"id":11,"pool_id":"antpool.com","i":2062,"nethash":85030000000000000,"netdiff":6381252845,"feetype":"PPS","fee":3,"income":3.0681682000000002e-15,"country":"WL|Global","hashrate_average_100_count":82,"hashrate_average_100":2612103360804116,"hashrate_average_1h":2635882352941176.5,"history_start":1664847645,"history_interval":3600,"history_addlast":true,"history":[1954500000000000,-12000000000000,-11000000000000,-68500000000000,15500000000000,-22184211000000,41684211000000,10947368000000,-36947368000000,12000000000000,15000000000000,11500000000000,-25500000000000,-25500000000000,-58000000000000,-32500000000000,38000000000000,48000000000000,-2500000000000,41184211000000,28315789000000,-11000000000000,-37500000000000,15000000000000,229000000000000,371000000000000,161000000000000,-86000000000000,-72500000000000,26368421000000,12131579000000,8500000000000,-39000000000000,20000000000000,24000000000000,-75500000000000,19500000000000,-78500000000000,-13000000000000,-84500000000000,79500000000000,11500000000000,-21000000000000,84000000000000,47500000000000,81500000000000,29000000000000,3000000000000,55500000000000,62500000000000,-76000000000000,-5500000000000,-25000000000000,-101500000000000,93500000000000,-220611111000000,-33388889000000,-37500000000000,-31000000000000,44052632000000,26947368000000,-61000000000000,-33500000000000,-12000000000000,145500000000000,-64500000000000,-4000000000000,59833333000000,2666667000000,38000000000000,-56000000000000,73500000000000,59000000000000,-92000000000000,166000000000000,-43500000000000,-6000000000000,-71500000000000,-77000000000000,-101000000000000,-76500000000000,59500000000000,44000000000000,-43500000000000,27000000000000,-68000000000000,-73500000000000,-151000000000000,144500000000000,147500000000000,42000000000000,9078947000000,-190578947000000,-392500000000000,17500000000000,-2000000000000,37500000000000,17000000000000,85000000000000,-82000000000000,-8000000000000,-12500000000000,24000000000000,6000000000000,-51000000000000,372000000000000,81000000000000,7500000000000,42500000000000,85500000000000,10500000000000,-135500000000000,111000000000000,38500000000000,50500000000000,3500000000000,-6500000000000,-15000000000000,18500000000000,-29500000000000,-9500000000000,29500000000000,12000000000000,39000000000000,29000000000000,130000000000000,76088235000000,-53445378000000,-60714286000000,51071429000000,-61785714000000,756302000000,81529412000000,-122210526000000,35263158000000,-179552632000000,166000000000000,-23815789000000,88190789000000,-15511364000000,-7902098000000,-27211538000000,47250000000000,38500000000000,63000000000000,-19473684000000,-78421053000000,-8421052000000,49815789000000,-69125000000000,79513889000000,-1111111000000,30380117000000,-6157895000000,-87000000000000,-46500000000000,-31000000000000,22000000000000,37000000000000,-136000000000000,133500000000000,-21500000000000,-75500000000000,122000000000000,-32500000000000,32000000000000,-19000000000000,65500000000000,-74117647000000],"hashrate_average_7d":2363632475284024.5,"hashrate_average_7d_count":169,"expected_blocks":2.9,"multipool":16},{"url":"https:\/\/www.poolin.com","hashrate":30161000000000000,"miners":-1,"minpay":0.01,"id":3,"pool_id":"poolin.com","fee":3,"feetype":"PPS","i":13399,"json":{"err_no":0,"data":{"shares":{"shares_1m":29.304,"shares_5m":30.161,"shares_15m":30.354,"shares_1h":30.371,"shares_unit":"P"},"reject":{"1m":0,"5m":0,"15m":0.0016,"1h":0.0025},"workers":1497,"users":394,"total_blocks":141441,"total_rewards":104324603642551}},"workers":1497,"netdiff":6381252845.073794,"nethash":"91357574255939857","income":3.42513e-15,"blocks_nr":18,"lastblock":701779,"lastblocktime":1665456790,"country":"US|United States","blocks_1000":418,"blocks_count":42,"hashrate_average_100_count":82,"hashrate_average_100":36448001762576220,"hashrate_average_1h":30112058823529412,"history_start":1664847645,"history_interval":3600,"history_addlast":true,"history":[30659350000000000,-524900000000000,-1863300000000000,-720550000000000,103650000000000,-2282050000000000,-2815100000000000,-1325047370000000,277197370000000,-10850000000000,148200000000000,-205750000000000,-184000000000000,125950000000000,-64050000000000,-149850000000000,437600000000000,-198100000000000,111200000000000,-14178950000000,16378950000000,-87950000000000,-41650000000000,2189400000000000,7884350000000000,1083750000000000,144600000000000,107050000000000,-177800000000000,-133850000000000,4850000000000,639200000000000,67550000000000,171550000000000,-89350000000000,-33000000000000,-121550000000000,-188500000000000,148100000000000,199450000000000,27650000000000,10750000000000,66000000000000,133200000000000,-238500000000000,-151150000000000,-150700000000000,-16500000000000,35550000000000,-478250000000000,6704700000000000,707500000000000,309950000000000,176750000000000,57950000000000,19537500000000,-134487500000000,47150000000000,-198750000000000,-422613160000000,246713160000000,-109700000000000,-69700000000000,-77600000000000,94550000000000,-48150000000000,100650000000000,-224611110000000,-357738890000000,283450000000000,-357950000000000,-491850000000000,425450000000000,729400000000000,-86250000000000,64200000000000,159550000000000,22200000000000,-23000000000000,-206750000000000,149550000000000,-353550000000000,531600000000000,-166050000000000,58250000000000,-167850000000000,-46650000000000,66000000000000,-376150000000000,423850000000000,-74800000000000,109305260000000,-180055260000000,-626300000000000,529050000000000,-6745900000000000,-2318900000000000,-599750000000000,-328800000000000,-1818550000000000,-557150000000000,-546550000000000,-119450000000000,508000000000000,4102900000000000,3670700000000000,881400000000000,-466700000000000,-93500000000000,-101850000000000,-848050000000000,514150000000000,56550000000000,90900000000000,201900000000000,48600000000000,-440750000000000,397000000000000,705100000000000,2347650000000000,-1315450000000000,292800000000000,246850000000000,1110750000000000,-446000000000000,111600000000000,1043288240000000,-339445380000000,-292857150000000,-66035710000000,-288392860000000,224672270000000,143920590000000,74392110000000,-70263160000000,24371050000000,148350000000000,-84563160000000,-283674340000000,381210230000000,-309657350000000,528451290000000,41283330000000,-161600000000000,-74850000000000,60155560000000,-25950300000000,47789480000000,706855260000000,-111750000000000,335722220000000,134111110000000,-209500000000000,-149733330000000,80557890000000,-285507890000000,-1249100000000000,-1269300000000000,738150000000000,-79700000000000,167300000000000,-50700000000000,118550000000000,-369550000000000,186450000000000,219550000000000,-4303250000000000,-3664100000000000,164108820000000],"hashrate_average_7d":34924562614556212,"hashrate_average_7d_count":169,"hashrate_block":867809565775624.4,"expected_blocks":40.51,"luck":1.4941959408509717,"multipool":15},{"url":"https:\/\/pool.btc.com","hashrate":3973000000000000,"miners":-1,"minpay":0.1,"id":4,"pool_id":"pool.btc.com","feetype":"PPS","i":14338,"workers":97,"income":3.6002794166039e-15,"i_blocks":14380,"json_blocks":{"err_no":0,"data":{"blocks":{"current_page":1,"data":[{"height":701759,"is_orphaned":0,"hash":"000000000000000063b3d1db8158012e31522ad030c9db2b59455f8fbea6e41d","rewards":"1.00336713","size":5715,"prev_hash":"000000000000000093cd1786967b69953c73c168ce388699ea46f0e18f2458ae","bits":419474509,"version":9,"created_at":1665448970,"region_id":34,"region_name":"America"},{"height":701691,"is_orphaned":0,"hash":"000000000000000041b8fa21ace89f3e181033733523f5d6a6be0d9a53593d08","rewards":"1.00336713","size":2705,"prev_hash":"000000000000000007b13564c162b854212ff85b7106db3b4854e8549f3e4540","bits":419474711,"version":9,"created_at":1665426271,"region_id":36,"region_name":"BitDeer"},{"height":701660,"is_orphaned":0,"hash":"000000000000000042edd69f48c1321544bac705194e275d5cd1a0d325080428","rewards":"1.00336713","size":9837,"prev_hash":"00000000000000008f4524f687806b0f4bdb34d39391a71647f98eca00aa4351","bits":419474711,"version":9,"created_at":1665418273,"region_id":34,"region_name":"America"},{"height":701624,"is_orphaned":0,"hash":"000000000000000001d9fcb6a7db1e7805d77bf4e4923d9a3817a8756364dcbf","rewards":"1.00336713","size":2453,"prev_hash":"00000000000000009576d460d3fcb2c95e9552cd44ae987bf9783c9099b5724f","bits":419474711,"version":9,"created_at":1665405827,"region_id":34,"region_name":"America"},{"height":701604,"is_orphaned":0,"hash":"000000000000000006f61017b1dc2f0519e999c5fd88b8fb50d5085c70bd04a6","rewards":"1.00336713","size":36940,"prev_hash":"0000000000000000aaf4333cc250c73d113290f324344dea2db8885a92cdb968","bits":419474711,"version":9,"created_at":1665401085,"region_id":36,"region_name":"BitDeer"},{"height":701555,"is_orphaned":0,"hash":"000000000000000007780739076488b54683497fd0a154d9b80010492a1af10b","rewards":"1.00336713","size":19010,"prev_hash":"0000000000000000952deacd0b9718eb075d09ab4a65fa1d30c7ddf086573c63","bits":419474725,"version":9,"created_at":1665386395,"region_id":34,"region_name":"America"},{"height":701551,"is_orphaned":0,"hash":"000000000000000063ea2071c7b2adabbe0b771dfe6067a407d74e0505c4039f","rewards":"1.00336713","size":51716,"prev_hash":"00000000000000006837656d41de1fc770a4bab8d2315d1201a5f42745056be9","bits":419474725,"version":9,"created_at":1665385524,"region_id":34,"region_name":"America"},{"height":701550,"is_orphaned":0,"hash":"00000000000000006837656d41de1fc770a4bab8d2315d1201a5f42745056be9","rewards":"1.00336713","size":3498,"prev_hash":"00000000000000000947bd624dcc0d7748ec7ee46051a2939d5e59de606b2697","bits":419474725,"version":9,"created_at":1665384828,"region_id":34,"region_name":"America"},{"height":701535,"is_orphaned":0,"hash":"000000000000000068ec3abd73eee48a92456567c82f173c54ea76cde412ca8d","rewards":"1.00336713","size":7568,"prev_hash":"0000000000000000637250f296cac140b10b5e484f6b251a1b948ff739ed13a9","bits":419474725,"version":9,"created_at":1665380513,"region_id":34,"region_name":"America"},{"height":701458,"is_orphaned":0,"hash":"00000000000000002a5d1ed942db8fdb95db240a646b344ebe065f53ac5a9a3d","rewards":"1.00336713","size":2158,"prev_hash":"000000000000000084a9dea47727ed7619a14381a6ac2fcd1a1c458b9e6dedc1","bits":419474725,"version":9,"created_at":1665354742,"region_id":34,"region_name":"America"}],"first_page_url":"https:\/\/eu-api.connectbtc.com\/\/public\/v1\/pool\/blocks\/merge?order_by=desc&page_size=10&page=1","from":1,"last_page":2185,"last_page_url":"https:\/\/eu-api.connectbtc.com\/\/public\/v1\/pool\/blocks\/merge?order_by=desc&page_size=10&page=2185","next_page_url":"https:\/\/eu-api.connectbtc.com\/\/public\/v1\/pool\/blocks\/merge?order_by=desc&page_size=10&page=2","path":"https:\/\/eu-api.connectbtc.com\/\/public\/v1\/pool\/blocks\/merge","per_page":10,"prev_page_url":null,"to":10,"total":21845},"blocks_count":21845,"rewards_count":"190233.25156102"},"trace_id":"8d850191-92a8-4886-a3b8-ce949254e7cd"},"blocks_nr":10,"lastblock":701759,"lastblocktime":"1665448926","country":"WL|CN , EU , US","blocks_1000":43,"blocks_count":2,"hashrate_average_100_count":82,"hashrate_average_100":3769790777439024.5,"hashrate_average_1h":3999176470588235.5,"history_start":1664847645,"history_interval":3600,"history_addlast":true,"history":[3813600000000000,32600000000000,110450000000000,-29450000000000,-47100000000000,-32047368000000,17247368000000,64436842000000,8513158000000,-27450000000000,7250000000000,88700000000000,-91450000000000,-58350000000000,20500000000000,-52800000000000,14450000000000,-42500000000000,6950000000000,-10918421000000,-43481579000000,55250000000000,-24600000000000,37350000000000,113800000000000,2900000000000,65150000000000,-38750000000000,-65150000000000,7847368000000,-20597368000000,-12150000000000,54100000000000,43100000000000,52300000000000,43600000000000,-104700000000000,-78350000000000,53050000000000,4150000000000,39450000000000,-34650000000000,-62650000000000,-33250000000000,-13750000000000,18450000000000,54000000000000,17300000000000,-52500000000000,-38750000000000,95500000000000,38300000000000,-51550000000000,22300000000000,-51500000000000,50225000000000,74975000000000,-87900000000000,67900000000000,61439474000000,-51939474000000,-19350000000000,5150000000000,-69050000000000,-4400000000000,-59500000000000,5000000000000,21466667000000,24433333000000,-39100000000000,500000000000,36600000000000,154950000000000,14350000000000,-18300000000000,-78300000000000,-131700000000000,38250000000000,13200000000000,25100000000000,167700000000000,-32000000000000,6050000000000,8750000000000,-42600000000000,5500000000000,26750000000000,-6000000000000,-38650000000000,-75350000000000,-46000000000000,-37563158000000,4413158000000,6400000000000,58050000000000,-19950000000000,18150000000000,56550000000000,22950000000000,26550000000000,-101000000000000,77300000000000,6050000000000,-2900000000000,76800000000000,-59550000000000,59900000000000,40250000000000,-27950000000000,-19450000000000,68600000000000,-63900000000000,-85700000000000,-3450000000000,-21800000000000,9300000000000,-27100000000000,-39050000000000,38600000000000,-21800000000000,28050000000000,-8800000000000,43700000000000,58800000000000,-51250000000000,7450000000000,-47479412000000,315126000000,46214286000000,-47375000000000,-2053571000000,-35806723000000,39835294000000,-32705263000000,14631579000000,-33276316000000,-63850000000000,-10347368000000,-11240132000000,-11721591000000,-28937063000000,23158654000000,-35262500000000,48350000000000,59700000000000,8584211000000,73157894000000,-29263158000000,-43278947000000,-140550000000000,61972222000000,124555556000000,-7383041000000,805263000000,71510526000000,-52610526000000,4350000000000,-32350000000000,-92750000000000,3200000000000,-82850000000000,26650000000000,-22300000000000,-23450000000000,-44050000000000,71850000000000,-2250000000000,73400000000000,171126471000000],"hashrate_average_7d":3923876238331360.5,"hashrate_average_7d_count":169,"hashrate_block":1884895388719512.2,"expected_blocks":4.19,"luck":-2.189486369365758,"multipool":7},{"url":"https:\/\/www.f2pool.com","hashrate":46315085582238580,"miners":-1,"minpay":0.1,"id":14,"pool_id":"f2pool.com","fee":3,"feetype":"PPS%3","i":2444,"income":2.9890486202870154e-15,"blocks_nr":11,"lastblock":701782,"lastblocktime":1665458722,"country":"WL|Global","blocks_1000":424,"blocks_count":51,"hashrate_average_100_count":82,"hashrate_average_100":47235417012910744,"hashrate_average_1h":46368117475333880,"history_start":1664847645,"history_interval":3600,"history_addlast":true,"history":[43432401590000000,-318002270000000,-1802805100000000,-170510810000000,1814273410000000,92950190000000,47780790000000,-119435530000000,182087480000000,144991200000000,50295160000000,-100802010000000,85953200000000,632912920000000,101364380000000,37698730000000,-605305330000000,88175480000000,168144490000000,109483850000000,131244150000000,-650592620000000,-129161860000000,338866710000000,428690890000000,-305563970000000,-289980800000000,94057860000000,235453100000000,-304994270000000,-318366900000000,-307477480000000,408081900000000,252329640000000,138067930000000,-67829300000000,-203452070000000,679978360000000,82531900000000,-199706080000000,22496280000000,28395600000000,18240080000000,204575400000000,380890620000000,-641062870000000,-81496980000000,152376390000000,-153988330000000,-163836900000000,-53249650000000,182364780000000,386990450000000,-194843580000000,32845120000000,-392007910000000,331391040000000,-281127550000000,190988580000000,-53325410000000,-125989480000000,376394790000000,286706090000000,-181847470000000,-277407630000000,245159770000000,207966150000000,-74172490000000,299934120000000,-558300740000000,70145980000000,314838580000000,-86822100000000,-166368320000000,-260533880000000,50909990000000,82790220000000,-26204870000000,-18753870000000,-553817190000000,143736500000000,301174630000000,195977180000000,-150683220000000,-369554500000000,544906640000000,-20266410000000,-108507030000000,-260821580000000,128409690000000,175983490000000,-104930470000000,190140560000000,-250714010000000,-247476030000000,-7064993140000000,6666214540000000,-2942619080000000,1825633230000000,1916286290000000,958443100000000,301106550000000,119500900000000,-25302510000000,449067180000000,195995570000000,-95929590000000,-296600570000000,-632003150000000,-1054747520000000,2037103690000000,-139998310000000,-84567160000000,441630460000000,94347890000000,-78935830000000,125564650000000,-544829790000000,49897710000000,243509590000000,15438230000000,-153439300000000,-216654110000000,-192197250000000,374106750000000,-117372280000000,32050460000000,-450053840000000,250068110000000,127831390000000,80624180000000,-349271190000000,38312140000000,309167260000000,144472630000000,-181799210000000,-69320620000000,-425726600000000,225616520000000,408929280000000,-132784030000000,-497626880000000,69314160000000,-32091440000000,1195643820000000,1404718500000000,-2214556860000000,1843675550000000,-429388770000000,258285300000000,9456400000000,-316052760000000,466027350000000,-88077770000000,48211550000000,-506022970000000,-266919590000000,601104670000000,-89793110000000,139455510000000,-164141230000000,5439630000000,212380860000000,113290050000000,101384100000000,-607054740000000,134891080000000,-190159490000000,-587495820000000],"hashrate_average_7d":44644798853017784,"hashrate_average_7d_count":169,"hashrate_block":926184647311975.4,"expected_blocks":52.49,"luck":-1.4941959408509504,"multipool":33}],"hashblock":{"hashrate_average_100":83683418775486980,"blocks_count":93,"pools":[[867809565775624.4,42,20662132518467.246,"https:\/\/www.poolin.com"],[1884895388719512.2,2,942447694359756.1,"https:\/\/pool.btc.com"],[926184647311975.4,51,18160483280626.97,"https:\/\/www.f2pool.com"]],"hashrate_block_all":920560100557115.6,"hashrate_block_min":18160483280626.97,"hashrate_block_max":942447694359756.1,"pool_hashblock_average":327090103386283.44,"ignored":[[1884895388719512.2,2,942447694359756.1,"https:\/\/pool.btc.com"]],"hashrate_block":899821707263300.9},"time":1665458925,"hashrate":85030000000000000,"difficulty":6381252845.073794,"height":701782,"symbol":"DCR","maxhash":46315085582238580,"poolshash":83622997704043330,"nethash_estimat":89982170726330080,"poolsminers":1629,"supply":{"circulating":14416289.66370568,"total":21000000,"emission24":2417},"block_time_target":300,"block_height_ok":true,"algo":"Blake256R14","hashrate_from_diff":false,"hashrate_src":"https:\/\/lab.antpool.com","unit":"H\/s","block_time_average":322,"minerstat":[1.3527868554428e-16,24.924960219226,1.02989438,2717],"link":{"coingecko":"decred","cmc":"decred","whattomine":"152-dcr-blake (14r)","coin360":"decred-dcr","coinpaprika":"dcr-decred"},"latest_release":{"tag":"release-v1.7.5","name":"dcrd v1.7.5","t":1665429869},"price":24.96}